<!-- Generator: Adobe Illustrator 19.2.0, SVG Export Plug-In  -->
<svg version="1.1"
	 xmlns="http://www.w3.org/2000/svg" xmlns:xlink="http://www.w3.org/1999/xlink" xmlns:a="http://ns.adobe.com/AdobeSVGViewerExtensions/3.0/"
	 x="0px" y="0px" width="143.099px" height="13.257px" viewBox="0 0 143.099 13.257"
	 style="enable-background:new 0 0 143.099 13.257;" xml:space="preserve">
<style type="text/css">
	.st0{fill:#3E3A39;}
</style>
<defs>
</defs>
<g>
	<path class="st0" d="M0.375,3.6c0.837,0.649,1.588,1.4,2.324,2.107L2.28,6.184L0.693,4.626L0,4.034L0.375,3.6z M0.043,12.564
		c1.372-1.602,2.483-3.334,3.436-5.139l0.477,0.317c-0.982,1.819-2.079,3.609-3.436,5.211L0.043,12.564z M3.464,3.312
		C2.973,2.662,2.107,1.854,1.14,0.959l0.447-0.375C2.396,1.305,3.161,2.085,3.854,2.85L3.464,3.312z M8.718,3.413v2.599h4.215v0.52
		h-3.45v4.994c0.029,0.202,0.173,0.39,0.347,0.491l0.289,0.086h1.53c0.188-0.043,0.361-0.158,0.477-0.317
		c0.217-0.534,0.202-1.154,0.347-1.703c0.188,0.015,0.346,0.145,0.52,0.217c-0.101,0.563-0.159,1.184-0.318,1.718
		c-0.159,0.36-0.52,0.635-0.88,0.635l-2.035-0.015c-0.375-0.101-0.693-0.39-0.809-0.75l-0.086-0.434V6.531h-1.4
		c-0.202,1.891-0.447,3.781-1.978,5.109c-0.779,0.664-1.602,1.17-2.439,1.617L2.67,12.781c1.328-0.692,2.858-1.573,3.536-3.074
		C6.64,8.739,6.813,7.599,6.871,6.546l-3.06-0.015v-0.52h4.302V3.413H5.961C5.586,4.192,5.196,4.986,4.662,5.679
		C4.489,5.578,4.33,5.477,4.157,5.333c1.01-1.313,1.587-2.814,2.136-4.33c0.173,0.028,0.361,0.144,0.534,0.216L6.207,2.85h1.891
		v-2.7h0.606v2.7h3.594v0.563H8.718z"/>
	<path class="st0" d="M26.767,12.261c-0.145,0.419-0.491,0.664-0.866,0.664h-8.689c-0.78,0-0.895-0.534-0.895-1.184v-6.9
		c-0.404,0.347-0.751,0.708-1.184,0.996L14.7,5.463c1.761-1.256,3.507-3.219,4.706-5.139l0.491,0.245
		c-0.245,0.477-0.577,0.924-0.909,1.371l5.629-0.014v0.563l-2.194,2.064h3.392v4.013l-8.863-0.015v3.118
		c0,0.447,0.13,0.707,0.606,0.707h8.141c0.246,0,0.491-0.13,0.578-0.404c0.144-0.404,0.317-1.256,0.418-2.063l0.505,0.245
		C27.128,10.861,26.912,11.554,26.767,12.261z M18.568,2.474c-0.577,0.779-1.241,1.415-1.891,2.079h4.864
		c0.809-0.649,1.559-1.313,2.252-2.094L18.568,2.474z M20.69,5.101h-3.739v2.931h3.739V5.101z M25.179,5.101h-3.869l-0.014,2.931
		h3.883V5.101z"/>
	<path class="st0" d="M28.851,10.976c0.217-0.26,0.505-0.505,0.765-0.779c1.588-1.732,3.031-3.695,3.334-5.99h-3.608V3.658h4.272
		c-0.216,2.021-0.996,3.797-2.266,5.385c-0.621,0.765-1.328,1.631-2.036,2.295L28.851,10.976z M35.52,1.912
		c0.347,1.184,0.881,2.353,1.501,3.449c1.415-0.822,2.439-1.688,3.392-2.453l0.505,0.317c-1.112,1.024-2.382,1.833-3.594,2.656
		c1.068,1.876,2.843,3.681,4.417,5.095l-0.433,0.506c-3.089-2.627-4.951-5.572-5.76-8.301l-0.029,9.138
		c0,0.317-0.101,0.722-0.563,0.809c-0.52,0.086-1.054,0.115-1.646,0.058l-0.274-0.577c0.491,0.043,0.953,0.058,1.443,0
		c0.231,0,0.418-0.274,0.418-0.52L34.885,0.007c0.231,0,0.433-0.015,0.635,0V1.912z"/>
	<path class="st0" d="M55.359,4.971c-0.188-0.52-0.852-2.468-3.104-2.468c-1.588,0-3.811,1.126-3.811,4.562
		c0,2.829,1.487,4.503,3.652,4.503c2.598,0,3.248-2.193,3.45-2.857l0.895,0.245c-0.289,0.953-1.04,3.421-4.288,3.421
		c-3.594,0-4.72-3.046-4.72-5.326c0-3.608,2.324-5.355,4.75-5.355c3.002,0,3.839,2.295,4.114,3.031L55.359,4.971z"/>
	<path class="st0" d="M61.05,12.377c-2.107,0-3.349-1.616-3.334-3.868C57.73,5.924,59,4.553,61.05,4.553
		c2.021,0,3.349,1.371,3.349,3.955C64.399,10.716,63.374,12.377,61.05,12.377z M61.079,5.275c-1.646,0-2.439,1.386-2.439,3.233
		c0,2.05,1.025,3.146,2.454,3.146c1.429,0,2.381-1.141,2.381-3.146C63.475,6.459,62.595,5.275,61.079,5.275z"/>
	<path class="st0" d="M67.116,1.868v10.336H66.25V1.868H67.116z"/>
	<path class="st0" d="M72.285,12.377c-2.107,0-3.349-1.616-3.334-3.868c0.014-2.584,1.285-3.955,3.334-3.955
		c2.021,0,3.349,1.371,3.349,3.955C75.633,10.716,74.608,12.377,72.285,12.377z M72.313,5.275c-1.646,0-2.439,1.386-2.439,3.233
		c0,2.05,1.025,3.146,2.454,3.146c1.429,0,2.381-1.141,2.381-3.146C74.709,6.459,73.829,5.275,72.313,5.275z"/>
	<path class="st0" d="M78.235,4.726v1.501h0.029c0.159-0.548,0.534-1.674,1.718-1.674c0.621,0,1.01,0.245,1.328,0.447l-0.332,0.765
		c-0.477-0.202-0.708-0.288-1.011-0.288c-0.274,0-0.895,0.014-1.328,0.996c-0.13,0.273-0.202,0.779-0.26,1.256
		c-0.043,0.375-0.058,0.865-0.058,1.054v3.421h-0.866V4.726H78.235z"/>
	<path class="st0" d="M90.767,1.868c0.852,0,1.588,0.188,2.093,0.563c0.649,0.49,1.025,1.328,1.025,2.194
		c0,1.516-0.938,2.555-3.002,2.742v0.029c0.779,0.375,1.155,0.62,1.905,1.775l1.963,3.031h-1.256L91.98,9.822
		c-1.357-2.122-1.906-2.367-3.089-2.367H87.39v4.749h-0.981V1.868H90.767z M87.39,2.734v3.854h2.728
		c0.621,0,2.757,0.015,2.757-1.949c0-1.818-1.833-1.905-2.714-1.905H87.39z"/>
	<path class="st0" d="M96.386,8.566c0.029,1.805,0.852,3.089,2.512,3.089c1.646,0,2.122-1.343,2.295-1.818l0.866,0.144
		c-0.26,0.723-0.852,2.396-3.205,2.396c-2.151,0-3.392-1.516-3.392-3.912c0-2.353,1.212-3.911,3.407-3.911
		c3.248,0,3.262,3.262,3.276,4.013H96.386z M101.221,7.844c-0.173-1.992-1.313-2.569-2.381-2.569c-0.448,0-2.151,0.115-2.439,2.569
		H101.221z"/>
	<path class="st0" d="M104.819,4.726v1.068h0.029c0.274-0.419,0.895-1.241,2.252-1.241c1.429,0,1.818,0.866,1.992,1.241
		c0.39-0.491,1.011-1.241,2.338-1.241c0.823,0,1.386,0.346,1.689,0.678c0.26,0.274,0.563,0.823,0.563,1.877v5.096h-0.866V7.555
		c0-0.924-0.029-2.252-1.573-2.252c-1.761,0-1.992,1.747-1.992,3.22v3.681h-0.866V7.469c0-0.78,0.029-2.137-1.458-2.137
		c-1.516,0-2.107,1.4-2.107,2.887v3.984h-0.866V4.726H104.819z"/>
	<path class="st0" d="M118.825,12.377c-2.107,0-3.349-1.616-3.334-3.868c0.014-2.584,1.285-3.955,3.334-3.955
		c2.021,0,3.349,1.371,3.349,3.955C122.173,10.716,121.148,12.377,118.825,12.377z M118.854,5.275c-1.646,0-2.439,1.386-2.439,3.233
		c0,2.05,1.025,3.146,2.454,3.146c1.429,0,2.381-1.141,2.381-3.146C121.25,6.459,120.369,5.275,118.854,5.275z"/>
	<path class="st0" d="M123.995,4.726l2.469,6.395l2.468-6.395h0.938l-3.002,7.478h-0.808l-3.002-7.478H123.995z"/>
	<path class="st0" d="M131.692,8.566c0.029,1.805,0.852,3.089,2.512,3.089c1.646,0,2.122-1.343,2.295-1.818l0.866,0.144
		c-0.26,0.723-0.852,2.396-3.205,2.396c-2.151,0-3.392-1.516-3.392-3.912c0-2.353,1.212-3.911,3.407-3.911
		c3.248,0,3.262,3.262,3.276,4.013H131.692z M136.527,7.844c-0.173-1.992-1.313-2.569-2.381-2.569c-0.448,0-2.151,0.115-2.439,2.569
		H136.527z"/>
	<path class="st0" d="M140.024,4.726v1.501h0.029c0.159-0.548,0.534-1.674,1.718-1.674c0.621,0,1.01,0.245,1.328,0.447l-0.332,0.765
		c-0.477-0.202-0.708-0.288-1.011-0.288c-0.274,0-0.895,0.014-1.328,0.996c-0.13,0.273-0.202,0.779-0.26,1.256
		c-0.043,0.375-0.058,0.865-0.058,1.054v3.421h-0.866V4.726H140.024z"/>
</g>
</svg>