<!-- Generator: Adobe Illustrator 19.2.0, SVG Export Plug-In  -->
<svg version="1.1"
	 xmlns="http://www.w3.org/2000/svg" xmlns:xlink="http://www.w3.org/1999/xlink" xmlns:a="http://ns.adobe.com/AdobeSVGViewerExtensions/3.0/"
	 x="0px" y="0px" width="562.092px" height="41.289px" viewBox="0 0 562.092 41.289"
	 style="enable-background:new 0 0 562.092 41.289;" xml:space="preserve">
<style type="text/css">
	.st0{fill:#FFFFFF;}
</style>
<defs>
</defs>
<g>
	<path class="st0" d="M144.221,0.711h12.254l1.659-0.091l-0.092,1.659v13.366l0.092,1.496h-2.061v-0.493h-11.487v0.493h-2.061
		l0.091-1.66V2.298l-0.091-1.678L144.221,0.711z M156.073,14.952v-2.443c-0.128,0.401-0.256,0.821-0.42,1.276
		c-0.146,0.438-0.328,0.675-0.547,0.711c-0.237,0.055-0.511,0-0.82-0.146c-0.328-0.164-0.62-0.438-0.894-0.802l-0.747-0.966
		c-0.237,0.31-0.384,0.51-0.456,0.62c-0.073,0.091-0.584,0.657-1.532,1.714c-0.109-0.109-0.2-0.201-0.273-0.274
		c-0.055-0.055-0.456-0.346-1.203-0.875c0.438-0.328,0.856-0.693,1.258-1.076c-0.856,0.091-2.553,0.365-5.069,0.784
		c-0.164-0.784-0.255-1.222-0.291-1.313l-0.109-0.456c2.023-0.055,4.029-0.292,5.999-0.693c-0.037,0.273-0.055,0.419-0.055,0.456
		l-0.073,0.802c0.347-0.383,0.547-0.638,0.62-0.748l0.419-0.62c-0.109-0.383-0.2-0.729-0.273-1.04
		c-0.072-0.328-0.146-0.82-0.237-1.495c-0.072-0.656-0.109-1.203-0.127-1.641l-0.055-1.458h-5.105l-1.186,0.073V3.738l1.186,0.037
		l5.105,0.018l-0.092-1.404c0.985,0.11,1.587,0.165,1.806,0.165l-0.055,1.222l0.729,0.018l-0.511-0.802
		c0.492-0.183,0.948-0.383,1.35-0.602c0.273,0.383,0.547,0.784,0.82,1.186l-0.347,0.219l0.766-0.055v1.586l-1.112-0.055h-1.695
		c0.019,0.583,0.055,1.112,0.055,1.586c0.019,0.492,0.019,0.802,0.036,0.93l0.128,0.748c0.383-0.784,0.602-1.331,0.692-1.659
		l0.237-0.82c0.183,0.127,0.328,0.219,0.438,0.292c0.092,0.055,0.492,0.237,1.186,0.565c-0.693,1.532-1.148,2.516-1.386,2.954
		l-0.565,1.076c0.109,0.219,0.219,0.456,0.347,0.729c0.128,0.255,0.237,0.365,0.292,0.329c0.072-0.037,0.146-0.128,0.219-0.292
		c0.072-0.146,0.109-0.292,0.146-0.419l0.128-0.565c0.62,0.419,1.039,0.693,1.276,0.802V2.298l-11.487,0.091v12.563H156.073z
		 M150.493,7.057v2.389l0.055,1.204l-1.258-0.055h-2.517l-1.276,0.055l0.073-1.204V7.093l-0.073-1.258l1.276,0.073h2.517
		l1.258-0.073L150.493,7.057z M148.834,9.172V7.385h-1.623v1.787H148.834z"/>
	<path class="st0" d="M160.51,15.062V2.407l-0.072-1.678l1.239,0.055h3.318l0.748,0.693c-0.073,0.456-0.109,0.711-0.109,0.766
		l-0.328,1.75c0.547-0.511,0.93-0.93,1.167-1.222c0.219-0.329,0.419-0.711,0.656-1.167c0.219-0.419,0.383-0.693,0.438-0.821
		l0.219-0.602c0.183,0.091,0.492,0.219,0.912,0.401c0.438,0.183,0.692,0.292,0.766,0.329c-0.128,0.273-0.273,0.565-0.438,0.875h1.86
		l0.602,0.62c-0.055-0.602-0.092-1.167-0.109-1.678l1.112,0.055h3.3l0.967,1.167c-0.128,0.31-0.237,0.583-0.311,0.821
		c-0.109,0.219-0.383,0.674-0.783,1.349c-0.42,0.693-0.657,1.13-0.784,1.313L174.478,6c0.237,0.328,0.474,0.638,0.747,0.948
		c0.256,0.292,0.912,0.784,1.915,1.477c-0.547,0.456-1.076,0.894-1.568,1.313c-0.237-0.182-0.383-0.31-0.438-0.365
		c-0.073-0.055-0.638-0.656-1.714-1.787v1.131l-0.93-0.055h-2.59l-1.112,0.055l0.019-0.474c-0.656,0.547-1.404,1.076-2.243,1.604
		c-0.091-0.109-0.2-0.273-0.346-0.474c-0.128-0.201-0.201-0.31-0.22-0.346l-0.419-0.456c0.109,0.547,0.164,1.04,0.183,1.477
		c0.018,0.419-0.109,0.857-0.328,1.313c-0.237,0.474-0.565,0.875-1.058,1.222c-0.492,0.346-0.931,0.602-1.331,0.766l-0.748-1.313
		v3.027l0.073,1.842h-1.933L160.51,15.062z M163.264,11.014c0.438-0.219,0.638-0.62,0.583-1.204c0-0.018-0.019-0.2-0.055-0.529
		c-0.036-0.364-0.091-0.638-0.183-0.82l-0.602-1.294l-0.018-0.839c0.2-0.912,0.31-1.459,0.346-1.623l0.365-1.969h-1.404v8.588
		C162.479,11.342,162.808,11.232,163.264,11.014z M168.387,12.253l0.876,0.729l0.291,0.237c-0.966,1.094-2.151,2.225-3.556,3.41
		c-0.492-0.638-0.802-1.021-0.93-1.149l-0.456-0.492c0.639-0.328,1.222-0.711,1.732-1.149c0.511-0.419,0.875-0.784,1.095-1.076
		l0.638-0.82C168.205,12.089,168.314,12.199,168.387,12.253z M166.09,8.005c0.183-0.073,0.474-0.255,0.894-0.565
		c-0.383-0.383-0.766-0.711-1.167-1.003c0.456-0.328,0.82-0.657,1.094-0.985c0.347,0.347,0.729,0.693,1.148,1.04
		c0.201-0.183,0.365-0.383,0.511-0.602c-0.091-0.127-0.164-0.219-0.2-0.273l-0.529-0.438l-0.583-0.492
		c0.255-0.237,0.602-0.565,1.021-0.985c0.329,0.255,0.639,0.529,0.948,0.839c0.128-0.346,0.256-0.693,0.365-1.058h-1.623
		c-0.128,0.183-0.255,0.383-0.383,0.602c-0.146,0.201-0.62,0.729-1.423,1.586c-0.364-0.51-0.583-0.802-0.638-0.875l-0.328-0.365
		l-0.511,2.297c0.2,0.383,0.328,0.62,0.347,0.693l0.383,0.839C165.67,8.188,165.889,8.133,166.09,8.005z M166.017,9.993l1.659,0.055
		h7.513l1.167-0.055v1.75l-1.167-0.055h-3.118l-0.018,3.72c0,0.438-0.056,0.766-0.165,1.003c-0.127,0.219-0.51,0.419-1.185,0.51
		l-1.167,0.165l-0.656,0.091c-0.055-0.255-0.109-0.51-0.146-0.748c-0.036-0.255-0.146-0.711-0.31-1.368
		c0.747,0.109,1.239,0.128,1.477,0.073s0.365-0.255,0.365-0.62v-2.826h-2.59l-1.659,0.055V9.993z M173.128,7.111
		c-0.492-0.838-0.82-1.44-0.984-1.787c-0.164-0.365-0.273-0.729-0.347-1.112l-0.237-1.276c-0.109,0.383-0.273,0.93-0.492,1.641
		c-0.219,0.711-0.638,1.55-1.239,2.534H173.128z M173.894,12.108c0.365,0.365,0.657,0.62,0.839,0.802l1.313,1.203l0.856,0.784
		c-0.383,0.401-0.82,0.912-1.331,1.495c-0.419-0.492-0.82-0.93-1.185-1.331c-0.365-0.383-1.003-0.948-1.896-1.696
		C173.055,12.946,173.529,12.527,173.894,12.108z M174.368,2.827l0.073-0.292l-1.149-0.018c0.019,0.474,0.037,0.748,0.073,0.82
		l0.273,1.003C174.076,3.483,174.313,2.972,174.368,2.827z"/>
	<path class="st0" d="M189.946,1.586l0.93,1.24l-1.678,2.243h2.826l1.222-0.073l-0.036,1.039v3.902l0.036,1.349l-1.239-0.055h-9.5
		v2.553c0,0.255,0,0.419,0,0.511s0.055,0.219,0.146,0.383c0.109,0.183,1.915,0.273,5.416,0.273c2.261,0,3.556-0.055,3.901-0.164
		c0.328-0.109,0.602-0.237,0.803-0.438c0.2-0.201,0.401-0.875,0.583-2.006c0.603,0.292,1.259,0.565,1.988,0.821
		c-0.092,0.383-0.201,0.82-0.328,1.331c-0.146,0.51-0.329,0.93-0.548,1.294c-0.219,0.347-0.547,0.62-0.966,0.821
		c-0.42,0.219-1.623,0.31-3.593,0.31c-0.182,0-1.039,0-2.589-0.018c-1.55-0.037-2.534-0.055-2.973-0.073
		c-0.419-0.019-1.021-0.055-1.805-0.109c-0.803-0.073-1.313-0.219-1.55-0.438c-0.237-0.237-0.383-0.456-0.438-0.638
		c-0.037-0.2-0.055-0.456-0.055-0.748v-8.88l-1.131,0.656c-0.292-0.62-0.656-1.276-1.112-1.969c0.565-0.182,1.039-0.383,1.422-0.602
		c0.401-0.219,1.003-0.675,1.787-1.35c0.803-0.674,1.368-1.24,1.696-1.714c0.328-0.438,0.547-0.784,0.675-1.04
		c0.692,0.183,1.477,0.365,2.352,0.547l-0.856,1.039H189.946z M187.703,3.848l0.237-0.419l-4.285,0.018
		c-0.511,0.493-1.131,1.04-1.823,1.623h4.996C187.375,4.358,187.667,3.957,187.703,3.848z M185.807,9.318V6.929l-3.282,0.018v2.371
		H185.807z M191.186,9.318V6.929l-3.373,0.018v2.371H191.186z"/>
	<path class="st0" d="M197.848,8.023c0.364-0.729,0.62-1.44,0.747-2.152l0.092-0.474h-0.656l-1.204,0.073V3.684l1.259,0.055h0.692
		V2.863l-0.091-2.589h1.969l-0.091,2.534v0.93h0.692l1.149-0.055v1.787l-1.204-0.073h-0.638l-0.019,1.787
		c0.42-0.091,0.894-0.237,1.404-0.419c0.073,0.182,0.128,0.328,0.183,0.438c0.036,0.128,0.146,0.456,0.31,0.985
		c0.164,0.51,0.256,0.82,0.273,0.93l0.109,0.511c-0.273,0.073-0.474,0.127-0.638,0.164c-0.146,0.037-0.492,0.182-1.04,0.419
		c-0.036-0.219-0.072-0.511-0.127-0.875c-0.055-0.383-0.164-0.729-0.273-1.021l-0.183-0.456v6.819l0.091,2.353h-1.969l0.091-2.353
		l0.019-4.686c-0.456,0.912-0.821,1.55-1.076,1.915l-0.419,0.583c-0.109-0.383-0.219-0.748-0.311-1.094
		c-0.109-0.365-0.292-0.839-0.565-1.422C197.009,9.391,197.482,8.752,197.848,8.023z M202.898,13.694
		c0.62-0.383,1.203-0.875,1.769-1.477c0.128,0.201,0.237,0.346,0.328,0.419c0.092,0.109,0.383,0.401,0.894,0.875
		c-0.547,0.438-1.186,0.912-1.914,1.404c-0.748,0.51-1.387,0.893-1.934,1.167c-0.127-0.201-0.255-0.401-0.4-0.583
		c-0.146-0.183-0.438-0.456-0.894-0.821C201.567,14.405,202.278,14.077,202.898,13.694z M203.591,10.558h7.969l1.787-0.091v1.769
		l-1.714-0.091h-2.99v3.045c0,0.383-0.073,0.693-0.22,0.948c-0.127,0.237-0.364,0.456-0.692,0.62
		c-0.347,0.183-1.186,0.292-2.498,0.365c-0.019-0.201-0.036-0.383-0.055-0.547c-0.019-0.183-0.073-0.474-0.219-0.857l-0.237-0.638
		c0.839,0.036,1.35,0.036,1.532,0.018c0.182-0.037,0.291-0.073,0.346-0.146c0.055-0.055,0.073-0.219,0.073-0.51v-2.298h-3.282
		l-1.678,0.091v-1.769L203.591,10.558z M213.019,2.334l-1.478-0.091h-1.513v0.839h1.513l1.295-0.055l-0.055,1.148v2.443l0.055,1.003
		l-1.477-0.055h-7.55l-1.094,0.055l0.055-1.294V3.994l-0.055-0.966l1.386,0.055h1.495V2.243h-1.386l-1.678,0.091V0.547l1.66,0.091
		h7.348l1.478-0.091V2.334z M203.136,8.224l1.331,0.073h6.272l1.55-0.073v1.623l-1.44-0.037h-6.382l-1.331,0.037V8.224z
		 M205.597,4.632h-1.13v1.422h1.13V4.632z M208.368,3.082V2.243h-1.094v0.839H208.368z M208.368,6.054V4.632h-1.094v1.422H208.368z
		 M212.581,16.046l-0.164,0.292c-0.493-0.456-1.058-0.912-1.696-1.367c-0.656-0.474-1.313-0.875-1.969-1.222
		c0.127-0.109,0.273-0.237,0.438-0.383c0.146-0.146,0.4-0.474,0.747-0.966c1.769,1.094,2.809,1.769,3.137,2.042l0.456,0.365
		C213,15.463,212.672,15.882,212.581,16.046z M210.994,6.054V4.668h-0.966v1.386H210.994z"/>
	<path class="st0" d="M217.911,19.401l-0.055-0.073c-0.948-1.258-1.459-2.535-1.97-4.03c-0.255-0.784-0.455-1.532-0.583-2.243
		c-0.128-0.729-0.183-1.441-0.183-2.207c0-2.297,0.492-4.267,1.587-6.455c0.492-0.984,0.674-1.294,1.239-2.097h1.696l-0.073,0.164
		c-1.148,2.571-1.695,4.34-1.933,6.291c-0.073,0.675-0.109,1.404-0.109,2.152c0,1.349,0.146,2.571,0.492,4.048
		c0.364,1.568,0.602,2.462,1.55,4.34l0.055,0.109H217.911z"/>
	<path class="st0" d="M221.469,2.517h2.626v13.056h-2.626V2.517z"/>
	<path class="st0" d="M237.589,11.579c-0.2,0.729-0.492,1.422-0.783,1.896c-0.894,1.477-2.59,2.316-4.65,2.316
		c-3.573,0-5.944-2.625-5.944-6.601c0-4.267,2.334-6.893,6.146-6.893c1.276,0,2.352,0.31,3.264,0.948
		c1.003,0.674,1.531,1.477,1.933,2.881l-2.607,0.62c-0.31-1.368-1.35-2.188-2.753-2.188c-1.259,0-2.298,0.638-2.79,1.714
		c-0.328,0.729-0.475,1.513-0.475,2.662c0,1.532,0.219,2.589,0.711,3.318c0.548,0.821,1.459,1.295,2.48,1.295
		c1.495,0,2.479-0.948,2.917-2.771L237.589,11.579z"/>
	<path class="st0" d="M250.758,11.579c-0.2,0.729-0.492,1.422-0.783,1.896c-0.894,1.477-2.59,2.316-4.65,2.316
		c-3.573,0-5.944-2.625-5.944-6.601c0-4.267,2.334-6.893,6.146-6.893c1.276,0,2.352,0.31,3.264,0.948
		c1.003,0.674,1.531,1.477,1.933,2.881l-2.607,0.62c-0.31-1.368-1.35-2.188-2.753-2.188c-1.259,0-2.298,0.638-2.79,1.714
		c-0.328,0.729-0.475,1.513-0.475,2.662c0,1.532,0.219,2.589,0.711,3.318c0.548,0.821,1.459,1.295,2.48,1.295
		c1.495,0,2.479-0.948,2.917-2.771L250.758,11.579z"/>
	<path class="st0" d="M252.33,19.292c0.948-1.878,1.186-2.771,1.55-4.34c0.183-0.748,0.31-1.422,0.383-2.079
		c0.073-0.638,0.109-1.294,0.109-1.969c0-1.514-0.146-2.826-0.492-4.194c-0.328-1.276-0.784-2.516-1.55-4.249l-0.073-0.164h1.696
		c0.875,1.24,1.714,2.917,2.17,4.285c0.419,1.294,0.656,2.826,0.656,4.139c0,1.367-0.292,3.1-0.766,4.577
		c-0.456,1.368-1.021,2.771-1.97,4.03l-0.055,0.073h-1.714L252.33,19.292z"/>
	<path class="st0" d="M260.738,12.618c0.565-0.62,0.984-1.222,1.258-1.805s0.475-1.185,0.62-1.805
		c0.146-0.638,0.255-1.276,0.347-1.915c0.073-0.638,0.128-1.167,0.164-1.623c0.036-0.438,0.055-0.821,0.073-1.149l0.036-0.912
		h-1.112l-1.787,0.073v-2.17l1.787,0.073h8.369l1.659-0.073c-0.638,1.951-0.966,3.063-1.058,3.337l-0.419,1.368h2.607l0.475,0.766
		c-0.256,0.547-0.493,1.058-0.712,1.514c-0.219,0.456-0.547,1.039-0.966,1.75c-0.42,0.693-0.985,1.513-1.714,2.461
		c0.474,0.347,0.894,0.602,1.276,0.784c0.364,0.164,0.802,0.31,1.276,0.438c0.492,0.146,0.856,0.237,1.075,0.255
		c0.219,0.037,0.602,0.073,1.131,0.091c-0.492,1.148-0.784,1.842-0.839,2.079l-0.091,0.401c-0.475-0.091-0.985-0.219-1.532-0.401
		s-1.148-0.419-1.805-0.729c-0.656-0.292-1.368-0.748-2.115-1.368c-0.547,0.401-1.149,0.803-1.787,1.204
		c-0.639,0.401-1.769,0.875-3.373,1.404c-0.219-0.547-0.438-0.967-0.639-1.258l-0.511-0.784c1.04-0.164,1.934-0.419,2.681-0.748
		c0.766-0.346,1.478-0.784,2.151-1.294c-0.182-0.219-0.346-0.419-0.492-0.583c-0.127-0.183-0.291-0.438-0.474-0.748
		c-0.201-0.329-0.438-0.711-0.656-1.131c-0.237-0.438-0.456-0.984-0.712-1.641c-0.127,0.62-0.255,1.131-0.364,1.532
		c-0.109,0.419-0.292,0.948-0.565,1.568c-0.273,0.638-0.675,1.276-1.222,1.896c-0.547,0.62-0.984,1.076-1.295,1.35
		c-0.328,0.292-0.802,0.638-1.422,1.058c-0.474-0.729-0.803-1.167-0.967-1.313l-0.528-0.511
		C259.462,13.712,260.191,13.22,260.738,12.618z M269.691,9.81c0.236-0.365,0.547-0.966,0.948-1.787h-1.386l-1.532,0.055
		c0.311-0.693,0.565-1.35,0.766-1.951c0.201-0.62,0.456-1.514,0.767-2.717l-3.829,0.018c0,0.109,0,0.31,0.018,0.602
		c0,0.292,0.146,0.857,0.438,1.714c0.273,0.857,0.547,1.55,0.803,2.079c0.255,0.547,0.547,1.076,0.875,1.623
		c0.311,0.511,0.584,0.875,0.803,1.112l0.438,0.493C269.162,10.576,269.454,10.157,269.691,9.81z"/>
	<path class="st0" d="M288.241,11.579c-0.2,0.729-0.492,1.422-0.784,1.896c-0.894,1.477-2.589,2.316-4.649,2.316
		c-3.574,0-5.944-2.625-5.944-6.601c0-4.267,2.334-6.893,6.145-6.893c1.276,0,2.353,0.31,3.265,0.948
		c1.003,0.674,1.531,1.477,1.933,2.881l-2.607,0.62c-0.311-1.368-1.35-2.188-2.754-2.188c-1.258,0-2.297,0.638-2.789,1.714
		c-0.329,0.729-0.475,1.513-0.475,2.662c0,1.532,0.219,2.589,0.711,3.318c0.547,0.821,1.459,1.295,2.48,1.295
		c1.495,0,2.479-0.948,2.917-2.771L288.241,11.579z"/>
	<path class="st0" d="M290.434,2.517h3.938l2.353,8.898h0.036l2.315-8.898h3.957v13.056h-2.443V5.288h-0.036l-2.553,10.284h-2.535
		l-2.553-10.284h-0.036v10.284h-2.443V2.517z"/>
	<path class="st0" d="M309.091,10.084l-4.777-7.567h3.082l3.063,5.16l3.026-5.16h3.027l-4.796,7.585v5.47h-2.626V10.084z"/>
	<path class="st0" d="M317.902,2.517h2.625v5.798l5.325-5.798h3.556l-4.924,5.087l5.179,7.968h-3.41l-3.592-6.127l-2.134,2.188
		v3.938h-2.625V2.517z"/>
	<path class="st0" d="M333.113,1.276h11.615l1.459-0.073l-0.055,2.042l-0.019,11.032l0.073,1.933h-2.207v-0.273h-10.411v0.255
		h-2.188l0.037-2.152V3.301l-0.037-2.097L333.113,1.276z M335.119,9.464c0.255-0.365,0.492-0.839,0.675-1.44
		c0.182-0.602,0.236-1.495,0.255-2.662l0.019-1.514l0.036-0.547h-2.534v7.202C334.371,10.157,334.882,9.81,335.119,9.464z
		 M343.999,13.986V3.301h-2.407v5.78c0,0.2,0.055,0.346,0.183,0.474c0.109,0.109,0.42,0.146,0.93,0.127
		c0.347-0.018,0.767-0.037,1.259-0.091c-0.164,0.802-0.273,1.331-0.292,1.605l-0.055,0.674c-1.495,0.055-2.553-0.036-3.173-0.255
		c-0.62-0.219-0.93-0.602-0.93-1.13V3.301h-1.35c-0.019,0.838-0.055,1.805-0.091,2.899c-0.037,1.112-0.146,1.969-0.347,2.589
		c-0.183,0.62-0.383,1.112-0.584,1.459c-0.219,0.346-0.492,0.656-0.856,0.966c-0.347,0.292-0.875,0.675-1.568,1.076
		c-0.292-0.656-0.511-1.039-0.638-1.167l-0.493-0.492v3.355H343.999z"/>
	<path class="st0" d="M350.369,5.58c0.547-0.474,1.075-1.04,1.567-1.696c0.511-0.657,0.931-1.24,1.24-1.732
		c0.328-0.511,0.602-1.058,0.857-1.678c0.692,0.438,1.403,0.821,2.17,1.167c-0.237,0.329-0.42,0.565-0.529,0.729l-1.331,1.933
		c-0.565,0.82-1.112,1.404-1.531,1.86l-0.876,0.93l1.77,0.055h6.582l1.204-0.055c-0.384-0.383-0.821-0.857-1.313-1.422
		c-0.492-0.565-0.948-1.349-1.386-2.352s-0.692-1.696-0.784-2.097l-0.2-0.802l2.297,0.055c0.092,0.419,0.201,0.857,0.329,1.295
		c0.127,0.456,0.583,1.276,1.349,2.48c0.767,1.203,2.006,2.079,3.702,2.644c-0.128,0.219-0.273,0.456-0.42,0.693
		c-0.146,0.255-0.383,0.766-0.711,1.514c-0.912-0.547-1.714-1.076-2.407-1.586c0,2.17,0,3.72,0.019,4.668
		c0,0.93-0.055,1.696-0.109,2.261c-0.073,0.583-0.292,1.13-0.729,1.623c-0.419,0.493-1.531,0.802-3.318,0.912
		c-0.092-0.638-0.183-1.13-0.292-1.477l-0.237-0.821c0.693,0.055,1.204,0.019,1.55-0.091c0.347-0.109,0.565-0.219,0.675-0.328
		c0.092-0.109,0.164-0.383,0.201-0.784c0.036-0.419,0.055-0.838,0.055-1.276c0-0.419,0-0.984-0.019-1.696l-0.036-1.404l-3.392,0.018
		c-0.037,0.638-0.073,1.204-0.092,1.678c-0.036,0.492-0.109,1.058-0.236,1.714c-0.109,0.657-0.365,1.258-0.767,1.824
		c-0.4,0.565-0.93,1.058-1.567,1.477c-0.639,0.419-1.514,0.821-2.607,1.186c-0.329-0.748-0.584-1.295-0.821-1.586l-0.31-0.401
		c0.31-0.018,0.565-0.055,0.784-0.109c0.219-0.036,0.565-0.182,1.021-0.383c0.475-0.219,0.876-0.456,1.204-0.766
		c0.328-0.31,0.565-0.675,0.729-1.094c0.146-0.401,0.291-0.875,0.383-1.44c0.072-0.547,0.109-0.948,0.109-1.204l0.018-0.912h-0.638
		l-1.568,0.037V7.203L351.9,7.111c-0.273,0.274-0.474,0.474-0.62,0.602c-0.146,0.127-0.602,0.492-1.386,1.076
		c-0.364-0.711-0.656-1.222-0.911-1.495l-0.42-0.474C349.238,6.455,349.84,6.036,350.369,5.58z"/>
	<path class="st0" d="M378.4,1.586l0.931,1.24l-1.678,2.243h2.826l1.222-0.073l-0.036,1.039v3.902l0.036,1.349l-1.24-0.055h-9.5
		v2.553c0,0.255,0,0.419,0,0.511s0.055,0.219,0.146,0.383c0.109,0.183,1.914,0.273,5.415,0.273c2.262,0,3.556-0.055,3.902-0.164
		c0.328-0.109,0.602-0.237,0.803-0.438c0.2-0.201,0.4-0.875,0.583-2.006c0.602,0.292,1.258,0.565,1.987,0.821
		c-0.091,0.383-0.2,0.82-0.328,1.331c-0.146,0.51-0.328,0.93-0.547,1.294c-0.219,0.347-0.547,0.62-0.966,0.821
		c-0.42,0.219-1.623,0.31-3.593,0.31c-0.183,0-1.039,0-2.589-0.018c-1.55-0.037-2.535-0.055-2.973-0.073
		c-0.419-0.019-1.021-0.055-1.805-0.109c-0.803-0.073-1.313-0.219-1.55-0.438c-0.237-0.237-0.384-0.456-0.438-0.638
		c-0.036-0.2-0.055-0.456-0.055-0.748v-8.88l-1.13,0.656c-0.292-0.62-0.656-1.276-1.112-1.969c0.565-0.182,1.039-0.383,1.422-0.602
		c0.401-0.219,1.003-0.675,1.787-1.35c0.803-0.674,1.367-1.24,1.696-1.714c0.328-0.438,0.547-0.784,0.674-1.04
		c0.693,0.183,1.478,0.365,2.353,0.547l-0.856,1.039H378.4z M376.158,3.848l0.237-0.419l-4.285,0.018
		c-0.511,0.493-1.131,1.04-1.823,1.623h4.996C375.83,4.358,376.122,3.957,376.158,3.848z M374.262,9.318V6.929l-3.282,0.018v2.371
		H374.262z M379.641,9.318V6.929l-3.373,0.018v2.371H379.641z"/>
	<path class="st0" d="M386.303,8.023c0.364-0.729,0.619-1.44,0.747-2.152l0.091-0.474h-0.656l-1.203,0.073V3.684l1.258,0.055h0.693
		V2.863l-0.092-2.589h1.97l-0.091,2.534v0.93h0.692l1.149-0.055v1.787l-1.204-0.073h-0.638l-0.019,1.787
		c0.419-0.091,0.894-0.237,1.404-0.419c0.072,0.182,0.127,0.328,0.182,0.438c0.037,0.128,0.146,0.456,0.311,0.985
		c0.164,0.51,0.255,0.82,0.273,0.93l0.109,0.511c-0.273,0.073-0.474,0.127-0.639,0.164c-0.146,0.037-0.492,0.182-1.039,0.419
		c-0.036-0.219-0.073-0.511-0.128-0.875c-0.055-0.383-0.164-0.729-0.273-1.021l-0.182-0.456v6.819l0.091,2.353h-1.97l0.092-2.353
		l0.018-4.686c-0.455,0.912-0.82,1.55-1.075,1.915l-0.42,0.583c-0.109-0.383-0.219-0.748-0.31-1.094
		c-0.109-0.365-0.292-0.839-0.565-1.422C385.464,9.391,385.938,8.752,386.303,8.023z M391.354,13.694
		c0.619-0.383,1.203-0.875,1.769-1.477c0.128,0.201,0.237,0.346,0.328,0.419c0.091,0.109,0.383,0.401,0.894,0.875
		c-0.547,0.438-1.186,0.912-1.915,1.404c-0.747,0.51-1.386,0.893-1.933,1.167c-0.128-0.201-0.255-0.401-0.401-0.583
		c-0.146-0.183-0.438-0.456-0.894-0.821C390.022,14.405,390.733,14.077,391.354,13.694z M392.046,10.558h7.969l1.787-0.091v1.769
		l-1.715-0.091h-2.99v3.045c0,0.383-0.072,0.693-0.219,0.948c-0.127,0.237-0.364,0.456-0.692,0.62
		c-0.347,0.183-1.186,0.292-2.498,0.365c-0.019-0.201-0.037-0.383-0.055-0.547c-0.019-0.183-0.073-0.474-0.219-0.857l-0.237-0.638
		c0.839,0.036,1.35,0.036,1.531,0.018c0.183-0.037,0.292-0.073,0.347-0.146c0.055-0.055,0.073-0.219,0.073-0.51v-2.298h-3.282
		l-1.678,0.091v-1.769L392.046,10.558z M401.474,2.334l-1.478-0.091h-1.514v0.839h1.514l1.295-0.055l-0.055,1.148v2.443l0.055,1.003
		l-1.478-0.055h-7.549l-1.094,0.055l0.055-1.294V3.994l-0.055-0.966l1.386,0.055h1.495V2.243h-1.386l-1.678,0.091V0.547l1.659,0.091
		h7.349l1.478-0.091V2.334z M391.59,8.224l1.331,0.073h6.273l1.55-0.073v1.623l-1.44-0.037h-6.383l-1.331,0.037V8.224z
		 M394.052,4.632h-1.131v1.422h1.131V4.632z M396.823,3.082V2.243h-1.094v0.839H396.823z M396.823,6.054V4.632h-1.094v1.422H396.823
		z M401.035,16.046l-0.164,0.292c-0.492-0.456-1.058-0.912-1.695-1.367c-0.656-0.474-1.313-0.875-1.97-1.222
		c0.128-0.109,0.273-0.237,0.438-0.383c0.146-0.146,0.401-0.474,0.748-0.966c1.769,1.094,2.808,1.769,3.137,2.042l0.455,0.365
		C401.455,15.463,401.127,15.882,401.035,16.046z M399.449,6.054V4.668h-0.967v1.386H399.449z"/>
	<path class="st0" d="M404.962,12.782c0.401-0.82,0.748-1.513,0.967-2.079c0.236-0.565,0.492-1.294,0.747-2.188
		c0.529,0.511,1.148,0.985,1.878,1.422c-0.127,0.273-0.346,0.748-0.619,1.404c-0.292,0.675-0.565,1.386-0.894,2.133
		c-0.311,0.729-0.729,1.459-1.131,2.188l-0.602,1.094c-0.565-0.583-1.186-1.13-1.878-1.623
		C404.05,14.405,404.543,13.621,404.962,12.782z M404.871,4.668c0.219,0.165,0.619,0.511,1.203,1.003
		c0.602,0.511,1.058,0.875,1.35,1.149c-0.328,0.365-0.767,0.912-1.295,1.641c-0.474-0.474-0.894-0.857-1.258-1.167
		c-0.347-0.292-0.803-0.62-1.368-1.003C404.014,5.799,404.47,5.251,404.871,4.668z M406.202,0.31
		c1.058,0.729,1.951,1.386,2.698,1.969c-0.638,0.839-1.076,1.422-1.331,1.769c-0.492-0.474-0.912-0.839-1.258-1.094
		c-0.347-0.273-0.839-0.62-1.478-1.058C405.399,1.35,405.855,0.821,406.202,0.31z M409.885,14.387h3.027v-4.103h-2.061l-1.695,0.037
		V8.333l1.695,0.018h2.061V4.978h-2.298l-1.987,0.037V2.972l1.97,0.055h2.589c-0.419-0.839-0.711-1.368-0.875-1.586l-0.383-0.547
		c0.82-0.255,1.513-0.529,2.078-0.82c0.438,0.656,0.912,1.458,1.44,2.425c-0.438,0.164-0.82,0.328-1.148,0.529h3.482l2.006-0.055
		v2.042l-2.006-0.037h-2.698v3.374h2.061l1.787-0.018v1.987l-1.787-0.037h-2.061v4.103h2.553l2.425-0.073v2.061l-2.425-0.055h-7.75
		l-2.279,0.055v-2.061L409.885,14.387z"/>
	<path class="st0" d="M0,24.404h2.626V37.46H0V24.404z"/>
	<path class="st0" d="M11.233,37.46v-4.832c0-1.933-0.127-2.371-0.784-2.735c-0.236-0.127-0.492-0.182-0.766-0.182
		c-0.656,0-1.258,0.292-1.604,0.766c-0.364,0.493-0.474,1.094-0.474,2.699v4.285H5.107v-9.445h2.334V29.4h0.036
		c0.766-1.058,1.842-1.604,3.063-1.604c1.167,0,2.188,0.456,2.681,1.222c0.383,0.602,0.51,1.185,0.51,2.571v5.872H11.233z"/>
	<path class="st0" d="M20.628,30.002h-1.696v3.811c0,1.66,0.037,1.787,0.693,1.787c0.255,0,0.474-0.055,0.93-0.219l0.073-0.019
		l0.219,1.933c-0.547,0.237-1.295,0.383-1.987,0.383c-0.967,0-1.769-0.383-2.098-0.966c-0.291-0.511-0.346-0.93-0.346-2.589v-4.121
		h-1.149v-1.987h1.149v-1.878l2.516-1.477v3.355h1.696V30.002z"/>
	<path class="st0" d="M30.385,34.871c-0.656,1.86-2.042,2.808-4.121,2.808c-2.881,0-4.576-1.805-4.576-4.887
		c0-3.009,1.714-4.996,4.339-4.996c2.863,0,4.486,1.951,4.486,5.379v0.273H24.24c0.055,1.422,0.856,2.353,2.061,2.353
		c0.82,0,1.331-0.419,1.586-1.35L30.385,34.871z M28.032,31.917c-0.036-1.368-0.747-2.207-1.859-2.207
		c-1.094,0-1.878,0.875-1.878,2.097v0.11H28.032z"/>
	<path class="st0" d="M32.448,37.46v-9.445h2.316v1.331h0.036c0.711-1.167,1.222-1.55,2.115-1.55c0.529,0,1.167,0.182,1.659,0.456
		l-0.784,2.188c-0.4-0.255-0.82-0.401-1.167-0.401c-0.875,0-1.386,0.583-1.55,1.75c-0.091,0.62-0.128,1.44-0.128,2.753v2.917H32.448
		z"/>
	<path class="st0" d="M45.688,37.46v-4.832c0-1.933-0.127-2.371-0.784-2.735c-0.236-0.127-0.492-0.182-0.766-0.182
		c-0.656,0-1.258,0.292-1.604,0.766c-0.364,0.493-0.474,1.094-0.474,2.699v4.285h-2.498v-9.445h2.334V29.4h0.036
		c0.766-1.058,1.842-1.604,3.063-1.604c1.167,0,2.188,0.456,2.681,1.222c0.383,0.602,0.51,1.185,0.51,2.571v5.872H45.688z"/>
	<path class="st0" d="M50.396,30.476c0.529-1.896,1.714-2.68,4.066-2.68h0.055c1.258,0,2.188,0.201,2.826,0.583
		c0.894,0.547,1.131,1.185,1.131,2.972v0.073c0,0.419-0.019,0.966-0.019,1.641c0,0.547-0.019,0.93-0.019,1.167v0.128
		c0,1.568,0.11,2.151,0.565,3.1h-2.461c-0.092-0.219-0.109-0.292-0.183-0.529l-0.128-0.419l-0.018-0.091
		c-0.876,0.857-1.806,1.258-2.937,1.258c-1.878,0-3.136-1.13-3.136-2.79c0-1.058,0.492-1.915,1.386-2.371
		c0.547-0.273,0.948-0.401,2.061-0.62c1.367-0.255,1.896-0.383,2.425-0.602v-0.255c0-1.003-0.419-1.331-1.714-1.331
		c-0.894,0-1.331,0.31-1.642,1.185L50.396,30.476z M56.013,32.919c-0.419,0.146-0.565,0.183-1.058,0.292l-0.856,0.182
		c-0.985,0.201-1.459,0.602-1.459,1.222c0,0.729,0.602,1.295,1.386,1.295c0.328,0,0.692-0.091,0.984-0.255
		c0.839-0.456,1.003-0.802,1.003-2.243V32.919z"/>
	<path class="st0" d="M65.225,30.002h-1.696v3.811c0,1.66,0.037,1.787,0.693,1.787c0.255,0,0.474-0.055,0.93-0.219l0.073-0.019
		l0.219,1.933c-0.547,0.237-1.295,0.383-1.987,0.383c-0.967,0-1.769-0.383-2.098-0.966c-0.291-0.511-0.346-0.93-0.346-2.589v-4.121
		h-1.149v-1.987h1.149v-1.878l2.516-1.477v3.355h1.696V30.002z"/>
	<path class="st0" d="M66.94,24.404h2.516v2.316H66.94V24.404z M66.94,28.015h2.516v9.445H66.94V28.015z"/>
	<path class="st0" d="M76.296,27.796c2.863,0,4.887,2.042,4.887,4.905s-2.061,4.978-4.868,4.978c-2.881,0-4.887-1.987-4.887-4.869
		C71.428,29.82,73.396,27.796,76.296,27.796z M76.314,35.637c1.404,0,2.297-1.149,2.297-2.917c0-1.75-0.911-2.881-2.297-2.881
		c-1.404,0-2.315,1.131-2.315,2.899C73.999,34.488,74.91,35.637,76.314,35.637z"/>
	<path class="st0" d="M89.264,37.46v-4.832c0-1.933-0.127-2.371-0.784-2.735c-0.236-0.127-0.492-0.182-0.766-0.182
		c-0.656,0-1.258,0.292-1.604,0.766c-0.364,0.493-0.474,1.094-0.474,2.699v4.285h-2.498v-9.445h2.334V29.4h0.036
		c0.766-1.058,1.842-1.604,3.063-1.604c1.167,0,2.188,0.456,2.681,1.222c0.383,0.602,0.51,1.185,0.51,2.571v5.872H89.264z"/>
	<path class="st0" d="M93.972,30.476c0.529-1.896,1.714-2.68,4.066-2.68h0.055c1.258,0,2.188,0.201,2.826,0.583
		c0.894,0.547,1.131,1.185,1.131,2.972v0.073c0,0.419-0.019,0.966-0.019,1.641c0,0.547-0.019,0.93-0.019,1.167v0.128
		c0,1.568,0.11,2.151,0.565,3.1h-2.461c-0.092-0.219-0.109-0.292-0.183-0.529l-0.128-0.419l-0.018-0.091
		c-0.876,0.857-1.806,1.258-2.937,1.258c-1.878,0-3.136-1.13-3.136-2.79c0-1.058,0.492-1.915,1.386-2.371
		c0.547-0.273,0.948-0.401,2.061-0.62c1.367-0.255,1.896-0.383,2.425-0.602v-0.255c0-1.003-0.419-1.331-1.714-1.331
		c-0.894,0-1.331,0.31-1.642,1.185L93.972,30.476z M99.588,32.919c-0.419,0.146-0.565,0.183-1.058,0.292l-0.856,0.182
		c-0.985,0.201-1.459,0.602-1.459,1.222c0,0.729,0.602,1.295,1.386,1.295c0.328,0,0.692-0.091,0.984-0.255
		c0.839-0.456,1.003-0.802,1.003-2.243V32.919z"/>
	<path class="st0" d="M104.441,24.404h2.517V37.46h-2.517V24.404z"/>
	<path class="st0" d="M120.437,31.242c-0.183-0.966-0.766-1.495-1.714-1.495c-1.368,0-2.061,0.948-2.061,2.808
		c0,2.042,0.692,3.082,2.097,3.082c1.021,0,1.568-0.547,1.806-1.805l2.461,0.419c-0.528,2.297-1.969,3.428-4.395,3.428
		c-2.789,0-4.54-1.896-4.54-4.941c0-3.082,1.732-4.941,4.595-4.941c2.262,0,3.61,0.966,4.213,3.009L120.437,31.242z"/>
	<path class="st0" d="M127.223,29.218h0.037c0.766-0.967,1.714-1.422,2.844-1.422c1.131,0,2.152,0.456,2.645,1.185
		c0.456,0.675,0.583,1.276,0.583,2.936v5.543h-2.516v-4.996c0-1.258-0.037-1.714-0.201-2.061c-0.2-0.419-0.729-0.693-1.349-0.693
		c-0.712,0-1.35,0.328-1.66,0.857c-0.291,0.492-0.383,1.058-0.383,2.152v4.741h-2.516V24.404h2.516V29.218z"/>
	<path class="st0" d="M135.541,30.476c0.529-1.896,1.714-2.68,4.066-2.68h0.055c1.258,0,2.188,0.201,2.826,0.583
		c0.894,0.547,1.131,1.185,1.131,2.972v0.073c0,0.419-0.019,0.966-0.019,1.641c0,0.547-0.019,0.93-0.019,1.167v0.128
		c0,1.568,0.11,2.151,0.565,3.1h-2.461c-0.092-0.219-0.109-0.292-0.183-0.529l-0.128-0.419l-0.018-0.091
		c-0.876,0.857-1.806,1.258-2.937,1.258c-1.878,0-3.136-1.13-3.136-2.79c0-1.058,0.492-1.915,1.386-2.371
		c0.547-0.273,0.948-0.401,2.061-0.62c1.367-0.255,1.896-0.383,2.425-0.602v-0.255c0-1.003-0.419-1.331-1.714-1.331
		c-0.894,0-1.331,0.31-1.642,1.185L135.541,30.476z M141.157,32.919c-0.419,0.146-0.565,0.183-1.058,0.292l-0.856,0.182
		c-0.985,0.201-1.459,0.602-1.459,1.222c0,0.729,0.602,1.295,1.386,1.295c0.328,0,0.692-0.091,0.984-0.255
		c0.839-0.456,1.003-0.802,1.003-2.243V32.919z"/>
	<path class="st0" d="M145.975,37.46v-9.445h2.315v1.331h0.037c0.711-1.167,1.222-1.55,2.115-1.55c0.528,0,1.167,0.182,1.659,0.456
		l-0.784,2.188c-0.401-0.255-0.82-0.401-1.167-0.401c-0.875,0-1.386,0.583-1.55,1.75c-0.092,0.62-0.128,1.44-0.128,2.753v2.917
		H145.975z"/>
	<path class="st0" d="M157.464,30.002h-1.695v3.811c0,1.66,0.036,1.787,0.692,1.787c0.256,0,0.475-0.055,0.931-0.219l0.072-0.019
		l0.219,1.933c-0.547,0.237-1.294,0.383-1.987,0.383c-0.966,0-1.769-0.383-2.097-0.966c-0.292-0.511-0.347-0.93-0.347-2.589v-4.121
		h-1.148v-1.987h1.148v-1.878l2.517-1.477v3.355h1.695V30.002z"/>
	<path class="st0" d="M160.876,34.378c0.236,1.003,0.875,1.495,2.023,1.495c1.131,0,1.806-0.383,1.806-1.021
		c0-0.456-0.237-0.638-1.021-0.802c-1.604-0.365-2.534-0.62-3.264-0.93c-1.076-0.438-1.696-1.331-1.696-2.425
		c0-1.805,1.496-2.899,3.976-2.899c2.425,0,3.684,0.748,4.193,2.498l-2.37,0.438c-0.219-0.784-0.784-1.148-1.769-1.148
		c-1.131,0-1.714,0.273-1.714,0.784c0,0.493,0.347,0.657,2.589,1.167c1.751,0.401,2.571,0.766,3.082,1.422
		c0.31,0.419,0.492,0.985,0.492,1.55c0,1.915-1.696,3.173-4.304,3.173c-2.461,0-4.048-1.021-4.521-2.917L160.876,34.378z"/>
	<path class="st0" d="M174.338,24.404h2.626V37.46h-2.626V24.404z"/>
	<path class="st0" d="M190.458,33.467c-0.2,0.729-0.492,1.422-0.783,1.896c-0.894,1.477-2.59,2.316-4.65,2.316
		c-3.573,0-5.944-2.625-5.944-6.601c0-4.267,2.334-6.893,6.146-6.893c1.276,0,2.352,0.31,3.264,0.948
		c1.003,0.674,1.531,1.477,1.933,2.881l-2.607,0.62c-0.31-1.368-1.35-2.188-2.753-2.188c-1.259,0-2.298,0.638-2.79,1.714
		c-0.328,0.729-0.475,1.513-0.475,2.662c0,1.532,0.219,2.589,0.711,3.318c0.548,0.821,1.459,1.295,2.48,1.295
		c1.495,0,2.479-0.948,2.917-2.771L190.458,33.467z"/>
	<path class="st0" d="M203.627,33.467c-0.2,0.729-0.492,1.422-0.783,1.896c-0.894,1.477-2.59,2.316-4.65,2.316
		c-3.573,0-5.944-2.625-5.944-6.601c0-4.267,2.334-6.893,6.146-6.893c1.276,0,2.352,0.31,3.264,0.948
		c1.003,0.674,1.531,1.477,1.933,2.881l-2.607,0.62c-0.31-1.368-1.35-2.188-2.753-2.188c-1.259,0-2.298,0.638-2.79,1.714
		c-0.328,0.729-0.475,1.513-0.475,2.662c0,1.532,0.219,2.589,0.711,3.318c0.548,0.821,1.459,1.295,2.48,1.295
		c1.495,0,2.479-0.948,2.917-2.771L203.627,33.467z"/>
	<path class="st0" d="M208.244,34.962v1.787c0,1.313-0.164,1.951-0.62,2.534c-0.364,0.456-0.93,0.857-1.604,1.094l-0.474-1.04
		c0.984-0.328,1.386-0.857,1.404-1.878h-1.204v-2.498H208.244z"/>
	<path class="st0" d="M226.938,33.467c-0.2,0.729-0.492,1.422-0.783,1.896c-0.894,1.477-2.59,2.316-4.65,2.316
		c-3.573,0-5.944-2.625-5.944-6.601c0-4.267,2.334-6.893,6.146-6.893c1.276,0,2.352,0.31,3.264,0.948
		c1.003,0.674,1.531,1.477,1.933,2.881l-2.607,0.62c-0.31-1.368-1.35-2.188-2.753-2.188c-1.259,0-2.298,0.638-2.79,1.714
		c-0.328,0.729-0.475,1.513-0.475,2.662c0,1.532,0.219,2.589,0.711,3.318c0.548,0.821,1.459,1.295,2.48,1.295
		c1.495,0,2.479-0.948,2.917-2.771L226.938,33.467z"/>
	<path class="st0" d="M229.13,24.404h3.938l2.353,8.898h0.036l2.315-8.898h3.957V37.46h-2.443V27.176h-0.036l-2.553,10.284h-2.535
		l-2.553-10.284h-0.036V37.46h-2.443V24.404z"/>
	<path class="st0" d="M247.788,31.972l-4.777-7.567h3.082l3.063,5.16l3.027-5.16h3.026l-4.795,7.585v5.47h-2.626V31.972z"/>
	<path class="st0" d="M256.599,24.404h2.625v5.798l5.325-5.798h3.556l-4.924,5.087l5.179,7.968h-3.41l-3.592-6.127l-2.134,2.188
		v3.938h-2.625V24.404z"/>
	<path class="st0" d="M274.382,30.476c0.528-1.896,1.714-2.68,4.066-2.68h0.055c1.258,0,2.188,0.201,2.826,0.583
		c0.894,0.547,1.131,1.185,1.131,2.972v0.073c0,0.419-0.019,0.966-0.019,1.641c0,0.547-0.019,0.93-0.019,1.167v0.128
		c0,1.568,0.109,2.151,0.565,3.1h-2.462c-0.091-0.219-0.109-0.292-0.182-0.529l-0.128-0.419l-0.019-0.091
		c-0.875,0.857-1.805,1.258-2.936,1.258c-1.878,0-3.136-1.13-3.136-2.79c0-1.058,0.492-1.915,1.386-2.371
		c0.547-0.273,0.948-0.401,2.061-0.62c1.367-0.255,1.896-0.383,2.425-0.602v-0.255c0-1.003-0.42-1.331-1.714-1.331
		c-0.894,0-1.331,0.31-1.642,1.185L274.382,30.476z M279.998,32.919c-0.42,0.146-0.565,0.183-1.058,0.292l-0.857,0.182
		c-0.984,0.201-1.458,0.602-1.458,1.222c0,0.729,0.602,1.295,1.386,1.295c0.328,0,0.692-0.091,0.984-0.255
		c0.839-0.456,1.003-0.802,1.003-2.243V32.919z"/>
	<path class="st0" d="M290.96,37.46v-4.832c0-1.933-0.128-2.371-0.784-2.735c-0.237-0.127-0.492-0.182-0.766-0.182
		c-0.656,0-1.258,0.292-1.604,0.766c-0.365,0.493-0.475,1.094-0.475,2.699v4.285h-2.498v-9.445h2.334V29.4h0.037
		c0.766-1.058,1.842-1.604,3.063-1.604c1.167,0,2.188,0.456,2.68,1.222c0.383,0.602,0.511,1.185,0.511,2.571v5.872H290.96z"/>
	<path class="st0" d="M302.342,37.46v-1.386h-0.037c-0.692,1.021-1.769,1.604-2.917,1.604c-2.334,0-3.957-2.042-3.957-4.978
		c0-3.027,1.532-4.905,3.993-4.905c1.076,0,1.951,0.401,2.735,1.313v-4.705h2.517V37.46H302.342z M297.983,32.755
		c0,1.86,0.766,2.936,2.115,2.936c1.276,0,2.079-1.131,2.079-2.917c0-1.988-0.729-3.063-2.097-3.063
		c-1.295,0-2.098,0.984-2.098,2.808V32.755z"/>
	<path class="st0" d="M312.211,24.404h2.517v2.316h-2.517V24.404z M312.211,28.015h2.517v9.445h-2.517V28.015z"/>
	<path class="st0" d="M323.39,37.46v-4.832c0-1.933-0.128-2.371-0.784-2.735c-0.237-0.127-0.492-0.182-0.766-0.182
		c-0.656,0-1.258,0.292-1.604,0.766c-0.365,0.493-0.475,1.094-0.475,2.699v4.285h-2.498v-9.445h2.334V29.4h0.037
		c0.766-1.058,1.842-1.604,3.063-1.604c1.167,0,2.188,0.456,2.68,1.222c0.383,0.602,0.511,1.185,0.511,2.571v5.872H323.39z"/>
	<path class="st0" d="M334.771,37.46v-1.386h-0.037c-0.692,1.021-1.769,1.604-2.917,1.604c-2.334,0-3.957-2.042-3.957-4.978
		c0-3.027,1.532-4.905,3.993-4.905c1.076,0,1.951,0.401,2.735,1.313v-4.705h2.517V37.46H334.771z M330.413,32.755
		c0,1.86,0.766,2.936,2.115,2.936c1.276,0,2.079-1.131,2.079-2.917c0-1.988-0.729-3.063-2.097-3.063
		c-1.295,0-2.098,0.984-2.098,2.808V32.755z"/>
	<path class="st0" d="M339.57,24.404h2.517v2.316h-2.517V24.404z M339.57,28.015h2.517v9.445h-2.517V28.015z"/>
	<path class="st0" d="M350.494,31.242c-0.183-0.966-0.767-1.495-1.714-1.495c-1.368,0-2.061,0.948-2.061,2.808
		c0,2.042,0.692,3.082,2.097,3.082c1.021,0,1.568-0.547,1.805-1.805l2.462,0.419c-0.528,2.297-1.969,3.428-4.395,3.428
		c-2.79,0-4.54-1.896-4.54-4.941c0-3.082,1.732-4.941,4.595-4.941c2.262,0,3.61,0.966,4.212,3.009L350.494,31.242z"/>
	<path class="st0" d="M354.454,30.476c0.528-1.896,1.714-2.68,4.066-2.68h0.055c1.258,0,2.188,0.201,2.826,0.583
		c0.894,0.547,1.131,1.185,1.131,2.972v0.073c0,0.419-0.019,0.966-0.019,1.641c0,0.547-0.019,0.93-0.019,1.167v0.128
		c0,1.568,0.109,2.151,0.565,3.1h-2.462c-0.091-0.219-0.109-0.292-0.182-0.529l-0.128-0.419l-0.019-0.091
		c-0.875,0.857-1.805,1.258-2.936,1.258c-1.878,0-3.136-1.13-3.136-2.79c0-1.058,0.492-1.915,1.386-2.371
		c0.547-0.273,0.948-0.401,2.061-0.62c1.367-0.255,1.896-0.383,2.425-0.602v-0.255c0-1.003-0.42-1.331-1.714-1.331
		c-0.894,0-1.331,0.31-1.642,1.185L354.454,30.476z M360.07,32.919c-0.42,0.146-0.565,0.183-1.058,0.292l-0.857,0.182
		c-0.984,0.201-1.458,0.602-1.458,1.222c0,0.729,0.602,1.295,1.386,1.295c0.328,0,0.692-0.091,0.984-0.255
		c0.839-0.456,1.003-0.802,1.003-2.243V32.919z"/>
	<path class="st0" d="M369.282,30.002h-1.696v3.811c0,1.66,0.036,1.787,0.693,1.787c0.255,0,0.474-0.055,0.93-0.219l0.073-0.019
		l0.219,1.933c-0.547,0.237-1.295,0.383-1.988,0.383c-0.966,0-1.769-0.383-2.097-0.966c-0.292-0.511-0.347-0.93-0.347-2.589v-4.121
		h-1.148v-1.987h1.148v-1.878l2.517-1.477v3.355h1.696V30.002z"/>
	<path class="st0" d="M375.283,27.796c2.862,0,4.887,2.042,4.887,4.905s-2.061,4.978-4.868,4.978c-2.882,0-4.887-1.987-4.887-4.869
		C370.415,29.82,372.384,27.796,375.283,27.796z M375.302,35.637c1.403,0,2.297-1.149,2.297-2.917c0-1.75-0.911-2.881-2.297-2.881
		c-1.404,0-2.316,1.131-2.316,2.899C372.985,34.488,373.897,35.637,375.302,35.637z"/>
	<path class="st0" d="M382.106,37.46v-9.445h2.315v1.331h0.036c0.712-1.167,1.222-1.55,2.115-1.55c0.529,0,1.167,0.182,1.659,0.456
		l-0.783,2.188c-0.401-0.255-0.821-0.401-1.167-0.401c-0.876,0-1.387,0.583-1.551,1.75c-0.091,0.62-0.127,1.44-0.127,2.753v2.917
		H382.106z"/>
	<path class="st0" d="M390.934,34.378c0.236,1.003,0.875,1.495,2.023,1.495c1.131,0,1.806-0.383,1.806-1.021
		c0-0.456-0.237-0.638-1.021-0.802c-1.604-0.365-2.534-0.62-3.264-0.93c-1.076-0.438-1.696-1.331-1.696-2.425
		c0-1.805,1.495-2.899,3.976-2.899c2.425,0,3.683,0.748,4.193,2.498l-2.37,0.438c-0.219-0.784-0.784-1.148-1.769-1.148
		c-1.131,0-1.714,0.273-1.714,0.784c0,0.493,0.346,0.657,2.589,1.167c1.75,0.401,2.571,0.766,3.082,1.422
		c0.31,0.419,0.492,0.985,0.492,1.55c0,1.915-1.696,3.173-4.304,3.173c-2.462,0-4.048-1.021-4.522-2.917L390.934,34.378z"/>
	<path class="st0" d="M404.777,28.015v-0.729c0-1.714,0.365-2.443,1.423-2.844c0.474-0.183,0.93-0.255,1.495-0.255
		c0.656,0,1.44,0.109,2.078,0.31l-0.328,1.75c-0.347-0.073-0.856-0.146-1.167-0.146c-0.747,0-1.003,0.31-1.003,1.24v0.675h1.878
		v1.969h-1.878v7.476h-2.498v-7.476h-1.386v-1.969H404.777z"/>
	<path class="st0" d="M414.809,27.796c2.862,0,4.887,2.042,4.887,4.905s-2.061,4.978-4.868,4.978c-2.882,0-4.887-1.987-4.887-4.869
		C409.94,29.82,411.909,27.796,414.809,27.796z M414.827,35.637c1.403,0,2.297-1.149,2.297-2.917c0-1.75-0.911-2.881-2.297-2.881
		c-1.404,0-2.316,1.131-2.316,2.899C412.511,34.488,413.423,35.637,414.827,35.637z"/>
	<path class="st0" d="M421.632,37.46v-9.445h2.315v1.331h0.036c0.712-1.167,1.222-1.55,2.115-1.55c0.529,0,1.167,0.182,1.659,0.456
		l-0.783,2.188c-0.401-0.255-0.821-0.401-1.167-0.401c-0.876,0-1.387,0.583-1.551,1.75c-0.091,0.62-0.127,1.44-0.127,2.753v2.917
		H421.632z"/>
	<path class="st0" d="M439.687,31.242c-0.183-0.966-0.767-1.495-1.714-1.495c-1.368,0-2.061,0.948-2.061,2.808
		c0,2.042,0.692,3.082,2.097,3.082c1.021,0,1.568-0.547,1.805-1.805l2.462,0.419c-0.528,2.297-1.969,3.428-4.395,3.428
		c-2.79,0-4.54-1.896-4.54-4.941c0-3.082,1.732-4.941,4.595-4.941c2.262,0,3.61,0.966,4.212,3.009L439.687,31.242z"/>
	<path class="st0" d="M448.26,27.796c2.862,0,4.887,2.042,4.887,4.905s-2.061,4.978-4.868,4.978c-2.882,0-4.887-1.987-4.887-4.869
		C443.392,29.82,445.36,27.796,448.26,27.796z M448.278,35.637c1.403,0,2.297-1.149,2.297-2.917c0-1.75-0.911-2.881-2.297-2.881
		c-1.404,0-2.316,1.131-2.316,2.899C445.962,34.488,446.874,35.637,448.278,35.637z"/>
	<path class="st0" d="M455.119,24.404h2.517V37.46h-2.517V24.404z"/>
	<path class="st0" d="M464.475,27.796c2.862,0,4.887,2.042,4.887,4.905s-2.061,4.978-4.868,4.978c-2.882,0-4.887-1.987-4.887-4.869
		C459.606,29.82,461.575,27.796,464.475,27.796z M464.493,35.637c1.403,0,2.297-1.149,2.297-2.917c0-1.75-0.911-2.881-2.297-2.881
		c-1.404,0-2.316,1.131-2.316,2.899C462.177,34.488,463.089,35.637,464.493,35.637z"/>
	<path class="st0" d="M471.298,37.46v-9.445h2.315v1.331h0.036c0.712-1.167,1.222-1.55,2.115-1.55c0.529,0,1.167,0.182,1.659,0.456
		l-0.783,2.188c-0.401-0.255-0.821-0.401-1.167-0.401c-0.876,0-1.387,0.583-1.551,1.75c-0.091,0.62-0.127,1.44-0.127,2.753v2.917
		H471.298z"/>
	<path class="st0" d="M485.688,28.015v1.276h0.036c0.803-1.021,1.732-1.495,2.899-1.495c1.24,0,2.097,0.474,2.681,1.495
		c0.839-1.003,1.769-1.495,2.881-1.495c1.021,0,1.896,0.346,2.425,0.966c0.511,0.602,0.675,1.24,0.675,2.644v6.054h-2.498v-5.397
		c0-1.805-0.31-2.352-1.331-2.352c-0.675,0-1.331,0.419-1.587,1.04c-0.219,0.51-0.273,1.021-0.273,2.169v4.541h-2.498v-5.179
		c0-2.115-0.236-2.571-1.313-2.571c-0.675,0-1.313,0.365-1.587,0.912c-0.236,0.474-0.328,1.04-0.328,2.243v4.595h-2.498v-9.445
		H485.688z"/>
	<path class="st0" d="M499.386,30.476c0.528-1.896,1.714-2.68,4.066-2.68h0.055c1.258,0,2.188,0.201,2.826,0.583
		c0.894,0.547,1.131,1.185,1.131,2.972v0.073c0,0.419-0.019,0.966-0.019,1.641c0,0.547-0.019,0.93-0.019,1.167v0.128
		c0,1.568,0.109,2.151,0.565,3.1h-2.462c-0.091-0.219-0.109-0.292-0.182-0.529l-0.128-0.419l-0.019-0.091
		c-0.875,0.857-1.805,1.258-2.936,1.258c-1.878,0-3.136-1.13-3.136-2.79c0-1.058,0.492-1.915,1.386-2.371
		c0.547-0.273,0.948-0.401,2.061-0.62c1.367-0.255,1.896-0.383,2.425-0.602v-0.255c0-1.003-0.42-1.331-1.714-1.331
		c-0.894,0-1.331,0.31-1.642,1.185L499.386,30.476z M505.002,32.919c-0.42,0.146-0.565,0.183-1.058,0.292l-0.857,0.182
		c-0.984,0.201-1.458,0.602-1.458,1.222c0,0.729,0.602,1.295,1.386,1.295c0.328,0,0.692-0.091,0.984-0.255
		c0.839-0.456,1.003-0.802,1.003-2.243V32.919z"/>
	<path class="st0" d="M514.214,30.002h-1.696v3.811c0,1.66,0.036,1.787,0.693,1.787c0.255,0,0.474-0.055,0.93-0.219l0.073-0.019
		l0.219,1.933c-0.547,0.237-1.295,0.383-1.988,0.383c-0.966,0-1.769-0.383-2.097-0.966c-0.292-0.511-0.347-0.93-0.347-2.589v-4.121
		h-1.148v-1.987h1.148v-1.878l2.517-1.477v3.355h1.696V30.002z"/>
	<path class="st0" d="M521.783,31.242c-0.183-0.966-0.767-1.495-1.714-1.495c-1.368,0-2.061,0.948-2.061,2.808
		c0,2.042,0.692,3.082,2.097,3.082c1.021,0,1.568-0.547,1.805-1.805l2.462,0.419c-0.528,2.297-1.969,3.428-4.395,3.428
		c-2.79,0-4.54-1.896-4.54-4.941c0-3.082,1.732-4.941,4.595-4.941c2.262,0,3.61,0.966,4.212,3.009L521.783,31.242z"/>
	<path class="st0" d="M528.569,29.218h0.036c0.767-0.967,1.715-1.422,2.845-1.422c1.131,0,2.152,0.456,2.645,1.185
		c0.455,0.675,0.583,1.276,0.583,2.936v5.543h-2.517v-4.996c0-1.258-0.036-1.714-0.2-2.061c-0.2-0.419-0.729-0.693-1.35-0.693
		c-0.711,0-1.349,0.328-1.659,0.857c-0.292,0.492-0.383,1.058-0.383,2.152v4.741h-2.517V24.404h2.517V29.218z"/>
	<path class="st0" d="M537.216,24.404h2.517v2.316h-2.517V24.404z M537.216,28.015h2.517v9.445h-2.517V28.015z"/>
	<path class="st0" d="M548.395,37.46v-4.832c0-1.933-0.128-2.371-0.784-2.735c-0.237-0.127-0.492-0.182-0.766-0.182
		c-0.656,0-1.258,0.292-1.604,0.766c-0.365,0.493-0.475,1.094-0.475,2.699v4.285h-2.498v-9.445h2.334V29.4h0.037
		c0.766-1.058,1.842-1.604,3.063-1.604c1.167,0,2.188,0.456,2.68,1.222c0.383,0.602,0.511,1.185,0.511,2.571v5.872H548.395z"/>
	<path class="st0" d="M556.057,38.426c0.091,0.711,0.474,0.948,1.459,0.948c1.641,0,2.078-0.438,2.078-2.061v-1.386h-0.036
		c-0.711,1.021-1.659,1.532-2.79,1.532c-2.298,0-3.902-1.969-3.902-4.777c0-2.972,1.568-4.887,3.993-4.887
		c1.204,0,2.115,0.474,2.863,1.532h0.036v-1.313h2.334v8.479c0,1.896-0.237,2.899-0.875,3.628c-0.693,0.784-1.878,1.167-3.592,1.167
		h-0.055c-2.845,0-4.377-1.003-4.377-2.899v-0.31L556.057,38.426z M557.461,35.436c1.331,0,2.188-1.094,2.188-2.845
		c0-1.805-0.82-2.881-2.151-2.881c-1.295,0-2.061,1.058-2.061,2.899C555.437,34.36,556.202,35.436,557.461,35.436z"/>
</g>
</svg>