<!-- Generator: Adobe Illustrator 19.2.0, SVG Export Plug-In  -->
<svg version="1.1"
	 xmlns="http://www.w3.org/2000/svg" xmlns:xlink="http://www.w3.org/1999/xlink" xmlns:a="http://ns.adobe.com/AdobeSVGViewerExtensions/3.0/"
	 x="0px" y="0px" width="158.978px" height="37.679px" viewBox="0 0 158.978 37.679"
	 style="enable-background:new 0 0 158.978 37.679;" xml:space="preserve">
<style type="text/css">
	.st0{fill:#3E3A39;}
</style>
<defs>
</defs>
<g>
	<path class="st0" d="M18.43,11.561V2.151l-0.036-1.678l1.987,0.073h8.88l1.933-0.073l-0.055,1.605v9.372l0.055,1.933l-2.115-0.073
		l-1.823,0.019c1.386,0.456,3.136,1.076,5.27,1.86c-0.164,0.255-0.273,0.419-0.292,0.492c-0.055,0.091-0.292,0.565-0.711,1.44
		c-1.842-0.875-3.045-1.386-3.592-1.568l-2.261-0.747c0.492-0.384,0.839-0.712,1.003-0.967l0.346-0.529l-5.27,0.019
		c0.438,0.475,0.766,0.784,0.948,0.912l0.565,0.4c-0.657,0.384-1.258,0.712-1.806,1.003c-0.528,0.274-1.695,0.784-3.501,1.532
		c-0.456-0.602-0.729-0.948-0.838-1.039l-0.638-0.603c0.784-0.219,1.531-0.455,2.243-0.729c0.711-0.256,1.623-0.748,2.735-1.496
		h-1.076l-1.987,0.073L18.43,11.561z M28.969,4.103V2.479h-8.406v1.623H28.969z M28.969,7.64V5.98h-8.406V7.64H28.969z
		 M28.969,11.451V9.609h-8.406v1.842H28.969z"/>
	<path class="st0" d="M34.354,2.826l1.458,0.055l1.714,0.019c-0.055-0.201-0.128-0.438-0.219-0.711
		c-0.073-0.256-0.292-0.767-0.656-1.514c0.492-0.109,1.076-0.328,1.769-0.656c0.164,0.364,0.329,0.692,0.456,0.966
		c0.146,0.292,0.31,0.766,0.547,1.423c-0.474,0.109-1.003,0.273-1.604,0.474h1.878l1.714-0.055v1.696l-1.714-0.055h-3.811
		l-1.532,0.055V2.826z M35.011,5.27l1.276,0.055h2.936L40.7,5.27v1.642l-1.513-0.073H36.47l-1.459,0.073V5.27z M36.342,10.102h2.899
		l1.55-0.055l-0.073,1.514v3.191l0.073,1.695h-1.823V15.9h-2.115v0.547h-1.842l0.073-1.659v-3.282l-0.073-1.459L36.342,10.102z
		 M36.47,7.658h2.68l1.55-0.055v1.568l-1.55-0.055h-2.644l-1.422,0.055V7.604L36.47,7.658z M38.949,14.204v-2.461h-2.097v2.461
		H38.949z M41.156,5.635l1.769,0.072h2.006V3.793l-1.75-0.019l-1.149,0.055v-1.75l1.094,0.072L44.93,2.17V1.112l-0.055-1.058h2.079
		l-0.055,1.094v1.003h1.678l1.55-0.072v1.75l-1.604-0.055h-1.623v1.933h2.407l1.823-0.072v1.823l-1.604-0.092h-0.693v1.642h0.565
		l1.605-0.091v1.933l-1.641-0.092h-0.529v4.596c0,0.219-0.019,0.419-0.055,0.583c-0.055,0.164-0.183,0.328-0.365,0.492
		c-0.201,0.164-0.438,0.273-0.729,0.347c-0.292,0.073-0.693,0.146-1.204,0.2c-0.51,0.073-0.93,0.092-1.258,0.073
		c-0.109-0.729-0.219-1.203-0.292-1.404l-0.31-0.802c1.276,0.109,1.969,0.091,2.097-0.036c0.127-0.128,0.182-0.311,0.182-0.529
		v-3.52h-2.68c0.127,0.292,0.237,0.511,0.31,0.657l0.492,1.058l0.31,0.729c-0.839,0.328-1.459,0.603-1.86,0.803
		c-0.31-0.948-0.583-1.586-0.748-1.915l-0.401-0.783c0.583-0.165,1.076-0.347,1.495-0.548h-0.984l-1.532,0.092V8.917l1.623,0.091
		h3.975V7.366h-3.902l-1.842,0.092V5.635z"/>
	<path class="st0" d="M54.783,11.925l-2.024,0.055V9.883l2.006,0.073h5.087l-0.055-1.222h2.224l-0.073,1.222h5.033l2.097-0.073
		v2.097l-2.061-0.055h-3.556c0.346,0.328,0.638,0.603,0.893,0.821c0.255,0.219,0.766,0.528,1.532,0.966
		c0.748,0.42,1.404,0.711,1.969,0.82c0.547,0.109,1.094,0.183,1.605,0.201c-0.474,0.82-0.766,1.386-0.894,1.714l-0.183,0.438
		c-0.857-0.237-1.75-0.565-2.662-1.003s-1.623-0.839-2.133-1.222c-0.492-0.383-1.04-0.856-1.641-1.44v2.298l0.073,1.477h-2.224
		l0.055-1.514v-2.188c-0.31,0.273-0.565,0.474-0.766,0.62c-0.201,0.146-0.62,0.438-1.258,0.875
		c-0.638,0.419-1.167,0.747-1.568,1.003c-0.401,0.237-1.167,0.62-2.261,1.148c-0.365-0.528-0.875-1.186-1.532-1.969
		c1.149-0.164,2.188-0.548,3.136-1.131c0.948-0.584,1.842-1.222,2.699-1.915H54.783z M54.035,2.389
		c0.675,0.656,1.386,1.404,2.133,2.206c-0.583,0.602-1.058,1.112-1.404,1.55c-0.766-1.003-1.313-1.622-1.623-1.878L52.54,3.793
		C53.069,3.41,53.561,2.936,54.035,2.389z M53.98,7.294c0.219-0.128,0.602-0.383,1.13-0.748c0.529-0.383,0.966-0.729,1.295-1.021
		c0.328-0.311,0.656-0.657,1.003-1.021c0.091,0.2,0.182,0.401,0.292,0.583c0.091,0.201,0.328,0.603,0.711,1.222
		c-0.364,0.311-0.948,0.803-1.75,1.478c-0.82,0.675-1.604,1.331-2.352,1.987c-0.109-0.2-0.237-0.419-0.365-0.62
		c-0.127-0.219-0.438-0.675-0.93-1.367C53.452,7.585,53.78,7.421,53.98,7.294z M56.442,0.091c0.328,0.347,0.693,0.729,1.131,1.186
		c0.419,0.438,0.766,0.766,0.966,0.967c-0.711,0.692-1.204,1.203-1.495,1.513c-0.237-0.346-0.474-0.674-0.711-1.003
		c-0.237-0.31-0.474-0.547-0.729-0.766l-0.602-0.511C55.421,1.131,55.913,0.675,56.442,0.091z M58.393,2.479l1.35,0.073h1.24
		C61,2.279,61.019,1.987,61.037,1.695c0.037-0.291,0.037-0.492,0.037-0.583l-0.091-0.82c0.328,0.072,0.583,0.127,0.748,0.164
		c0.164,0.018,0.656,0.055,1.495,0.127c-0.037,0.311-0.073,0.62-0.091,0.931c-0.036,0.328-0.055,0.511-0.073,0.565l-0.055,0.474
		h1.896l1.495-0.055c-0.055,0.584-0.127,1.167-0.219,1.751C66.106,4.832,66.07,5.142,66.07,5.16l-0.091,1.167
		c-0.018,0.347-0.037,0.547,0.037,0.62c0.091,0.091,0.219,0.128,0.401,0.109c0.164-0.019,0.329-0.109,0.493-0.273
		c0.164-0.146,0.237-0.347,0.31-0.602l0.183-0.693c0.62,0.383,1.258,0.675,1.896,0.857c-0.347,0.875-0.547,1.386-0.602,1.55
		c-0.073,0.146-0.201,0.328-0.383,0.547c-0.164,0.237-0.328,0.401-0.492,0.492c-0.164,0.092-0.419,0.146-0.784,0.164
		c-0.456,0.037-0.93,0.037-1.422,0c-0.51-0.055-0.912-0.164-1.203-0.328c-0.292-0.146-0.474-0.292-0.529-0.419
		c-0.055-0.146-0.055-0.42-0.019-0.821l0.219-3.117h-1.349c-0.073,0.255-0.164,0.564-0.273,0.93
		c-0.128,0.383-0.292,0.784-0.547,1.222c-0.237,0.401-0.602,0.802-1.039,1.203s-1.058,0.894-1.896,1.495
		c-0.146-0.146-0.419-0.401-0.82-0.766c-0.401-0.364-0.711-0.656-0.912-0.875c0.821-0.237,1.496-0.584,2.006-1.021
		c0.529-0.456,0.875-0.984,1.112-1.586L60.6,4.413h-0.857l-1.35,0.072V2.479z"/>
	<path class="st0" d="M79.624,8.479l-0.638,0.237c-0.2,0.146-0.51,0.201-0.729,0.383L77.782,8.26
		c-0.602,0.019-1.605,0.164-2.334,0.164c-0.729,0.019-1.422,0.146-1.769,0.146c-0.401,0.018-0.93,0.091-1.841,0.164l-0.62-1.44
		c0.675-0.256,1.058-0.438,1.167-0.511l0.383-0.256h-1.003H70.89V5.233l1.294,0.036V2.115l-0.036-1.714l1.915,0.036h3.063
		l2.061-0.036v1.386L77.125,1.75h-3.045v0.475h3.1l1.696-0.036v1.075L77.18,3.228h-3.1V3.72h3.118l1.677-0.055v1.112L77.18,4.741
		h-3.1V5.27h3.118l2.352-0.055v1.386l-0.912-0.073c0.201,0.274,1.076,1.259,1.458,1.824L79.624,8.479z M86.717,16.538l-0.201,0.383
		c-1.148-0.146-2.261-0.236-2.99-0.383c-0.729-0.164-1.842-0.383-2.79-0.729c-0.364,0.146-0.547,0.256-0.93,0.384
		c-0.383,0.127-0.748,0.31-1.604,0.492c-0.529,0.109-1.514,0.419-2.498,0.511c-0.201-0.384-0.493-0.675-0.62-0.839l-0.711-0.821
		c0.438,0.055,1.696-0.109,2.353-0.219c0.766-0.127,1.458-0.255,1.933-0.455c-0.292-0.183-1.021-0.62-1.641-1.04
		c-0.346-0.255-0.674-0.511-0.857-0.711c-0.529,0.948-1.094,1.642-1.86,2.261c-0.419,0.328-0.894,0.639-1.44,0.948
		c-0.164-0.146-0.547-0.438-0.693-0.511c-0.109-0.091-0.511-0.291-1.167-0.638c0.62-0.219,1.24-0.547,1.805-1.003
		c0.529-0.438,1.021-0.967,1.404-1.568c0.255-0.383,0.456-0.784,0.602-1.222h-1.623l-1.969,0.019v-1.386l1.987,0.018h1.824
		C75.083,9.646,75.12,9.5,75.12,9.409V8.516c0.729,0.018,1.732,0.127,2.37,0.219c-0.146,0.438-0.109,0.583-0.127,0.675l-0.128,0.619
		h5.489L82.177,9.7l-0.748-0.328l1.204-1.44l0.602,0.383l0.839,0.529l0.821,0.347l-0.748,0.838h1.24L87.3,9.992v1.514l-1.823-0.055
		H76.98c-0.109,0.438-0.456,1.112-0.657,1.44c0.365-0.292,0.857-0.711,1.058-0.984c0.219,0.273,0.565,0.565,0.985,0.856
		c0.729,0.529,1.604,1.04,2.17,1.295c0.401-0.273,0.948-0.857,1.44-1.55c0.237-0.328,0.456-0.675,0.638-1.021l1.787,1.112
		c-0.237,0.365-0.656,0.82-1.002,1.24c-0.255,0.328-0.583,0.638-0.839,0.875c0.875,0.328,1.987,0.328,2.498,0.42
		c0.729,0.109,1.641,0.036,2.407,0.055C87.063,15.663,86.771,16.447,86.717,16.538z M75.43,6.527l0.164,0.146l-1.002,0.547
		l2.407-0.055l-0.383-0.383c0.164-0.091,0.401-0.128,0.565-0.256H75.43z M83.38,2.37c-0.784,0.237-1.823,0.492-3.1,0.784
		c-0.255-0.62-0.456-1.003-0.602-1.222l-0.31-0.474c0.656-0.055,1.386-0.128,2.188-0.237c0.784-0.109,1.878-0.492,3.282-1.148
		c0.182,0.2,0.365,0.383,0.51,0.564c0.164,0.146,0.474,0.401,0.912,0.712C85.13,1.787,84.182,2.115,83.38,2.37z M83.727,7.53
		c-0.875,0.274-1.824,0.548-2.863,0.784c-0.109-0.2-0.219-0.419-0.328-0.62c-0.128-0.219-0.383-0.583-0.803-1.094
		c0.639-0.055,1.131-0.109,1.459-0.183c0.328-0.055,1.003-0.219,2.024-0.51c1.003-0.292,2.024-0.767,3.063-1.404
		c0.401,0.602,0.675,0.984,0.802,1.131l0.401,0.455C85.86,6.783,84.602,7.257,83.727,7.53z M84,4.759
		c-1.003,0.347-1.586,0.547-1.769,0.584l-1.477,0.347c-0.091-0.183-0.183-0.384-0.255-0.529c-0.091-0.183-0.328-0.528-0.693-1.076
		c0.93-0.109,1.714-0.273,2.352-0.474c0.638-0.183,1.24-0.383,1.787-0.584c0.547-0.2,1.112-0.474,1.714-0.82
		c0.164,0.164,0.292,0.292,0.383,0.383L86.498,3.1l0.511,0.492C86.006,4.029,85.003,4.431,84,4.759z"/>
	<path class="st0" d="M100.6,1.586l0.93,1.24l-1.678,2.243h2.826l1.222-0.073l-0.036,1.039v3.902l0.036,1.35l-1.239-0.055h-9.5
		v2.553c0,0.255,0,0.419,0,0.511c0,0.091,0.055,0.219,0.146,0.383c0.11,0.183,1.916,0.273,5.417,0.273
		c2.261,0,3.556-0.055,3.901-0.164c0.328-0.109,0.603-0.237,0.803-0.438c0.2-0.201,0.401-0.876,0.583-2.006
		c0.603,0.292,1.259,0.565,1.988,0.82c-0.092,0.383-0.201,0.82-0.328,1.331c-0.146,0.511-0.329,0.93-0.548,1.295
		c-0.219,0.347-0.547,0.62-0.966,0.82c-0.42,0.219-1.623,0.31-3.593,0.31c-0.182,0-1.039,0-2.589-0.018
		c-1.55-0.037-2.534-0.055-2.973-0.073c-0.419-0.019-1.021-0.055-1.805-0.109c-0.802-0.073-1.313-0.219-1.55-0.438
		c-0.237-0.237-0.383-0.456-0.438-0.639c-0.037-0.2-0.055-0.455-0.055-0.747v-8.88l-1.13,0.656c-0.292-0.62-0.657-1.276-1.112-1.97
		c0.565-0.182,1.039-0.383,1.422-0.602c0.401-0.219,1.003-0.675,1.787-1.35c0.802-0.674,1.368-1.239,1.696-1.714
		C94.144,0.602,94.363,0.255,94.491,0c0.693,0.183,1.477,0.364,2.352,0.547l-0.856,1.039H100.6z M98.356,3.848l0.237-0.42
		l-4.286,0.019c-0.51,0.492-1.13,1.039-1.823,1.623h4.997C98.028,4.358,98.32,3.957,98.356,3.848z M96.46,9.317V6.929l-3.282,0.019
		v2.37H96.46z M101.839,9.317V6.929l-3.373,0.019v2.37H101.839z"/>
	<path class="st0" d="M110.179,13.548c0.638-0.528,1.075-0.984,1.367-1.331l0.584-0.711c0.255,0.237,0.455,0.419,0.619,0.547
		s0.529,0.365,1.076,0.729c-1.495,1.459-2.589,2.389-3.228,2.845l-1.641,1.148c-0.183-0.255-0.347-0.474-0.511-0.656
		c-0.146-0.2-0.438-0.511-0.857-0.93C108.684,14.624,109.54,14.077,110.179,13.548z M116.323,2.826
		c0.164,0.164,0.364,0.311,0.584,0.438c-1.149,0.93-2.243,1.823-3.301,2.681l2.698,0.019c1.076-0.748,1.77-1.295,2.115-1.623
		l0.565-0.547c0.183,0.219,0.383,0.419,0.584,0.602c0.2,0.2,0.602,0.511,1.185,0.93c-1.331,0.912-2.078,1.423-2.242,1.532
		l-4.432,2.753c2.152-0.019,4.121-0.055,5.944-0.091c-0.364-0.438-0.766-0.894-1.203-1.368c0.656-0.364,1.058-0.62,1.24-0.766
		l0.419-0.401c1.295,1.514,2.407,2.863,3.337,4.03c-0.638,0.383-1.039,0.675-1.24,0.856l-0.455,0.438
		c-0.237-0.4-0.475-0.766-0.712-1.075c-1.677,0-3.245,0-4.723,0v4.157c0,0.292-0.018,0.492-0.055,0.584
		c-0.018,0.127-0.072,0.255-0.182,0.383c-0.092,0.109-0.347,0.236-0.766,0.383c-0.42,0.127-1.095,0.182-2.006,0.182
		c-0.092-0.547-0.183-0.893-0.237-1.039l-0.456-1.094c0.803,0.055,1.258,0.073,1.367,0.036c0.128-0.018,0.201-0.036,0.22-0.055
		c0.018-0.036,0.036-0.128,0.036-0.273v-3.245c-1.386,0.018-3.337,0.109-5.871,0.273c-0.165-0.729-0.274-1.131-0.292-1.204
		L108.1,9.481c1.058,0.019,2.024-0.146,2.918-0.474c0.893-0.328,1.841-0.803,2.844-1.404c-1.003-0.019-1.933-0.019-2.808,0
		c-0.055-0.255-0.109-0.511-0.183-0.766s-0.219-0.675-0.438-1.24c0.219-0.072,0.456-0.146,0.729-0.255
		c0.255-0.092,0.692-0.401,1.295-0.857c0.619-0.474,1.203-0.966,1.75-1.531c-1.313,0.072-3.173,0.109-5.598,0.109
		c-0.146-0.711-0.256-1.131-0.311-1.276l-0.383-0.912c2.152,0.273,4.194,0.383,6.163,0.273c1.951-0.091,3.52-0.236,4.723-0.383
		c1.186-0.128,2.17-0.328,2.954-0.602c0.146,0.364,0.292,0.675,0.42,0.948c0.146,0.273,0.419,0.675,0.82,1.203
		C120.48,2.571,118.256,2.735,116.323,2.826z M118.857,11.907l0.42-0.438c1.386,1.203,2.845,2.498,4.376,3.865
		c-0.255,0.255-0.419,0.419-0.492,0.492s-0.237,0.273-0.511,0.602l-0.419,0.492c-1.149-1.258-2.098-2.225-2.863-2.881l-1.568-1.349
		C118.348,12.308,118.712,12.071,118.857,11.907z"/>
	<path class="st0" d="M126.796,7.877c0.347-0.273,0.766-0.839,1.258-1.695c0.492-0.857,0.839-1.659,1.039-2.389l0.274-0.948h-1.568
		l-1.787,0.036V0.857l1.787,0.036h5.98l1.878-0.036v2.023l-1.896-0.036l-2.133-0.019c-0.183,0.656-0.365,1.276-0.529,1.86h2.443
		l1.478-0.037c-0.019,0.693-0.073,1.404-0.128,2.115c-0.073,0.729-0.2,1.642-0.438,2.717c-0.255,1.076-0.675,2.098-1.222,3.063
		c-0.547,0.967-1.186,1.714-1.97,2.243c-0.783,0.528-1.458,0.894-2.005,1.112c-0.548,0.219-1.24,0.438-2.079,0.675
		c-0.273-0.767-0.492-1.295-0.656-1.568l-0.42-0.711c0.347,0,0.729,0,1.167-0.055c0.42-0.037,0.985-0.256,1.714-0.602
		c0.729-0.347,1.295-0.748,1.696-1.222c0.401-0.475,0.802-1.076,1.186-1.806c-0.584,0.401-1.112,0.748-1.587,1.039
		c-0.474-0.894-0.984-1.732-1.531-2.498c0.802-0.438,1.239-0.692,1.313-0.766l0.42-0.292c0.2,0.273,0.346,0.492,0.455,0.656
		c0.109,0.165,0.456,0.712,1.021,1.66c0.128-0.328,0.219-0.584,0.292-0.784c0.055-0.183,0.109-0.492,0.219-0.948
		c0.091-0.438,0.182-0.839,0.219-1.204l0.091-0.856l-2.517,0.019c-0.383,0.674-0.766,1.294-1.167,1.878
		c-0.4,0.565-0.93,1.148-1.586,1.75c-0.146-0.2-0.31-0.401-0.492-0.602c-0.164-0.2-0.547-0.565-1.167-1.094
		C126.121,8.388,126.431,8.15,126.796,7.877z M135.968,12.764l0.055-1.878V4.777l-0.055-1.987h2.133l-0.036,2.006v6.054l0.036,1.914
		H135.968z M141.602,0.492l-0.072,2.809v11.323c0,0.528-0.037,0.894-0.128,1.094c-0.091,0.201-0.273,0.365-0.584,0.547
		c-0.291,0.164-0.619,0.292-0.984,0.347l-1.623,0.255c-0.036-0.219-0.072-0.455-0.109-0.729c-0.055-0.274-0.273-0.839-0.638-1.678
		c0.675,0.072,1.131,0.109,1.386,0.091c0.237-0.019,0.401-0.091,0.474-0.2c0.073-0.128,0.109-0.311,0.109-0.547V3.264l-0.055-2.771
		H141.602z"/>
	<path class="st0" d="M5.215,24.404c1.678,0,2.389,0.091,3.082,0.346c0.419,0.164,0.802,0.438,1.149,0.821
		c0.547,0.583,0.839,1.331,0.839,2.115c0,1.239-0.711,2.334-1.824,2.826c1.55,0.456,2.462,1.604,2.462,3.1
		c0,1.186-0.511,2.334-1.35,2.99c-0.802,0.639-1.568,0.857-3.428,0.857H4.431H0V24.404H5.215z M2.625,29.601h1.732h1.021H5.47
		c1.55,0,2.261-0.474,2.261-1.531c0-0.693-0.401-1.24-0.985-1.386c-0.401-0.092-0.693-0.109-2.607-0.109H2.625V29.601z
		 M2.625,35.253h2.443h0.729c1.732,0,2.407-0.492,2.407-1.695c0-0.62-0.255-1.131-0.711-1.404c-0.492-0.31-0.985-0.383-2.735-0.383
		H2.625V35.253z"/>
	<path class="st0" d="M12.75,30.476c0.529-1.896,1.714-2.68,4.066-2.68h0.055c1.258,0,2.188,0.2,2.826,0.583
		c0.894,0.547,1.13,1.186,1.13,2.973v0.072c0,0.42-0.018,0.967-0.018,1.642c0,0.547-0.019,0.93-0.019,1.167v0.128
		c0,1.567,0.11,2.151,0.565,3.1h-2.461c-0.091-0.219-0.109-0.292-0.183-0.529l-0.127-0.419l-0.018-0.092
		c-0.875,0.857-1.805,1.259-2.936,1.259c-1.878,0-3.136-1.131-3.136-2.79c0-1.058,0.492-1.915,1.386-2.37
		c0.547-0.273,0.948-0.401,2.061-0.62c1.368-0.256,1.896-0.383,2.425-0.602v-0.256c0-1.003-0.419-1.331-1.714-1.331
		c-0.893,0-1.331,0.311-1.641,1.186L12.75,30.476z M18.366,32.919c-0.419,0.146-0.565,0.183-1.058,0.292l-0.857,0.183
		c-0.985,0.2-1.459,0.602-1.459,1.222c0,0.729,0.602,1.295,1.386,1.295c0.328,0,0.693-0.092,0.985-0.256
		c0.839-0.456,1.003-0.802,1.003-2.242V32.919z"/>
	<path class="st0" d="M24.915,34.378c0.237,1.003,0.875,1.495,2.024,1.495c1.131,0,1.805-0.383,1.805-1.021
		c0-0.456-0.237-0.639-1.021-0.803c-1.604-0.364-2.535-0.62-3.264-0.93c-1.076-0.438-1.696-1.331-1.696-2.426
		c0-1.805,1.496-2.898,3.975-2.898c2.425,0,3.684,0.747,4.194,2.498l-2.37,0.438c-0.219-0.784-0.784-1.149-1.769-1.149
		c-1.13,0-1.714,0.274-1.714,0.784c0,0.493,0.347,0.657,2.589,1.167c1.75,0.401,2.571,0.767,3.082,1.423
		c0.31,0.419,0.492,0.984,0.492,1.55c0,1.914-1.696,3.173-4.303,3.173c-2.461,0-4.048-1.021-4.522-2.918L24.915,34.378z"/>
	<path class="st0" d="M33.361,24.404h2.517v2.315h-2.517V24.404z M33.361,28.015h2.517v9.445h-2.517V28.015z"/>
	<path class="st0" d="M44.285,31.242c-0.182-0.967-0.766-1.495-1.714-1.495c-1.368,0-2.061,0.947-2.061,2.808
		c0,2.042,0.693,3.082,2.097,3.082c1.021,0,1.568-0.548,1.805-1.806l2.461,0.419c-0.529,2.298-1.969,3.429-4.395,3.429
		c-2.79,0-4.54-1.896-4.54-4.941c0-3.082,1.732-4.941,4.595-4.941c2.261,0,3.61,0.966,4.212,3.009L44.285,31.242z"/>
	<path class="st0" d="M64.639,33.467c-0.2,0.729-0.492,1.422-0.784,1.896c-0.894,1.478-2.589,2.316-4.65,2.316
		c-3.574,0-5.944-2.626-5.944-6.601c0-4.268,2.334-6.893,6.145-6.893c1.276,0,2.352,0.31,3.264,0.948
		c1.003,0.674,1.532,1.477,1.933,2.881l-2.607,0.62c-0.31-1.368-1.35-2.188-2.753-2.188c-1.258,0-2.298,0.638-2.79,1.714
		c-0.328,0.729-0.474,1.514-0.474,2.662c0,1.532,0.219,2.59,0.711,3.318c0.547,0.821,1.459,1.295,2.48,1.295
		c1.495,0,2.48-0.948,2.917-2.771L64.639,33.467z"/>
	<path class="st0" d="M71.098,27.796c2.863,0,4.887,2.042,4.887,4.904c0,2.863-2.061,4.979-4.869,4.979
		c-2.881,0-4.887-1.987-4.887-4.869C66.229,29.819,68.199,27.796,71.098,27.796z M71.116,35.637c1.404,0,2.297-1.149,2.297-2.918
		c0-1.75-0.912-2.881-2.297-2.881c-1.404,0-2.315,1.131-2.315,2.899C68.801,34.487,69.712,35.637,71.116,35.637z"/>
	<path class="st0" d="M77.958,24.404h2.517V37.46h-2.517V24.404z"/>
	<path class="st0" d="M87.313,27.796c2.863,0,4.887,2.042,4.887,4.904c0,2.863-2.061,4.979-4.869,4.979
		c-2.881,0-4.887-1.987-4.887-4.869C82.445,29.819,84.414,27.796,87.313,27.796z M87.332,35.637c1.404,0,2.298-1.149,2.298-2.918
		c0-1.75-0.912-2.881-2.298-2.881c-1.404,0-2.315,1.131-2.315,2.899C85.016,34.487,85.928,35.637,87.332,35.637z"/>
	<path class="st0" d="M94.136,37.46v-9.445h2.316v1.331h0.037c0.711-1.167,1.222-1.55,2.115-1.55c0.528,0,1.167,0.182,1.659,0.455
		l-0.784,2.188c-0.401-0.255-0.82-0.401-1.167-0.401c-0.875,0-1.386,0.584-1.55,1.751c-0.092,0.62-0.128,1.44-0.128,2.753v2.918
		H94.136z"/>
	<path class="st0" d="M108.29,32.974c0.311,1.678,1.222,2.48,2.845,2.48c1.531,0,2.571-0.711,2.571-1.787
		c0-0.584-0.328-1.003-1.003-1.276c-0.456-0.183-0.748-0.255-2.316-0.639c-1.95-0.492-2.844-0.966-3.519-1.896
		c-0.438-0.584-0.656-1.295-0.656-2.024c0-2.225,1.841-3.646,4.759-3.646c3.118,0,4.905,1.422,4.996,3.956l-2.644,0.109
		c-0.219-1.349-0.912-1.896-2.389-1.896c-1.331,0-2.207,0.51-2.207,1.294c0,0.347,0.201,0.675,0.511,0.876
		c0.456,0.291,1.039,0.492,2.407,0.82c2.206,0.511,3.1,0.93,3.829,1.769c0.565,0.638,0.856,1.531,0.856,2.553
		c0,1.459-0.875,2.845-2.133,3.428c-0.839,0.383-1.896,0.584-3.082,0.584c-3.264,0-5.032-1.478-5.379-4.468L108.29,32.974z"/>
	<path class="st0" d="M126.547,34.87c-0.657,1.86-2.043,2.809-4.121,2.809c-2.881,0-4.577-1.806-4.577-4.887
		c0-3.009,1.714-4.996,4.34-4.996c2.862,0,4.485,1.951,4.485,5.379v0.273h-6.272c0.055,1.422,0.857,2.353,2.061,2.353
		c0.82,0,1.331-0.42,1.587-1.35L126.547,34.87z M124.194,31.916c-0.036-1.367-0.748-2.206-1.86-2.206
		c-1.094,0-1.878,0.875-1.878,2.097v0.109H124.194z"/>
	<path class="st0" d="M128.61,37.46v-9.445h2.315v1.331h0.037c0.711-1.167,1.222-1.55,2.115-1.55c0.528,0,1.167,0.182,1.659,0.455
		l-0.784,2.188c-0.401-0.255-0.82-0.401-1.167-0.401c-0.875,0-1.386,0.584-1.55,1.751c-0.092,0.62-0.128,1.44-0.128,2.753v2.918
		H128.61z"/>
	<path class="st0" d="M135.742,24.404h2.517v2.315h-2.517V24.404z M135.742,28.015h2.517v9.445h-2.517V28.015z"/>
	<path class="st0" d="M148.854,34.87c-0.657,1.86-2.043,2.809-4.121,2.809c-2.881,0-4.577-1.806-4.577-4.887
		c0-3.009,1.714-4.996,4.34-4.996c2.862,0,4.485,1.951,4.485,5.379v0.273h-6.272c0.055,1.422,0.857,2.353,2.061,2.353
		c0.82,0,1.331-0.42,1.587-1.35L148.854,34.87z M146.502,31.916c-0.036-1.367-0.748-2.206-1.86-2.206
		c-1.094,0-1.878,0.875-1.878,2.097v0.109H146.502z"/>
	<path class="st0" d="M152.65,34.378c0.237,1.003,0.875,1.495,2.023,1.495c1.131,0,1.806-0.383,1.806-1.021
		c0-0.456-0.237-0.639-1.021-0.803c-1.604-0.364-2.534-0.62-3.264-0.93c-1.076-0.438-1.696-1.331-1.696-2.426
		c0-1.805,1.496-2.898,3.976-2.898c2.425,0,3.684,0.747,4.193,2.498l-2.37,0.438c-0.219-0.784-0.784-1.149-1.769-1.149
		c-1.131,0-1.714,0.274-1.714,0.784c0,0.493,0.347,0.657,2.589,1.167c1.751,0.401,2.571,0.767,3.082,1.423
		c0.31,0.419,0.492,0.984,0.492,1.55c0,1.914-1.696,3.173-4.304,3.173c-2.461,0-4.048-1.021-4.521-2.918L152.65,34.378z"/>
</g>
</svg>