<svg id="圖層_1" data-name="圖層 1" xmlns="http://www.w3.org/2000/svg" viewBox="0 0 230.33 77.67">
  <defs>
    <style>
      .cls-1 {
        fill: #fff;
      }

      .cls-2 {
        fill: none;
        stroke: #717071;
        stroke-miterlimit: 10;
      }

      .cls-3 {
        fill: #717071;
      }
    </style>
  </defs>
  <g>
    <rect class="cls-1" x="0.5" y="0.5" width="229.33" height="76.67" rx="15"/>
    <rect class="cls-2" x="0.5" y="0.5" width="229.33" height="76.67" rx="15"/>
  </g>
  <g>
    <path class="cls-3" d="M112.63,32.26a2.72,2.72,0,1,1,1.93.81A2.65,2.65,0,0,1,112.63,32.26Zm4.06,24.65h-4.33V36.35h4.33Z"/>
    <path class="cls-3" d="M145.21,53.18a14.81,14.81,0,0,1-20.25,0,13.36,13.36,0,0,1-4.1-10,13.38,13.38,0,0,1,4.1-10,14.81,14.81,0,0,1,20.25,0,13.38,13.38,0,0,1,4.1,10A13.36,13.36,0,0,1,145.21,53.18Zm-3.34-16.9a9.48,9.48,0,0,0-13.57,0,10.09,10.09,0,0,0,0,13.87,9.48,9.48,0,0,0,13.57,0,10.09,10.09,0,0,0,0-13.87Z"/>
    <path class="cls-3" d="M162.47,33.46a6,6,0,0,0-3.27.81,2.71,2.71,0,0,0-1.27,2.45,2.84,2.84,0,0,0,1.27,2.51,19.21,19.21,0,0,0,5.43,1.88,14.91,14.91,0,0,1,6.26,2.82A6.65,6.65,0,0,1,173,49.28,7.09,7.09,0,0,1,170.33,55a10.62,10.62,0,0,1-7,2.2,16.43,16.43,0,0,1-11.25-4.36L155,49.42a12.86,12.86,0,0,0,8.5,3.55A5.81,5.81,0,0,0,167,52a3,3,0,0,0,1.29-2.52A2.81,2.81,0,0,0,167,47.08a12.93,12.93,0,0,0-4.2-1.59,36.64,36.64,0,0,1-4.52-1.31,10.34,10.34,0,0,1-2.74-1.56,6.55,6.55,0,0,1-2.4-5.57,6.78,6.78,0,0,1,2.73-5.78,11,11,0,0,1,6.74-2,16.33,16.33,0,0,1,5.14.85,13.57,13.57,0,0,1,4.41,2.4l-2.44,3.44a9.32,9.32,0,0,0-3.25-1.78A12.55,12.55,0,0,0,162.47,33.46Z"/>
  </g>
  <g>
    <path class="cls-3" d="M80.52,24.92a39.66,39.66,0,0,1-5.06,1.76c-1.13.14-5.07-1.41-7.31-2.18s-7.74-.91-12.8,4.08-6.11,14.76-2,24.39S60.63,64.76,63,66.15c3.07,1.84,7,.09,8.12-.57a8.52,8.52,0,0,1,7.42-.45c2.33,1.13,5.89,2.65,8.72,1.45,2.43-1,7.48-4.53,11.22-14.53,0,0-8.92-3.33-7.87-12.93a12.91,12.91,0,0,1,6.25-9.42S95.21,27,90.71,24.92,80.52,24.92,80.52,24.92Z"/>
    <path class="cls-3" d="M74.62,23.31s-1.27-10.69,11.59-13C86.21,10.3,87.29,22,74.62,23.31Z"/>
  </g>
</svg>
