<svg id="圖層_1" data-name="圖層 1" xmlns="http://www.w3.org/2000/svg" viewBox="0 0 230.33 77.67">
  <defs>
    <style>
      .cls-1 {
        fill: #fff;
      }

      .cls-2 {
        fill: none;
        stroke: #717071;
        stroke-miterlimit: 10;
      }

      .cls-3 {
        fill: #717071;
      }
    </style>
  </defs>
  <g>
    <rect class="cls-1" x="0.5" y="0.5" width="229.33" height="76.67" rx="15"/>
    <rect class="cls-2" x="0.5" y="0.5" width="229.33" height="76.67" rx="15"/>
  </g>
  <g>
    <path class="cls-3" d="M112.63,23.27a2.72,2.72,0,1,1,1.93.81A2.63,2.63,0,0,1,112.63,23.27Zm4.06,24.66h-4.33V27.37h4.33Z"/>
    <path class="cls-3" d="M145.21,44.2a14.81,14.81,0,0,1-20.25,0,13.38,13.38,0,0,1-4.1-10,13.38,13.38,0,0,1,4.1-10,14.81,14.81,0,0,1,20.25,0,13.38,13.38,0,0,1,4.1,10A13.38,13.38,0,0,1,145.21,44.2Zm-3.34-16.91a9.48,9.48,0,0,0-13.57,0,9.63,9.63,0,0,0-2.76,6.94,9.63,9.63,0,0,0,2.76,6.94,9.48,9.48,0,0,0,13.57,0,9.63,9.63,0,0,0,2.76-6.94A9.63,9.63,0,0,0,141.87,27.29Z"/>
    <path class="cls-3" d="M162.47,24.47a6,6,0,0,0-3.27.81,2.71,2.71,0,0,0-1.27,2.46,2.85,2.85,0,0,0,1.27,2.51,19.29,19.29,0,0,0,5.43,1.87,14.91,14.91,0,0,1,6.26,2.82A6.69,6.69,0,0,1,173,40.3,7.1,7.1,0,0,1,170.33,46a10.67,10.67,0,0,1-7,2.2,16.44,16.44,0,0,1-11.25-4.37L155,40.43a12.87,12.87,0,0,0,8.5,3.56,5.81,5.81,0,0,0,3.5-1,3,3,0,0,0,1.29-2.51A2.82,2.82,0,0,0,167,38.09a13,13,0,0,0-4.2-1.58,36.34,36.34,0,0,1-4.52-1.32,10.07,10.07,0,0,1-2.74-1.56,6.54,6.54,0,0,1-2.4-5.57,6.76,6.76,0,0,1,2.73-5.77,10.9,10.9,0,0,1,6.74-2,16.05,16.05,0,0,1,5.14.85,13.56,13.56,0,0,1,4.41,2.39l-2.44,3.44a9.15,9.15,0,0,0-3.25-1.77A12.3,12.3,0,0,0,162.47,24.47Z"/>
  </g>
  <g>
    <path class="cls-3" d="M80.52,24.92a39.66,39.66,0,0,1-5.06,1.76c-1.13.14-5.07-1.41-7.31-2.18s-7.74-.91-12.8,4.08-6.11,14.76-2,24.39S60.63,64.76,63,66.15c3.07,1.84,7,.09,8.12-.57a8.52,8.52,0,0,1,7.42-.45c2.33,1.13,5.89,2.65,8.72,1.45,2.43-1,7.48-4.53,11.22-14.53,0,0-8.92-3.33-7.87-12.93a12.91,12.91,0,0,1,6.25-9.42S95.21,27,90.71,24.92,80.52,24.92,80.52,24.92Z"/>
    <path class="cls-3" d="M74.62,23.31s-1.27-10.69,11.59-13C86.21,10.3,87.29,22,74.62,23.31Z"/>
  </g>
  <g>
    <path class="cls-3" d="M116.43,54.18l-.21.28h2.6v.7H115.6a4,4,0,0,1-.37.35h3.16a1.62,1.62,0,0,0,0,.21A5.8,5.8,0,0,0,120,54.1l.78.16c-.18.28-.35.52-.52.74h2.55v.75h-.56a3.65,3.65,0,0,1-.76,1.54,7.71,7.71,0,0,0,1.48.52l-.32.87a12.34,12.34,0,0,1-1.8-.83,5.73,5.73,0,0,1-2.06.85l-.36-.73a5.69,5.69,0,0,0,1.75-.59,4.47,4.47,0,0,1-.93-1.3,4.31,4.31,0,0,1-.5.41l-.42-.51c0,.22,0,.41,0,.59h.53v.7h-.59a10.83,10.83,0,0,1-.15,1.2.41.41,0,0,1-.07.17l.5.22a10.19,10.19,0,0,1-1.05.52l1.78,0c.4-.2.84-.44,1.3-.7l.78.49a19.61,19.61,0,0,1-2.72,1.21,11.54,11.54,0,0,1-1.15.35c1.2,0,2.4-.11,3.6-.25l-.51-.52.63-.4a22.35,22.35,0,0,1,1.68,1.65l-.74.5-.48-.59q-1.26.15-2.73.21v1.13a.79.79,0,0,1-.22.62,1.1,1.1,0,0,1-.75.2h-.82l-.16-.82a6,6,0,0,0,.74.07c.23,0,.35-.07.35-.19v-1c-.43,0-.86,0-1.29,0l.4.54a7.07,7.07,0,0,1-1.22.65,15,15,0,0,1-1.56.48l-.43-.78a11.85,11.85,0,0,0,1.6-.42,4.57,4.57,0,0,0,1-.46c-.56,0-1.13,0-1.71,0l-.15-.82.82.07a15.17,15.17,0,0,0,2.34-.68c-.78,0-1.73.07-2.85.1l-.08-.66h1.29a8.17,8.17,0,0,0,.93-.48c-.26,0-.57,0-.93,0l-.2-.55h.78c.3,0,.49,0,.55-.12h-2.89c.07-.34.13-.66.19-1h-.54v-.7h.63c0-.23,0-.46,0-.69l-.33.22-.55-.67a5.38,5.38,0,0,0,1.76-1.4ZM116,57.27h-.65a3.07,3.07,0,0,1-.1.43h.89Zm.26-.7-.16-.47h-.61c0,.17,0,.33,0,.47Zm1.23.7h-.87l.14.43h.68C117.46,57.57,117.48,57.43,117.5,57.27Zm-.6-.7h.66c0-.15,0-.31,0-.47h-.86Zm5.86,5.77-.31.78a10.9,10.9,0,0,0-2.66-1l.35-.66A15.38,15.38,0,0,1,122.76,62.34Zm-1.92-5.45h0a2.56,2.56,0,0,0,.6-1.15H120A2.59,2.59,0,0,0,120.84,56.89Z"/>
    <path class="cls-3" d="M131.81,56.84h.27v1.8h-.5V62.3a1,1,0,0,1-.21.69.63.63,0,0,1-.5.21h-.54l-.2-.82.43,0c.15,0,.23-.14.23-.36v-.54h-1.32V63.2h-.79V58.56h-.43V56.84h.32V54.3h3.24Zm-.55,1.33v-.59h-2.18v.59Zm-1.44-1.33V55.59h1.25v-.51h-1.76v1.76Zm1,2.68V58.9h-1.32v.62Zm0,1.33v-.66h-1.32v.66Zm.28-4v-.63h-.59v.63Zm6.33,1.51v.78h-5.24v-.78Zm-.47,1.21v1.92h-.51l-.39.82h1.29V63H132.2V62.3h1.36l-.38-.82h-.63V59.56Zm-3.21-4.83v-.66h.71v.66h.66v-.66h.7v.66h1.41v3.2h-4.84v-3.2Zm0,1.29v-.59h-.62V56Zm0,.58h-.62v.63h.62Zm2.39,3.63h-2.74v.58h2.74Zm-.94,2.07.39-.82H134l.38.82ZM134.43,56h.66v-.59h-.66Zm.66.58h-.66v.63h.66Zm.7-.58h.67v-.59h-.67Zm.67.58h-.67v.63h.67Z"/>
    <path class="cls-3" d="M146.68,56V54.07h1V56h3.52V60.7h-3.52v2.54h-1V60.7H143.2V56Zm0,.9h-2.46V59.8h2.46Zm3.51,0h-2.5V59.8h2.5Z"/>
    <path class="cls-3" d="M162.48,55.47l-.55.39h4.19v.9h-1.47a11.75,11.75,0,0,1-1.56,3,6.92,6.92,0,0,1-.68.81,19.5,19.5,0,0,0,3.75,1.79l-.55,1a16.41,16.41,0,0,1-3.94-2.07,6.52,6.52,0,0,1-.55.41,15.29,15.29,0,0,1-3.56,1.59L157,62.3A12.7,12.7,0,0,0,160.47,61c.16-.1.32-.2.48-.32a9.43,9.43,0,0,1-2.2-3.88h-1.62v-.9h4.27c-.34-.39-.74-.82-1.22-1.29l.74-.47C161.58,54.64,162.1,55.09,162.48,55.47Zm-.8,4.53a8,8,0,0,0,.82-1,8.15,8.15,0,0,0,1.12-2.27h-4A7.43,7.43,0,0,0,161.68,60Z"/>
  </g>
</svg>
