<!-- Generator: Adobe Illustrator 19.2.0, SVG Export Plug-In  -->
<svg version="1.1"
	 xmlns="http://www.w3.org/2000/svg" xmlns:xlink="http://www.w3.org/1999/xlink" xmlns:a="http://ns.adobe.com/AdobeSVGViewerExtensions/3.0/"
	 x="0px" y="0px" width="313.814px" height="161.76px" viewBox="0 0 313.814 161.76"
	 style="enable-background:new 0 0 313.814 161.76;" xml:space="preserve">
<style type="text/css">
	.st0{fill:none;}
	.st1{fill:#3E3A39;}
</style>
<defs>
</defs>
<g>
	<rect x="0" y="58.3" class="st0" width="313.814" height="21.793"/>
	<path class="st1" d="M1.313,73.057c0.109-0.383,0.164-0.82,0.219-1.313l0.091-0.839c0.273,0.091,0.475,0.164,0.62,0.2l0.766,0.109
		l0.365,0.073c-0.073,0.383-0.128,0.656-0.165,0.839L2.99,73.294c-0.127,0.675-0.219,1.186-0.328,1.55l-0.182,0.62
		c-0.219-0.128-0.383-0.237-0.493-0.292l-0.783-0.474l-0.438-0.273C1.021,73.878,1.222,73.422,1.313,73.057z M2.462,61.971
		c0.219-0.383,0.438-0.82,0.675-1.313c0.237-0.51,0.364-0.856,0.419-1.039l0.146-0.565c0.419,0.256,1.058,0.565,1.896,0.931
		C4.796,61.46,4.103,62.7,3.52,63.703c0.492,0.018,0.984,0,1.477-0.055c0.164-0.273,0.311-0.511,0.42-0.712
		c0.109-0.2,0.292-0.638,0.565-1.331c0.255,0.164,0.455,0.292,0.602,0.365l0.966,0.474l0.273,0.146
		c-0.602,1.058-1.13,1.933-1.567,2.625c-0.438,0.693-1.131,1.715-2.134,3.082c0.62-0.109,1.24-0.2,1.842-0.273
		c-0.146-0.365-0.237-0.584-0.292-0.675l-0.219-0.419c0.639-0.292,1.167-0.565,1.587-0.821c0.547,1.222,0.856,1.915,0.93,2.079
		l0.383,0.93l-0.055-0.802l1.24,0.072h2.297v-1.058h-1.659l-1.422,0.055L8.808,66v-4.084L8.753,60.64l1.422,0.072l1.276-0.018
		c0.055-0.438,0.092-0.693,0.092-0.784l0.018-0.803c0.019,0,0.729,0.055,2.151,0.146c-0.091,0.4-0.146,0.638-0.164,0.729
		l-0.127,0.729h2.334l1.094-0.072l-0.055,1.422v3.829l0.055,1.495l-1.203-0.055h-1.951v1.058h2.115l1.641-0.072l-0.055,1.367v3.957
		c0,0.273-0.091,0.511-0.273,0.692c-0.164,0.183-0.547,0.292-1.148,0.347l-0.967,0.091l-0.419,0.037
		c-0.037-0.164-0.073-0.347-0.109-0.547c-0.037-0.201-0.183-0.712-0.438-1.514c0.127,0.036,0.236,0.055,0.31,0.055l0.639-0.019
		c0.273,0,0.438,0,0.492-0.055s0.072-0.219,0.072-0.511V70.03h-1.859v4.066l0.109,1.896h-2.061l0.091-1.896V70.03h-1.659v3.264
		l0.055,1.276H8.297l0.055-1.112c-0.183,0.091-0.675,0.311-1.459,0.656c-0.127-0.474-0.273-0.966-0.438-1.458
		c-0.164-0.511-0.401-1.131-0.729-1.879c0.347-0.127,0.693-0.291,1.058-0.51c-0.036-0.146-0.055-0.237-0.055-0.256l-0.183-0.528
		c-0.438,0.091-0.766,0.146-0.966,0.2L3.246,70.23c-0.456,0.109-0.839,0.201-1.148,0.292c-0.237-0.565-0.493-1.148-0.767-1.751
		c0.383-0.291,0.656-0.547,0.821-0.729c0.182-0.201,0.438-0.529,0.766-0.967c0.328-0.456,0.675-1.003,1.075-1.659
		c-0.856,0-1.622,0.072-2.279,0.237c-0.055-0.22-0.109-0.42-0.146-0.565c-0.036-0.164-0.183-0.584-0.419-1.24
		C1.806,62.991,2.243,62.372,2.462,61.971z M4.212,71.069l0.784-0.036l0.456-0.055c0.036,0.419,0.073,0.729,0.073,0.93l0.055,1.514
		l0.091,1.185c-0.565,0-1.203,0.037-1.914,0.109c0.036-0.236,0.055-0.455,0.072-0.656c0.019-0.2,0.019-0.565,0.019-1.094
		c0-0.511,0-0.839-0.019-0.984l-0.055-0.876C3.976,71.088,4.121,71.069,4.212,71.069z M8.352,69.629
		c-0.438,0.183-0.803,0.364-1.094,0.547c0.146,0.365,0.328,0.803,0.547,1.295c0.2,0.492,0.383,0.93,0.547,1.313V69.629z
		 M14.879,63.21v-0.93h-4.229v0.93H14.879z M14.879,65.781v-0.984h-4.229v0.984H14.879z"/>
	<path class="st1" d="M18.806,71.416l1.24,0.091h1.951v-0.966h-1.276l-1.35,0.055l0.055-1.44v-4.34l-0.055-1.35l1.568,0.055h1.058
		v-0.894h-1.715l-1.331,0.055v-1.806l1.387,0.037h1.659l-0.055-1.714h1.951l-0.055,1.714h1.422l1.604-0.037v1.806l-1.477-0.055
		h-1.55v0.894h1.094l1.55-0.055l-0.073,1.35v1.112c0.128-0.164,0.273-0.384,0.475-0.657c0.182-0.273,0.474-0.966,0.875-2.061
		c0.419-1.111,0.692-2.114,0.857-2.99l0.2-1.075c0.656,0.219,1.35,0.4,2.097,0.528c-0.273,1.021-0.528,1.933-0.766,2.754h5.196
		c-0.055,0.455-0.109,1.058-0.164,1.786c-0.072,0.729-0.127,1.24-0.182,1.514l-0.128,0.711c-0.857-0.091-1.568-0.109-2.134-0.055
		c0.219-0.564,0.311-1.039,0.347-1.44l0.055-0.638h-3.701c-0.639,1.459-0.985,2.242-1.021,2.334l-0.31,0.583
		c-0.602-0.383-1.003-0.62-1.204-0.692l-0.492-0.201v3.063l0.073,1.204l-1.714-0.055h-0.93v0.966h1.786l1.478-0.055v1.696
		l-1.587-0.055h-1.677v0.911l0.091,2.207h-2.024l0.092-2.188v-0.93h-1.86l-1.331,0.055V71.416z M21.997,66.273V65.07l-0.784-0.019
		v1.222H21.997z M21.997,67.751h-0.784v1.331h0.784V67.751z M24.567,66.328v-1.239h-0.729v1.239H24.567z M24.567,69.082v-1.331
		h-0.729v1.331H24.567z M26.573,73.805c0.565-0.42,1.04-0.875,1.423-1.368c0.383-0.51,0.675-1.002,0.875-1.477
		c0.219-0.492,0.383-1.021,0.474-1.586c0.109-0.565,0.201-1.222,0.292-1.988C29.71,66.62,29.746,66,29.71,65.508l-0.036-0.62
		c0.438,0.109,1.185,0.183,2.261,0.237c-0.055,0.529-0.109,0.967-0.128,1.313c-0.036,0.365-0.036,0.803-0.055,1.331
		c-0.019,0.529,0.036,1.04,0.109,1.532c0.073,0.511,0.237,1.058,0.492,1.641c0.256,0.603,0.62,1.186,1.095,1.77
		c0.474,0.564,1.039,0.947,1.677,1.258l0.767,0.364c-0.475,0.62-0.784,1.131-0.985,1.55l-0.236,0.493
		c-0.456-0.292-0.876-0.584-1.276-0.876c-0.384-0.273-0.839-0.711-1.368-1.331c-0.528-0.602-0.82-1.039-0.948-1.313l-0.438-0.93
		c-0.219,0.383-0.474,0.802-0.747,1.258c-0.274,0.438-0.693,0.948-1.259,1.55c-0.565,0.584-1.35,1.148-2.315,1.714
		c-0.164-0.2-0.347-0.401-0.565-0.62c-0.183-0.219-0.583-0.51-1.203-0.893C25.352,74.606,26.026,74.224,26.573,73.805z"/>
	<path class="st1" d="M39.398,71.435l-2.006,0.055v-2.024l1.987,0.073h5.16l-0.036-0.693h2.151l-0.036,0.693h4.868l2.079-0.073
		v2.024l-2.061-0.055h-3.137c0.328,0.328,0.62,0.583,0.857,0.766c0.255,0.182,0.747,0.456,1.477,0.82s1.313,0.565,1.732,0.62
		c0.42,0.055,0.912,0.109,1.459,0.091c-0.456,0.82-0.839,1.532-1.148,2.134c-0.967-0.256-1.715-0.511-2.262-0.748
		c-0.547-0.255-1.075-0.547-1.586-0.875s-1.276-0.912-2.279-1.751v1.896l0.072,1.44h-2.206l0.055-1.458v-2.098
		c-0.856,0.767-1.678,1.423-2.479,1.951c-0.803,0.547-1.933,1.131-3.373,1.732c-0.109-0.183-0.237-0.383-0.365-0.62
		c-0.146-0.236-0.474-0.675-0.984-1.313c1.021-0.109,1.987-0.42,2.899-0.912c0.911-0.51,1.531-0.93,1.859-1.239l0.475-0.438H39.398z
		 M42.954,64.56h-3.137l-2.097,0.055v-1.933l2.17,0.055h3.41c-0.22-0.273-0.456-0.528-0.712-0.784
		c0.383-0.183,0.712-0.383,1.003-0.62h-2.17l-1.969,0.055V59.49l1.842,0.073h9.281l0.547,1.222
		c-1.131,0.803-2.115,1.459-2.954,1.951h4.176l0.729,0.93c-0.128,0.438-0.256,0.876-0.383,1.295
		c-0.128,0.419-0.365,1.058-0.693,1.933c-0.875-0.055-1.404-0.072-1.586-0.072l-0.748,0.036c0.164-0.328,0.31-0.639,0.438-0.912
		c0.128-0.291,0.311-0.747,0.547-1.386l-3.519-0.018c0.127,0.4,0.219,0.729,0.255,0.984c0.055,0.255,0.109,0.547,0.109,0.856
		c0.019,0.347-0.055,0.675-0.164,0.967c-0.091,0.273-0.219,0.492-0.364,0.656c-0.146,0.146-0.384,0.292-0.712,0.438
		c-0.328,0.128-0.638,0.219-0.93,0.256c-0.273,0.036-0.62,0.072-1.058,0.091c-0.164-0.62-0.31-1.039-0.419-1.276l-0.328-0.675
		c0.766,0.073,1.239,0.055,1.403-0.036c0.183-0.092,0.328-0.219,0.42-0.401c0.109-0.183,0.109-0.438,0-0.784l-0.146-0.474
		c-1.403,1.276-2.625,2.151-3.646,2.625c-1.039,0.475-2.024,0.876-2.936,1.222c-0.073-0.164-0.164-0.346-0.256-0.528
		c-0.091-0.183-0.4-0.639-0.93-1.367C39.197,66.967,41.039,66.128,42.954,64.56z M47.294,61.314h-2.407
		c0.255,0.383,0.528,0.766,0.803,1.13C46.236,62.116,46.765,61.733,47.294,61.314z"/>
	<path class="st1" d="M58.24,67.313c-0.456-0.42-0.875-0.767-1.24-1.021c-0.401-0.273-0.894-0.583-1.477-0.93
		c0.474-0.729,0.747-1.186,0.82-1.386l0.2-0.42c1.222,0.784,2.115,1.386,2.699,1.806C58.806,66.146,58.478,66.803,58.24,67.313z
		 M58.678,72.437c-0.292,0.912-0.62,1.715-0.912,2.389l-0.474,1.058c-0.584-0.729-1.167-1.313-1.751-1.769
		c0.11-0.164,0.256-0.383,0.438-0.675c0.164-0.273,0.364-0.766,0.638-1.477c0.256-0.693,0.511-1.331,0.711-1.915
		c0.183-0.583,0.311-1.021,0.383-1.313l0.164-0.675c0.128,0.109,0.256,0.201,0.365,0.292s0.583,0.383,1.44,0.894
		C59.298,70.468,58.97,71.525,58.678,72.437z M59.115,62.81c-0.839-0.748-1.732-1.423-2.681-2.024
		c0.164-0.183,0.328-0.364,0.475-0.547c0.146-0.183,0.383-0.547,0.692-1.094c0.767,0.474,1.66,1.075,2.662,1.805
		C59.899,61.441,59.517,62.062,59.115,62.81z M70.074,67.878l0.055-1.258v-0.492h-8.862v0.474l0.037,1.24h-2.006l0.055-1.404v-0.856
		l-0.055-1.276l1.495,0.036h0.583v-3.282l-0.072-1.769l1.878,0.073h4.504l2.042-0.073l-0.055,1.769v3.282h0.984l1.496-0.036
		l-0.037,1.35v0.802l0.037,1.422H70.074z M69.728,68.243v6.272c0,0.529-0.128,0.894-0.364,1.094
		c-0.256,0.219-0.639,0.365-1.149,0.438c-0.51,0.056-0.948,0.092-1.294,0.092c-0.201-0.948-0.328-1.495-0.365-1.623l-0.146-0.456
		c0.656,0.092,1.058,0.073,1.186-0.055c0.146-0.127,0.219-0.292,0.219-0.492v-0.638h-4.285v0.984l0.036,2.006h-2.006l0.073-2.134
		v-5.488l-0.036-1.587l1.622,0.055h4.924l1.623-0.055L69.728,68.243z M67.649,61.132h-4.304v0.656v2.553h1.24v-1.459l-0.055-1.203
		l1.222,0.091h1.896V61.132z M67.813,68.353h-4.285v0.656h4.285V68.353z M67.813,70.559h-4.285v0.656h4.285V70.559z M67.649,63.229
		h-1.204v1.112h1.204V63.229z"/>
	<path class="st1" d="M74.347,63.739l-0.055-1.531l1.095,0.055l1.222,0.018c0.091-0.347,0.164-0.711,0.236-1.094
		c0.073-0.383,0.109-0.803,0.128-1.258l0.019-0.584c1.075,0.219,1.878,0.347,2.406,0.401c-0.127,0.419-0.219,0.747-0.273,0.948
		l-0.219,0.894l-0.164,0.675h1.386l1.204-0.055l-0.073,1.531v9.464l0.073,1.896h-2.115v-0.292h-2.771V75.1h-2.152l0.055-1.934
		V63.739z M79.216,67.313v-3.155h-2.771v3.155H79.216z M79.216,72.856v-3.684h-2.771v3.684H79.216z M86.09,59.728
		c-0.109,0.438-0.2,0.766-0.255,0.967l-0.347,1.167l-0.164,0.565h3.446l1.094-0.055c-0.036,0.856-0.073,1.495-0.073,1.914
		l-0.018,3.482l-0.037,3.556c-0.018,1.277-0.109,2.152-0.273,2.626c-0.182,0.492-0.364,0.839-0.583,1.04
		c-0.237,0.2-0.584,0.4-1.04,0.583c-0.455,0.183-1.313,0.347-2.553,0.474c-0.036-0.31-0.091-0.602-0.164-0.875
		c-0.055-0.273-0.127-0.547-0.255-0.82l-0.347-0.729c0.42,0.055,0.839,0.073,1.276,0.055c0.401-0.019,0.693-0.055,0.875-0.128
		c0.183-0.055,0.347-0.164,0.511-0.328c0.146-0.164,0.256-0.4,0.292-0.711c0.055-0.31,0.091-0.82,0.128-1.531
		c0.018-0.693,0.036-1.259,0.036-1.696v-4.923h-3.063c-0.164,0.347-0.347,0.747-0.602,1.222c-0.237,0.456-0.803,1.167-1.641,2.115
		c-0.092-0.237-0.183-0.492-0.273-0.729c-0.11-0.256-0.365-0.766-0.748-1.514c0.31-0.237,0.62-0.602,0.948-1.094
		s0.62-1.131,0.875-1.915c0.256-0.802,0.42-1.403,0.492-1.787c0.073-0.383,0.109-0.674,0.128-0.893l0.036-0.565
		C84.229,59.345,84.996,59.509,86.09,59.728z M84.613,66.931c0.236,0.4,0.419,0.692,0.547,0.893l0.583,0.931l0.475,0.747
		l0.364,0.529c-0.164,0.127-0.292,0.219-0.383,0.273l-1.058,0.747l-0.438,0.347c-0.401-0.82-0.711-1.422-0.93-1.823
		c-0.237-0.401-0.584-0.912-1.04-1.514C83.556,67.623,84.175,67.24,84.613,66.931z"/>
	<path class="st1" d="M94.593,66.42c0.894-0.529,1.696-1.131,2.407-1.806h-2.517l-1.914,0.055v-1.987l1.914,0.055h4.741l0.019-0.93
		c-1.003,0.018-2.426,0.055-4.285,0.127c-0.164-0.729-0.311-1.203-0.401-1.422l-0.273-0.638c1.167,0.091,2.225,0.127,3.173,0.146
		c0.93,0,2.206-0.036,3.847-0.2c1.623-0.146,2.608-0.311,2.973-0.438l0.675-0.219c0.511,1.003,0.784,1.532,0.839,1.604l0.364,0.548
		c-1.075,0.091-2.681,0.219-4.796,0.364v1.058h5.143l1.531-0.055v1.987l-1.531-0.055l-3.063-0.018
		c0.255,0.255,0.475,0.474,0.675,0.656c0.2,0.164,0.511,0.383,0.912,0.656c0.419,0.273,0.911,0.547,1.477,0.82
		c0.583,0.273,1.367,0.492,2.334,0.656c-0.492,0.729-0.766,1.24-0.857,1.532l-0.2,0.583c-1.094-0.4-1.86-0.747-2.334-1.003
		l-1.094-0.602c-0.164,0.602-0.328,1.259-0.492,1.97h2.005l1.058-0.055c-0.018,0.638-0.018,1.112-0.036,1.422l-0.073,1.148
		c-0.036,0.639-0.091,1.149-0.182,1.514c-0.073,0.365-0.256,0.729-0.584,1.095c-0.31,0.346-0.856,0.602-1.586,0.783
		c-0.729,0.164-1.532,0.273-2.389,0.329c-0.128-0.767-0.273-1.295-0.401-1.587l-0.292-0.656c0.511,0.055,0.984,0.073,1.404,0.073
		c0.747,0,1.24-0.128,1.495-0.401c0.255-0.256,0.364-0.529,0.401-0.784l0.127-1.094h-2.461l-0.894,0.036
		c0.109-0.311,0.2-0.584,0.273-0.82c0.073-0.237,0.164-0.675,0.292-1.313l-2.371-0.018c-0.072,0.383-0.2,0.911-0.364,1.586
		c-0.164,0.693-0.529,1.422-1.076,2.17c-0.565,0.766-1.203,1.367-1.951,1.769c-0.766,0.42-1.586,0.766-2.461,1.095
		c-0.365-0.729-0.639-1.204-0.839-1.423l-0.475-0.528c0.748-0.128,1.404-0.311,1.97-0.529c0.583-0.219,1.058-0.492,1.44-0.82
		c0.364-0.328,0.675-0.711,0.912-1.131c0.255-0.438,0.419-0.766,0.455-0.984l0.237-1.186h-0.383l-1.714,0.073v-1.477
		c-0.748,0.438-1.532,0.875-2.353,1.294c-0.511-0.839-0.802-1.331-0.894-1.458l-0.364-0.511
		C92.788,67.295,93.718,66.931,94.593,66.42z M97.128,67.751h6.108l0.839-0.037c-0.493-0.383-0.894-0.711-1.222-1.003
		c-0.311-0.273-0.803-0.802-1.478-1.567v0.784l0.055,1.495h-2.242l0.055-1.495l0.018-0.748c-0.219,0.237-0.511,0.511-0.856,0.839
		c-0.365,0.328-1.112,0.912-2.279,1.695L97.128,67.751z"/>
	<path class="st1" d="M118.96,67.495l-0.639,0.237c-0.2,0.146-0.51,0.201-0.729,0.383l-0.475-0.839
		c-0.602,0.019-1.604,0.164-2.334,0.164c-0.729,0.019-1.422,0.146-1.769,0.146c-0.401,0.018-0.93,0.091-1.842,0.164l-0.62-1.44
		c0.675-0.256,1.058-0.438,1.167-0.511l0.383-0.256h-1.003h-0.875V64.25l1.295,0.036v-3.154l-0.037-1.714l1.915,0.036h3.063
		l2.061-0.036v1.386l-2.061-0.037h-3.045v0.475h3.1l1.695-0.036v1.075l-1.695-0.036h-3.1v0.492h3.118l1.677-0.055v1.112
		l-1.695-0.036h-3.1v0.528h3.118l2.352-0.055v1.386l-0.911-0.073c0.2,0.274,1.075,1.259,1.458,1.824L118.96,67.495z M126.053,75.555
		l-0.2,0.383c-1.148-0.146-2.261-0.236-2.99-0.383c-0.729-0.164-1.842-0.383-2.79-0.729c-0.364,0.146-0.547,0.256-0.93,0.384
		c-0.383,0.127-0.748,0.31-1.604,0.492c-0.529,0.109-1.514,0.419-2.498,0.511c-0.201-0.384-0.493-0.675-0.62-0.839l-0.712-0.821
		c0.438,0.055,1.696-0.109,2.353-0.219c0.766-0.127,1.459-0.255,1.933-0.455c-0.291-0.183-1.021-0.62-1.641-1.04
		c-0.347-0.255-0.675-0.511-0.857-0.711c-0.528,0.948-1.094,1.642-1.859,2.261c-0.42,0.328-0.894,0.639-1.44,0.948
		c-0.164-0.146-0.547-0.438-0.693-0.511c-0.109-0.091-0.511-0.291-1.167-0.638c0.62-0.219,1.24-0.547,1.806-1.003
		c0.528-0.438,1.021-0.967,1.403-1.568c0.256-0.383,0.456-0.784,0.603-1.222h-1.623l-1.97,0.019v-1.386l1.987,0.018h1.824
		c0.055-0.383,0.091-0.528,0.091-0.619v-0.894c0.729,0.018,1.732,0.127,2.37,0.219c-0.146,0.438-0.109,0.583-0.127,0.675
		l-0.128,0.619h5.488l-0.547-0.328l-0.748-0.328l1.204-1.44l0.602,0.383l0.839,0.529l0.82,0.347l-0.747,0.838h1.239l1.915-0.036
		v1.514l-1.823-0.055h-8.497c-0.109,0.438-0.456,1.112-0.657,1.44c0.365-0.292,0.857-0.711,1.058-0.984
		c0.219,0.273,0.565,0.565,0.985,0.856c0.729,0.529,1.604,1.04,2.17,1.295c0.4-0.273,0.947-0.857,1.44-1.55
		c0.236-0.328,0.455-0.675,0.638-1.021l1.787,1.112c-0.237,0.365-0.656,0.82-1.003,1.24c-0.255,0.328-0.583,0.638-0.839,0.875
		c0.875,0.328,1.987,0.328,2.498,0.42c0.729,0.109,1.642,0.036,2.407,0.055C126.399,74.68,126.107,75.464,126.053,75.555z
		 M114.766,65.544l0.164,0.146l-1.002,0.547l2.406-0.055l-0.383-0.383c0.164-0.091,0.401-0.128,0.565-0.256H114.766z
		 M122.716,61.387c-0.784,0.237-1.823,0.492-3.1,0.784c-0.255-0.62-0.456-1.003-0.602-1.222l-0.31-0.474
		c0.656-0.055,1.386-0.128,2.188-0.237c0.784-0.109,1.878-0.492,3.282-1.148c0.183,0.2,0.365,0.383,0.511,0.564
		c0.164,0.146,0.474,0.401,0.912,0.712C124.467,60.804,123.519,61.132,122.716,61.387z M123.063,66.547
		c-0.875,0.274-1.823,0.548-2.862,0.784c-0.109-0.2-0.219-0.419-0.328-0.62c-0.128-0.219-0.384-0.583-0.803-1.094
		c0.639-0.055,1.131-0.109,1.459-0.183c0.328-0.055,1.003-0.219,2.023-0.51c1.003-0.292,2.024-0.767,3.063-1.404
		c0.401,0.602,0.675,0.984,0.803,1.131l0.401,0.455C125.196,65.8,123.938,66.273,123.063,66.547z M123.336,63.775
		c-1.003,0.347-1.586,0.547-1.769,0.584l-1.477,0.347c-0.092-0.183-0.183-0.384-0.256-0.529c-0.091-0.183-0.328-0.528-0.692-1.076
		c0.93-0.109,1.714-0.273,2.352-0.474c0.639-0.183,1.24-0.383,1.787-0.584c0.547-0.2,1.112-0.474,1.714-0.82
		c0.164,0.164,0.292,0.292,0.383,0.383l0.456,0.511l0.511,0.492C125.342,63.046,124.339,63.447,123.336,63.775z"/>
	<path class="st1" d="M135.194,70.413c0.748-0.529,1.386-1.368,1.422-2.353h-1.367v-2.644h2.863v2.151
		c0,1.787-0.401,2.809-1.751,3.811L135.194,70.413z"/>
	<path class="st1" d="M147.053,64.833c0.164-0.2,0.383-0.565,0.656-1.075c1.112,0.82,1.987,1.495,2.645,2.042
		c-0.42,0.583-0.839,1.167-1.24,1.75c-0.492-0.492-0.912-0.875-1.24-1.13c-0.328-0.273-0.784-0.602-1.367-0.985
		C146.688,65.234,146.87,65.034,147.053,64.833z M147.509,72.437c0.364-0.692,0.675-1.403,0.948-2.151
		c0.255-0.747,0.492-1.514,0.711-2.315c0.692,0.474,1.313,0.839,1.842,1.112c-0.328,1.003-0.693,2.042-1.076,3.081
		c-0.401,1.058-0.912,2.279-1.568,3.647c-0.164-0.201-0.31-0.365-0.438-0.511c-0.128-0.128-0.602-0.529-1.404-1.203
		C146.834,73.677,147.162,73.13,147.509,72.437z M149.423,59.363c1.131,0.766,2.079,1.477,2.863,2.115
		c-0.529,0.583-0.985,1.167-1.386,1.731c-0.256-0.236-0.529-0.492-0.839-0.766c-0.311-0.273-0.967-0.766-1.987-1.477
		C148.548,60.493,149.004,59.965,149.423,59.363z M151.355,70.687c0.092-0.419,0.165-0.967,0.237-1.642
		c0.073-0.656,0.128-1.222,0.146-1.695c0.018-0.492,0.036-0.766,0.036-0.82l-0.055-1.331c0.656,0.219,1.386,0.383,2.188,0.474
		c-0.037,0.492-0.073,0.875-0.092,1.131l-0.128,1.878c-0.036,0.639-0.127,1.313-0.219,2.024c-0.072,0.692-0.146,1.148-0.182,1.386
		l-0.146,0.82c-0.948-0.31-1.678-0.529-2.17-0.639C151.137,71.635,151.265,71.105,151.355,70.687z M155.878,59.254
		c0.183,0.164,0.328,0.273,0.42,0.346l1.44,1.149c0.2,0.164,0.856,0.711,1.951,1.659c-0.11,0.128-0.329,0.383-0.62,0.729
		c-0.311,0.364-0.547,0.692-0.748,0.984c-0.383-0.364-0.675-0.638-0.894-0.82c-0.2-0.201-0.62-0.565-1.276-1.112
		c-0.638-0.547-1.222-1.003-1.75-1.386C154.984,60.274,155.477,59.765,155.878,59.254z M156.771,64.158l-0.055,2.316l-0.019,6.473
		c0,0.292,0.055,0.492,0.164,0.602c0.092,0.109,0.347,0.164,0.748,0.183s0.675,0.019,0.802,0c0.384,0,0.639-0.055,0.803-0.164
		c0.146-0.128,0.255-0.31,0.328-0.565c0.091-0.236,0.146-0.474,0.201-0.692c0.018-0.237,0.036-0.475,0.036-0.729l0.036-0.328
		c0.839,0.438,1.386,0.692,1.642,0.747l0.565,0.128c-0.073,0.383-0.183,0.857-0.311,1.44c-0.128,0.584-0.292,1.021-0.511,1.331
		c-0.2,0.311-0.456,0.547-0.766,0.729s-1.039,0.255-2.225,0.237c-1.604-0.037-2.571-0.164-2.899-0.42
		c-0.328-0.255-0.528-0.51-0.583-0.747c-0.055-0.256-0.092-0.584-0.092-0.985v-7.238l-0.055-2.316H156.771z M159.816,65.344
		c0.201-0.091,0.62-0.328,1.259-0.729c0.51,0.857,0.948,1.604,1.313,2.262c0.364,0.656,0.766,1.422,1.203,2.334
		c-0.438,0.291-1.058,0.729-1.878,1.331c-0.456-1.04-0.839-1.915-1.203-2.626c-0.347-0.693-0.82-1.459-1.368-2.279
		C159.415,65.526,159.634,65.435,159.816,65.344z"/>
	<path class="st1" d="M166.022,63.43c1.058,0.893,1.859,1.659,2.406,2.297c-0.583,0.492-0.947,0.839-1.094,1.021l-0.328,0.401
		c-0.364-0.493-0.711-0.894-1.039-1.186s-0.766-0.675-1.331-1.167C165.147,64.377,165.603,63.922,166.022,63.43z M165.329,73.111
		c0.273-0.364,0.584-0.984,0.931-1.878c0.346-0.894,0.711-1.987,1.094-3.282c0.255,0.201,0.474,0.365,0.656,0.511
		c0.2,0.128,0.528,0.31,1.021,0.583c-0.292,0.894-0.675,1.951-1.167,3.173c-0.475,1.222-0.985,2.371-1.514,3.465
		c-0.146-0.219-0.311-0.438-0.475-0.656c-0.182-0.237-0.564-0.62-1.167-1.148C164.855,73.713,165.056,73.458,165.329,73.111z
		 M166.824,59.709l0.383-0.51c0.948,0.856,1.496,1.367,1.66,1.531l0.729,0.766v-0.675l1.751,0.092h0.565l-0.055-1.659h2.061
		l-0.073,1.659h2.315l-0.072-1.623l2.061-0.019l-0.055,1.642h1.058l2.078-0.092v1.77l-2.188-0.073h-0.947v1.44l0.055,1.131
		l-1.441-0.055h-0.802v1.148h2.899l2.006-0.073l-0.092,1.751v6.437c0,0.583-0.091,0.984-0.273,1.203
		c-0.182,0.219-0.383,0.365-0.602,0.438c-0.219,0.073-0.401,0.128-0.583,0.165c-0.164,0.018-0.712,0.072-1.623,0.164
		c-0.128-0.803-0.292-1.331-0.401-1.605l-0.219-0.528c0.438,0.073,0.82,0.109,1.131,0.091c0.219,0,0.383-0.072,0.474-0.164
		c0.109-0.091,0.164-0.291,0.164-0.583l-0.019-0.803c-0.31,0.146-0.602,0.328-0.875,0.529l-0.401-1.44
		c-0.31,0.783-0.492,1.222-0.547,1.313l-0.237,0.438c-0.255-0.383-0.438-0.62-0.564-0.729l-0.237-0.182v1.276l0.091,2.133h-1.951
		l0.073-2.023l0.019-1.167c-0.292,0.182-0.602,0.419-0.912,0.692c-0.109-0.565-0.2-0.911-0.255-1.058l-0.201-0.602
		c-0.072,0.2-0.164,0.401-0.273,0.62c-0.091,0.219-0.291,0.565-0.583,1.058c-0.201-0.347-0.347-0.565-0.438-0.656l-0.256-0.237
		v1.295l0.092,2.078h-2.024l0.091-2.115v-5.999l-0.091-1.787l1.97,0.073h2.862v-1.148h-0.894l-1.367,0.055l0.055-1.204v-1.367
		h-0.565l-1.751,0.091v-0.875c-0.438,0.365-0.692,0.602-0.783,0.693l-0.584,0.638c-0.183-0.219-0.419-0.511-0.711-0.839
		c-0.292-0.347-0.875-0.875-1.732-1.586C166.351,60.165,166.715,59.874,166.824,59.709z M172.039,70.522l0.11-0.438
		c-0.092-0.365-0.146-0.584-0.165-0.639l-0.31-0.692c0.401-0.073,0.839-0.219,1.35-0.42c0.401,1.021,0.766,2.098,1.094,3.228v-3.756
		h-2.899v4.029C171.656,71.416,171.93,70.979,172.039,70.522z M176.16,63.466v-0.948h-2.315v0.948H176.16z M176.124,71.58
		l0.639-1.604c-0.092-0.311-0.146-0.492-0.165-0.529l-0.328-0.82c0.328-0.055,0.748-0.219,1.259-0.474
		c0.255,0.547,0.492,1.039,0.656,1.477c0.183,0.456,0.364,1.076,0.602,1.86v-3.684h-2.881v4.048
		C176.033,71.689,176.105,71.599,176.124,71.58z"/>
	<path class="st1" d="M185.739,66.931c-0.966-0.894-1.787-1.568-2.479-2.024c0.456-0.529,0.729-0.894,0.839-1.076l0.255-0.438
		c0.766,0.584,1.604,1.24,2.535,2.006C186.469,65.873,186.086,66.383,185.739,66.931z M186.633,71.708
		c-0.474,1.203-1.076,2.461-1.769,3.792c-0.109-0.164-0.255-0.4-0.438-0.692s-0.547-0.711-1.112-1.24
		c0.183-0.237,0.364-0.474,0.547-0.747c0.164-0.237,0.419-0.693,0.766-1.368c0.347-0.692,0.62-1.295,0.82-1.823
		c0.201-0.528,0.42-1.203,0.639-2.042c0.638,0.62,1.058,0.966,1.258,1.075l0.328,0.219
		C187.453,69.574,187.107,70.522,186.633,71.708z M186.925,62.9c-0.894-0.766-1.787-1.44-2.662-2.042
		c0.528-0.602,0.93-1.131,1.203-1.568c0.164,0.128,0.292,0.219,0.365,0.292l1.878,1.35l0.364,0.328
		C187.636,61.843,187.253,62.39,186.925,62.9z M198.795,76.321c-0.82-0.347-1.44-0.639-1.859-0.894
		c-0.42-0.237-0.784-0.511-1.131-0.803c-0.328-0.292-0.747-0.729-1.258-1.331c-0.037,0.237-0.055,0.438-0.073,0.62
		s-0.019,0.31,0,0.383l0.019,0.602c-0.602,0.164-1.112,0.311-1.532,0.456c-0.419,0.146-1.021,0.401-1.769,0.766
		c-0.237-0.474-0.547-0.984-0.93-1.531c0.183-0.146,0.31-0.273,0.401-0.401c0.055-0.128,0.091-0.255,0.109-0.401
		c0.018-0.146,0.036-0.273,0.036-0.401V71.58l-0.875,0.019c-0.055,0.291-0.146,0.674-0.237,1.148
		c-0.109,0.474-0.328,1.039-0.656,1.695c-0.311,0.657-0.711,1.295-1.204,1.934c-0.164-0.128-0.328-0.256-0.51-0.365
		c-0.183-0.128-0.657-0.364-1.44-0.711c0.364-0.237,0.638-0.456,0.838-0.675c0.201-0.2,0.365-0.456,0.548-0.784
		c0.164-0.31,0.31-0.62,0.4-0.894c0.092-0.291,0.183-0.656,0.256-1.094s0.128-0.784,0.146-1.039
		c0.019-0.256,0.055-0.547,0.073-0.894l0.036-0.639v-1.167l-0.091-1.604l1.878,0.091h7.75l1.731-0.055v1.496l-1.731-0.055h-7.641
		l-0.055,2.242h7.969l1.732-0.073v1.478l-1.732-0.036c0.455,0.328,0.747,0.51,0.856,0.564l0.492,0.237
		c-0.492,0.401-1.075,0.839-1.731,1.313c0.255,0.146,0.51,0.274,0.783,0.42c0.274,0.128,0.729,0.237,1.387,0.328
		C199.434,75.026,199.105,75.646,198.795,76.321z M197.519,65.964h-7.403l-1.695,0.055l0.055-1.531v-2.608l-0.055-1.403l1.695,0.036
		l1.331,0.019l-0.055-1.313h1.77l-0.055,1.295l1.294,0.019l-0.055-1.313h1.751l-0.055,1.295l1.477,0.019l1.568-0.055l-0.055,1.403
		v2.608l0.055,1.531L197.519,65.964z M191.446,61.971h-1.239v0.802h1.239V61.971z M191.446,63.903h-1.239v0.875h1.239V63.903z
		 M197.1,69.684h-4.924l-1.55,0.055l-0.018-1.331l1.567,0.073h4.924l1.514-0.073v1.331L197.1,69.684z M193.435,71.58h-0.803v2.17
		c0.438-0.128,1.021-0.347,1.787-0.639C194.072,72.638,193.744,72.127,193.435,71.58z M194.4,61.971h-1.294v0.802h1.294V61.971z
		 M194.4,63.903h-1.294v0.875h1.294V63.903z M195.386,71.58c0.346,0.511,0.528,0.766,0.564,0.784l0.384,0.419
		c0.182-0.146,0.364-0.292,0.51-0.438c0.164-0.146,0.365-0.401,0.603-0.766H195.386z M197.154,61.971h-1.112v0.802h1.112V61.971z
		 M197.154,63.903h-1.112v0.875h1.112V63.903z"/>
	<path class="st1" d="M202.011,65.563c0.273-0.109,0.638-0.383,1.094-0.82c0.474-0.438,0.82-0.857,1.058-1.258l0.292-0.493h-1.313
		l-1.495,0.037v-1.97l1.495,0.037h2.024c0.164-0.565,0.273-0.931,0.31-1.095l0.128-0.692c0.93,0.182,1.695,0.31,2.298,0.364
		l-0.42,1.423h1.44l1.97-0.037v1.97l-1.933-0.037h-2.152c-0.291,0.584-0.474,0.948-0.564,1.095l-0.438,0.656h3.137l1.531-0.036
		l-0.036,1.677v7.422c0,0.456-0.055,0.839-0.183,1.131c-0.109,0.291-0.51,0.51-1.185,0.656c-0.712,0.146-1.331,0.219-1.86,0.236
		c-0.036-0.255-0.073-0.528-0.128-0.838c-0.055-0.292-0.109-0.565-0.182-0.821l-0.201-0.638c0.292,0,0.584,0.018,0.876,0.018
		c0.31,0.019,0.51-0.018,0.602-0.109c0.091-0.109,0.146-0.255,0.146-0.438v-1.239h-2.808v2.151l0.036,1.878h-2.079l0.037-1.878
		V67.24c-0.438,0.31-0.857,0.583-1.276,0.839c-0.092-0.256-0.201-0.529-0.311-0.82c-0.109-0.273-0.346-0.748-0.729-1.404
		C201.481,65.764,201.755,65.672,202.011,65.563z M208.319,67.604v-1.094h-2.808v1.094H208.319z M208.319,70.194v-1.058h-2.808
		v1.058H208.319z M212.859,60.147h4.395l0.675,0.948l-2.133,4.978c0.656,0.438,1.13,0.839,1.403,1.186
		c0.292,0.364,0.565,0.839,0.839,1.422c0.256,0.584,0.347,1.295,0.273,2.134c-0.072,0.839-0.328,1.531-0.766,2.078
		s-1.021,0.857-1.732,1.058l-1.039,0.292c-0.073-0.292-0.146-0.584-0.237-0.875c-0.072-0.273-0.164-0.511-0.255-0.711l-0.311-0.729
		c0.347,0.018,0.712-0.019,1.058-0.092c0.383-0.072,0.729-0.364,1.021-0.894c0.31-0.528,0.273-1.167-0.109-1.933
		s-0.803-1.276-1.24-1.568l-0.729-0.492v-1.058c0.493-1.294,0.784-2.115,0.894-2.479l0.438-1.404h-1.969v11.853l0.055,2.078h-2.151
		l0.091-2.078V61.971l-0.055-1.86L212.859,60.147z"/>
	<path class="st1" d="M220.269,63.739l-0.055-1.531l1.095,0.055l1.222,0.018c0.091-0.347,0.164-0.711,0.236-1.094
		c0.073-0.383,0.109-0.803,0.128-1.258l0.019-0.584c1.075,0.219,1.878,0.347,2.406,0.401c-0.127,0.419-0.219,0.747-0.273,0.948
		l-0.219,0.894l-0.164,0.675h1.386l1.204-0.055l-0.073,1.531v9.464l0.073,1.896h-2.115v-0.292h-2.771V75.1h-2.152l0.055-1.934
		V63.739z M225.138,67.313v-3.155h-2.771v3.155H225.138z M225.138,72.856v-3.684h-2.771v3.684H225.138z M232.012,59.728
		c-0.109,0.438-0.2,0.766-0.255,0.967l-0.347,1.167l-0.164,0.565h3.446l1.094-0.055c-0.036,0.856-0.073,1.495-0.073,1.914
		l-0.018,3.482l-0.037,3.556c-0.018,1.277-0.109,2.152-0.273,2.626c-0.182,0.492-0.364,0.839-0.583,1.04
		c-0.237,0.2-0.584,0.4-1.04,0.583c-0.455,0.183-1.313,0.347-2.553,0.474c-0.036-0.31-0.091-0.602-0.164-0.875
		c-0.055-0.273-0.127-0.547-0.255-0.82l-0.347-0.729c0.42,0.055,0.839,0.073,1.276,0.055c0.401-0.019,0.693-0.055,0.875-0.128
		c0.183-0.055,0.347-0.164,0.511-0.328c0.146-0.164,0.256-0.4,0.292-0.711c0.055-0.31,0.091-0.82,0.128-1.531
		c0.018-0.693,0.036-1.259,0.036-1.696v-4.923h-3.063c-0.164,0.347-0.347,0.747-0.602,1.222c-0.237,0.456-0.803,1.167-1.641,2.115
		c-0.092-0.237-0.183-0.492-0.273-0.729c-0.11-0.256-0.365-0.766-0.748-1.514c0.31-0.237,0.62-0.602,0.948-1.094
		s0.62-1.131,0.875-1.915c0.256-0.802,0.42-1.403,0.492-1.787c0.073-0.383,0.109-0.674,0.128-0.893l0.036-0.565
		C230.151,59.345,230.918,59.509,232.012,59.728z M230.535,66.931c0.236,0.4,0.419,0.692,0.547,0.893l0.583,0.931l0.475,0.747
		l0.364,0.529c-0.164,0.127-0.292,0.219-0.383,0.273l-1.058,0.747l-0.438,0.347c-0.401-0.82-0.711-1.422-0.93-1.823
		c-0.237-0.401-0.584-0.912-1.04-1.514C229.478,67.623,230.097,67.24,230.535,66.931z"/>
	<path class="st1" d="M239.129,64.669l-1.058,0.055v-2.042l1.094,0.036h0.985v-1.769l-0.073-1.732h2.188l-0.073,1.732v1.769h0.675
		l0.875-0.036v2.042l-0.875-0.055h-0.675v1.915c0.401-0.128,0.784-0.292,1.131-0.492c0.127,0.236,0.236,0.419,0.291,0.528
		l0.675,1.386l0.292,0.584v-3.392l-0.073-1.642l1.514,0.037h1.604l0.037-0.967h-1.934l-1.933,0.073v-2.043l1.933,0.073h2.043
		c0-0.401,0-0.656,0-0.747l-0.055-0.693c1.258,0.091,2.042,0.146,2.37,0.146c-0.055,0.438-0.073,0.712-0.073,0.803l-0.036,0.528
		h2.517l1.859-0.055V62.7l-1.823-0.073h-2.698l-0.055,0.967h2.06l1.532-0.037l-0.055,1.623v8.461l1.495-0.073v1.987l-1.823-0.072
		h-8.406l-1.678,0.072v-1.987l1.678,0.073l-0.019-4.777c-0.547,0.347-1.094,0.729-1.622,1.148c-0.092-0.347-0.164-0.62-0.237-0.82
		c-0.055-0.183-0.237-0.584-0.511-1.222v5.98l0.073,1.987h-2.188l0.073-2.005v-3.355v-1.24c-0.875,1.021-1.331,1.55-1.368,1.587
		l-0.383,0.4c-0.091-0.346-0.182-0.711-0.273-1.075c-0.091-0.383-0.146-0.62-0.183-0.711l-0.273-0.748
		c0.328-0.2,0.565-0.383,0.712-0.528c0.164-0.146,0.364-0.401,0.583-0.767c0.237-0.364,0.456-0.747,0.639-1.148
		c0.2-0.419,0.291-0.784,0.383-1.094l0.164-0.584H239.129z M251.255,66.219V65.38h-4.613v0.839H251.255z M251.255,67.896h-4.613
		v0.729h4.613V67.896z M246.642,71.051h4.613v-0.766h-4.613V71.051z M246.642,72.729v0.912h4.613v-0.912H246.642z"/>
	<path class="st1" d="M262.073,65.125h-0.438v3.209c0.748-0.273,1.44-0.547,2.115-0.856c-0.055,0.383-0.091,0.692-0.109,0.93
		c-0.019,0.219-0.019,0.456-0.019,0.693l0.019,0.492c-0.656,0.219-1.331,0.474-2.006,0.747v3.264l0.073,2.389h-2.243l0.055-2.37
		l0.019-2.553c-0.894,0.31-1.787,0.656-2.662,1.021c-0.183-0.712-0.31-1.131-0.364-1.295l-0.384-1.021
		c0.985-0.146,1.642-0.255,1.987-0.364l1.404-0.42v-3.865h-0.856c-0.237,0.984-0.438,1.642-0.548,1.97l-0.328,0.948
		c-0.547-0.456-0.93-0.748-1.13-0.857l-0.675-0.383c0.109-0.273,0.237-0.602,0.383-0.984c0.146-0.384,0.292-1.003,0.438-1.842
		c0.146-0.839,0.201-1.514,0.219-2.043l0.019-0.911c0.894,0.219,1.404,0.328,1.514,0.328l0.692,0.091l-0.255,1.714h0.528v-2.224
		l-0.055-1.605h2.243l-0.073,1.642v2.188h0.438l1.149-0.036v1.823c0.127-0.219,0.273-0.455,0.419-0.729
		c0.146-0.255,0.328-0.692,0.565-1.294c0.237-0.62,0.419-1.186,0.565-1.714c0.146-0.529,0.255-0.985,0.328-1.386l0.109-0.639
		c0.911,0.31,1.641,0.511,2.206,0.602c-0.109,0.365-0.237,0.766-0.383,1.204c-0.128,0.438-0.2,0.692-0.237,0.747l-0.273,0.82h4.431
		l1.587-0.055c-0.019,0.912-0.036,1.604-0.036,2.061l0.018,2.334c0,0.237-0.018,1.112-0.036,2.626
		c-0.019,1.495-0.036,2.571-0.091,3.246c-0.037,0.674-0.128,1.222-0.274,1.659c-0.146,0.438-0.474,0.766-1.002,1.039
		c-0.511,0.255-1.332,0.474-2.426,0.602c-0.055-0.273-0.109-0.528-0.164-0.766s-0.146-0.456-0.255-0.675l-0.401-0.839
		c0.401,0.073,0.784,0.073,1.167,0.019s0.638-0.128,0.784-0.219c0.146-0.109,0.273-0.311,0.383-0.602
		c0.128-0.292,0.2-0.857,0.219-1.715l0.036-1.695l0.019-2.006l0.036-3.081h-4.412c0.528,0.2,1.167,0.4,1.914,0.583
		c-0.62,1.732-1.039,2.899-1.276,3.501c-0.236,0.62-0.602,1.24-1.058,1.86c-0.438,0.619-1.058,1.313-1.878,2.06
		c-0.547-0.492-1.094-0.966-1.641-1.403c0.255-0.146,0.547-0.347,0.875-0.565c0.328-0.237,0.675-0.62,1.039-1.131
		c0.383-0.528,0.729-1.167,1.039-1.896c0.311-0.747,0.475-1.386,0.584-1.896l0.237-1.112h-0.219
		c-0.529,0.966-1.112,1.914-1.77,2.862c-0.564-0.419-0.93-0.675-1.094-0.748l-0.784-0.383c0.328-0.31,0.656-0.656,0.967-1.058
		L262.073,65.125z M269.349,69.319c-0.346,1.058-0.729,1.95-1.167,2.698c-0.438,0.729-1.003,1.386-1.714,1.97
		c-0.711,0.602-1.695,1.185-2.917,1.769c-0.401-0.693-0.657-1.095-0.748-1.186l-0.602-0.62c0.328-0.109,0.711-0.237,1.148-0.401
		c0.42-0.164,0.967-0.492,1.642-1.021c0.675-0.511,1.222-1.131,1.641-1.823c0.438-0.729,0.803-1.604,1.112-2.626
		c0.292-1.021,0.492-1.823,0.584-2.407l0.146-0.93c0.565,0.237,1.222,0.456,1.97,0.656
		C270.061,66.967,269.695,68.279,269.349,69.319z"/>
	<path class="st1" d="M274.771,60.712l1.915,0.055h2.151v-0.291l-0.037-1.112h2.188l-0.055,1.112v0.291h3.501v-0.291l-0.036-1.076
		h2.133l-0.036,1.076v0.291h2.498l1.678-0.055v2.006l-1.678-0.055h-2.498l0.036,1.35h-2.133l0.036-1.35h-3.501l0.055,1.35H278.8
		l0.037-1.35h-2.151l-1.915,0.055v-1.823V60.712z M274.771,65.144l1.842,0.055l5.616,0.018c-0.347-0.4-0.748-0.783-1.24-1.13
		c0.565-0.383,0.93-0.693,1.131-0.931l0.31-0.383c1.058,0.931,1.732,1.532,2.006,1.824c-0.219,0.2-0.419,0.4-0.602,0.602h4.941
		l1.896-0.055v2.078l-1.896-0.072h-6.655l-0.055,1.331h5.251l1.678-0.055c-0.036,0.802-0.036,1.531-0.055,2.188
		c0,0.639-0.055,1.167-0.073,1.568c-0.036,0.42-0.055,0.82-0.127,1.24c-0.073,0.401-0.219,0.839-0.456,1.276
		c-0.237,0.456-0.711,0.784-1.386,0.948c-0.693,0.182-1.532,0.291-2.517,0.383c-0.019-0.219-0.036-0.456-0.055-0.693
		c-0.036-0.236-0.091-0.419-0.146-0.547l-0.438-0.984c0.893,0.091,1.531,0.073,1.933-0.036c0.401-0.128,0.656-0.256,0.766-0.401
		c0.128-0.128,0.219-0.328,0.273-0.62c0.055-0.273,0.091-0.62,0.109-1.039c0.019-0.42,0.019-0.748,0.019-1.003V70.34h-4.96
		c-0.091,0.347-0.183,0.729-0.292,1.131c-0.109,0.419-0.291,0.839-0.547,1.295c-0.255,0.419-0.602,0.82-1.058,1.203
		s-0.948,0.729-1.495,1.039c-0.547,0.311-1.386,0.639-2.517,0.967c-0.182-0.711-0.364-1.222-0.547-1.532l-0.364-0.602
		c0.911-0.109,1.678-0.328,2.315-0.638c0.639-0.328,1.203-0.821,1.714-1.478c0.511-0.638,0.766-1.823,0.803-3.556l0.018-1.021h-3.3
		l-1.842,0.072V65.144z"/>
	<path class="st1" d="M294.597,65.818h1.24v-1.331h-0.474l-1.915,0.055v-1.66l1.915,0.055h11.141l1.951-0.055l-0.036,1.66
		l-1.915-0.055h-0.565v1.331h1.478l1.695-0.073v1.787l-1.695-0.055h-1.478v1.567h0.62l1.769-0.055v1.806l-1.769-0.055h-4.686v1.148
		h4.212l2.68-0.091v1.859l-2.68-0.091h-4.212v0.492l0.072,2.207h-2.078l0.072-2.207v-0.492h-4.777l-2.206,0.091v-1.859l2.206,0.091
		h4.777v-1.148h-4.832l-1.75,0.055V68.99l1.75,0.055h0.729v-1.567h-1.24l-1.786,0.055v-1.787L294.597,65.818z M297.533,61.952
		h-2.079l-2.462,0.091v-1.859l2.462,0.091h2.079l-0.073-1.203h2.061l-0.055,1.203h2.899l-0.073-1.203h2.061l-0.055,1.203h1.987
		l2.425-0.091v1.859l-2.425-0.091h-1.987l0.055,0.784h-2.061l0.091-0.784h-2.917l0.055,0.784h-2.061L297.533,61.952z
		 M299.939,65.818v-1.331h-2.206v1.331H299.939z M299.939,69.045v-1.567h-2.206v1.567H299.939z M304.024,65.818v-1.331h-2.151v1.331
		H304.024z M304.024,69.045v-1.567h-2.151v1.567H304.024z"/>
</g>
<g>
	<rect x="0" y="96.667" class="st0" width="253.147" height="65.093"/>
	<path class="st1" d="M2.901,102.965c-0.635-0.635-1.313-1.328-2.05-1.818l0.39-0.376c0.751,0.491,1.473,1.17,2.122,1.819
		L2.901,102.965z M0.924,110.081c0.924-1.789,1.905-3.608,2.526-5.543l0.462,0.289c-0.592,1.963-1.559,3.782-2.512,5.601
		L0.924,110.081z M3.537,99.919c-0.606-0.678-1.271-1.327-1.964-1.861l0.332-0.376c0.679,0.462,1.386,1.198,2.021,1.819
		L3.537,99.919z M9.859,104.957c0.592,1.805,2.266,3.276,3.854,4.244l-0.403,0.505c-1.704-1.169-3.494-2.757-4.071-4.749H9.051
		l-0.015,5.456H8.444v-5.456H8.242c-0.664,1.949-2.439,3.522-4.1,4.792l-0.433-0.433c1.588-1.155,3.204-2.541,3.912-4.359H4.489
		l0.015-0.549h3.955l-0.015-1.646h0.592v1.646h4.345v0.549H9.859z M4.836,102.994c2.035-0.996,2.425-1.935,2.482-3.551l0.563,0.028
		c-0.029,1.184-0.217,2.699-2.569,3.94L4.836,102.994z M5.442,100.439H4.851l0.015-2.396h8.083v2.324h-0.592v-1.775H5.442V100.439z
		 M10.653,102.547c-0.491,0-0.823-0.274-0.823-0.766v-2.31l0.578-0.015l0.014,2.122c0,0.289,0.116,0.434,0.462,0.434h2.296v0.534
		H10.653z"/>
	<path class="st1" d="M25.079,100.309l0.273,0.188c-0.202,0.433-0.563,0.866-0.808,1.27h2.425v3.407l-8.488,0.015v-3.422
		l5.399,0.015c0.36-0.462,0.692-0.981,0.996-1.473H20.46c0.303,0.332,0.635,0.723,0.952,1.098l-0.447,0.317
		c-0.332-0.39-0.577-0.736-0.924-1.097l0.317-0.318h-3.002v4.359c0,2.064-0.332,4.229-1.17,6.02
		c-0.173-0.072-0.317-0.202-0.49-0.288c0.779-1.79,1.097-3.884,1.097-5.934l-0.015-6.423h10.596v2.295L25.079,100.309z
		 M17.356,99.789h9.469v-1.27h-9.469V99.789z M22.495,102.272H19.03v2.396h3.465V102.272z M25.729,110.457v-0.693l-5.933,0.015
		v0.722h-0.563v-4.359l7.073,0.015v4.302H25.729z M20.113,102.618c0.505,0.448,1.01,0.881,1.458,1.4l-0.404,0.304l-1.43-1.43
		L20.113,102.618z M19.781,108.263v0.996h5.947v-0.996H19.781z M25.742,106.675h-5.946v1.068h5.946V106.675z M23.058,104.668h3.335
		v-2.396h-3.335V104.668z M23.881,104.076c0.418-0.49,0.866-1.039,1.241-1.588l0.404,0.231c-0.361,0.577-0.779,1.126-1.228,1.646
		L23.881,104.076z"/>
	<path class="st1" d="M30.035,110.298l-0.26-0.592c0.794-0.145,1.848-0.404,2.699-0.621v-4.749h-2.339v-0.52h2.354v-1.861h-1.574
		v-0.477c-0.26,0.375-0.534,0.722-0.794,1.01l-0.462-0.36c1.242-1.443,2.252-3.017,3.046-4.764c0.174,0.072,0.289,0.173,0.447,0.274
		l-0.23,0.549c0.823,0.808,1.718,1.761,2.41,2.655l-0.39,0.318c-0.664-0.866-1.472-1.718-2.252-2.469
		c-0.476,0.881-1.097,1.833-1.731,2.714h3.638v0.549h-1.545v1.848h2.093v0.52h-2.093v4.604c0.736-0.188,1.53-0.375,2.324-0.621
		v0.549C33.673,109.302,31.521,109.879,30.035,110.298z M31.406,108.652c-0.289-0.895-0.707-2.035-1.155-2.858
		c0.145-0.101,0.304-0.13,0.462-0.188c0.419,0.823,0.866,1.935,1.155,2.829C31.738,108.537,31.565,108.58,31.406,108.652z
		 M33.86,108.335l-0.462-0.174c0.592-0.967,0.981-1.861,1.271-2.785c0.158,0.086,0.303,0.115,0.447,0.202
		C34.842,106.4,34.438,107.354,33.86,108.335z M34.25,110.602c-0.102-0.159-0.188-0.332-0.317-0.462
		c1.27-0.563,2.453-1.155,3.565-1.964c0.13,0.102,0.273,0.217,0.39,0.361C36.747,109.403,35.506,110.023,34.25,110.602z
		 M37.122,100.612c-0.49-0.852-1.126-1.775-1.775-2.541c0.115-0.115,0.274-0.216,0.419-0.317c0.736,0.852,1.271,1.573,1.79,2.512
		C37.426,100.396,37.281,100.511,37.122,100.612z M35.938,107.901v-6.914h2.526v-3.594h0.563v3.565h2.439v6.942H35.938z
		 M40.875,101.493h-4.373v1.559h4.373V101.493z M40.875,103.586h-4.373v1.53h4.373V103.586z M40.875,105.636h-4.373v1.732h4.373
		V105.636z M42.247,110.529c-0.852-0.736-1.834-1.415-2.901-1.992l0.433-0.347c0.967,0.534,1.963,1.169,2.814,1.891L42.247,110.529z
		 M40.197,100.569l-0.39-0.318c0.692-0.794,1.241-1.631,1.746-2.525c0.159,0.043,0.289,0.202,0.447,0.288
		C41.481,98.895,40.875,99.789,40.197,100.569z"/>
	<path class="st1" d="M43.998,108.335c0.217-0.26,0.506-0.505,0.766-0.779c1.588-1.732,3.031-3.695,3.334-5.991h-3.608v-0.548h4.272
		c-0.216,2.021-0.996,3.796-2.266,5.384c-0.621,0.766-1.328,1.631-2.036,2.295L43.998,108.335z M50.667,99.27
		c0.347,1.184,0.881,2.354,1.502,3.45c1.414-0.823,2.439-1.688,3.392-2.454l0.506,0.317c-1.112,1.025-2.382,1.834-3.595,2.656
		c1.068,1.877,2.844,3.681,4.417,5.096l-0.433,0.505c-3.09-2.627-4.951-5.571-5.76-8.3l-0.029,9.138
		c0,0.317-0.101,0.722-0.563,0.808c-0.52,0.087-1.054,0.116-1.646,0.058l-0.274-0.577c0.491,0.043,0.953,0.058,1.443,0
		c0.231,0,0.419-0.274,0.419-0.52l-0.015-12.082c0.231,0,0.433-0.015,0.635,0V99.27z"/>
	<path class="st1" d="M63.866,105.896l-5.053,2.006l-0.303-0.577l2.165-0.765v-6.799h-1.992v-0.577h4.663v0.563l-2.064,0.015v6.51
		l2.584-0.967V105.896z M70.448,100.814c-0.102,4.879-0.202,7.203-1.011,8.892c-0.188,0.404-0.592,0.52-0.88,0.534
		c-0.534,0.029-1.011,0.043-1.56-0.029l-0.375-0.635l1.746,0.102c0.723-0.087,0.679-0.953,0.896-1.458
		c0.23-0.938,0.332-1.978,0.375-2.974l0.174-3.869h-3.335c-0.188,2.671-0.505,5.515-2.642,7.463c-0.649,0.606-1.429,1.184-2.18,1.66
		c-0.188-0.115-0.274-0.274-0.477-0.419c1.473-0.909,3.003-2.121,3.71-3.768c0.664-1.516,0.881-3.219,0.981-4.95l-2.555,0.014V100.8
		l2.584,0.015v-3.349h0.606v3.349H70.448z"/>
	<path class="st1" d="M78.161,103.297c-0.288,0.823-0.649,1.703-1.082,2.497c0.606,0.838,1.198,1.689,1.761,2.541l-0.505,0.39
		c-0.506-0.751-0.996-1.545-1.56-2.28c-0.837,1.386-1.963,2.742-3.262,3.839l-0.404-0.433c1.356-1.039,2.497-2.482,3.291-3.94
		c-0.447-0.578-0.909-1.126-1.386-1.66l0.404-0.317c0.447,0.418,0.852,0.909,1.256,1.386c0.39-0.722,0.692-1.487,0.967-2.252
		L78.161,103.297z M73.167,104.495c0.779-1.083,1.443-2.339,2.035-3.522l0.534,0.231c-0.563,1.227-1.241,2.425-2.021,3.565
		L73.167,104.495z M80.009,100.367h-6.697l0.015-0.549l6.683,0.015V100.367z M75.838,97.292c0.433,0.592,0.822,1.198,1.212,1.805
		c-0.158,0.13-0.332,0.274-0.52,0.375c-0.375-0.606-0.736-1.227-1.169-1.818L75.838,97.292z M81.669,97.321
		c0.044,1.126-0.028,2.063-0.188,3.06l4.172,0.015v0.534h-1.343c-0.043,0.823-0.086,1.631-0.23,2.454
		c-0.217,1.198-0.621,2.295-1.285,3.291c0.794,1.256,1.963,2.367,3.263,3.046l-0.52,0.477c-1.198-0.722-2.368-1.747-3.118-2.945
		c-1.198,1.371-2.656,2.512-4.215,3.248c-0.159-0.145-0.317-0.303-0.491-0.419c0.375-0.23,0.837-0.447,1.256-0.678
		c1.126-0.636,2.281-1.689,3.075-2.743c-0.621-1.097-1.025-2.353-1.228-3.651c-0.274,0.735-0.635,1.429-1.011,2.107l-0.505-0.289
		c1.271-2.223,1.833-4.778,1.775-7.55L81.669,97.321z M78.19,100.872c0.577,0.779,0.996,1.616,1.4,2.454l-0.534,0.23
		c-0.404-0.822-0.809-1.66-1.328-2.454L78.19,100.872z M83.69,100.93c-0.794-0.015-1.516,0.015-2.31,0l-0.217,0.924
		c0.26,1.443,0.534,2.916,1.256,4.187C83.358,104.538,83.661,102.749,83.69,100.93z"/>
	<path class="st1" d="M94.536,102.705c0.101,1.054-0.029,2.05-0.896,2.699l-0.404-0.375c0.376-0.245,0.621-0.664,0.708-1.083h-0.766
		v-1.241H94.536z"/>
	<path class="st1" d="M107.489,107.296l-5.341,2.41l-0.217-0.534c0.217-0.115,0.505-0.217,0.736-0.303v-6.049h3.623v-3.493h-4.259
		v-0.534h4.851v5.37l-0.577,0.015l-0.015-0.823l-3.046,0.015l0.015,5.183l4.229-1.877V107.296z M114.764,100.771l0.015,0.549
		l-1.414-0.015c-0.274,2.107-0.664,4.1-1.862,5.803c0.852,1.228,2.078,2.137,3.262,2.974l-0.317,0.491
		c-1.184-0.852-2.41-1.862-3.32-3.003c-1.313,1.487-2.93,2.368-4.677,3.075l-0.288-0.477c1.674-0.692,3.421-1.616,4.619-3.104
		c-0.534-0.967-1.56-2.829-1.732-4.979c-0.231,0.952-0.679,1.703-1.184,2.627l-0.491-0.274c1.443-2.642,1.935-4.951,2.324-7.044
		l0.534,0.13c-0.173,1.082-0.462,2.18-0.722,3.247H114.764z M109.365,101.305v0.059c0.361,1.818,0.823,3.594,1.775,5.196
		c1.054-1.53,1.487-3.349,1.646-5.255H109.365z"/>
	<path class="st1" d="M116.545,105.477l0.014-0.52h3.884c-0.217-0.477-0.506-0.909-0.751-1.371c0.159-0.087,0.332-0.159,0.491-0.231
		l0.794,1.43l-0.332,0.144l3.724,0.029c0.332-0.505,0.606-1.024,0.896-1.545l0.49,0.174c-0.23,0.462-0.534,0.909-0.779,1.371h3.912
		v0.52H116.545z M116.891,103.196l-0.014-0.52l5.499,0.014v-1.386h-4.59v-0.52l4.59,0.015v-1.126l-4.937-0.015l0.015-0.505
		l3.104-0.015c-0.289-0.534-0.635-1.024-0.967-1.559l0.476-0.217c0.361,0.491,0.708,1.068,1.04,1.603l-0.289,0.158l3.219,0.029
		c0.361-0.621,0.751-1.256,1.025-1.905l0.505,0.202c-0.245,0.577-0.577,1.126-0.837,1.688l3.291,0.015v0.505h-5.023l-0.015,1.141
		l4.619-0.015v0.52h-4.604v1.372h5.601v0.52H116.891z M125.941,110.558v-0.981h-6.51l0.015,0.996h-0.621v-4.027h7.737v4.013H125.941
		z M125.941,107.064h-6.51v1.992l6.524,0.015L125.941,107.064z"/>
	<path class="st1" d="M132.76,108.984c-0.476,0.159-0.952,0.347-1.443,0.477l-0.317-0.549c0.895-0.23,1.732-0.477,2.569-0.779
		c0.563-1.054,1.083-2.122,1.386-3.276l0.563,0.202c-0.274,0.952-0.679,1.861-1.098,2.757l0.115-0.015l2.079-0.736
		c0.028,0.173,0,0.39,0.028,0.577L132.76,108.984z M131.028,98.793V98.26l5.398-0.015l0.015,0.534L131.028,98.793z M131.562,103.831
		l-0.014-3.392h4.445v3.392H131.562z M132.717,107.512c-0.231-0.822-0.549-1.616-0.938-2.382l0.506-0.216
		c0.346,0.779,0.678,1.559,0.981,2.353L132.717,107.512z M135.387,100.944h-3.219v2.324h3.219V100.944z M138.115,109.476
		l-1.039,0.852l-0.621-0.332c0.838-0.636,1.646-1.228,2.367-2.007l0.491,0.361C138.967,108.739,138.577,109.1,138.115,109.476z
		 M143.514,98.403h-2.974c-0.101,0.578-0.26,1.126-0.476,1.646l2.439,0.015v7.29l-4.98-0.015v-7.275h1.862
		c0.26-0.52,0.433-1.097,0.549-1.674h-2.931v-0.549l6.524,0.015L143.514,98.403z M141.912,100.569l-3.782,0.014v1.646l3.782-0.014
		V100.569z M141.912,102.763h-3.782v1.675h3.782V102.763z M138.158,105.015l-0.014,1.79h3.781l0.015-1.775L138.158,105.015z
		 M142.72,110.27c-0.635-0.766-1.328-1.386-2.078-2.021l0.49-0.347c0.736,0.636,1.444,1.271,2.137,1.992
		C143.096,110.023,142.908,110.168,142.72,110.27z"/>
	<path class="st1" d="M157.882,110.615c-1.891-0.375-3.753-0.837-5.5-1.559c-1.992,0.852-3.983,1.328-6.105,1.603l-0.231-0.578
		c2.094-0.26,4.057-0.664,5.803-1.386c-0.924-0.403-1.746-1.067-2.468-1.804c-1.17,1.126-2.642,1.948-4.013,2.468l-0.347-0.462
		c1.674-0.649,3.262-1.559,4.562-2.974h-4.259v-0.52h4.591c0.317-0.36,0.52-0.722,0.678-1.111l0.462,0.26
		c-0.13,0.231-0.288,0.534-0.505,0.852h7.405v0.52h-7.723l-0.491,0.606c0.736,0.823,1.56,1.386,2.584,1.877
		c0.924-0.477,1.805-1.198,2.439-2.021l0.447,0.289c-0.62,0.823-1.458,1.588-2.338,2.035c1.559,0.649,3.508,1.126,5.269,1.4
		L157.882,110.615z M148.297,102.345c-0.433,0.49-1.039,1.024-1.631,1.429c1.284-0.115,2.627-0.245,3.926-0.361
		c-0.273-0.23-0.62-0.418-0.952-0.605l0.303-0.318c0.708,0.404,1.443,0.924,2.079,1.588l-0.361,0.347l-0.606-0.592
		c-1.731,0.13-3.175,0.26-4.979,0.447l-0.145-0.447c0.606-0.404,1.285-0.981,1.775-1.486h-2.584l-0.014-0.477h1.602v-3.681h5.066
		v0.505h-4.475v0.664h3.883v0.505h-3.883v0.708h3.854v0.49h-3.854v0.794h4.821v0.491H148.297z M152.469,99.991l-0.317-0.447
		c1.501-0.52,2.974-1.126,4.33-2.007l0.404,0.347C155.515,98.793,154.014,99.472,152.469,99.991z M152.628,104.235l-0.274-0.447
		c1.703-0.52,3.521-1.371,5.167-2.425l0.361,0.39C156.438,102.749,154.417,103.687,152.628,104.235z M152.974,101.883l-0.346-0.448
		c1.472-0.533,2.901-1.14,4.243-1.963l0.289,0.375C155.847,100.699,154.417,101.319,152.974,101.883z M155.125,105.304
		c-0.39-0.39-0.823-0.736-1.313-1.011l0.36-0.36c0.477,0.288,0.967,0.649,1.343,0.981L155.125,105.304z"/>
	<path class="st1" d="M165.927,99.861v0.534l-2.006-0.015v2.079h-0.592v-2.079h-2.021c-0.086,1.04-0.303,1.992-0.852,2.83
		l-0.216,0.331l-0.434-0.23c0.13-0.347,0.332-0.693,0.491-1.054c0.548-1.213,0.404-2.656,0.433-3.998
		c1.386-0.174,2.786-0.332,4.057-0.794l0.36,0.418c-1.184,0.404-2.512,0.606-3.811,0.779v1.184L165.927,99.861z M164.209,109.144
		c-1.256,0.678-2.598,1.14-3.983,1.516l-0.304-0.448c1.357-0.39,2.729-0.75,3.955-1.472L164.209,109.144z M165.941,102.937
		l-0.332-0.318c0.505-0.837,0.896-1.703,1.011-2.699v-1.631c1.458-0.145,2.959-0.303,4.244-0.866l0.447,0.447
		c-1.271,0.477-2.656,0.679-4.057,0.853l0.015,1.082h4.778v0.505h-2.122l-0.015,2.094h-0.577v-2.079l-2.137-0.015
		c-0.23,0.938-0.52,1.819-1.054,2.613l3.897,0.015v5.269h-8.142l-0.014-5.255L165.941,102.937z M162.463,103.471v1.039h6.972v-1.039
		H162.463z M169.449,105.029h-6.986v1.024h6.986V105.029z M162.478,106.574v1.14l6.972-0.015l-0.015-1.125H162.478z
		 M171.427,110.702c-1.256-0.664-2.612-1.227-3.97-1.631l0.317-0.404c1.415,0.36,2.699,0.981,4.014,1.616L171.427,110.702z"/>
	<path class="st1" d="M186.719,104.178c-0.116,0.664-0.376,1.386-0.65,2.021c-0.058,0.115-0.173,0.217-0.346,0.246
		c-0.332,0-0.563-0.261-0.823-0.419c-0.606-0.477-1.068-0.953-1.544-1.588c-0.563,0.649-1.242,1.443-1.992,2.223l-0.39-0.433
		c0.664-0.736,1.386-1.415,2.078-2.295c-0.809-1.242-1.299-2.671-1.516-4.157h-5.485v2.728c-0.13,1.473-0.592,2.945-1.328,4.215
		l-0.462-0.49c0.693-1.198,1.17-2.569,1.17-3.97v-3.017l6.019-0.015l-0.158-1.501l0.635,0.014c0.015,0.521,0.087,0.996,0.159,1.487
		l2.15,0.015c-0.23-0.347-0.477-0.766-0.692-1.098l0.462-0.23l0.822,1.313c0.563,0.015,1.111,0,1.689,0.015v0.534h-4.389
		c0.217,1.299,0.577,2.555,1.271,3.666c0.592-0.823,1.184-1.631,1.631-2.497c0.159,0.101,0.304,0.23,0.462,0.332
		c-0.52,0.952-1.126,1.818-1.775,2.685c0.505,0.693,1.126,1.371,1.848,1.819c0.102,0,0.115-0.116,0.159-0.188
		c0.23-0.548,0.418-1.126,0.52-1.746L186.719,104.178z M176.44,107.613c-0.462,0.852-1.039,1.674-1.616,2.468l-0.462-0.288
		c0.577-0.766,1.154-1.588,1.631-2.425L176.44,107.613z M181.074,101.017v0.534l-4.315,0.014v-0.548H181.074z M180.857,102.633
		v2.829h-3.911v-2.829H180.857z M180.252,103.167h-2.7v1.747h2.7V103.167z M178.462,106.92l0.014,2.556
		c0,0.26,0.202,0.403,0.534,0.403l3.537-0.014c0.245,0.028,0.36-0.13,0.404-0.289c0.158-0.577,0.303-1.111,0.375-1.703l0.577,0.288
		l-0.404,1.588c-0.072,0.289-0.303,0.664-0.779,0.664h-3.998c-0.708,0-0.852-0.49-0.852-0.924v-2.583L178.462,106.92z
		 M180.006,106.313c0.549,0.563,1.083,1.198,1.588,1.805c-0.145,0.102-0.317,0.245-0.477,0.347c-0.476-0.664-1.01-1.241-1.559-1.848
		L180.006,106.313z M185.131,107.237c0.605,0.766,1.111,1.574,1.659,2.368c-0.144,0.13-0.331,0.245-0.505,0.346
		c-0.477-0.837-1.039-1.659-1.631-2.453L185.131,107.237z"/>
	<path class="st1" d="M190.145,98.852v-0.534h8.357l-1.978,3.926h3.378c-0.145,0.779-0.447,1.56-0.809,2.252
		c-0.505,0.996-1.227,2.064-2.18,2.887c1.458,1.111,3.018,2.007,4.678,2.613l-0.332,0.505c-1.632-0.664-3.292-1.616-4.735-2.742
		c-1.068,0.865-2.208,1.616-3.436,2.107l-1.674,0.678l-0.419-0.447l2.252-0.924c1.011-0.418,1.948-1.039,2.801-1.79
		c-1.43-1.256-2.252-2.857-3.003-4.445l-0.419-1.213c-0.23,2.512-0.317,4.504-1.79,6.756c-0.462,0.707-0.895,1.313-1.472,1.905
		l-0.447-0.39c1.284-1.415,2.367-3.018,2.728-4.879c0.188-0.996,0.39-2.367,0.39-4.172v-2.093H190.145z M192.642,99.919l0.722,2.252
		c0.577,1.79,1.646,3.465,3.075,4.807h0.058c1.284-1.154,2.122-2.642,2.627-4.2h-3.522l1.978-3.926h-4.951L192.642,99.919z"/>
	<path class="st1" d="M214.992,109.591c-0.072,0.245-0.304,0.447-0.621,0.447h-3.161c-0.39,0-0.707-0.347-0.707-0.707v-5.485
		l-2.526,0.015c0.202,3.319-0.852,5.239-3.796,6.871l-0.521-0.506c3.133-1.718,3.869-3.334,3.71-6.38l-3.781,0.015l0.014-0.549
		h5.341v-5.514h0.636v5.514l5.326-0.015v0.549h-3.768v5.226c0,0.26,0.174,0.418,0.491,0.418h2.497c0.173,0,0.303-0.115,0.347-0.26
		l0.505-1.804l0.577,0.39L214.992,109.591z M204.975,98.967c0.837,0.952,1.529,1.963,2.18,3.017l-0.521,0.404
		c-0.62-1.054-1.313-2.093-2.121-3.074L204.975,98.967z M214.083,99.313c-0.693,1.097-1.545,2.121-2.454,3.104l-0.462-0.361
		c0.895-0.981,1.731-2.021,2.454-3.089L214.083,99.313z"/>
	<path class="st1" d="M219.356,103.484c-0.592-0.822-1.271-1.399-2.007-2.05l0.39-0.375c0.693,0.649,1.487,1.285,2.05,2.064
		L219.356,103.484z M217.451,109.778c1.054-1.66,1.818-3.421,2.482-5.269c0.159,0.058,0.274,0.23,0.419,0.332
		c-0.505,1.688-1.501,3.825-2.439,5.254L217.451,109.778z M220.179,100.525c-0.577-0.809-1.386-1.631-2.107-2.338l0.376-0.39
		c0.88,0.852,1.4,1.371,2.063,2.251L220.179,100.525z M225.015,108.075h-4.864v-0.506h4.864v-1.284h-3.71v-0.505h2.642
		c-0.332-0.477-0.707-0.866-1.111-1.271l0.289-0.188l-2.729-0.029v-0.52h4.619v-1.126h-3.291v-0.52h3.291v-1.213h-3.594v-2.814
		h7.795v2.829h-3.609l-0.015,1.169h3.436v0.52h-3.436l-0.014,1.17h4.705v0.52h-2.714c0.059,0.072,0.202,0.087,0.274,0.158
		c-0.303,0.448-0.692,0.881-1.082,1.3l2.468,0.015v0.505h-3.681v1.284h4.749v0.506h-4.764v2.425h-0.548L225.015,108.075z
		 M221.969,100.425h1.834v-1.775h-1.834V100.425z M223.384,104.308c0.447,0.462,0.852,0.981,1.241,1.473h1.501
		c0.434-0.477,0.852-0.953,1.184-1.473H223.384z M226.184,98.649h-1.818v1.775h1.805L226.184,98.649z M228.652,98.649h-1.92
		l0.015,1.775h1.905V98.649z"/>
	<path class="st1" d="M4.851,118.494c-0.332,1.184-0.838,2.295-1.473,3.363v9.643H2.729v-8.632c-0.534,0.722-0.981,1.53-1.631,2.208
		c-0.13-0.202-0.202-0.39-0.332-0.577c1.082-1.184,1.991-2.555,2.685-3.94c0.375-0.736,0.649-1.501,0.822-2.324L4.851,118.494z
		 M8.04,119.865c1.516-0.158,3.018-0.447,4.403-0.938c0.188,0.115,0.332,0.288,0.52,0.418c-1.228,0.404-2.497,0.693-3.782,0.909
		v4.331l4.461-0.015v0.534H9.181L9.166,130.1l3.97-0.015v0.549H4.721v-0.549h3.825v-4.965l-4.331,0.015v-0.549h4.346v-4.229
		l-3.162,0.36l-0.332-0.533L8.04,119.865z"/>
	<path class="st1" d="M17.515,121.742v9.815h-0.62v-8.517c-0.448,0.693-0.91,1.386-1.415,2.035l-0.332-0.605
		c1.573-1.79,2.324-3.984,3.133-6.106c0.173,0.087,0.346,0.173,0.505,0.274C18.424,119.692,18.006,120.731,17.515,121.742z
		 M26.681,120.184l-0.015,10.335c0,0.274-0.043,0.577-0.288,0.809c-0.145,0.13-0.317,0.216-0.506,0.23
		c-0.418,0.087-1.154,0.087-1.703,0.044l-0.202-0.636c0.52,0.029,1.386,0.102,1.704,0.029c0.173,0,0.375-0.188,0.375-0.361v-10.437
		h-6.9v-0.534h8.893v0.521H26.681z M23.852,128.628h-0.606v-0.91l-2.814,0.015l0.015,0.909H19.81v-5.687l4.057,0.014L23.852,128.628
		z M23.231,123.488l-2.786,0.015v3.681h2.786V123.488z"/>
	<path class="st1" d="M42.362,131.615c-1.891-0.375-3.753-0.837-5.5-1.559c-1.992,0.852-3.983,1.328-6.105,1.603l-0.231-0.578
		c2.094-0.26,4.057-0.664,5.803-1.386c-0.924-0.403-1.746-1.067-2.468-1.804c-1.17,1.126-2.642,1.948-4.013,2.468l-0.347-0.462
		c1.674-0.649,3.262-1.559,4.562-2.974h-4.259v-0.52h4.591c0.317-0.36,0.52-0.722,0.678-1.111l0.462,0.26
		c-0.13,0.231-0.288,0.534-0.505,0.852h7.405v0.52h-7.723l-0.491,0.606c0.736,0.823,1.56,1.386,2.584,1.877
		c0.924-0.477,1.805-1.198,2.439-2.021l0.447,0.289c-0.62,0.823-1.458,1.588-2.338,2.035c1.559,0.649,3.508,1.126,5.269,1.4
		L42.362,131.615z M32.777,123.345c-0.433,0.49-1.039,1.024-1.631,1.429c1.284-0.115,2.627-0.245,3.926-0.361
		c-0.273-0.23-0.62-0.418-0.952-0.605l0.303-0.318c0.708,0.404,1.443,0.924,2.079,1.588l-0.361,0.347l-0.606-0.592
		c-1.731,0.13-3.175,0.26-4.979,0.447l-0.145-0.447c0.606-0.404,1.285-0.981,1.775-1.486h-2.584l-0.014-0.477h1.602v-3.681h5.066
		v0.505h-4.475v0.664h3.883v0.505h-3.883v0.708h3.854v0.49h-3.854v0.794h4.821v0.491H32.777z M36.949,120.991l-0.317-0.447
		c1.501-0.52,2.974-1.126,4.33-2.007l0.404,0.347C39.995,119.793,38.494,120.472,36.949,120.991z M37.108,125.235l-0.274-0.447
		c1.703-0.52,3.521-1.371,5.167-2.425l0.361,0.39C40.919,123.749,38.897,124.687,37.108,125.235z M37.454,122.883l-0.346-0.448
		c1.472-0.533,2.901-1.14,4.243-1.963l0.289,0.375C40.327,121.699,38.897,122.319,37.454,122.883z M39.605,126.304
		c-0.39-0.39-0.823-0.736-1.313-1.011l0.36-0.36c0.477,0.288,0.967,0.649,1.343,0.981L39.605,126.304z"/>
	<path class="st1" d="M50.407,120.861v0.534l-2.006-0.015v2.079H47.81v-2.079h-2.021c-0.086,1.04-0.303,1.992-0.852,2.83
		l-0.216,0.331l-0.434-0.23c0.13-0.347,0.332-0.693,0.491-1.054c0.548-1.213,0.404-2.656,0.433-3.998
		c1.386-0.174,2.786-0.332,4.057-0.794l0.36,0.418c-1.184,0.404-2.512,0.606-3.811,0.779v1.184L50.407,120.861z M48.689,130.144
		c-1.256,0.678-2.598,1.14-3.983,1.516l-0.304-0.448c1.357-0.39,2.729-0.75,3.955-1.472L48.689,130.144z M50.422,123.937
		l-0.332-0.318c0.505-0.837,0.896-1.703,1.011-2.699v-1.631c1.458-0.145,2.959-0.303,4.244-0.866l0.447,0.447
		c-1.271,0.477-2.656,0.679-4.057,0.853l0.015,1.082h4.778v0.505h-2.122l-0.015,2.094h-0.577v-2.079l-2.137-0.015
		c-0.23,0.938-0.52,1.819-1.054,2.613l3.897,0.015v5.269H46.38l-0.014-5.255L50.422,123.937z M46.943,124.471v1.039h6.972v-1.039
		H46.943z M53.93,126.029h-6.986v1.024h6.986V126.029z M46.958,127.574v1.14l6.972-0.015l-0.015-1.125H46.958z M55.907,131.702
		c-1.256-0.664-2.612-1.227-3.97-1.631l0.317-0.404c1.415,0.36,2.699,0.981,4.014,1.616L55.907,131.702z"/>
	<path class="st1" d="M59.06,126.072c0.678-0.852,1.313-1.775,1.775-2.757h-1.92v-0.52h2.887c-0.592,1.126-1.271,2.252-2.007,3.32
		h2.079c-0.202,0.909-0.491,1.79-0.881,2.612c0.376,0.419,0.896,0.895,1.371,1.227c1.112,0.606,2.368,0.938,3.695,0.938l4.548-0.015
		l0.822-0.058l-0.347,0.649l-5.514-0.058c-1.299-0.014-2.526-0.433-3.58-1.097c-0.447-0.289-0.852-0.736-1.227-1.126
		c-0.52,0.895-1.256,1.805-2.122,2.512l-0.317-0.491c1.429-1.284,2.382-2.829,2.771-4.604H59.03L59.06,126.072z M59.392,119.447
		c0.173-0.072,0.331-0.188,0.505-0.246c0.447,0.722,0.866,1.444,1.256,2.194c-0.159,0.115-0.361,0.188-0.52,0.304
		C60.257,120.934,59.81,120.184,59.392,119.447z M71.127,119.952l-0.015,0.52l-8.689-0.015l0.014-0.505h3.797
		c-0.159-0.375-0.347-0.765-0.563-1.126c0.188-0.072,0.376-0.145,0.563-0.217c0.245,0.434,0.52,0.852,0.736,1.285l-0.102,0.043
		L71.127,119.952z M68.456,129.363c0.39,0.015,0.707,0.116,1.098,0.029c0.173-0.043,0.288-0.245,0.26-0.419v-6.265l-6.294,0.015
		l-0.015,7.059H62.87l-0.015-7.578l2.035,0.015c-0.158-0.39-0.404-0.766-0.62-1.141c0.13-0.087,0.346-0.145,0.52-0.217
		c0.303,0.434,0.606,0.896,0.88,1.343h2.036c0.317-0.462,0.605-0.909,0.837-1.4l0.577,0.174c-0.159,0.418-0.462,0.837-0.692,1.241
		l2.006-0.015v7.116c0,0.26-0.274,0.635-0.563,0.635c-0.419,0.072-0.693,0.072-1.17,0.029L68.456,129.363z M65.612,129.335
		l-0.635,0.015l0.015-3.363h1.414l-0.015-1.228l-1.948,0.015l0.015-0.52h1.948l-0.015-0.967h0.636v0.967l1.963-0.015v0.52
		l-1.963,0.015v1.213h1.386l-0.015,2.987h-0.635v-0.332h-2.151V129.335z M65.612,128.107l2.165,0.015v-1.631h-2.165V128.107z"/>
	<path class="st1" d="M84.513,130.461c0,0.23-0.13,0.534-0.39,0.649c-0.347,0.173-1.083,0.217-1.862,0.202
		c-0.043-0.188-0.115-0.39-0.145-0.592c0.679,0.015,1.285,0.015,1.53-0.058c0.159-0.058,0.274-0.289,0.246-0.434l0.014-3.811h-4.041
		v4.215h-0.636v-4.215h-3.926c-0.13,1.848-0.52,3.608-1.747,5.009l-0.433-0.404c1.054-1.27,1.559-2.814,1.559-4.503v-7.218h9.845
		L84.513,130.461z M79.244,119.88h-3.927v2.699h3.927V119.88z M79.244,123.156h-3.927v2.671h3.927V123.156z M83.893,119.88h-4.027
		v2.699h4.027V119.88z M83.893,123.156h-4.027v2.671h4.027V123.156z"/>
	<path class="st1" d="M5.63,141.227c0.852,0,1.588,0.188,2.093,0.563c0.649,0.491,1.025,1.328,1.025,2.194
		c0,1.516-0.938,2.555-3.003,2.743v0.028c0.779,0.375,1.155,0.621,1.905,1.775l1.964,3.031H8.358l-1.516-2.382
		c-1.357-2.121-1.906-2.367-3.09-2.367H2.252v4.749H1.271v-10.335H5.63z M2.252,142.093v3.854H4.98c0.62,0,2.757,0.015,2.757-1.948
		c0-1.819-1.833-1.905-2.714-1.905H2.252z"/>
	<path class="st1" d="M11.248,147.924c0.029,1.805,0.852,3.09,2.512,3.09c1.646,0,2.122-1.343,2.295-1.819l0.866,0.145
		c-0.26,0.722-0.852,2.396-3.204,2.396c-2.151,0-3.393-1.516-3.393-3.912c0-2.353,1.213-3.912,3.407-3.912
		c3.247,0,3.262,3.263,3.276,4.013H11.248z M16.084,147.202c-0.173-1.991-1.313-2.569-2.382-2.569c-0.447,0-2.15,0.116-2.439,2.569
		H16.084z"/>
	<path class="st1" d="M19.884,144.085h1.399v0.649h-1.399v4.907c0,0.924,0.101,1.313,0.837,1.313c0.115,0,0.245-0.014,0.692-0.101
		l0.116,0.707c-0.462,0.087-0.664,0.116-0.924,0.116c-1.617,0-1.588-1.083-1.588-1.92v-5.023h-1.04v-0.649h1.04v-1.92l0.866-0.563
		V144.085z"/>
	<path class="st1" d="M22.526,146.12c0.288-1.56,1.256-2.209,3.219-2.209c2.829,0,2.844,1.415,2.844,3.176
		c0,0.159-0.029,1.79-0.029,2.107c0,1.328,0.13,1.675,0.462,2.367h-0.967c-0.173-0.447-0.217-0.635-0.274-1.14
		c-0.332,0.36-1.212,1.313-3.046,1.313c-1.718,0-2.382-1.083-2.382-2.079c0-0.49,0.13-1.141,0.838-1.674
		c0.274-0.217,0.62-0.448,2.28-0.679c0.751-0.102,1.545-0.202,2.237-0.447v-0.26c0-0.924,0-2.007-1.963-2.007
		c-1.948,0-2.194,1.111-2.324,1.66L22.526,146.12z M27.708,147.534c-0.62,0.231-1.66,0.434-2.382,0.563
		c-0.981,0.173-2.05,0.36-2.05,1.486c0,0.852,0.78,1.43,1.632,1.43c0.606,0,1.4-0.274,2.021-0.78
		c0.534-0.433,0.779-1.024,0.779-2.208V147.534z"/>
	<path class="st1" d="M31.738,141.227v1.328h-0.865v-1.328H31.738z M31.738,144.085v7.477h-0.865v-7.477H31.738z"/>
	<path class="st1" d="M34.93,144.085v1.097h0.029c0.404-0.549,0.967-1.271,2.382-1.271c1.126,0,1.731,0.52,1.978,0.794
		c0.548,0.621,0.534,1.53,0.534,1.978v4.879h-0.866v-4.647c0-0.606-0.029-1.155-0.289-1.53c-0.303-0.447-0.837-0.707-1.443-0.707
		c-0.809,0-1.675,0.49-2.064,1.327c-0.217,0.462-0.26,1.04-0.26,2.31v3.248h-0.866v-7.477H34.93z"/>
	<path class="st1" d="M46.973,141.227v3.955h0.029c0.404-0.549,0.967-1.271,2.382-1.271c1.126,0,1.731,0.52,1.978,0.794
		c0.548,0.621,0.534,1.53,0.534,1.978v4.879h-0.866v-4.647c0-0.606-0.029-1.155-0.289-1.53c-0.303-0.447-0.837-0.707-1.443-0.707
		c-0.809,0-1.675,0.49-2.064,1.327c-0.217,0.462-0.26,1.04-0.26,2.31v3.248h-0.866v-10.335H46.973z"/>
	<path class="st1" d="M54.193,144.085l2.454,6.467l2.569-6.467h0.852l-3.537,8.964c-0.447,1.14-0.995,1.544-1.731,1.544
		c-0.174,0-0.347-0.014-0.838-0.13l-0.101-0.88c0.477,0.101,0.635,0.115,0.794,0.115c0.577,0,0.765-0.202,1.011-0.823l0.52-1.313
		l-2.959-7.477H54.193z"/>
	<path class="st1" d="M67.014,141.227h0.866v10.335h-0.866v-1.14c-0.418,0.462-1.184,1.313-2.814,1.313
		c-2.512,0-3.334-2.267-3.334-3.97c0-1.66,0.779-3.854,3.349-3.854c1.746,0,2.439,0.909,2.771,1.386h0.028V141.227z M64.344,151.014
		c0.491,0,1.184-0.116,1.79-0.664c0.375-0.332,0.88-0.953,0.88-2.556c0-2.512-1.659-3.161-2.728-3.161
		c-1.285,0-2.497,0.996-2.497,3.205C61.789,149.916,63.001,151.014,64.344,151.014z"/>
	<path class="st1" d="M70.943,144.085v1.501h0.029c0.158-0.549,0.534-1.675,1.718-1.675c0.62,0,1.01,0.245,1.328,0.447l-0.332,0.766
		c-0.477-0.202-0.708-0.289-1.011-0.289c-0.274,0-0.896,0.015-1.328,0.996c-0.13,0.274-0.202,0.779-0.26,1.256
		c-0.043,0.375-0.058,0.866-0.058,1.054v3.421h-0.866v-7.477H70.943z"/>
	<path class="st1" d="M74.684,146.12c0.289-1.56,1.256-2.209,3.22-2.209c2.829,0,2.843,1.415,2.843,3.176
		c0,0.159-0.028,1.79-0.028,2.107c0,1.328,0.13,1.675,0.462,2.367h-0.967c-0.174-0.447-0.217-0.635-0.274-1.14
		c-0.332,0.36-1.213,1.313-3.046,1.313c-1.718,0-2.382-1.083-2.382-2.079c0-0.49,0.13-1.141,0.837-1.674
		c0.274-0.217,0.621-0.448,2.281-0.679c0.75-0.102,1.544-0.202,2.237-0.447v-0.26c0-0.924,0-2.007-1.963-2.007
		c-1.949,0-2.194,1.111-2.324,1.66L74.684,146.12z M79.866,147.534c-0.621,0.231-1.66,0.434-2.382,0.563
		c-0.981,0.173-2.05,0.36-2.05,1.486c0,0.852,0.779,1.43,1.631,1.43c0.606,0,1.4-0.274,2.021-0.78
		c0.534-0.433,0.779-1.024,0.779-2.208V147.534z"/>
	<path class="st1" d="M84.084,144.085h1.4v0.649h-1.4v4.907c0,0.924,0.102,1.313,0.837,1.313c0.116,0,0.246-0.014,0.693-0.101
		l0.115,0.707c-0.462,0.087-0.664,0.116-0.924,0.116c-1.616,0-1.588-1.083-1.588-1.92v-5.023h-1.039v-0.649h1.039v-1.92l0.866-0.563
		V144.085z"/>
	<path class="st1" d="M87.91,141.227v1.328h-0.865v-1.328H87.91z M87.91,144.085v7.477h-0.865v-7.477H87.91z"/>
	<path class="st1" d="M93.079,151.735c-2.107,0-3.349-1.617-3.334-3.869c0.014-2.584,1.284-3.955,3.334-3.955
		c2.021,0,3.349,1.371,3.349,3.955C96.428,150.075,95.403,151.735,93.079,151.735z M93.108,144.633
		c-1.646,0-2.439,1.386-2.439,3.233c0,2.05,1.024,3.147,2.453,3.147c1.43,0,2.382-1.141,2.382-3.147
		C95.504,145.816,94.624,144.633,93.108,144.633z"/>
	<path class="st1" d="M99.131,144.085v1.097h0.028c0.404-0.549,0.968-1.271,2.382-1.271c1.126,0,1.732,0.52,1.978,0.794
		c0.549,0.621,0.534,1.53,0.534,1.978v4.879h-0.866v-4.647c0-0.606-0.028-1.155-0.288-1.53c-0.304-0.447-0.838-0.707-1.444-0.707
		c-0.808,0-1.674,0.49-2.063,1.327c-0.217,0.462-0.26,1.04-0.26,2.31v3.248h-0.866v-7.477H99.131z"/>
	<path class="st1" d="M110.004,146.12c0.289-1.56,1.256-2.209,3.22-2.209c2.829,0,2.843,1.415,2.843,3.176
		c0,0.159-0.028,1.79-0.028,2.107c0,1.328,0.13,1.675,0.462,2.367h-0.967c-0.174-0.447-0.217-0.635-0.274-1.14
		c-0.332,0.36-1.213,1.313-3.046,1.313c-1.718,0-2.382-1.083-2.382-2.079c0-0.49,0.13-1.141,0.837-1.674
		c0.274-0.217,0.621-0.448,2.281-0.679c0.75-0.102,1.544-0.202,2.237-0.447v-0.26c0-0.924,0-2.007-1.963-2.007
		c-1.949,0-2.194,1.111-2.324,1.66L110.004,146.12z M115.187,147.534c-0.621,0.231-1.66,0.434-2.382,0.563
		c-0.981,0.173-2.05,0.36-2.05,1.486c0,0.852,0.779,1.43,1.631,1.43c0.606,0,1.4-0.274,2.021-0.78
		c0.534-0.433,0.779-1.024,0.779-2.208V147.534z"/>
	<path class="st1" d="M119.202,144.085v1.097h0.029c0.404-0.549,0.967-1.271,2.382-1.271c1.126,0,1.731,0.52,1.978,0.794
		c0.548,0.621,0.534,1.53,0.534,1.978v4.879h-0.866v-4.647c0-0.606-0.029-1.155-0.289-1.53c-0.303-0.447-0.837-0.707-1.443-0.707
		c-0.809,0-1.675,0.49-2.064,1.327c-0.217,0.462-0.26,1.04-0.26,2.31v3.248h-0.866v-7.477H119.202z"/>
	<path class="st1" d="M132.023,141.227h0.866v10.335h-0.866v-1.14c-0.419,0.462-1.184,1.313-2.814,1.313
		c-2.512,0-3.335-2.267-3.335-3.97c0-1.66,0.779-3.854,3.349-3.854c1.747,0,2.439,0.909,2.771,1.386h0.029V141.227z
		 M129.353,151.014c0.491,0,1.185-0.116,1.79-0.664c0.376-0.332,0.881-0.953,0.881-2.556c0-2.512-1.66-3.161-2.729-3.161
		c-1.284,0-2.497,0.996-2.497,3.205C126.798,149.916,128.011,151.014,129.353,151.014z"/>
	<path class="st1" d="M143.388,146.019c-0.202-0.664-0.433-1.386-1.905-1.386c-1.097,0-1.746,0.447-1.746,1.213
		c0,0.692,0.375,1.068,2.223,1.458c1.516,0.317,2.599,0.822,2.599,2.136c0,1.213-0.896,2.296-2.916,2.296
		c-2.064,0-2.771-0.981-3.061-2.194l0.896-0.159c0.115,0.419,0.433,1.632,2.193,1.632c1.271,0,1.964-0.664,1.964-1.444
		c0-0.735-0.549-1.111-2.194-1.457c-1.588-0.332-2.627-0.866-2.627-2.108c0-0.735,0.505-2.093,2.655-2.093
		c1.473,0,2.382,0.434,2.771,1.978L143.388,146.019z"/>
	<path class="st1" d="M147.49,144.085h1.4v0.649h-1.4v4.907c0,0.924,0.102,1.313,0.837,1.313c0.116,0,0.246-0.014,0.693-0.101
		l0.115,0.707c-0.462,0.087-0.664,0.116-0.924,0.116c-1.616,0-1.588-1.083-1.588-1.92v-5.023h-1.039v-0.649h1.039v-1.92l0.866-0.563
		V144.085z"/>
	<path class="st1" d="M151.201,144.085v1.501h0.029c0.158-0.549,0.534-1.675,1.718-1.675c0.62,0,1.01,0.245,1.328,0.447
		l-0.332,0.766c-0.477-0.202-0.708-0.289-1.011-0.289c-0.274,0-0.896,0.015-1.328,0.996c-0.13,0.274-0.202,0.779-0.26,1.256
		c-0.043,0.375-0.058,0.866-0.058,1.054v3.421h-0.866v-7.477H151.201z"/>
	<path class="st1" d="M155.707,147.924c0.028,1.805,0.852,3.09,2.512,3.09c1.646,0,2.122-1.343,2.295-1.819l0.866,0.145
		c-0.26,0.722-0.852,2.396-3.205,2.396c-2.15,0-3.392-1.516-3.392-3.912c0-2.353,1.212-3.912,3.406-3.912
		c3.248,0,3.263,3.263,3.276,4.013H155.707z M160.542,147.202c-0.173-1.991-1.313-2.569-2.381-2.569
		c-0.448,0-2.151,0.116-2.439,2.569H160.542z"/>
	<path class="st1" d="M164.14,144.085v1.097h0.029c0.404-0.549,0.967-1.271,2.382-1.271c1.126,0,1.731,0.52,1.978,0.794
		c0.548,0.621,0.534,1.53,0.534,1.978v4.879h-0.866v-4.647c0-0.606-0.029-1.155-0.289-1.53c-0.303-0.447-0.837-0.707-1.443-0.707
		c-0.809,0-1.675,0.49-2.064,1.327c-0.217,0.462-0.26,1.04-0.26,2.31v3.248h-0.866v-7.477H164.14z"/>
	<path class="st1" d="M177.827,144.085v6.885c0,1.819-0.52,3.623-3.623,3.623c-1.617,0-2.945-0.49-3.061-2.208l0.852,0.173
		c0.102,0.447,0.274,1.313,2.079,1.313c2.078,0,2.872-1.039,2.872-2.728v-0.722h-0.028c-0.39,0.505-1.054,1.313-2.758,1.313
		c-2.525,0-3.319-2.281-3.319-3.884c0-1.371,0.606-3.94,3.319-3.94c1.79,0,2.483,0.981,2.758,1.43h0.028v-1.256H177.827z
		 M174.334,144.633c-1.747,0-2.569,1.487-2.569,3.176c0,1.761,0.866,3.205,2.555,3.205c1.024,0,2.642-0.606,2.642-3.104
		C176.961,145.716,175.777,144.633,174.334,144.633z"/>
	<path class="st1" d="M181.193,144.085h1.4v0.649h-1.4v4.907c0,0.924,0.102,1.313,0.837,1.313c0.116,0,0.246-0.014,0.693-0.101
		l0.115,0.707c-0.462,0.087-0.664,0.116-0.924,0.116c-1.616,0-1.588-1.083-1.588-1.92v-5.023h-1.039v-0.649h1.039v-1.92l0.866-0.563
		V144.085z"/>
	<path class="st1" d="M185.006,141.227v3.955h0.028c0.404-0.549,0.968-1.271,2.382-1.271c1.126,0,1.732,0.52,1.978,0.794
		c0.549,0.621,0.534,1.53,0.534,1.978v4.879h-0.866v-4.647c0-0.606-0.028-1.155-0.288-1.53c-0.304-0.447-0.838-0.707-1.444-0.707
		c-0.808,0-1.674,0.49-2.063,1.327c-0.217,0.462-0.26,1.04-0.26,2.31v3.248h-0.866v-10.335H185.006z"/>
	<path class="st1" d="M192.63,147.924c0.029,1.805,0.852,3.09,2.512,3.09c1.646,0,2.122-1.343,2.295-1.819l0.866,0.145
		c-0.26,0.722-0.852,2.396-3.204,2.396c-2.151,0-3.393-1.516-3.393-3.912c0-2.353,1.213-3.912,3.407-3.912
		c3.247,0,3.262,3.263,3.276,4.013H192.63z M197.466,147.202c-0.173-1.991-1.313-2.569-2.382-2.569c-0.447,0-2.15,0.116-2.439,2.569
		H197.466z"/>
	<path class="st1" d="M201.063,144.085v1.097h0.028c0.404-0.549,0.968-1.271,2.382-1.271c1.126,0,1.732,0.52,1.978,0.794
		c0.549,0.621,0.534,1.53,0.534,1.978v4.879h-0.866v-4.647c0-0.606-0.028-1.155-0.288-1.53c-0.304-0.447-0.838-0.707-1.444-0.707
		c-0.808,0-1.674,0.49-2.063,1.327c-0.217,0.462-0.26,1.04-0.26,2.31v3.248h-0.866v-7.477H201.063z"/>
	<path class="st1" d="M213.106,141.227v3.955h0.028c0.404-0.549,0.968-1.271,2.382-1.271c1.126,0,1.732,0.52,1.978,0.794
		c0.549,0.621,0.534,1.53,0.534,1.978v4.879h-0.866v-4.647c0-0.606-0.028-1.155-0.288-1.53c-0.304-0.447-0.838-0.707-1.444-0.707
		c-0.808,0-1.674,0.49-2.063,1.327c-0.217,0.462-0.26,1.04-0.26,2.31v3.248h-0.866v-10.335H213.106z"/>
	<path class="st1" d="M219.966,146.12c0.288-1.56,1.256-2.209,3.219-2.209c2.829,0,2.844,1.415,2.844,3.176
		c0,0.159-0.029,1.79-0.029,2.107c0,1.328,0.13,1.675,0.462,2.367h-0.967c-0.173-0.447-0.217-0.635-0.274-1.14
		c-0.332,0.36-1.212,1.313-3.046,1.313c-1.718,0-2.382-1.083-2.382-2.079c0-0.49,0.13-1.141,0.838-1.674
		c0.274-0.217,0.62-0.448,2.28-0.679c0.751-0.102,1.545-0.202,2.237-0.447v-0.26c0-0.924,0-2.007-1.963-2.007
		c-1.948,0-2.194,1.111-2.324,1.66L219.966,146.12z M225.147,147.534c-0.62,0.231-1.66,0.434-2.382,0.563
		c-0.981,0.173-2.05,0.36-2.05,1.486c0,0.852,0.78,1.43,1.632,1.43c0.606,0,1.4-0.274,2.021-0.78
		c0.534-0.433,0.779-1.024,0.779-2.208V147.534z"/>
	<path class="st1" d="M229.178,141.227v1.328h-0.865v-1.328H229.178z M229.178,144.085v7.477h-0.865v-7.477H229.178z"/>
	<path class="st1" d="M232.269,144.085v1.501h0.028c0.159-0.549,0.534-1.675,1.718-1.675c0.621,0,1.011,0.245,1.328,0.447
		l-0.332,0.766c-0.477-0.202-0.707-0.289-1.011-0.289c-0.273,0-0.895,0.015-1.327,0.996c-0.131,0.274-0.202,0.779-0.261,1.256
		c-0.043,0.375-0.058,0.866-0.058,1.054v3.421h-0.866v-7.477H232.269z"/>
</g>
<g>
	<rect x="0" y="0" class="st0" width="246.136" height="46.569"/>
	<path class="st1" d="M8.497,17.31v-5.232c-2.097,2.169-4.668,3.592-7.221,4.813L0.82,16.361c2.426-1.13,4.814-2.389,6.82-4.394
		h-6.31v-0.639h7.166L8.479,9.925h0.784v1.423l7.275-0.019v0.639h-6.364c2.006,2.005,4.413,3.209,6.838,4.357l-0.419,0.547
		l-0.128-0.036c-2.517-1.276-5.179-2.662-7.202-4.777v5.251H8.497z M14.533,7.646c0.346-0.675,0.711-1.386,0.984-2.097L10.156,5.53
		l0.019,3.21c0,0.383-0.328,0.875-0.784,0.875C8.716,9.725,8.06,9.688,7.422,9.651L7.13,8.977c0.711,0.092,1.35,0.019,1.75-0.018
		c0.347,0,0.511-0.311,0.511-0.565l0.019-2.809C7.13,7.172,5.143,8.484,1.514,9.706L1.003,9.214c2.59-0.912,5.105-2.006,7.385-3.629
		L1.404,5.549v-0.62h8.26c-0.93-0.62-1.951-1.148-2.972-1.623l0.364-0.51C7.859,3.16,8.625,3.562,9.391,4.018l3.574-1.678
		L3.209,2.303V1.684h11.215v0.583c-1.423,0.803-2.863,1.495-4.34,2.151l0.766,0.511h5.58c-0.347,1.003-0.784,1.97-1.259,2.954
		L14.533,7.646z"/>
	<path class="st1" d="M19.535,16.909c1.222-2.462,2.061-4.541,2.917-6.783l0.639,0.291c-0.82,2.207-1.659,4.449-2.863,6.82
		L19.535,16.909z M22.015,8.156c-0.766-0.784-1.567-1.568-2.406-2.298l0.492-0.492l2.389,2.207L22.015,8.156z M20.866,1.337
		c0.784,0.656,1.55,1.422,2.315,2.151l-0.474,0.529c-0.693-0.675-1.495-1.514-2.315-2.188L20.866,1.337z M28.488,7.044h-3.812
		v10.412h-0.729V1.774h4.54V7.044z M24.677,2.412v1.605h3.101V2.412H24.677z M24.677,4.655v1.751h3.101V4.655H24.677z
		 M26.556,11.402h2.37V9.597h-2.863V8.959h6.383v0.638h-2.809v1.806h2.279v0.638h-2.279v2.024h3.246v0.638h-7.258v-0.638h3.301
		V12.04h-2.37V11.402z M31.843,16.58c0.565,0.019,0.931,0.073,1.496,0c0.273,0,0.474-0.2,0.474-0.492V7.044h-3.811v-5.27h4.54
		v14.679c0,0.401-0.401,0.856-1.058,0.856h-1.331L31.843,16.58z M33.813,2.412h-3.1v1.605h3.1V2.412z M33.813,4.655h-3.1v1.751h3.1
		V4.655z"/>
	<path class="st1" d="M42.479,14.302c-0.656-1.186-1.112-1.751-1.769-2.681c-0.456,2.078-1.495,3.865-2.571,5.616
		c-0.219-0.055-0.419-0.273-0.638-0.383c1.258-1.951,2.407-3.848,2.607-6.273L40.2,9.433L40.219,1.1h0.638v5.707
		c0.475-0.438,1.404-1.531,1.97-2.261c0.2,0.109,0.364,0.255,0.547,0.401c-0.747,0.984-1.623,1.896-2.517,2.681
		c0,1.148,0.037,1.987-0.072,3.081c0.93,1.295,1.586,1.86,2.261,3.209L42.479,14.302z M37.502,9.068
		c0.565-1.204,1.021-2.426,1.295-3.757c0.219,0.055,0.4,0.128,0.619,0.201c-0.255,1.349-0.747,2.534-1.239,3.792L37.502,9.068z
		 M41.659,17.164c1.24-2.261,2.188-4.613,2.188-7.294V2.048h8.351v3.975h-7.64v1.934h8.479l-0.036,4.048l-0.146,2.936
		c-0.037,0.912,0.055,2.225-1.149,2.517c-0.839,0.018-1.714-0.037-2.534-0.109l-0.055-0.711l2.097,0.182
		c0.328,0.037,0.656-0.219,0.784-0.511c0.146-0.911,0.255-1.969,0.273-2.898l0.073-3.046V8.594h-7.768
		c0.072,2.225-0.164,4.395-0.967,6.291c-0.383,0.894-0.784,1.806-1.258,2.662L41.659,17.164z M51.47,2.704h-6.911v2.645h6.911V2.704
		z M46.199,15.65v-5.343h3.938v4.941h-0.729v-0.82h-2.498v1.222H46.199z M49.427,10.982h-2.516v2.809h2.516V10.982z"/>
	<path class="st1" d="M56.106,5.257c0.931,0.748,1.915,1.514,2.754,2.334L58.386,8.12c-0.839-0.803-1.823-1.642-2.734-2.334
		L56.106,5.257z M55.815,16.981c1.44-2.225,2.498-4.631,3.392-7.093l0.602,0.474c-0.948,2.426-1.97,4.924-3.446,7.111L55.815,16.981
		z M59.426,4.437c-0.839-0.839-1.787-1.732-2.718-2.498l0.456-0.511c0.656,0.511,1.295,1.058,1.878,1.642l0.839,0.856L59.426,4.437z
		 M70.585,5.349v12.016h-0.784v-1.586l-8.169-0.019l0.019,1.604h-0.784V5.366h4.449V0.881l0.766,0.019v4.449H70.585z M65.315,6.041
		h-3.684v3.957h3.684V6.041z M65.315,10.673h-3.337l-0.347,0.018v4.413h3.684V10.673z M69.801,6.041h-3.702v3.957h3.702V6.041z
		 M69.801,10.673h-3.702v4.431h3.702V10.673z"/>
	<path class="st1" d="M76.991,17.547v-7.275c-0.693,1.459-1.459,2.99-2.426,4.376c-0.2-0.109-0.383-0.31-0.583-0.456
		c1.039-1.567,2.061-3.172,2.698-4.923c0.128-0.492,0.401-0.912,0.311-1.477h-2.918V7.099h2.936V0.881h0.767v6.236l2.644-0.019
		v0.675h-2.644v9.737L76.991,17.547z M76.371,5.896c-0.237,0.036-0.438,0.164-0.675,0.2c-0.292-1.186-0.675-2.37-1.076-3.537
		c0.219-0.073,0.438-0.128,0.657-0.183C75.696,3.524,76.061,4.71,76.371,5.896z M79.015,8.867c0.62,0.967,1.186,1.951,1.714,2.954
		l-0.602,0.347c-0.547-0.984-1.075-1.987-1.714-2.936L79.015,8.867z M80.438,2.613c-0.256,1.148-0.639,2.279-1.04,3.373
		c-0.219-0.036-0.438-0.164-0.656-0.219c0.401-1.094,0.748-2.225,1.04-3.373L80.438,2.613z M90.247,6.861l-0.018,0.693h-9.354V6.88
		h4.139l-0.018-1.55c-1.003-0.019-2.098-0.019-3.137,0V4.655l3.173-0.019l-0.019-1.44h-3.61V2.504h3.629l-0.019-1.696h0.767v1.696
		h3.737v0.675L85.78,3.196l0.018,1.44l3.209,0.019v0.656h-3.209L85.78,6.898L90.247,6.861z M86.254,16.8
		c0.529,0.055,1.058,0.146,1.44,0.127c0.42,0.037,0.62-0.236,0.62-0.62v-1.969l-5.78-0.019l0.019,3.246h-0.767V9.05l7.294-0.019
		l0.019,7.805c0,0.419-0.42,0.766-0.875,0.747c-0.292,0.037-1.24,0.037-1.568-0.018L86.254,16.8z M88.314,9.706l-5.762,0.019v1.641
		h5.762V9.706z M88.314,12.022h-5.762v1.604l5.78,0.018L88.314,12.022z"/>
	<path class="st1" d="M100.373,11.803v1.951h6.4l-0.019,0.693h-6.382v3.282l-0.729,0.018v-3.3l-6.163-0.019v-0.675h6.163v-1.951
		h-7.439V11.11h7.439l-0.018-5.16l-6.638-0.019V5.257h14.259V5.95l-6.874-0.019v5.197l7.586-0.019v0.692H100.373z M97.019,3.543
		v1.295h-0.729V3.562h-3.757V2.887h3.757V1.1l0.747,0.019v1.75c0.82,0.019,1.732,0.019,2.553,0v0.675H97.019z M96.088,8.722v1.823
		l-0.747,0.019V8.74l-2.59-0.019V8.047h2.59c0-0.474,0.018-0.912,0-1.386h0.747v1.386h2.553v0.675H96.088z M103.856,3.543
		l-0.019,1.276h-0.748V3.562l-2.553-0.019V2.868h2.571l-0.019-1.787h0.748l0.019,1.787l3.865,0.019v0.656H103.856z M104.804,8.667
		v1.842l-0.729,0.018l-0.019-1.859h-2.607l0.019-0.693h2.607V6.625h0.729v1.367h2.663v0.675H104.804z"/>
	<path class="st1" d="M3.465,25.121l4.103,11.305l4.157-11.305h1.842v13.056h-1.131V26.379h-0.055L8.078,38.177H7.039l-4.23-11.798
		H2.754v11.798H1.623V25.121H3.465z"/>
	<path class="st1" d="M20.245,38.396c-2.662,0-4.23-2.042-4.212-4.887c0.018-3.265,1.622-4.996,4.212-4.996
		c2.553,0,4.23,1.731,4.23,4.996C24.476,36.299,23.181,38.396,20.245,38.396z M20.281,29.424c-2.078,0-3.081,1.751-3.081,4.085
		c0,2.589,1.294,3.975,3.1,3.975c1.805,0,3.009-1.44,3.009-3.975C23.309,30.919,22.196,29.424,20.281,29.424z"/>
	<path class="st1" d="M27.906,25.121v1.677h-1.094v-1.677H27.906z M27.906,28.731v9.445h-1.094v-9.445H27.906z"/>
	<path class="st1" d="M36.131,31.175c-0.255-0.839-0.547-1.751-2.406-1.751c-1.386,0-2.207,0.565-2.207,1.532
		c0,0.875,0.475,1.349,2.809,1.842c1.914,0.4,3.282,1.039,3.282,2.698c0,1.531-1.131,2.899-3.684,2.899
		c-2.607,0-3.501-1.24-3.865-2.771l1.13-0.201c0.146,0.529,0.547,2.061,2.771,2.061c1.605,0,2.48-0.839,2.48-1.823
		c0-0.93-0.693-1.404-2.771-1.842c-2.006-0.419-3.319-1.094-3.319-2.662c0-0.93,0.639-2.644,3.355-2.644
		c1.86,0,3.009,0.547,3.501,2.498L36.131,31.175z"/>
	<path class="st1" d="M41.313,28.731h1.769v0.82h-1.769v6.199c0,1.167,0.128,1.66,1.058,1.66c0.146,0,0.311-0.019,0.875-0.128
		l0.146,0.894c-0.584,0.109-0.839,0.146-1.167,0.146c-2.042,0-2.006-1.367-2.006-2.425v-6.346h-1.313v-0.82h1.313v-2.426
		l1.094-0.711V28.731z"/>
	<path class="st1" d="M51.161,38.177v-1.404h-0.037c-0.51,0.711-1.222,1.623-3.008,1.623c-1.423,0-2.152-0.675-2.462-1.003
		c-0.729-0.766-0.711-1.951-0.711-2.498v-6.163h1.094v5.853c0,0.767,0.036,1.478,0.364,1.951c0.383,0.547,1.058,0.894,1.824,0.894
		c1.021,0,2.115-0.638,2.607-1.695c0.255-0.565,0.328-1.313,0.328-2.918v-4.084h1.094v9.445H51.161z"/>
	<path class="st1" d="M56.143,28.731v1.896h0.036c0.2-0.693,0.675-2.115,2.17-2.115c0.784,0,1.276,0.31,1.678,0.564l-0.42,0.967
		c-0.602-0.255-0.894-0.364-1.276-0.364c-0.347,0-1.13,0.018-1.678,1.258c-0.164,0.347-0.255,0.984-0.328,1.586
		c-0.055,0.475-0.072,1.095-0.072,1.332v4.321h-1.095v-9.445H56.143z"/>
	<path class="st1" d="M61.833,33.581c0.036,2.279,1.076,3.902,3.173,3.902c2.078,0,2.681-1.695,2.899-2.297l1.094,0.182
		c-0.328,0.912-1.076,3.027-4.048,3.027c-2.717,0-4.285-1.915-4.285-4.941c0-2.973,1.531-4.941,4.304-4.941
		c4.103,0,4.12,4.12,4.139,5.068H61.833z M67.941,32.67c-0.219-2.517-1.659-3.246-3.009-3.246c-0.565,0-2.717,0.146-3.081,3.246
		H67.941z"/>
	<path class="st1" d="M77.848,25.121v11.961h6.583v1.095h-7.823V25.121H77.848z"/>
	<path class="st1" d="M90.195,38.396c-2.662,0-4.23-2.042-4.212-4.887c0.019-3.265,1.623-4.996,4.212-4.996
		c2.553,0,4.23,1.731,4.23,4.996C94.426,36.299,93.132,38.396,90.195,38.396z M90.232,29.424c-2.079,0-3.082,1.751-3.082,4.085
		c0,2.589,1.295,3.975,3.1,3.975c1.806,0,3.009-1.44,3.009-3.975C93.259,30.919,92.146,29.424,90.232,29.424z"/>
	<path class="st1" d="M103.31,31.576c-0.401-1.368-1.495-2.152-2.918-2.152c-1.167,0-3.1,0.729-3.1,3.902
		c0,2.389,1.094,4.157,3.154,4.157c2.152,0,2.79-1.805,3.063-2.534l1.095,0.164c-0.219,0.911-0.912,3.282-4.213,3.282
		c-3.081,0-4.267-2.389-4.267-4.96c0-1.914,0.748-4.923,4.321-4.923c1.66,0,3.246,0.492,4.03,2.881L103.31,31.576z"/>
	<path class="st1" d="M107.98,25.121v7.986l4.632-4.376h1.55l-3.938,3.519l4.23,5.927h-1.44l-3.593-5.179l-1.44,1.276v3.902h-1.094
		V25.121H107.98z"/>
	<path class="st1" d="M129.958,30.755v-5.634h1.239v13.056h-1.239V31.85h-7.513v6.327h-1.24V25.121h1.24v5.634H129.958z"/>
	<path class="st1" d="M133.863,31.302c0.365-1.969,1.587-2.789,4.066-2.789c3.574,0,3.593,1.786,3.593,4.011
		c0,0.201-0.037,2.262-0.037,2.663c0,1.677,0.164,2.114,0.584,2.99h-1.222c-0.219-0.565-0.273-0.803-0.347-1.44
		c-0.42,0.455-1.531,1.659-3.848,1.659c-2.17,0-3.009-1.368-3.009-2.626c0-0.62,0.164-1.44,1.058-2.115
		c0.347-0.273,0.784-0.565,2.881-0.856c0.948-0.128,1.951-0.256,2.827-0.565v-0.328c0-1.167,0-2.535-2.48-2.535
		c-2.461,0-2.771,1.404-2.936,2.097L133.863,31.302z M140.41,33.089c-0.784,0.292-2.098,0.547-3.009,0.711
		c-1.24,0.22-2.59,0.456-2.59,1.879c0,1.075,0.985,1.805,2.061,1.805c0.766,0,1.769-0.347,2.553-0.984
		c0.675-0.547,0.985-1.295,0.985-2.79V33.089z"/>
	<path class="st1" d="M145.5,25.121v1.677h-1.094v-1.677H145.5z M145.5,28.731v9.445h-1.094v-9.445H145.5z"/>
	<path class="st1" d="M149.403,28.731v1.896h0.036c0.201-0.693,0.675-2.115,2.17-2.115c0.784,0,1.276,0.31,1.678,0.564l-0.419,0.967
		c-0.602-0.255-0.894-0.364-1.276-0.364c-0.347,0-1.131,0.018-1.678,1.258c-0.164,0.347-0.255,0.984-0.328,1.586
		c-0.055,0.475-0.073,1.095-0.073,1.332v4.321h-1.094v-9.445H149.403z"/>
	<path class="st1" d="M167.806,25.121v1.148h-3.994v11.907h-1.239V26.27h-3.993v-1.148H167.806z"/>
	<path class="st1" d="M170.689,28.731v1.896h0.036c0.201-0.693,0.675-2.115,2.17-2.115c0.784,0,1.276,0.31,1.678,0.564l-0.419,0.967
		c-0.602-0.255-0.894-0.364-1.276-0.364c-0.347,0-1.131,0.018-1.678,1.258c-0.164,0.347-0.255,0.984-0.328,1.586
		c-0.055,0.475-0.073,1.095-0.073,1.332v4.321h-1.094v-9.445H170.689z"/>
	<path class="st1" d="M176.38,33.581c0.037,2.279,1.076,3.902,3.173,3.902c2.079,0,2.681-1.695,2.899-2.297l1.095,0.182
		c-0.329,0.912-1.076,3.027-4.049,3.027c-2.717,0-4.285-1.915-4.285-4.941c0-2.973,1.532-4.941,4.304-4.941
		c4.103,0,4.121,4.12,4.14,5.068H176.38z M182.489,32.67c-0.219-2.517-1.66-3.246-3.009-3.246c-0.565,0-2.717,0.146-3.082,3.246
		H182.489z"/>
	<path class="st1" d="M185.556,31.302c0.364-1.969,1.586-2.789,4.066-2.789c3.573,0,3.592,1.786,3.592,4.011
		c0,0.201-0.036,2.262-0.036,2.663c0,1.677,0.164,2.114,0.583,2.99h-1.222c-0.219-0.565-0.273-0.803-0.347-1.44
		c-0.419,0.455-1.531,1.659-3.847,1.659c-2.17,0-3.009-1.368-3.009-2.626c0-0.62,0.164-1.44,1.058-2.115
		c0.347-0.273,0.784-0.565,2.881-0.856c0.948-0.128,1.951-0.256,2.826-0.565v-0.328c0-1.167,0-2.535-2.479-2.535
		c-2.462,0-2.771,1.404-2.936,2.097L185.556,31.302z M192.102,33.089c-0.784,0.292-2.097,0.547-3.009,0.711
		c-1.239,0.22-2.589,0.456-2.589,1.879c0,1.075,0.984,1.805,2.061,1.805c0.766,0,1.769-0.347,2.553-0.984
		c0.675-0.547,0.984-1.295,0.984-2.79V33.089z"/>
	<path class="st1" d="M197.43,28.731h1.769v0.82h-1.769v6.199c0,1.167,0.127,1.66,1.058,1.66c0.146,0,0.31-0.019,0.875-0.128
		l0.146,0.894c-0.583,0.109-0.839,0.146-1.167,0.146c-2.042,0-2.006-1.367-2.006-2.425v-6.346h-1.313v-0.82h1.313v-2.426
		l1.095-0.711V28.731z"/>
	<path class="st1" d="M202.245,28.731v1.349h0.036c0.347-0.528,1.131-1.567,2.845-1.567c1.805,0,2.298,1.094,2.517,1.567
		c0.492-0.619,1.276-1.567,2.954-1.567c1.039,0,1.75,0.438,2.133,0.856c0.328,0.347,0.711,1.04,0.711,2.371v6.437h-1.094v-5.872
		c0-1.167-0.036-2.844-1.987-2.844c-2.225,0-2.517,2.206-2.517,4.065v4.65h-1.094v-5.981c0-0.984,0.036-2.698-1.842-2.698
		c-1.915,0-2.662,1.769-2.662,3.646v5.033h-1.095v-9.445H202.245z"/>
	<path class="st1" d="M216.928,33.581c0.037,2.279,1.076,3.902,3.173,3.902c2.079,0,2.681-1.695,2.899-2.297l1.095,0.182
		c-0.329,0.912-1.076,3.027-4.049,3.027c-2.717,0-4.285-1.915-4.285-4.941c0-2.973,1.532-4.941,4.304-4.941
		c4.103,0,4.121,4.12,4.14,5.068H216.928z M223.037,32.67c-0.219-2.517-1.66-3.246-3.009-3.246c-0.565,0-2.717,0.146-3.082,3.246
		H223.037z"/>
	<path class="st1" d="M227.58,28.731v1.386h0.037c0.51-0.693,1.222-1.604,3.009-1.604c1.422,0,2.188,0.656,2.498,1.003
		c0.692,0.783,0.674,1.933,0.674,2.498v6.163h-1.094v-5.872c0-0.766-0.036-1.458-0.364-1.933c-0.383-0.565-1.058-0.894-1.824-0.894
		c-1.021,0-2.114,0.62-2.607,1.678c-0.273,0.584-0.328,1.313-0.328,2.918v4.103h-1.094v-9.445H227.58z"/>
	<path class="st1" d="M237.978,28.731h1.769v0.82h-1.769v6.199c0,1.167,0.127,1.66,1.058,1.66c0.146,0,0.31-0.019,0.875-0.128
		l0.146,0.894c-0.583,0.109-0.839,0.146-1.167,0.146c-2.042,0-2.006-1.367-2.006-2.425v-6.346h-1.313v-0.82h1.313v-2.426
		l1.095-0.711V28.731z"/>
</g>
</svg>