<!-- Generator: Adobe Illustrator 19.2.0, SVG Export Plug-In  -->
<svg version="1.1"
	 xmlns="http://www.w3.org/2000/svg" xmlns:xlink="http://www.w3.org/1999/xlink" xmlns:a="http://ns.adobe.com/AdobeSVGViewerExtensions/3.0/"
	 x="0px" y="0px" width="80.354px" height="12.705px" viewBox="0 0 80.354 12.705"
	 style="enable-background:new 0 0 80.354 12.705;" xml:space="preserve">
<style type="text/css">
	.st0{fill:#3E3A39;}
</style>
<defs>
</defs>
<g>
	<path class="st0" d="M5.758,12.376V8.452c-1.573,1.627-3.501,2.694-5.416,3.61L0,11.665c1.819-0.848,3.611-1.792,5.115-3.296H0.383
		V7.891h5.375L5.744,6.838h0.588v1.067l5.457-0.014V8.37H7.016c1.504,1.504,3.31,2.407,5.128,3.268l-0.314,0.41l-0.096-0.027
		c-1.887-0.957-3.884-1.997-5.402-3.583v3.939H5.758z M10.285,5.128c0.259-0.506,0.533-1.039,0.738-1.573L7.002,3.542l0.014,2.407
		c0,0.287-0.246,0.656-0.588,0.656C5.922,6.687,5.429,6.66,4.951,6.633L4.732,6.127c0.533,0.068,1.012,0.014,1.313-0.014
		c0.26,0,0.383-0.233,0.383-0.424l0.014-2.106c-1.709,1.19-3.2,2.175-5.922,3.091L0.137,6.305C2.079,5.621,3.966,4.8,5.676,3.583
		L0.438,3.556V3.091h6.195C5.936,2.626,5.169,2.229,4.404,1.874l0.273-0.383c0.602,0.274,1.176,0.574,1.75,0.916l2.681-1.258
		L1.792,1.121V0.657h8.411v0.438C9.135,1.696,8.055,2.216,6.948,2.708l0.574,0.383h4.185c-0.26,0.752-0.588,1.477-0.944,2.216
		L10.285,5.128z"/>
	<path class="st0" d="M14.036,12.076c0.916-1.846,1.545-3.405,2.188-5.087l0.479,0.219c-0.615,1.655-1.244,3.337-2.147,5.115
		L14.036,12.076z M15.896,5.511c-0.574-0.588-1.176-1.176-1.805-1.723l0.369-0.369l1.792,1.655L15.896,5.511z M15.034,0.397
		c0.588,0.493,1.162,1.067,1.737,1.614l-0.355,0.397c-0.52-0.506-1.121-1.135-1.737-1.641L15.034,0.397z M20.751,4.677h-2.859v7.809
		h-0.546V0.725h3.405V4.677z M17.892,1.203v1.204h2.325V1.203H17.892z M17.892,2.886v1.313h2.325V2.886H17.892z M19.302,7.946h1.778
		V6.592h-2.147V6.113h4.787v0.479h-2.106v1.354h1.709v0.479h-1.709v1.518h2.435v0.479h-5.443V9.942h2.476V8.424h-1.778V7.946z
		 M23.267,11.829c0.424,0.014,0.698,0.055,1.122,0c0.205,0,0.355-0.15,0.355-0.369V4.677h-2.858V0.725h3.405v11.009
		c0,0.301-0.301,0.643-0.793,0.643H23.5L23.267,11.829z M24.744,1.203h-2.325v1.204h2.325V1.203z M24.744,2.886h-2.325v1.313h2.325
		V2.886z"/>
	<path class="st0" d="M31.244,10.12c-0.492-0.889-0.834-1.313-1.326-2.01c-0.342,1.559-1.121,2.899-1.928,4.212
		c-0.164-0.041-0.314-0.205-0.478-0.287c0.943-1.463,1.805-2.886,1.956-4.705l0.068-0.861l0.014-6.25h0.478v4.28
		c0.356-0.328,1.053-1.149,1.477-1.696c0.15,0.082,0.273,0.191,0.41,0.301c-0.56,0.739-1.217,1.422-1.887,2.01
		c0,0.861,0.028,1.49-0.054,2.311c0.697,0.971,1.189,1.395,1.696,2.407L31.244,10.12z M27.511,6.195
		c0.424-0.903,0.765-1.819,0.971-2.817c0.164,0.041,0.3,0.096,0.464,0.151c-0.191,1.012-0.56,1.901-0.929,2.844L27.511,6.195z
		 M30.629,12.267c0.93-1.696,1.641-3.46,1.641-5.47V0.93h6.263v2.981h-5.73v1.45h6.359l-0.027,3.036l-0.109,2.202
		c-0.028,0.684,0.041,1.668-0.862,1.887c-0.629,0.014-1.285-0.027-1.901-0.082l-0.041-0.533l1.573,0.137
		c0.246,0.027,0.492-0.164,0.588-0.383c0.109-0.684,0.191-1.477,0.205-2.174l0.055-2.284V5.84h-5.826
		c0.054,1.668-0.123,3.296-0.725,4.718c-0.287,0.67-0.588,1.354-0.943,1.997L30.629,12.267z M37.987,1.422h-5.183v1.983h5.183V1.422
		z M34.034,11.132V7.125h2.954v3.706h-0.546v-0.615h-1.874v0.916H34.034z M36.455,7.631h-1.887v2.106h1.887V7.631z"/>
	<path class="st0" d="M41.465,3.337c0.698,0.561,1.436,1.135,2.065,1.75l-0.356,0.397c-0.629-0.602-1.367-1.231-2.051-1.75
		L41.465,3.337z M41.246,12.13c1.08-1.668,1.874-3.474,2.544-5.32l0.451,0.356c-0.711,1.819-1.477,3.693-2.585,5.333L41.246,12.13z
		 M43.954,2.722c-0.629-0.629-1.34-1.299-2.038-1.874l0.342-0.383c0.492,0.383,0.971,0.793,1.408,1.231l0.629,0.643L43.954,2.722z
		 M52.323,3.405v9.012h-0.588v-1.19l-6.127-0.014l0.014,1.203h-0.588V3.419h3.337V0.055l0.574,0.014v3.337H52.323z M48.371,3.925
		h-2.763v2.967h2.763V3.925z M48.371,7.399h-2.503l-0.26,0.014v3.31h2.763V7.399z M51.735,3.925h-2.777v2.967h2.777V3.925z
		 M51.735,7.399h-2.777v3.323h2.777V7.399z"/>
	<path class="st0" d="M57.128,12.554V7.098c-0.52,1.094-1.094,2.243-1.819,3.282c-0.15-0.082-0.287-0.233-0.437-0.342
		c0.779-1.176,1.545-2.379,2.024-3.692c0.096-0.37,0.301-0.684,0.233-1.108H54.94v-0.52h2.202V0.055h0.575v4.677l1.983-0.014v0.506
		h-1.983v7.303L57.128,12.554z M56.663,3.816c-0.178,0.027-0.328,0.123-0.506,0.151c-0.219-0.889-0.506-1.778-0.807-2.653
		c0.164-0.055,0.329-0.096,0.493-0.137C56.157,2.038,56.43,2.927,56.663,3.816z M58.646,6.045c0.465,0.725,0.889,1.463,1.285,2.216
		L59.48,8.52c-0.41-0.738-0.806-1.49-1.285-2.202L58.646,6.045z M59.713,1.354c-0.192,0.862-0.479,1.709-0.78,2.53
		c-0.164-0.027-0.328-0.123-0.492-0.164c0.301-0.821,0.561-1.668,0.78-2.53L59.713,1.354z M67.07,4.54l-0.013,0.52h-7.016V4.554
		h3.104l-0.013-1.163c-0.752-0.014-1.573-0.014-2.353,0V2.886l2.38-0.014l-0.014-1.08h-2.708v-0.52h2.722L63.145,0h0.575v1.272
		h2.803v0.506L63.72,1.792l0.013,1.08l2.407,0.014v0.492h-2.407l-0.013,1.19L67.07,4.54z M64.075,11.994
		c0.397,0.041,0.793,0.109,1.08,0.096c0.315,0.027,0.465-0.178,0.465-0.465v-1.477l-4.335-0.014l0.014,2.434h-0.575V6.182
		l5.47-0.014l0.014,5.853c0,0.315-0.315,0.575-0.656,0.561c-0.219,0.027-0.93,0.027-1.176-0.014L64.075,11.994z M65.621,6.674
		l-4.321,0.014v1.231h4.321V6.674z M65.621,8.411h-4.321v1.203l4.335,0.014L65.621,8.411z"/>
	<path class="st0" d="M74.665,8.246V9.71h4.8l-0.014,0.52h-4.786v2.462l-0.547,0.014v-2.475l-4.622-0.014V9.71h4.622V8.246h-5.58
		v-0.52h5.58l-0.013-3.87l-4.978-0.014V3.337H79.82v0.52l-5.156-0.014v3.898l5.689-0.014v0.52H74.665z M72.149,2.052v0.971h-0.547
		V2.065h-2.818V1.559h2.818v-1.34l0.56,0.014v1.313c0.615,0.014,1.299,0.014,1.915,0v0.506H72.149z M71.451,5.935v1.368l-0.56,0.014
		V5.949l-1.942-0.014V5.429h1.942c0-0.356,0.013-0.684,0-1.039h0.56v1.039h1.915v0.506H71.451z M77.277,2.052l-0.014,0.957h-0.561
		V2.065l-1.915-0.014V1.545h1.928l-0.014-1.34h0.561l0.014,1.34l2.899,0.014v0.493H77.277z M77.988,5.894v1.381l-0.546,0.014
		l-0.014-1.395h-1.956l0.014-0.52h1.956V4.363h0.546v1.026h1.997v0.506H77.988z"/>
</g>
</svg>