<!-- Generator: Adobe Illustrator 19.2.1, SVG Export Plug-In  -->
<svg version="1.1"
	 xmlns="http://www.w3.org/2000/svg" xmlns:xlink="http://www.w3.org/1999/xlink" xmlns:a="http://ns.adobe.com/AdobeSVGViewerExtensions/3.0/"
	 x="0px" y="0px" width="150.064px" height="29.083px" viewBox="0 0 150.064 29.083"
	 style="enable-background:new 0 0 150.064 29.083;" xml:space="preserve">
<style type="text/css">
	.st0{fill:#FFFFFF;}
</style>
<defs>
</defs>
<g>
	<path class="st0" d="M11.502,13.334H6.635v-3.253c0-0.945-0.052-1.535-0.156-1.771C6.375,8.076,6.146,7.959,5.791,7.959
		c-0.401,0-0.655,0.143-0.763,0.428c-0.108,0.285-0.162,0.902-0.162,1.85v8.693c0,0.909,0.054,1.503,0.162,1.78
		c0.108,0.277,0.351,0.416,0.728,0.416c0.362,0,0.599-0.139,0.711-0.417s0.168-0.931,0.168-1.958v-2.352h4.867v0.729
		c0,1.937-0.137,3.311-0.41,4.121c-0.274,0.811-0.879,1.521-1.815,2.131c-0.936,0.61-2.09,0.914-3.462,0.914
		c-1.426,0-2.601-0.258-3.526-0.774s-1.537-1.231-1.838-2.144S0,19.087,0,17.252v-5.468c0-1.349,0.046-2.36,0.139-3.034
		c0.092-0.674,0.368-1.324,0.826-1.948S2.06,5.687,2.873,5.329S4.62,4.791,5.676,4.791c1.433,0,2.616,0.277,3.549,0.831
		c0.932,0.554,1.545,1.245,1.838,2.072c0.293,0.827,0.439,2.114,0.439,3.861V13.334z"/>
	<path class="st0" d="M24.367,16.143c0,1.88-0.044,3.212-0.133,3.994c-0.089,0.782-0.366,1.497-0.832,2.144s-1.096,1.144-1.89,1.491
		c-0.794,0.347-1.719,0.52-2.774,0.52c-1.002,0-1.902-0.164-2.699-0.491c-0.798-0.328-1.439-0.819-1.925-1.474
		c-0.485-0.655-0.774-1.368-0.867-2.138c-0.092-0.771-0.139-2.119-0.139-4.046v-3.202c0-1.88,0.044-3.212,0.133-3.994
		c0.089-0.782,0.366-1.497,0.832-2.144s1.096-1.144,1.89-1.491s1.719-0.52,2.774-0.52c1.002,0,1.902,0.164,2.699,0.491
		c0.798,0.328,1.439,0.819,1.925,1.474c0.485,0.655,0.774,1.368,0.867,2.138c0.092,0.771,0.139,2.119,0.139,4.046V16.143z
		 M19.501,9.993c0-0.871-0.048-1.428-0.144-1.67s-0.295-0.364-0.595-0.364c-0.254,0-0.449,0.098-0.584,0.295
		c-0.135,0.197-0.202,0.776-0.202,1.74v8.739c0,1.087,0.044,1.757,0.133,2.011c0.089,0.254,0.295,0.381,0.618,0.381
		c0.331,0,0.543-0.146,0.636-0.439c0.092-0.293,0.139-0.99,0.139-2.092V9.993z"/>
	<path class="st0" d="M31.049,5.184v14.969h2.959v3.745h-7.826V5.184H31.049z"/>
	<path class="st0" d="M45.949,16.143c0,1.88-0.044,3.212-0.133,3.994s-0.366,1.497-0.832,2.144c-0.466,0.647-1.096,1.144-1.89,1.491
		s-1.719,0.52-2.774,0.52c-1.002,0-1.902-0.164-2.699-0.491c-0.798-0.328-1.439-0.819-1.925-1.474
		c-0.485-0.655-0.774-1.368-0.867-2.138c-0.092-0.771-0.139-2.119-0.139-4.046v-3.202c0-1.88,0.044-3.212,0.133-3.994
		c0.089-0.782,0.366-1.497,0.832-2.144c0.466-0.647,1.096-1.144,1.89-1.491s1.718-0.52,2.774-0.52c1.002,0,1.902,0.164,2.699,0.491
		s1.439,0.819,1.925,1.474s0.774,1.368,0.867,2.138c0.092,0.771,0.139,2.119,0.139,4.046V16.143z M41.082,9.993
		c0-0.871-0.048-1.428-0.144-1.67s-0.295-0.364-0.595-0.364c-0.254,0-0.449,0.098-0.584,0.295c-0.135,0.197-0.202,0.776-0.202,1.74
		v8.739c0,1.087,0.044,1.757,0.133,2.011c0.089,0.254,0.295,0.381,0.618,0.381c0.331,0,0.543-0.146,0.636-0.439
		s0.139-0.99,0.139-2.092V9.993z"/>
	<path class="st0" d="M47.764,5.184h3.445c2.296,0,3.851,0.089,4.664,0.266c0.813,0.177,1.476,0.63,1.988,1.358
		c0.512,0.728,0.769,1.89,0.769,3.485c0,1.456-0.181,2.435-0.543,2.936c-0.362,0.501-1.075,0.801-2.138,0.902
		c0.963,0.239,1.611,0.559,1.942,0.959c0.331,0.401,0.538,0.769,0.618,1.104c0.081,0.335,0.121,1.258,0.121,2.768v4.936h-4.52V17.68
		c0-1.002-0.079-1.622-0.237-1.861c-0.158-0.239-0.572-0.358-1.243-0.358v8.438h-4.867V5.184z M52.63,8.386v4.161
		c0.547,0,0.931-0.075,1.15-0.225s0.329-0.638,0.329-1.462V9.831c0-0.593-0.106-0.983-0.318-1.168
		C53.58,8.479,53.193,8.386,52.63,8.386z"/>
	<path class="st0" d="M65.38,5.184v18.715h-4.867V5.184H65.38z"/>
	<path class="st0" d="M78.2,5.184v18.715h-4.265l-2.532-8.508v8.508h-4.069V5.184h4.069l2.728,8.427V5.184H78.2z"/>
	<path class="st0" d="M91.319,12.074h-4.867v-1.699c0-1.071-0.046-1.742-0.139-2.011c-0.092-0.27-0.312-0.405-0.659-0.405
		c-0.301,0-0.505,0.116-0.613,0.347c-0.108,0.231-0.162,0.825-0.162,1.78v8.982c0,0.84,0.054,1.393,0.162,1.659
		s0.324,0.399,0.647,0.399c0.354,0,0.595-0.15,0.722-0.451c0.127-0.301,0.191-0.886,0.191-1.757v-2.219h-0.983v-2.844h5.699v10.045
		h-3.057l-0.451-1.341c-0.331,0.578-0.749,1.011-1.254,1.3c-0.507,0.289-1.102,0.433-1.788,0.433c-0.819,0-1.584-0.198-2.296-0.595
		s-1.256-0.888-1.626-1.474c-0.37-0.586-0.601-1.2-0.694-1.844s-0.139-1.609-0.139-2.896v-5.56c0-1.788,0.096-3.086,0.289-3.896
		s0.746-1.551,1.659-2.225c0.913-0.674,2.094-1.011,3.543-1.011c1.426,0,2.609,0.293,3.549,0.879
		c0.94,0.586,1.553,1.281,1.838,2.086c0.285,0.805,0.428,1.975,0.428,3.508V12.074z"/>
	<path class="st0" d="M102.243,5.184v18.715h-4.867V5.184H102.243z"/>
	<path class="st0" d="M114.508,10.849h-4.52V9.461c0-0.647-0.058-1.06-0.173-1.237s-0.308-0.266-0.578-0.266
		c-0.293,0-0.514,0.119-0.665,0.358c-0.15,0.24-0.225,0.602-0.225,1.088c0,0.625,0.085,1.095,0.254,1.411
		c0.16,0.316,0.618,0.697,1.374,1.144c2.167,1.286,3.531,2.341,4.094,3.165c0.563,0.825,0.844,2.154,0.844,3.988
		c0,1.333-0.156,2.316-0.468,2.948c-0.312,0.632-0.915,1.162-1.809,1.589c-0.894,0.428-1.934,0.642-3.121,0.642
		c-1.302,0-2.414-0.247-3.335-0.74c-0.921-0.493-1.524-1.121-1.809-1.884s-0.428-1.846-0.428-3.248v-1.225h4.52v2.277
		c0,0.701,0.064,1.152,0.191,1.352c0.127,0.2,0.353,0.301,0.676,0.301s0.564-0.127,0.722-0.381c0.158-0.254,0.237-0.632,0.237-1.133
		c0-1.102-0.15-1.823-0.451-2.162c-0.308-0.339-1.067-0.905-2.277-1.699c-1.21-0.801-2.011-1.383-2.404-1.745
		s-0.719-0.863-0.977-1.503c-0.258-0.64-0.387-1.456-0.387-2.451c0-1.433,0.183-2.481,0.549-3.144s0.958-1.181,1.774-1.555
		c0.817-0.374,1.803-0.561,2.959-0.561c1.264,0,2.341,0.204,3.231,0.613s1.48,0.923,1.769,1.543c0.289,0.62,0.433,1.674,0.433,3.162
		V10.849z"/>
	<path class="st0" d="M126.749,10.849h-4.52V9.461c0-0.647-0.058-1.06-0.173-1.237s-0.308-0.266-0.578-0.266
		c-0.293,0-0.514,0.119-0.665,0.358c-0.15,0.24-0.225,0.602-0.225,1.088c0,0.625,0.085,1.095,0.254,1.411
		c0.16,0.316,0.618,0.697,1.374,1.144c2.167,1.286,3.531,2.341,4.094,3.165c0.563,0.825,0.844,2.154,0.844,3.988
		c0,1.333-0.156,2.316-0.468,2.948c-0.312,0.632-0.915,1.162-1.809,1.589c-0.894,0.428-1.934,0.642-3.121,0.642
		c-1.302,0-2.414-0.247-3.335-0.74c-0.921-0.493-1.524-1.121-1.809-1.884c-0.285-0.763-0.428-1.846-0.428-3.248v-1.225h4.52v2.277
		c0,0.701,0.064,1.152,0.191,1.352c0.127,0.2,0.353,0.301,0.676,0.301c0.324,0,0.564-0.127,0.722-0.381
		c0.158-0.254,0.237-0.632,0.237-1.133c0-1.102-0.15-1.823-0.451-2.162c-0.308-0.339-1.067-0.905-2.277-1.699
		c-1.21-0.801-2.011-1.383-2.404-1.745s-0.719-0.863-0.977-1.503c-0.258-0.64-0.387-1.456-0.387-2.451
		c0-1.433,0.183-2.481,0.549-3.144s0.958-1.181,1.774-1.555c0.817-0.374,1.803-0.561,2.959-0.561c1.264,0,2.341,0.204,3.231,0.613
		s1.48,0.923,1.769,1.543s0.433,1.674,0.433,3.162V10.849z"/>
	<path class="st0" d="M139.742,5.184v12.507c0,1.418-0.046,2.414-0.139,2.988c-0.092,0.574-0.366,1.164-0.821,1.769
		c-0.455,0.605-1.054,1.063-1.797,1.376c-0.744,0.312-1.62,0.468-2.63,0.468c-1.117,0-2.104-0.185-2.959-0.555
		s-1.495-0.852-1.919-1.445c-0.424-0.593-0.674-1.22-0.751-1.878c-0.077-0.659-0.116-2.044-0.116-4.156V5.184h4.867v14.033
		c0,0.817,0.044,1.339,0.133,1.566c0.089,0.227,0.268,0.341,0.538,0.341c0.308,0,0.507-0.125,0.595-0.376s0.133-0.842,0.133-1.774
		V5.184H139.742z"/>
	<path class="st0" d="M141.626,5.184h8.115V8.93h-3.248v3.549h3.04v3.56h-3.04v4.115h3.572v3.745h-8.438V5.184z"/>
</g>
<g>
	<rect class="st0" width="150.064" height="1.333"/>
	<rect y="27.75" class="st0" width="150.064" height="1.333"/>
</g>
</svg>