<!-- Generator: Adobe Illustrator 19.2.0, SVG Export Plug-In  -->
<svg version="1.1"
	 xmlns="http://www.w3.org/2000/svg" xmlns:xlink="http://www.w3.org/1999/xlink" xmlns:a="http://ns.adobe.com/AdobeSVGViewerExtensions/3.0/"
	 x="0px" y="0px" width="297.204px" height="59.904px" viewBox="0 0 297.204 59.904"
	 style="enable-background:new 0 0 297.204 59.904;" xml:space="preserve">
<style type="text/css">
	.st0{fill:#3E3A39;}
</style>
<defs>
</defs>
<g>
	<path class="st0" d="M2.283,9.336l-1.261,3.166H0L4.076,2.473H5.07l4.272,10.029H8.265L6.962,9.336H2.283z M6.64,8.496L4.566,3.467
		L2.577,8.496H6.64z"/>
	<path class="st0" d="M15.177,12.502h-0.841V2.473h0.841v3.95h0.027c0.337-0.448,1.065-1.345,2.718-1.345
		c2.325,0,3.222,1.947,3.222,3.74c0,1.037-0.378,3.852-3.306,3.852c-1.583,0-2.241-0.771-2.634-1.274h-0.027V12.502z M17.824,5.778
		c-0.631,0-1.205,0.21-1.667,0.588c-0.505,0.42-0.98,1.079-0.98,2.619c0,2.073,1.204,2.984,2.591,2.984
		c1.303,0,2.479-1.064,2.479-3.082C20.247,6.745,19.07,5.778,17.824,5.778z"/>
	<path class="st0" d="M23.647,5.246v1.457h0.027c0.154-0.532,0.519-1.625,1.667-1.625c0.603,0,0.98,0.238,1.289,0.434l-0.322,0.742
		c-0.462-0.196-0.687-0.28-0.98-0.28c-0.267,0-0.868,0.014-1.289,0.966c-0.126,0.266-0.195,0.756-0.252,1.219
		C23.745,8.524,23.731,9,23.731,9.182v3.32h-0.841V5.246H23.647z"/>
	<path class="st0" d="M27.271,7.221c0.28-1.513,1.219-2.143,3.124-2.143c2.745,0,2.76,1.373,2.76,3.082
		c0,0.154-0.028,1.737-0.028,2.045c0,1.289,0.126,1.625,0.448,2.297h-0.938c-0.168-0.434-0.21-0.616-0.267-1.106
		c-0.321,0.35-1.176,1.274-2.955,1.274c-1.667,0-2.312-1.05-2.312-2.017c0-0.476,0.126-1.106,0.813-1.625
		c0.267-0.21,0.603-0.435,2.213-0.659c0.729-0.098,1.499-0.196,2.172-0.434V7.684c0-0.896,0-1.947-1.905-1.947
		c-1.891,0-2.129,1.079-2.255,1.611L27.271,7.221z M32.301,8.594c-0.603,0.224-1.611,0.42-2.312,0.546
		C29.037,9.308,28,9.49,28,10.583c0,0.826,0.757,1.387,1.583,1.387c0.588,0,1.358-0.266,1.961-0.756
		c0.519-0.42,0.757-0.995,0.757-2.143V8.594z"/>
	<path class="st0" d="M36.19,5.246v1.064h0.028c0.392-0.532,0.938-1.232,2.312-1.232c1.092,0,1.681,0.504,1.919,0.77
		c0.532,0.603,0.518,1.485,0.518,1.919v4.734h-0.84v-4.51c0-0.588-0.028-1.121-0.28-1.485c-0.294-0.435-0.813-0.687-1.401-0.687
		c-0.784,0-1.624,0.476-2.003,1.289c-0.21,0.448-0.252,1.009-0.252,2.241v3.152H35.35V5.246H36.19z"/>
	<path class="st0" d="M48.625,2.473h0.841v10.029h-0.841v-1.106c-0.406,0.448-1.148,1.274-2.731,1.274
		c-2.438,0-3.235-2.199-3.235-3.852c0-1.611,0.756-3.74,3.25-3.74c1.694,0,2.367,0.882,2.689,1.345h0.027V2.473z M46.034,11.97
		c0.476,0,1.148-0.112,1.736-0.645c0.364-0.322,0.854-0.924,0.854-2.479c0-2.438-1.61-3.068-2.647-3.068
		c-1.246,0-2.423,0.966-2.423,3.11C43.555,10.905,44.731,11.97,46.034,11.97z"/>
	<path class="st0" d="M56.421,5.246v1.064h0.028c0.392-0.532,0.938-1.232,2.312-1.232c1.092,0,1.681,0.504,1.919,0.77
		c0.532,0.603,0.518,1.485,0.518,1.919v4.734h-0.84v-4.51c0-0.588-0.028-1.121-0.28-1.485c-0.294-0.435-0.813-0.687-1.401-0.687
		c-0.784,0-1.624,0.476-2.003,1.289c-0.21,0.448-0.252,1.009-0.252,2.241v3.152H55.58V5.246H56.421z"/>
	<path class="st0" d="M63.813,8.972c0.027,1.751,0.826,2.998,2.437,2.998c1.597,0,2.06-1.303,2.228-1.765l0.841,0.14
		c-0.253,0.7-0.827,2.325-3.11,2.325c-2.087,0-3.291-1.471-3.291-3.796c0-2.283,1.176-3.796,3.306-3.796
		c3.151,0,3.165,3.166,3.18,3.894H63.813z M68.505,8.271c-0.168-1.933-1.275-2.493-2.312-2.493c-0.435,0-2.087,0.112-2.367,2.493
		H68.505z"/>
	<path class="st0" d="M71.008,5.246l1.947,6.191h0.028l1.708-6.191h0.785l1.723,6.191h0.028l1.946-6.191h0.883l-2.438,7.256h-0.868
		l-1.653-5.967H75.07l-1.639,5.967h-0.883l-2.438-7.256H71.008z"/>
	<path class="st0" d="M86.45,2.473v10.029h-0.952V2.473H86.45z"/>
	<path class="st0" d="M91.799,12.67c-2.045,0-3.25-1.569-3.235-3.754c0.014-2.507,1.246-3.838,3.235-3.838
		c1.961,0,3.25,1.331,3.25,3.838C95.049,11.059,94.055,12.67,91.799,12.67z M91.827,5.778c-1.597,0-2.367,1.345-2.367,3.138
		c0,1.989,0.994,3.054,2.381,3.054s2.312-1.106,2.312-3.054C94.152,6.927,93.298,5.778,91.827,5.778z"/>
	<path class="st0" d="M97.664,5.246v1.064h0.028c0.392-0.532,0.938-1.232,2.312-1.232c1.092,0,1.681,0.504,1.919,0.77
		c0.532,0.603,0.518,1.485,0.518,1.919v4.734h-0.84v-4.51c0-0.588-0.028-1.121-0.28-1.485c-0.294-0.435-0.813-0.687-1.401-0.687
		c-0.784,0-1.624,0.476-2.003,1.289c-0.21,0.448-0.252,1.009-0.252,2.241v3.152h-0.84V5.246H97.664z"/>
	<path class="st0" d="M105.462,2.473v1.289h-0.84V2.473H105.462z M105.462,5.246v7.256h-0.84V5.246H105.462z"/>
	<path class="st0" d="M112.758,7.431c-0.308-1.05-1.148-1.653-2.241-1.653c-0.896,0-2.381,0.561-2.381,2.998
		c0,1.835,0.84,3.194,2.423,3.194c1.653,0,2.144-1.387,2.354-1.947l0.841,0.126c-0.168,0.701-0.701,2.521-3.236,2.521
		c-2.367,0-3.277-1.835-3.277-3.81c0-1.471,0.574-3.782,3.319-3.782c1.275,0,2.493,0.378,3.096,2.213L112.758,7.431z"/>
	<path class="st0" d="M120.555,9.336l-1.261,3.166h-1.022l4.076-10.029h0.994l4.272,10.029h-1.078l-1.303-3.166H120.555z
		 M124.911,8.496l-2.073-5.028l-1.989,5.028H124.911z"/>
	<path class="st0" d="M129.57,5.246v1.037h0.028c0.266-0.406,0.868-1.205,2.185-1.205c1.387,0,1.766,0.84,1.934,1.205
		c0.378-0.477,0.98-1.205,2.27-1.205c0.798,0,1.345,0.336,1.639,0.658c0.252,0.266,0.546,0.798,0.546,1.821v4.945h-0.84v-4.51
		c0-0.896-0.028-2.186-1.527-2.186c-1.709,0-1.933,1.695-1.933,3.124v3.572h-0.841V7.907c0-0.756,0.028-2.073-1.415-2.073
		c-1.471,0-2.045,1.358-2.045,2.801v3.866h-0.84V5.246H129.57z"/>
	<path class="st0" d="M141.245,2.473v1.289h-0.84V2.473H141.245z M141.245,5.246v7.256h-0.84V5.246H141.245z"/>
	<path class="st0" d="M144.34,5.246v1.064h0.028c0.392-0.532,0.938-1.232,2.312-1.232c1.092,0,1.681,0.504,1.919,0.77
		c0.532,0.603,0.518,1.485,0.518,1.919v4.734h-0.84v-4.51c0-0.588-0.028-1.121-0.28-1.485c-0.294-0.435-0.813-0.687-1.401-0.687
		c-0.784,0-1.624,0.476-2.003,1.289c-0.21,0.448-0.252,1.009-0.252,2.241v3.152h-0.84V5.246H144.34z"/>
	<path class="st0" d="M154.043,12.67c-2.045,0-3.25-1.569-3.235-3.754c0.014-2.507,1.246-3.838,3.235-3.838
		c1.961,0,3.25,1.331,3.25,3.838C157.293,11.059,156.299,12.67,154.043,12.67z M154.071,5.778c-1.597,0-2.367,1.345-2.367,3.138
		c0,1.989,0.994,3.054,2.381,3.054s2.312-1.106,2.312-3.054C156.396,6.927,155.542,5.778,154.071,5.778z"/>
	<path class="st0" d="M162.974,2.473l2.171,8.685h0.028l2.312-8.685h1.162l2.312,8.628h0.027l2.228-8.628h0.91l-2.689,10.029h-0.938
		l-2.395-8.965h-0.028l-2.451,8.965h-0.938l-2.676-10.029H162.974z"/>
	<path class="st0" d="M175.11,7.221c0.28-1.513,1.219-2.143,3.124-2.143c2.745,0,2.76,1.373,2.76,3.082
		c0,0.154-0.028,1.737-0.028,2.045c0,1.289,0.126,1.625,0.448,2.297h-0.938c-0.168-0.434-0.21-0.616-0.267-1.106
		c-0.322,0.35-1.176,1.274-2.955,1.274c-1.667,0-2.312-1.05-2.312-2.017c0-0.476,0.126-1.106,0.813-1.625
		c0.267-0.21,0.603-0.435,2.213-0.659c0.729-0.098,1.499-0.196,2.172-0.434V7.684c0-0.896,0-1.947-1.905-1.947
		c-1.891,0-2.129,1.079-2.255,1.611L175.11,7.221z M180.14,8.594c-0.603,0.224-1.611,0.42-2.312,0.546
		c-0.952,0.168-1.989,0.35-1.989,1.443c0,0.826,0.757,1.387,1.583,1.387c0.588,0,1.358-0.266,1.961-0.756
		c0.519-0.42,0.757-0.995,0.757-2.143V8.594z"/>
	<path class="st0" d="M183.175,5.246l2.396,6.205l2.396-6.205h0.91l-2.913,7.256h-0.785l-2.913-7.256H183.175z"/>
	<path class="st0" d="M190.637,8.972c0.028,1.751,0.827,2.998,2.438,2.998c1.598,0,2.06-1.303,2.228-1.765l0.841,0.14
		c-0.253,0.7-0.827,2.325-3.11,2.325c-2.087,0-3.292-1.471-3.292-3.796c0-2.283,1.177-3.796,3.307-3.796
		c3.151,0,3.165,3.166,3.18,3.894H190.637z M195.33,8.271c-0.168-1.933-1.275-2.493-2.312-2.493c-0.435,0-2.087,0.112-2.367,2.493
		H195.33z"/>
	<path class="st0" d="M201.879,2.473l2.171,8.685h0.028l2.312-8.685h1.162l2.312,8.628h0.027l2.228-8.628h0.91l-2.689,10.029H209.4
		l-2.395-8.965h-0.028l-2.451,8.965h-0.938l-2.676-10.029H201.879z"/>
	<path class="st0" d="M214.017,7.221c0.28-1.513,1.219-2.143,3.124-2.143c2.745,0,2.76,1.373,2.76,3.082
		c0,0.154-0.028,1.737-0.028,2.045c0,1.289,0.126,1.625,0.448,2.297h-0.938c-0.168-0.434-0.21-0.616-0.267-1.106
		c-0.322,0.35-1.176,1.274-2.955,1.274c-1.667,0-2.312-1.05-2.312-2.017c0-0.476,0.126-1.106,0.813-1.625
		c0.267-0.21,0.603-0.435,2.213-0.659c0.729-0.098,1.499-0.196,2.172-0.434V7.684c0-0.896,0-1.947-1.905-1.947
		c-1.891,0-2.129,1.079-2.255,1.611L214.017,7.221z M219.046,8.594c-0.603,0.224-1.611,0.42-2.312,0.546
		c-0.952,0.168-1.989,0.35-1.989,1.443c0,0.826,0.757,1.387,1.583,1.387c0.588,0,1.358-0.266,1.961-0.756
		c0.519-0.42,0.757-0.995,0.757-2.143V8.594z"/>
	<path class="st0" d="M222.081,5.246l2.396,6.205l2.396-6.205h0.91l-2.913,7.256h-0.785l-2.913-7.256H222.081z"/>
	<path class="st0" d="M229.949,2.473v1.289h-0.84V2.473H229.949z M229.949,5.246v7.256h-0.84V5.246H229.949z"/>
	<path class="st0" d="M233.043,5.246v1.064h0.028c0.392-0.532,0.938-1.232,2.312-1.232c1.092,0,1.681,0.504,1.919,0.77
		c0.532,0.603,0.518,1.485,0.518,1.919v4.734h-0.84v-4.51c0-0.588-0.028-1.121-0.28-1.485c-0.294-0.435-0.813-0.687-1.401-0.687
		c-0.784,0-1.624,0.476-2.003,1.289c-0.21,0.448-0.252,1.009-0.252,2.241v3.152h-0.84V5.246H233.043z"/>
	<path class="st0" d="M246.318,5.246v6.682c0,1.765-0.504,3.516-3.516,3.516c-1.569,0-2.858-0.476-2.97-2.143l0.826,0.168
		c0.098,0.435,0.267,1.275,2.017,1.275c2.018,0,2.788-1.009,2.788-2.647v-0.7h-0.028c-0.378,0.49-1.022,1.274-2.675,1.274
		c-2.452,0-3.222-2.213-3.222-3.768c0-1.331,0.588-3.824,3.222-3.824c1.736,0,2.409,0.952,2.675,1.387h0.028V5.246H246.318z
		 M242.929,5.778c-1.695,0-2.493,1.443-2.493,3.082c0,1.709,0.84,3.11,2.479,3.11c0.995,0,2.563-0.588,2.563-3.012
		C245.478,6.829,244.329,5.778,242.929,5.778z"/>
	<path class="st0" d="M257.966,5.162c-0.027-0.462-0.182-2.073-2.367-2.073c-1.442,0-2.339,0.784-2.339,1.807
		c0,1.316,1.261,1.681,2.354,1.905c1.568,0.322,3.571,0.756,3.571,2.928c0,1.121-0.742,2.941-3.544,2.941
		c-1.905,0-3.487-0.714-3.712-3.18l0.938-0.084c0.042,0.378,0.099,0.854,0.406,1.345c0.616,0.98,1.695,1.135,2.297,1.135
		c1.443,0,2.689-0.714,2.689-2.101c0-1.513-1.708-1.821-2.604-1.989c-1.331-0.252-3.32-0.672-3.32-2.815
		c0-1.429,1.079-2.675,3.193-2.675c1.037,0,2.214,0.238,2.858,1.19c0.434,0.63,0.476,1.177,0.504,1.625L257.966,5.162z"/>
	<path class="st0" d="M261.043,5.246l2.381,6.275l2.494-6.275h0.826l-3.432,8.699c-0.435,1.106-0.967,1.499-1.682,1.499
		c-0.168,0-0.336-0.014-0.813-0.126l-0.098-0.854c0.462,0.098,0.616,0.112,0.771,0.112c0.561,0,0.742-0.196,0.98-0.798l0.504-1.275
		l-2.871-7.256H261.043z"/>
	<path class="st0" d="M272.049,7.123c-0.196-0.645-0.42-1.345-1.849-1.345c-1.064,0-1.695,0.434-1.695,1.177
		c0,0.672,0.364,1.037,2.157,1.415c1.471,0.308,2.521,0.798,2.521,2.073c0,1.177-0.868,2.227-2.829,2.227
		c-2.004,0-2.689-0.952-2.97-2.129l0.868-0.154c0.112,0.406,0.42,1.583,2.129,1.583c1.233,0,1.905-0.645,1.905-1.401
		c0-0.714-0.532-1.079-2.129-1.415c-1.541-0.322-2.55-0.841-2.55-2.045c0-0.714,0.49-2.031,2.577-2.031
		c1.43,0,2.312,0.42,2.689,1.919L272.049,7.123z"/>
	<path class="st0" d="M276.023,5.246h1.358v0.63h-1.358v4.763c0,0.896,0.098,1.274,0.813,1.274c0.112,0,0.238-0.014,0.672-0.098
		l0.112,0.687c-0.448,0.084-0.645,0.112-0.896,0.112c-1.568,0-1.541-1.051-1.541-1.863V5.876h-1.008v-0.63h1.008V3.383l0.841-0.546
		V5.246z"/>
	<path class="st0" d="M279.326,8.972c0.028,1.751,0.827,2.998,2.438,2.998c1.598,0,2.06-1.303,2.228-1.765l0.841,0.14
		c-0.253,0.7-0.827,2.325-3.11,2.325c-2.087,0-3.292-1.471-3.292-3.796c0-2.283,1.177-3.796,3.307-3.796
		c3.151,0,3.165,3.166,3.18,3.894H279.326z M284.02,8.271c-0.168-1.933-1.275-2.493-2.312-2.493c-0.435,0-2.087,0.112-2.367,2.493
		H284.02z"/>
	<path class="st0" d="M287.503,5.246v1.037h0.028c0.266-0.406,0.868-1.205,2.185-1.205c1.387,0,1.766,0.84,1.934,1.205
		c0.378-0.477,0.98-1.205,2.27-1.205c0.798,0,1.345,0.336,1.639,0.658c0.252,0.266,0.546,0.798,0.546,1.821v4.945h-0.84v-4.51
		c0-0.896-0.028-2.186-1.527-2.186c-1.709,0-1.933,1.695-1.933,3.124v3.572h-0.841V7.907c0-0.756,0.028-2.073-1.415-2.073
		c-1.471,0-2.045,1.358-2.045,2.801v3.866h-0.841V5.246H287.503z"/>
	<path class="st0" d="M30.675,31.225l-1.261,3.166h-1.022l4.076-10.029h0.994l4.272,10.029h-1.078l-1.303-3.166H30.675z
		 M35.031,30.384l-2.073-5.028l-1.989,5.028H35.031z"/>
	<path class="st0" d="M39.69,27.134v1.064h0.028c0.392-0.532,0.938-1.232,2.312-1.232c1.092,0,1.681,0.504,1.919,0.77
		c0.532,0.603,0.518,1.485,0.518,1.919v4.734h-0.84v-4.51c0-0.588-0.028-1.121-0.28-1.485c-0.294-0.435-0.813-0.687-1.401-0.687
		c-0.784,0-1.624,0.476-2.003,1.289c-0.21,0.448-0.252,1.009-0.252,2.241v3.152H38.85v-7.256H39.69z"/>
	<path class="st0" d="M55.232,34.39v-1.079h-0.028c-0.392,0.546-0.938,1.247-2.311,1.247c-1.093,0-1.653-0.518-1.892-0.771
		c-0.561-0.588-0.546-1.499-0.546-1.919v-4.734h0.84v4.497c0,0.588,0.028,1.134,0.28,1.499c0.295,0.42,0.813,0.687,1.401,0.687
		c0.784,0,1.625-0.49,2.003-1.303c0.196-0.434,0.252-1.009,0.252-2.241v-3.138h0.841v7.256H55.232z"/>
	<path class="st0" d="M59.15,27.134v1.064h0.028c0.392-0.532,0.938-1.232,2.312-1.232c1.092,0,1.681,0.504,1.919,0.77
		c0.532,0.603,0.518,1.485,0.518,1.919v4.734h-0.84v-4.51c0-0.588-0.028-1.121-0.28-1.485c-0.294-0.435-0.813-0.687-1.401-0.687
		c-0.784,0-1.624,0.476-2.003,1.289c-0.21,0.448-0.252,1.009-0.252,2.241v3.152h-0.84v-7.256H59.15z"/>
	<path class="st0" d="M71.558,33.284c-0.393,0.504-1.051,1.274-2.634,1.274c-2.928,0-3.306-2.815-3.306-3.852
		c0-1.723,0.84-3.74,3.235-3.74c1.611,0,2.34,0.868,2.704,1.345h0.027v-1.177h0.841v10.029h-0.841v-3.88H71.558z M68.994,33.858
		c1.387,0,2.591-0.911,2.591-2.984c0-1.541-0.476-2.213-0.98-2.619c-0.434-0.35-0.994-0.588-1.667-0.588
		c-1.261,0-2.423,0.98-2.423,3.11C66.515,32.793,67.691,33.858,68.994,33.858z"/>
	<path class="st0" d="M75.502,24.361v1.289h-0.84v-1.289H75.502z M75.502,27.134v7.256h-0.84v-7.256H75.502z"/>
	<path class="st0" d="M82.462,34.39v-1.079h-0.028c-0.392,0.546-0.938,1.247-2.311,1.247c-1.093,0-1.653-0.518-1.892-0.771
		c-0.561-0.588-0.546-1.499-0.546-1.919v-4.734h0.84v4.497c0,0.588,0.028,1.134,0.28,1.499c0.294,0.42,0.813,0.687,1.401,0.687
		c0.784,0,1.625-0.49,2.003-1.303c0.196-0.434,0.252-1.009,0.252-2.241v-3.138h0.841v7.256H82.462z"/>
	<path class="st0" d="M85.988,30.86c0.027,1.751,0.826,2.998,2.437,2.998c1.597,0,2.06-1.303,2.228-1.765l0.841,0.14
		c-0.253,0.701-0.827,2.325-3.11,2.325c-2.087,0-3.291-1.471-3.291-3.796c0-2.283,1.176-3.796,3.306-3.796
		c3.151,0,3.165,3.166,3.18,3.894H85.988z M90.681,30.16c-0.168-1.933-1.275-2.493-2.312-2.493c-0.435,0-2.087,0.112-2.367,2.493
		H90.681z"/>
	<path class="st0" d="M97.664,30.86c0.027,1.751,0.826,2.998,2.437,2.998c1.597,0,2.06-1.303,2.228-1.765l0.841,0.14
		c-0.253,0.701-0.827,2.325-3.11,2.325c-2.087,0-3.291-1.471-3.291-3.796c0-2.283,1.176-3.796,3.306-3.796
		c3.151,0,3.165,3.166,3.18,3.894H97.664z M102.356,30.16c-0.168-1.933-1.275-2.493-2.312-2.493c-0.435,0-2.087,0.112-2.367,2.493
		H102.356z"/>
	<path class="st0" d="M105.84,27.134v1.064h0.028c0.392-0.532,0.938-1.232,2.312-1.232c1.092,0,1.681,0.504,1.919,0.77
		c0.532,0.603,0.518,1.485,0.518,1.919v4.734h-0.84v-4.51c0-0.588-0.028-1.121-0.28-1.485c-0.294-0.435-0.813-0.687-1.401-0.687
		c-0.784,0-1.624,0.476-2.003,1.289c-0.21,0.448-0.252,1.009-0.252,2.241v3.152H105v-7.256H105.84z"/>
	<path class="st0" d="M113.526,27.134v1.457h0.027c0.154-0.532,0.519-1.625,1.667-1.625c0.603,0,0.98,0.238,1.289,0.434
		l-0.322,0.742c-0.462-0.196-0.687-0.28-0.98-0.28c-0.267,0-0.868,0.014-1.289,0.966c-0.126,0.266-0.195,0.756-0.252,1.219
		c-0.042,0.364-0.056,0.84-0.056,1.022v3.32h-0.841v-7.256H113.526z"/>
	<path class="st0" d="M118.3,24.361v1.289h-0.84v-1.289H118.3z M118.3,27.134v7.256h-0.84v-7.256H118.3z"/>
	<path class="st0" d="M125.596,29.319c-0.308-1.05-1.148-1.653-2.241-1.653c-0.896,0-2.381,0.56-2.381,2.998
		c0,1.835,0.84,3.194,2.423,3.194c1.653,0,2.144-1.387,2.354-1.947l0.841,0.126c-0.168,0.7-0.701,2.521-3.236,2.521
		c-2.367,0-3.277-1.835-3.277-3.81c0-1.471,0.574-3.782,3.319-3.782c1.275,0,2.493,0.378,3.096,2.213L125.596,29.319z"/>
	<path class="st0" d="M129.178,24.361v3.838h0.028c0.392-0.532,0.938-1.232,2.312-1.232c1.092,0,1.681,0.504,1.919,0.77
		c0.532,0.603,0.518,1.485,0.518,1.919v4.734h-0.84v-4.51c0-0.588-0.028-1.121-0.28-1.485c-0.294-0.435-0.813-0.687-1.401-0.687
		c-0.784,0-1.624,0.476-2.003,1.289c-0.21,0.448-0.252,1.009-0.252,2.241v3.152h-0.84V24.361H129.178z"/>
	<path class="st0" d="M136.976,24.361v1.289h-0.84v-1.289H136.976z M136.976,27.134v7.256h-0.84v-7.256H136.976z"/>
	<path class="st0" d="M140.069,27.134v1.064h0.028c0.392-0.532,0.938-1.232,2.312-1.232c1.092,0,1.681,0.504,1.919,0.77
		c0.532,0.603,0.518,1.485,0.518,1.919v4.734h-0.84v-4.51c0-0.588-0.028-1.121-0.28-1.485c-0.294-0.435-0.813-0.687-1.401-0.687
		c-0.784,0-1.624,0.476-2.003,1.289c-0.21,0.448-0.252,1.009-0.252,2.241v3.152h-0.841v-7.256H140.069z"/>
	<path class="st0" d="M153.345,27.134v6.682c0,1.765-0.505,3.516-3.516,3.516c-1.569,0-2.858-0.476-2.97-2.143l0.826,0.168
		c0.098,0.435,0.267,1.275,2.018,1.275c2.017,0,2.787-1.008,2.787-2.647v-0.7h-0.028c-0.378,0.49-1.022,1.274-2.675,1.274
		c-2.452,0-3.223-2.213-3.223-3.768c0-1.331,0.589-3.824,3.223-3.824c1.736,0,2.409,0.952,2.675,1.387h0.028v-1.219H153.345z
		 M149.955,27.667c-1.695,0-2.494,1.443-2.494,3.082c0,1.709,0.841,3.11,2.479,3.11c0.995,0,2.563-0.588,2.563-3.012
		C152.504,28.717,151.355,27.667,149.955,27.667z"/>
	<path class="st0" d="M160.286,37.164h-0.841V27.134h0.841v1.177h0.027c0.364-0.477,1.093-1.345,2.704-1.345
		c2.396,0,3.235,2.017,3.235,3.74c0,1.037-0.378,3.852-3.306,3.852c-1.583,0-2.241-0.771-2.634-1.274h-0.027V37.164z
		 M162.934,27.667c-0.673,0-1.232,0.238-1.667,0.588c-0.505,0.406-0.98,1.079-0.98,2.619c0,2.073,1.204,2.984,2.591,2.984
		c1.303,0,2.479-1.064,2.479-3.082C165.356,28.647,164.194,27.667,162.934,27.667z"/>
	<path class="st0" d="M168.461,30.86c0.028,1.751,0.827,2.998,2.438,2.998c1.598,0,2.06-1.303,2.228-1.765l0.841,0.14
		c-0.253,0.701-0.827,2.325-3.11,2.325c-2.087,0-3.292-1.471-3.292-3.796c0-2.283,1.177-3.796,3.307-3.796
		c3.151,0,3.165,3.166,3.18,3.894H168.461z M173.154,30.16c-0.168-1.933-1.275-2.493-2.312-2.493c-0.435,0-2.087,0.112-2.367,2.493
		H173.154z"/>
	<path class="st0" d="M176.54,27.134v1.457h0.027c0.154-0.532,0.519-1.625,1.667-1.625c0.603,0,0.98,0.238,1.289,0.434l-0.322,0.742
		c-0.462-0.196-0.687-0.28-0.98-0.28c-0.267,0-0.868,0.014-1.289,0.966c-0.126,0.266-0.195,0.756-0.252,1.219
		c-0.042,0.364-0.056,0.84-0.056,1.022v3.32h-0.841v-7.256H176.54z"/>
	<path class="st0" d="M181.299,27.134v1.037h0.028c0.266-0.406,0.868-1.205,2.185-1.205c1.387,0,1.766,0.84,1.934,1.205
		c0.378-0.477,0.98-1.205,2.27-1.205c0.798,0,1.345,0.336,1.639,0.658c0.252,0.266,0.546,0.798,0.546,1.821v4.945h-0.84v-4.51
		c0-0.896-0.028-2.186-1.527-2.186c-1.709,0-1.933,1.695-1.933,3.124v3.572h-0.841v-4.594c0-0.757,0.028-2.073-1.415-2.073
		c-1.471,0-2.045,1.358-2.045,2.801v3.866h-0.84v-7.256H181.299z"/>
	<path class="st0" d="M196.461,30.86c0.028,1.751,0.827,2.998,2.438,2.998c1.598,0,2.06-1.303,2.228-1.765l0.841,0.14
		c-0.253,0.701-0.827,2.325-3.11,2.325c-2.087,0-3.292-1.471-3.292-3.796c0-2.283,1.177-3.796,3.307-3.796
		c3.151,0,3.165,3.166,3.18,3.894H196.461z M201.154,30.16c-0.168-1.933-1.275-2.493-2.312-2.493c-0.435,0-2.087,0.112-2.367,2.493
		H201.154z"/>
	<path class="st0" d="M204.063,27.134l2.115,2.773l2.115-2.773h1.064l-2.689,3.39l2.899,3.866h-1.064l-2.325-3.152l-2.325,3.152
		h-1.064l2.899-3.782l-2.689-3.474H204.063z"/>
	<path class="st0" d="M211.623,37.164h-0.841V27.134h0.841v1.177h0.027c0.364-0.477,1.093-1.345,2.704-1.345
		c2.396,0,3.235,2.017,3.235,3.74c0,1.037-0.378,3.852-3.306,3.852c-1.583,0-2.241-0.771-2.634-1.274h-0.027V37.164z
		 M214.271,27.667c-0.673,0-1.233,0.238-1.667,0.588c-0.505,0.406-0.98,1.079-0.98,2.619c0,2.073,1.204,2.984,2.591,2.984
		c1.303,0,2.479-1.064,2.479-3.082C216.693,28.647,215.531,27.667,214.271,27.667z"/>
	<path class="st0" d="M219.799,30.86c0.028,1.751,0.827,2.998,2.438,2.998c1.598,0,2.06-1.303,2.228-1.765l0.841,0.14
		c-0.253,0.701-0.827,2.325-3.11,2.325c-2.087,0-3.292-1.471-3.292-3.796c0-2.283,1.177-3.796,3.307-3.796
		c3.151,0,3.165,3.166,3.18,3.894H219.799z M224.492,30.16c-0.168-1.933-1.275-2.493-2.312-2.493c-0.435,0-2.087,0.112-2.367,2.493
		H224.492z"/>
	<path class="st0" d="M227.877,27.134v1.457h0.027c0.154-0.532,0.519-1.625,1.667-1.625c0.603,0,0.98,0.238,1.289,0.434
		l-0.322,0.742c-0.462-0.196-0.687-0.28-0.98-0.28c-0.267,0-0.868,0.014-1.289,0.966c-0.126,0.266-0.195,0.756-0.252,1.219
		c-0.042,0.364-0.056,0.84-0.056,1.022v3.32h-0.841v-7.256H227.877z"/>
	<path class="st0" d="M232.65,24.361v1.289h-0.84v-1.289H232.65z M232.65,27.134v7.256h-0.84v-7.256H232.65z"/>
	<path class="st0" d="M235.354,30.86c0.027,1.751,0.826,2.998,2.437,2.998c1.597,0,2.06-1.303,2.228-1.765l0.841,0.14
		c-0.253,0.701-0.827,2.325-3.11,2.325c-2.087,0-3.291-1.471-3.291-3.796c0-2.283,1.176-3.796,3.306-3.796
		c3.151,0,3.165,3.166,3.18,3.894H235.354z M240.046,30.16c-0.168-1.933-1.275-2.493-2.312-2.493c-0.435,0-2.087,0.112-2.367,2.493
		H240.046z"/>
	<path class="st0" d="M243.528,27.134v1.064h0.028c0.392-0.532,0.938-1.232,2.312-1.232c1.092,0,1.681,0.504,1.919,0.77
		c0.532,0.603,0.518,1.485,0.518,1.919v4.734h-0.84v-4.51c0-0.588-0.028-1.121-0.28-1.485c-0.294-0.435-0.813-0.687-1.401-0.687
		c-0.784,0-1.624,0.476-2.003,1.289c-0.21,0.448-0.252,1.009-0.252,2.241v3.152h-0.841v-7.256H243.528z"/>
	<path class="st0" d="M255.515,29.319c-0.308-1.05-1.148-1.653-2.241-1.653c-0.896,0-2.381,0.56-2.381,2.998
		c0,1.835,0.84,3.194,2.423,3.194c1.653,0,2.144-1.387,2.354-1.947l0.841,0.126c-0.168,0.7-0.701,2.521-3.236,2.521
		c-2.367,0-3.277-1.835-3.277-3.81c0-1.471,0.574-3.782,3.319-3.782c1.275,0,2.493,0.378,3.096,2.213L255.515,29.319z"/>
	<path class="st0" d="M258.705,30.86c0.027,1.751,0.826,2.998,2.437,2.998c1.597,0,2.06-1.303,2.228-1.765l0.841,0.14
		c-0.253,0.701-0.827,2.325-3.11,2.325c-2.087,0-3.291-1.471-3.291-3.796c0-2.283,1.176-3.796,3.306-3.796
		c3.151,0,3.165,3.166,3.18,3.894H258.705z M263.397,30.16c-0.168-1.933-1.275-2.493-2.312-2.493c-0.435,0-2.087,0.112-2.367,2.493
		H263.397z"/>
	<path class="st0" d="M77.224,49.022l1.947,6.191h0.028l1.708-6.191h0.785l1.723,6.191h0.028l1.946-6.191h0.883l-2.438,7.256h-0.868
		l-1.653-5.967h-0.027l-1.639,5.967h-0.883l-2.438-7.256H77.224z"/>
	<path class="st0" d="M88.325,46.249v1.289h-0.84v-1.289H88.325z M88.325,49.022v7.256h-0.84v-7.256H88.325z"/>
	<path class="st0" d="M91.616,49.022h1.358v0.63h-1.358v4.763c0,0.896,0.098,1.274,0.813,1.274c0.112,0,0.238-0.014,0.672-0.098
		l0.112,0.687c-0.448,0.084-0.645,0.112-0.896,0.112c-1.568,0-1.541-1.05-1.541-1.863v-4.875h-1.008v-0.63h1.008v-1.863l0.841-0.546
		V49.022z"/>
	<path class="st0" d="M95.312,46.249v3.838h0.028c0.392-0.532,0.938-1.232,2.312-1.232c1.092,0,1.681,0.504,1.919,0.77
		c0.532,0.603,0.518,1.485,0.518,1.919v4.734h-0.84v-4.51c0-0.588-0.028-1.121-0.28-1.485c-0.294-0.435-0.813-0.687-1.401-0.687
		c-0.784,0-1.624,0.476-2.003,1.289c-0.21,0.448-0.252,1.009-0.252,2.241v3.152h-0.841V46.249H95.312z"/>
	<path class="st0" d="M110.854,56.278v-1.079h-0.028c-0.392,0.546-0.938,1.247-2.311,1.247c-1.093,0-1.653-0.518-1.892-0.771
		c-0.561-0.588-0.546-1.499-0.546-1.919v-4.734h0.84v4.497c0,0.588,0.028,1.134,0.28,1.499c0.295,0.42,0.813,0.687,1.401,0.687
		c0.784,0,1.625-0.49,2.003-1.303c0.196-0.434,0.252-1.009,0.252-2.241v-3.138h0.841v7.256H110.854z"/>
	<path class="st0" d="M114.771,49.022v1.064h0.028c0.392-0.532,0.938-1.232,2.312-1.232c1.092,0,1.681,0.504,1.919,0.77
		c0.532,0.603,0.518,1.485,0.518,1.919v4.734h-0.84v-4.51c0-0.588-0.028-1.121-0.28-1.485c-0.294-0.435-0.813-0.687-1.401-0.687
		c-0.784,0-1.624,0.476-2.003,1.289c-0.21,0.448-0.252,1.009-0.252,2.241v3.152h-0.84v-7.256H114.771z"/>
	<path class="st0" d="M122.542,56.278h-0.841V46.249h0.841v3.95h0.027c0.337-0.448,1.065-1.345,2.718-1.345
		c2.325,0,3.222,1.947,3.222,3.74c0,1.037-0.378,3.852-3.306,3.852c-1.583,0-2.241-0.771-2.634-1.274h-0.027V56.278z
		 M125.189,49.554c-0.631,0-1.205,0.21-1.667,0.588c-0.505,0.42-0.98,1.079-0.98,2.619c0,2.073,1.204,2.984,2.591,2.984
		c1.303,0,2.479-1.064,2.479-3.082C127.612,50.521,126.436,49.554,125.189,49.554z"/>
	<path class="st0" d="M130.717,52.748c0.028,1.751,0.827,2.998,2.438,2.998c1.598,0,2.06-1.303,2.228-1.765l0.841,0.14
		c-0.253,0.701-0.827,2.325-3.11,2.325c-2.087,0-3.292-1.471-3.292-3.796c0-2.283,1.177-3.796,3.307-3.796
		c3.151,0,3.165,3.166,3.18,3.894H130.717z M135.41,52.047c-0.168-1.933-1.275-2.493-2.312-2.493c-0.435,0-2.087,0.112-2.367,2.493
		H135.41z"/>
	<path class="st0" d="M137.759,50.997c0.28-1.513,1.219-2.143,3.124-2.143c2.745,0,2.76,1.373,2.76,3.082
		c0,0.154-0.028,1.737-0.028,2.045c0,1.289,0.126,1.625,0.448,2.297h-0.938c-0.168-0.434-0.21-0.616-0.267-1.106
		c-0.322,0.35-1.176,1.274-2.955,1.274c-1.667,0-2.312-1.05-2.312-2.017c0-0.476,0.126-1.106,0.813-1.625
		c0.267-0.21,0.603-0.434,2.213-0.658c0.729-0.098,1.499-0.196,2.172-0.434v-0.252c0-0.896,0-1.947-1.905-1.947
		c-1.891,0-2.129,1.079-2.255,1.611L137.759,50.997z M142.788,52.37c-0.603,0.224-1.611,0.42-2.312,0.546
		c-0.952,0.168-1.989,0.35-1.989,1.443c0,0.826,0.757,1.387,1.583,1.387c0.588,0,1.358-0.266,1.961-0.756
		c0.519-0.42,0.757-0.995,0.757-2.143V52.37z"/>
	<path class="st0" d="M146.874,49.022h1.358v0.63h-1.358v4.763c0,0.896,0.098,1.274,0.813,1.274c0.112,0,0.238-0.014,0.672-0.098
		l0.112,0.687c-0.448,0.084-0.645,0.112-0.896,0.112c-1.568,0-1.541-1.05-1.541-1.863v-4.875h-1.008v-0.63h1.008v-1.863l0.841-0.546
		V49.022z"/>
	<path class="st0" d="M149.435,50.997c0.28-1.513,1.219-2.143,3.124-2.143c2.745,0,2.76,1.373,2.76,3.082
		c0,0.154-0.028,1.737-0.028,2.045c0,1.289,0.126,1.625,0.448,2.297H154.8c-0.168-0.434-0.21-0.616-0.267-1.106
		c-0.322,0.35-1.176,1.274-2.955,1.274c-1.667,0-2.312-1.05-2.312-2.017c0-0.476,0.126-1.106,0.813-1.625
		c0.267-0.21,0.603-0.434,2.213-0.658c0.729-0.098,1.499-0.196,2.172-0.434v-0.252c0-0.896,0-1.947-1.905-1.947
		c-1.891,0-2.129,1.079-2.255,1.611L149.435,50.997z M154.464,52.37c-0.603,0.224-1.611,0.42-2.312,0.546
		c-0.952,0.168-1.989,0.35-1.989,1.443c0,0.826,0.757,1.387,1.583,1.387c0.588,0,1.358-0.266,1.961-0.756
		c0.519-0.42,0.757-0.995,0.757-2.143V52.37z"/>
	<path class="st0" d="M158.34,56.278h-0.841V46.249h0.841v3.95h0.027c0.337-0.448,1.065-1.345,2.718-1.345
		c2.325,0,3.222,1.947,3.222,3.74c0,1.037-0.378,3.852-3.306,3.852c-1.583,0-2.241-0.771-2.634-1.274h-0.027V56.278z
		 M160.987,49.554c-0.631,0-1.205,0.21-1.667,0.588c-0.505,0.42-0.98,1.079-0.98,2.619c0,2.073,1.204,2.984,2.591,2.984
		c1.303,0,2.479-1.064,2.479-3.082C163.41,50.521,162.233,49.554,160.987,49.554z"/>
	<path class="st0" d="M166.921,46.249v10.029h-0.84V46.249H166.921z"/>
	<path class="st0" d="M169.623,52.748c0.028,1.751,0.827,2.998,2.438,2.998c1.598,0,2.06-1.303,2.228-1.765l0.841,0.14
		c-0.253,0.701-0.827,2.325-3.11,2.325c-2.087,0-3.292-1.471-3.292-3.796c0-2.283,1.177-3.796,3.307-3.796
		c3.151,0,3.165,3.166,3.18,3.894H169.623z M174.316,52.047c-0.168-1.933-1.275-2.493-2.312-2.493c-0.435,0-2.087,0.112-2.367,2.493
		H174.316z"/>
	<path class="st0" d="M181.594,49.022v1.457h0.027c0.154-0.532,0.519-1.625,1.667-1.625c0.603,0,0.98,0.238,1.289,0.434
		l-0.322,0.742c-0.462-0.196-0.687-0.28-0.98-0.28c-0.267,0-0.868,0.014-1.289,0.966c-0.126,0.266-0.195,0.756-0.252,1.219
		c-0.042,0.364-0.056,0.84-0.056,1.022v3.32h-0.841v-7.256H181.594z"/>
	<path class="st0" d="M185.961,52.748c0.028,1.751,0.827,2.998,2.438,2.998c1.598,0,2.06-1.303,2.228-1.765l0.841,0.14
		c-0.253,0.701-0.827,2.325-3.11,2.325c-2.087,0-3.292-1.471-3.292-3.796c0-2.283,1.177-3.796,3.307-3.796
		c3.151,0,3.165,3.166,3.18,3.894H185.961z M190.654,52.047c-0.168-1.933-1.275-2.493-2.312-2.493c-0.435,0-2.087,0.112-2.367,2.493
		H190.654z"/>
	<path class="st0" d="M197.358,50.899c-0.196-0.645-0.42-1.345-1.849-1.345c-1.064,0-1.695,0.434-1.695,1.177
		c0,0.672,0.364,1.037,2.157,1.415c1.471,0.308,2.521,0.798,2.521,2.073c0,1.177-0.868,2.227-2.829,2.227
		c-2.004,0-2.689-0.953-2.97-2.129l0.868-0.154c0.112,0.406,0.42,1.583,2.129,1.583c1.233,0,1.905-0.645,1.905-1.401
		c0-0.714-0.532-1.079-2.129-1.415c-1.541-0.322-2.55-0.841-2.55-2.045c0-0.714,0.49-2.031,2.577-2.031
		c1.43,0,2.312,0.42,2.689,1.919L197.358,50.899z"/>
	<path class="st0" d="M205.003,56.278v-1.079h-0.028c-0.392,0.546-0.938,1.247-2.311,1.247c-1.093,0-1.653-0.518-1.892-0.771
		c-0.561-0.588-0.546-1.499-0.546-1.919v-4.734h0.84v4.497c0,0.588,0.028,1.134,0.28,1.499c0.294,0.42,0.813,0.687,1.401,0.687
		c0.784,0,1.625-0.49,2.003-1.303c0.196-0.434,0.252-1.009,0.252-2.241v-3.138h0.841v7.256H205.003z"/>
	<path class="st0" d="M208.935,46.249v10.029h-0.84V46.249H208.935z"/>
	<path class="st0" d="M212.226,49.022h1.358v0.63h-1.358v4.763c0,0.896,0.098,1.274,0.813,1.274c0.112,0,0.238-0.014,0.672-0.098
		l0.112,0.687c-0.448,0.084-0.645,0.112-0.896,0.112c-1.568,0-1.541-1.05-1.541-1.863v-4.875h-1.008v-0.63h1.008v-1.863l0.841-0.546
		V49.022z"/>
	<path class="st0" d="M219.143,50.899c-0.196-0.645-0.42-1.345-1.849-1.345c-1.064,0-1.695,0.434-1.695,1.177
		c0,0.672,0.364,1.037,2.157,1.415c1.471,0.308,2.521,0.798,2.521,2.073c0,1.177-0.868,2.227-2.829,2.227
		c-2.004,0-2.689-0.953-2.97-2.129l0.868-0.154c0.112,0.406,0.42,1.583,2.129,1.583c1.233,0,1.905-0.645,1.905-1.401
		c0-0.714-0.532-1.079-2.129-1.415c-1.541-0.322-2.55-0.841-2.55-2.045c0-0.714,0.49-2.031,2.577-2.031
		c1.43,0,2.312,0.42,2.689,1.919L219.143,50.899z"/>
</g>
</svg>