<!-- Generator: Adobe Illustrator 19.2.0, SVG Export Plug-In  -->
<svg version="1.1"
	 xmlns="http://www.w3.org/2000/svg" xmlns:xlink="http://www.w3.org/1999/xlink" xmlns:a="http://ns.adobe.com/AdobeSVGViewerExtensions/3.0/"
	 x="0px" y="0px" width="237.257px" height="96.902px" viewBox="0 0 237.257 96.902"
	 style="enable-background:new 0 0 237.257 96.902;" xml:space="preserve">
<style type="text/css">
	.st0{fill:none;}
	.st1{fill:#3E3A39;}
</style>
<defs>
</defs>
<g>
	<rect x="0" y="59.764" class="st0" width="125.257" height="37.138"/>
	<path class="st1" d="M1.285,66.727l-0.015-0.578H13.31v0.578H1.285z"/>
	<path class="st1" d="M17.934,72.674c0.26,0.058,1.256,0.115,1.429,0.086c0.245,0.015,0.491-0.217,0.491-0.462l0.014-4.908H17.01
		c-0.044,2.194-0.332,4.446-1.603,6.265l-0.419-0.418c1.112-1.704,1.415-3.811,1.458-5.832l-1.241-0.014v-0.549l1.256,0.015v-4.46
		l1.184-0.015c0.347-0.606,0.592-1.241,0.823-1.891l0.462,0.26c-0.188,0.548-0.419,1.097-0.693,1.631l2.18,0.015v4.46h0.809v0.534
		h-0.809v5.225c0,0.332-0.332,0.563-0.62,0.621c-0.521,0.086-1.083,0.101-1.675,0.072L17.934,72.674z M17.024,66.856h2.843V62.93
		h-2.843V66.856z M19.103,70.465c-0.159,0.086-0.317,0.188-0.505,0.23c-0.231-0.765-0.592-1.486-0.968-2.194
		c0.13-0.101,0.304-0.173,0.462-0.231C18.496,68.964,18.843,69.7,19.103,70.465z M19.247,65.918
		c-0.13,0.087-0.317,0.188-0.505,0.246c-0.274-0.765-0.65-1.487-1.083-2.18c0.159-0.086,0.303-0.173,0.462-0.246
		C18.54,64.446,18.93,65.167,19.247,65.918z M21.614,66.828h5.283c-0.115,1.559-0.981,2.887-2.007,4.056
		c0.924,0.996,2.094,1.718,3.205,2.367c-0.087,0.159-0.26,0.289-0.347,0.462c-1.154-0.678-2.267-1.458-3.233-2.425
		c-0.375,0.303-0.794,0.707-1.241,1.025c-0.722,0.505-1.501,1.01-2.281,1.458l-0.39-0.462c1.256-0.678,2.469-1.443,3.537-2.439
		c-0.823-1.025-1.516-2.18-1.703-3.493h-0.823V66.828z M28.124,65.601l-1.659-0.015c-0.347,0-0.736-0.26-0.736-0.707v-2.93h-2.267
		c0,1.01,0.072,1.876-0.419,2.814c-0.36,0.679-0.866,1.285-1.443,1.833l-0.49-0.448c0.924-0.664,1.761-1.674,1.775-2.771
		l0.015-1.963h3.392v3.233c0,0.245,0.202,0.404,0.404,0.404l1.429,0.014V65.601z M22.971,67.376c0.188,1.155,0.766,2.136,1.516,3.06
		c0.853-0.88,1.517-1.919,1.762-3.06H22.971z"/>
	<path class="st1" d="M42.362,73.713c-1.891-0.375-3.753-0.837-5.5-1.559c-1.992,0.852-3.983,1.328-6.105,1.603l-0.231-0.578
		c2.094-0.26,4.057-0.664,5.803-1.386c-0.924-0.404-1.746-1.068-2.468-1.804c-1.17,1.126-2.642,1.949-4.013,2.468l-0.347-0.462
		c1.674-0.649,3.262-1.559,4.562-2.974h-4.259v-0.52h4.591c0.317-0.361,0.52-0.722,0.678-1.111l0.462,0.26
		c-0.13,0.231-0.288,0.534-0.505,0.852h7.405v0.52h-7.723l-0.491,0.606c0.736,0.823,1.56,1.386,2.584,1.876
		c0.924-0.477,1.805-1.198,2.439-2.021l0.447,0.289c-0.62,0.823-1.458,1.588-2.338,2.036c1.559,0.649,3.508,1.126,5.269,1.4
		L42.362,73.713z M32.777,65.442c-0.433,0.491-1.039,1.025-1.631,1.429c1.284-0.115,2.627-0.245,3.926-0.361
		c-0.273-0.231-0.62-0.418-0.952-0.606l0.303-0.318c0.708,0.404,1.443,0.924,2.079,1.588l-0.361,0.347l-0.606-0.592
		c-1.731,0.13-3.175,0.26-4.979,0.447l-0.145-0.447c0.606-0.404,1.285-0.982,1.775-1.487h-2.584l-0.014-0.477h1.602v-3.681h5.066
		v0.505h-4.475v0.664h3.883v0.505h-3.883v0.708h3.854v0.491h-3.854v0.794h4.821v0.491H32.777z M36.949,63.089l-0.317-0.447
		c1.501-0.52,2.974-1.126,4.33-2.007l0.404,0.347C39.995,61.891,38.494,62.569,36.949,63.089z M37.108,67.333l-0.274-0.447
		c1.703-0.52,3.521-1.371,5.167-2.425l0.361,0.39C40.919,65.846,38.897,66.784,37.108,67.333z M37.454,64.98l-0.346-0.448
		c1.472-0.534,2.901-1.14,4.243-1.963l0.289,0.375C40.327,63.796,38.897,64.417,37.454,64.98z M39.605,68.401
		c-0.39-0.39-0.823-0.736-1.313-1.01l0.36-0.361c0.477,0.289,0.967,0.649,1.343,0.981L39.605,68.401z"/>
	<path class="st1" d="M50.407,62.959v0.534l-2.006-0.015v2.079H47.81v-2.079h-2.021c-0.086,1.04-0.303,1.992-0.852,2.83
		l-0.216,0.332l-0.434-0.231c0.13-0.346,0.332-0.693,0.491-1.054c0.548-1.212,0.404-2.656,0.433-3.998
		c1.386-0.173,2.786-0.332,4.057-0.794l0.36,0.418c-1.184,0.404-2.512,0.606-3.811,0.779v1.184L50.407,62.959z M48.689,72.241
		c-1.256,0.678-2.598,1.14-3.983,1.516l-0.304-0.448c1.357-0.39,2.729-0.75,3.955-1.472L48.689,72.241z M50.422,66.034l-0.332-0.318
		c0.505-0.837,0.896-1.703,1.011-2.699v-1.631c1.458-0.145,2.959-0.303,4.244-0.866l0.447,0.447
		c-1.271,0.477-2.656,0.679-4.057,0.852l0.015,1.083h4.778v0.505h-2.122L54.392,65.5h-0.577v-2.079l-2.137-0.015
		c-0.23,0.938-0.52,1.819-1.054,2.613l3.897,0.015v5.269H46.38l-0.014-5.254L50.422,66.034z M46.943,66.568v1.039h6.972v-1.039
		H46.943z M53.93,68.126h-6.986v1.025h6.986V68.126z M46.958,69.671v1.14l6.972-0.015l-0.015-1.125H46.958z M55.907,73.799
		c-1.256-0.664-2.612-1.227-3.97-1.631l0.317-0.404c1.415,0.361,2.699,0.981,4.014,1.617L55.907,73.799z"/>
	<path class="st1" d="M64.111,72.89h-4.244v0.938h-0.62v-9.874h1.674l-0.014-2.136l-2.151,0.014v-0.548l6.554-0.015v0.549h-2.165
		v2.136l1.588-0.015v9.874l-0.636-0.015L64.111,72.89z M61.527,64.489v0.996c0,1.343-0.419,2.7-1.386,3.638l-0.274-0.26v1.299h4.229
		v-1.66h-0.938c-0.317,0-0.62-0.317-0.62-0.765l-0.015-3.248H61.527z M59.867,64.489v3.955c0.924-1.083,1.141-2.454,1.054-3.955
		H59.867z M59.882,70.696l-0.015,1.66h4.229v-1.66H59.882z M61.542,61.819l-0.015,2.136h0.996v-2.122L61.542,61.819z M63.158,64.489
		v3.146c0,0.188,0.059,0.318,0.347,0.318h0.592v-3.464H63.158z M69.972,66.077v-4.215l-3.998,0.015v-0.549h4.634v6.034l-0.636-0.015
		v-0.736h-3.306l-0.015,5.832c0,0.216,0.217,0.375,0.391,0.375l3.334-0.014c0.173,0.014,0.202-0.231,0.274-0.39
		c0.115-0.462,0.173-0.837,0.23-1.313c0.217,0.043,0.434,0.13,0.636,0.217c-0.246,0.736-0.058,1.92-1.111,2.05l-3.725-0.015
		c-0.332,0-0.649-0.404-0.649-0.736v-6.553L69.972,66.077z"/>
	<path class="st1" d="M83.242,69.065c-0.101,1.285-0.346,2.584-0.822,3.753c-0.188,0.332-0.549,0.606-0.953,0.606
		c-0.39,0.043-1.313,0.029-1.992-0.101l-0.23-0.578c0.852,0.087,1.458,0.159,2.137,0.087c0.649-0.058,0.605-0.809,0.808-1.256
		c0.361-1.473,0.534-3.089,0.606-4.677l-4.619-0.015c-0.115,2.858-2.439,4.951-4.518,6.64c-0.188-0.101-0.347-0.274-0.52-0.375
		c2.078-1.588,4.417-3.608,4.417-6.351v-3.205h-4.187v-0.563h12.255v0.563h-7.419l-0.015,2.743h5.269L83.242,69.065z M78.393,60.433
		c0.606,0.678,1.169,1.342,1.675,2.064l-0.534,0.346c-0.491-0.736-1.025-1.429-1.603-2.078L78.393,60.433z"/>
	<path class="st1" d="M7.391,79.324v0.866H2.267v3.739h4.374v0.866H2.267v4.865H1.285V79.324H7.391z"/>
	<path class="st1" d="M12.027,89.833c-2.107,0-3.349-1.617-3.334-3.869c0.014-2.584,1.284-3.955,3.334-3.955
		c2.021,0,3.349,1.371,3.349,3.955C15.376,88.172,14.352,89.833,12.027,89.833z M12.057,82.73c-1.646,0-2.439,1.386-2.439,3.233
		c0,2.05,1.024,3.147,2.453,3.147c1.43,0,2.382-1.141,2.382-3.147C14.452,83.914,13.572,82.73,12.057,82.73z"/>
	<path class="st1" d="M17.978,82.182v1.501h0.029c0.158-0.548,0.534-1.674,1.718-1.674c0.62,0,1.01,0.245,1.328,0.447l-0.332,0.765
		c-0.477-0.202-0.708-0.289-1.011-0.289c-0.274,0-0.896,0.014-1.328,0.996c-0.13,0.274-0.202,0.779-0.26,1.256
		c-0.043,0.375-0.058,0.866-0.058,1.054v3.421h-0.866v-7.477H17.978z"/>
	<path class="st1" d="M26.901,82.182v1.097h0.029c0.404-0.548,0.967-1.27,2.382-1.27c1.126,0,1.731,0.52,1.978,0.794
		c0.548,0.621,0.534,1.53,0.534,1.978v4.879h-0.866v-4.648c0-0.606-0.029-1.155-0.289-1.53c-0.303-0.447-0.837-0.707-1.443-0.707
		c-0.809,0-1.675,0.491-2.064,1.328c-0.217,0.462-0.26,1.04-0.26,2.31v3.248h-0.866v-7.477H26.901z"/>
	<path class="st1" d="M36.908,89.833c-2.107,0-3.35-1.617-3.335-3.869c0.015-2.584,1.285-3.955,3.335-3.955
		c2.021,0,3.349,1.371,3.349,3.955C40.257,88.172,39.231,89.833,36.908,89.833z M36.937,82.73c-1.646,0-2.439,1.386-2.439,3.233
		c0,2.05,1.025,3.147,2.454,3.147s2.382-1.141,2.382-3.147C39.333,83.914,38.452,82.73,36.937,82.73z"/>
	<path class="st1" d="M42.858,82.182v1.501h0.028c0.159-0.548,0.534-1.674,1.718-1.674c0.621,0,1.011,0.245,1.328,0.447
		l-0.332,0.765c-0.477-0.202-0.707-0.289-1.011-0.289c-0.273,0-0.895,0.014-1.327,0.996c-0.131,0.274-0.202,0.779-0.261,1.256
		c-0.043,0.375-0.058,0.866-0.058,1.054v3.421h-0.866v-7.477H42.858z"/>
	<path class="st1" d="M47.768,82.182v1.068h0.029c0.274-0.418,0.895-1.241,2.252-1.241c1.429,0,1.818,0.866,1.991,1.241
		c0.39-0.491,1.011-1.241,2.339-1.241c0.822,0,1.386,0.346,1.688,0.678c0.26,0.274,0.563,0.823,0.563,1.876v5.096h-0.866v-4.648
		c0-0.924-0.029-2.252-1.573-2.252c-1.762,0-1.992,1.747-1.992,3.219v3.681h-0.866v-4.735c0-0.779,0.029-2.136-1.458-2.136
		c-1.516,0-2.107,1.4-2.107,2.887v3.984h-0.866v-7.477H47.768z"/>
	<path class="st1" d="M58.627,84.217c0.288-1.559,1.256-2.208,3.219-2.208c2.829,0,2.844,1.415,2.844,3.176
		c0,0.159-0.029,1.79-0.029,2.107c0,1.328,0.13,1.674,0.462,2.367h-0.967c-0.173-0.447-0.217-0.635-0.274-1.14
		c-0.332,0.361-1.212,1.313-3.046,1.313c-1.718,0-2.382-1.083-2.382-2.079c0-0.491,0.13-1.141,0.838-1.674
		c0.274-0.217,0.62-0.448,2.28-0.679c0.751-0.101,1.545-0.202,2.237-0.447v-0.26c0-0.924,0-2.007-1.963-2.007
		c-1.948,0-2.194,1.112-2.324,1.66L58.627,84.217z M63.809,85.632c-0.62,0.231-1.66,0.433-2.382,0.563
		c-0.981,0.173-2.05,0.361-2.05,1.487c0,0.852,0.78,1.429,1.632,1.429c0.606,0,1.4-0.274,2.021-0.78
		c0.534-0.433,0.779-1.025,0.779-2.208V85.632z"/>
	<path class="st1" d="M67.839,79.324v10.335h-0.865V79.324H67.839z"/>
	<path class="st1" d="M75.045,79.324v3.955h0.028c0.404-0.548,0.968-1.27,2.382-1.27c1.126,0,1.732,0.52,1.978,0.794
		c0.549,0.621,0.534,1.53,0.534,1.978v4.879h-0.866v-4.648c0-0.606-0.028-1.155-0.288-1.53c-0.304-0.447-0.838-0.707-1.444-0.707
		c-0.808,0-1.674,0.491-2.063,1.328c-0.217,0.462-0.26,1.04-0.26,2.31v3.248h-0.866V79.324H75.045z"/>
	<path class="st1" d="M81.904,84.217c0.288-1.559,1.256-2.208,3.219-2.208c2.829,0,2.844,1.415,2.844,3.176
		c0,0.159-0.029,1.79-0.029,2.107c0,1.328,0.13,1.674,0.462,2.367h-0.967c-0.173-0.447-0.217-0.635-0.274-1.14
		c-0.332,0.361-1.212,1.313-3.046,1.313c-1.718,0-2.382-1.083-2.382-2.079c0-0.491,0.13-1.141,0.838-1.674
		c0.274-0.217,0.62-0.448,2.28-0.679c0.751-0.101,1.545-0.202,2.237-0.447v-0.26c0-0.924,0-2.007-1.963-2.007
		c-1.948,0-2.194,1.112-2.324,1.66L81.904,84.217z M87.086,85.632c-0.62,0.231-1.66,0.433-2.382,0.563
		c-0.981,0.173-2.05,0.361-2.05,1.487c0,0.852,0.78,1.429,1.632,1.429c0.606,0,1.4-0.274,2.021-0.78
		c0.534-0.433,0.779-1.025,0.779-2.208V85.632z"/>
	<path class="st1" d="M91.116,79.324v1.328h-0.865v-1.328H91.116z M91.116,82.182v7.477h-0.865v-7.477H91.116z"/>
	<path class="st1" d="M94.207,82.182v1.501h0.028c0.159-0.548,0.534-1.674,1.718-1.674c0.621,0,1.011,0.245,1.328,0.447
		l-0.332,0.765c-0.477-0.202-0.707-0.289-1.011-0.289c-0.273,0-0.895,0.014-1.327,0.996c-0.131,0.274-0.202,0.779-0.261,1.256
		c-0.043,0.375-0.058,0.866-0.058,1.054v3.421h-0.866v-7.477H94.207z"/>
</g>
<g>
	<rect x="0" y="0" class="st0" width="237.257" height="49.493"/>
	<path class="st1" d="M3.282,14.885L2.99,14.191c0.657-0.036,1.313-0.127,1.934-0.273v-2.334H2.626v6.108H1.915v-6.09l-1.003-0.019
		V10.91l1.003-0.019V9.706h0.729v1.185h2.297V9.195L2.407,9.214V4.382h0.711v4.139h4.704c0.019-1.55,0.019-2.681,0-4.158h0.712
		v4.832H5.653v1.696h3.391l-0.018,5.507c0,0.492-0.365,0.839-0.766,0.894c-0.584,0.146-1.186,0.109-1.896,0.091l-0.256-0.766
		c0.475,0.091,1.368,0.091,1.587,0.055c0.401,0,0.602-0.255,0.638-0.51l0.019-4.595c-0.875-0.018-1.787,0-2.681,0v2.225
		c0.383-0.018,0.766-0.109,1.149-0.219l-0.475-1.149l0.639-0.182c0.383,0.93,0.729,1.823,0.911,2.826
		c-0.183,0.073-0.401,0.182-0.62,0.237L6.984,14.21L3.282,14.885z M9.737,2.996V3.67L0.931,3.652V2.978l4.595,0.018
		C5.015,2.431,4.522,1.993,3.902,1.592L4.34,1.118C4.887,1.5,5.635,2.029,6.091,2.521L5.689,2.978L9.737,2.996z M7.002,7.956
		C6.638,7.518,6.163,7.062,5.726,6.679c-0.62,0.474-1.222,1.039-1.878,1.422L3.429,7.591C4.012,7.189,4.632,6.752,5.16,6.26
		C4.705,5.822,4.212,5.549,3.647,5.184L4.03,4.637c0.565,0.31,1.075,0.693,1.604,1.094c0.347-0.347,0.856-0.802,1.167-1.185
		l0.456,0.456C6.966,5.403,6.528,5.786,6.163,6.187c0.475,0.456,0.803,0.766,1.24,1.24L7.002,7.956z M10.558,17.748l0.019-11.105
		C10.339,7.39,9.847,8.229,9.428,8.94L8.844,8.539c1.404-2.297,2.206-4.869,2.826-7.476l0.62,0.219
		c-0.219,1.076-0.528,2.061-0.839,3.082h5.562l-0.019,0.675h-2.607v2.826h2.353v0.675h-2.353l0.019,2.936l2.334-0.018v0.675h-2.353
		l0.019,3.392l2.881-0.019l-0.018,0.693h-5.981v1.514L10.558,17.748z M13.694,5.129h-2.389v2.844h2.389V5.129z M13.676,11.584
		l0.019-2.917h-2.389v2.917H13.676z M11.323,12.259l-0.018,3.374h2.389l-0.019-3.374H11.323z M14.26,4.035
		c-0.292-0.766-0.729-1.514-1.222-2.225l0.583-0.346c0.492,0.711,0.948,1.477,1.295,2.279L14.26,4.035z"/>
	<path class="st1" d="M22.069,2.267h10.667l-0.018,0.693L28.032,6.46v2.225l7.403,0.018v0.693l-7.403,0.018v7.002
		c0,0.383-0.273,0.748-0.692,0.803c-0.548,0.182-1.368,0.091-2.298,0.073l-0.347-0.766c0.711,0.019,1.24,0.073,2.024,0.055
		c0.328-0.019,0.528-0.292,0.528-0.511V9.414h-7.896l-0.018-0.729l7.913,0.018V6.059c1.478-0.93,2.881-1.987,4.267-3.045
		l-9.445-0.037V2.267z"/>
	<path class="st1" d="M37.647,7.025c1.55-2.024,3.063-4.066,3.848-6.473l0.675,0.273c-0.164,0.511-0.328,1.058-0.584,1.55H53.11
		v0.638H41.222C40.31,4.527,39.344,6.096,38.194,7.5L37.647,7.025z M48.935,12.35h-2.17c-0.638,0.966-1.386,1.787-2.279,2.535
		c1.404,0.547,2.771,1.222,4.14,1.896l-0.42,0.565c-1.422-0.748-2.845-1.459-4.357-2.006c-1.642,1.094-3.538,1.623-5.471,2.006
		c-0.128-0.183-0.183-0.438-0.292-0.656c1.732-0.329,3.483-0.766,4.924-1.678c-0.748-0.273-1.478-0.547-2.279-0.656
		c-0.183,0.219-0.292,0.492-0.492,0.711l-0.584-0.438l1.55-2.261H38.14v-0.656h3.483c0.528-0.748,1.021-1.477,1.55-2.225
		l0.602,0.365l-1.276,1.86h6.437V12.35z M43.009,6.989c0.364,0.529,0.711,1.058,1.058,1.568h4.395v2.334h-0.729V9.214H39.38v1.677
		h-0.747V8.557h4.576c-0.2-0.419-0.528-0.875-0.82-1.24L43.009,6.989z M53.129,13.572c0.236,0.073,0.419,0.273,0.656,0.346
		l-0.529,2.79c-0.182,0.438-0.474,0.602-0.875,0.602c-0.474,0-0.784-0.474-1.021-0.839c-0.93-1.44-1.422-3.1-1.44-4.923
		l-0.036-4.687H39.727V6.205h10.904l0.018,5.288c0,1.86,0.565,3.574,1.659,4.996c0.055,0.055,0.219,0.091,0.274-0.146L53.129,13.572
		z M42.061,12.368l-0.93,1.422c0.893,0.182,1.731,0.511,2.589,0.766c0.784-0.547,1.586-1.386,2.206-2.188H42.061z M41.604,4.965
		V4.327h10.156v0.639H41.604z"/>
	<path class="st1" d="M60.154,9.907V3.652h-3.665V2.996h3.665V1.391h0.729v1.604h6.091V1.373h0.729v1.623h3.774v0.657h-3.774v6.254
		h4.029v0.656h-4.741c1.259,1.678,3.21,2.808,5.271,3.519l-0.584,0.602c-2.023-0.839-4.285-2.152-5.452-4.121h-4.668
		c-1.404,1.951-3.446,3.082-5.434,4.012l-0.529-0.493c1.842-0.82,3.775-1.86,5.143-3.519h-4.522V9.907H60.154z M63.528,16.398
		v-2.443h-4.121v-0.638h4.121v-1.787h0.711v1.787h4.176v0.638h-4.176v2.443h7.239v0.638H56.325v-0.638H63.528z M66.975,3.652h-6.091
		v1.477h6.091V3.652z M60.884,5.749v1.805h6.091V5.749H60.884z M66.975,8.174h-6.091v1.732h6.091V8.174z"/>
	<path class="st1" d="M81.148,15.979h-5.816l0.018,1.44H74.62V4.929h1.988l0.018-2.607h-2.589l-0.019-0.657h7.914v0.657h-2.79
		l-0.019,2.607l2.006,0.018L81.148,15.979z M79.088,10.49c-0.401,0-0.62-0.347-0.62-0.693l-0.019-4.212l-1.148-0.018
		c0.092,2.061-0.328,3.938-1.35,5.543l-0.474-0.364c0.803-1.55,1.258-3.246,1.131-5.179l-1.276,0.018v6.966h5.105v-2.079
		L79.088,10.49z M80.438,13.244h-5.105l0.018,2.133h5.088V13.244z M77.319,2.303v2.626h1.148V2.321L77.319,2.303z M80.419,9.852
		V5.604h-1.276v3.701c0,0.274,0.146,0.529,0.456,0.529L80.419,9.852z M89.518,17.456c-1.258-0.82-2.461-1.568-3.61-2.607
		l-0.109,0.037c-1.349,1.112-2.845,1.915-4.376,2.589l-0.401-0.492c1.532-0.693,3.063-1.44,4.413-2.607
		c-0.766-0.802-1.386-1.623-2.042-2.498l-1.149,1.677c-0.2-0.109-0.364-0.273-0.528-0.401c0.419-0.62,0.894-1.24,1.258-1.896
		l-0.802-1.222l0.474-0.31l0.675,0.93c0.328-0.62,0.62-1.258,0.82-1.933l0.584,0.219c-0.092,0.456-0.292,0.912-0.511,1.35h4.613
		c-0.475,1.458-1.259,2.881-2.389,4.012c0.966,0.984,2.315,1.805,3.537,2.553L89.518,17.456z M88.643,4.819
		c-0.547-0.055-1.076,0.018-1.641,0.036l-0.019,2.553c0,0.292,0.128,0.492,0.492,0.492h2.754v0.62h-3.046
		c-0.565,0-0.82-0.401-0.82-0.766l-0.019-2.863l-1.458,0.037c-0.073,1.787-1.459,3.538-2.954,4.395L81.44,8.831
		c1.44-0.766,2.753-2.115,2.789-3.811c-0.747-0.019-1.495,0.073-2.261,0.073c-0.073-0.201-0.109-0.438-0.164-0.656h0.82
		c0.931-1.167,1.934-2.334,2.59-3.611L85.816,1.1c-0.602,1.148-1.478,2.279-2.315,3.318l4.595-0.182
		c-0.311-0.438-0.693-0.821-1.131-1.24l0.475-0.364C88.369,3.47,89.117,4.4,89.9,5.348l-0.528,0.383L88.643,4.819z M83.884,10.946
		l-0.164,0.328c0.656,0.894,1.331,1.787,2.17,2.589c0.875-0.857,1.477-1.841,1.933-2.899L83.884,10.946z"/>
	<path class="st1" d="M106.281,17.51v-1.878L94.466,15.65v1.878l-0.748,0.019V5.111l4.103,0.019V0.917h0.729v4.194l3.501,0.019
		V0.881h0.748v4.249l4.229-0.019v12.381L106.281,17.51z M97.839,5.804h-3.355l-0.018,4.103h3.373V5.804z M94.466,10.581l0.018,4.376
		h3.318l0.019-4.395L94.466,10.581z M102.051,10.581l-3.501-0.018l0.019,4.395h3.482V10.581z M102.051,5.804h-3.482v4.103h3.482
		V5.804z M106.281,5.804h-3.501v4.103h3.501V5.804z M106.281,10.581h-3.501l0.019,4.376h3.482V10.581z"/>
	<path class="st1" d="M126.473,17.62c-2.389-0.474-4.741-1.058-6.947-1.969c-2.517,1.076-5.033,1.678-7.713,2.024l-0.292-0.729
		c2.644-0.328,5.124-0.838,7.33-1.75c-1.167-0.51-2.206-1.349-3.118-2.279c-1.477,1.422-3.337,2.462-5.069,3.118l-0.438-0.583
		c2.115-0.82,4.121-1.969,5.762-3.756h-5.379v-0.656h5.799c0.401-0.456,0.656-0.912,0.856-1.404l0.584,0.328
		c-0.164,0.292-0.364,0.674-0.639,1.076h9.354v0.656h-9.755l-0.62,0.766c0.93,1.039,1.969,1.75,3.264,2.37
		c1.167-0.602,2.279-1.513,3.082-2.553l0.564,0.365c-0.783,1.04-1.841,2.006-2.953,2.571c1.969,0.82,4.431,1.422,6.655,1.769
		L126.473,17.62z M114.365,7.171c-0.548,0.62-1.313,1.295-2.061,1.805c1.623-0.146,3.318-0.31,4.959-0.456
		c-0.346-0.292-0.783-0.529-1.203-0.766l0.383-0.401c0.894,0.51,1.823,1.167,2.626,2.005l-0.456,0.438l-0.766-0.748
		c-2.188,0.164-4.012,0.328-6.291,0.565l-0.183-0.565c0.767-0.511,1.623-1.24,2.243-1.878h-3.264l-0.019-0.602h2.024V1.92h6.4v0.638
		h-5.653v0.839h4.905v0.638h-4.905v0.894h4.869v0.62h-4.869v1.002h6.091v0.62H114.365z M119.635,4.199l-0.401-0.565
		c1.896-0.656,3.756-1.422,5.471-2.534l0.51,0.438C123.482,2.686,121.586,3.543,119.635,4.199z M119.835,9.56l-0.347-0.565
		c2.152-0.656,4.449-1.732,6.528-3.063l0.456,0.492C124.649,7.682,122.097,8.867,119.835,9.56z M120.272,6.588l-0.438-0.565
		c1.86-0.674,3.665-1.44,5.361-2.479l0.364,0.474C123.901,5.093,122.097,5.877,120.272,6.588z M122.989,10.91
		c-0.492-0.493-1.039-0.93-1.659-1.276l0.456-0.456c0.602,0.365,1.222,0.82,1.696,1.24L122.989,10.91z"/>
	<path class="st1" d="M132.478,1.264c-0.401,1.896-1.459,3.537-2.498,5.197c0.547,0,2.389-0.365,3.209-0.62
		c0.401-0.656,0.748-1.331,1.021-2.042l0.656,0.273c-1.531,3.464-3.465,5.634-4.668,7.129l0.656-0.109l3.556-0.729
		c-0.128-0.292-0.31-0.802-0.692-1.532l0.656-0.31c0.31,0.474,0.547,1.058,0.766,1.604c0.292,0.711,0.511,1.44,0.729,2.17
		l-0.748,0.219c-0.127-0.511-0.255-1.076-0.438-1.55l-4.303,0.912l-1.295,0.438c-0.128-0.182-0.219-0.383-0.347-0.547
		c1.204-1.35,3.318-3.975,3.957-5.087c-0.656,0.037-1.495,0.255-2.881,0.565l-0.693,0.237l-0.31-0.602
		c1.55-2.024,2.534-4.194,3.009-5.854L132.478,1.264z M128.776,17.109c0.638-1.331,1.094-2.68,1.148-4.249l0.711,0.201
		c-0.091,1.44-0.511,2.936-1.021,4.303L128.776,17.109z M132.186,16.38c-0.055-1.222-0.255-2.407-0.565-3.538
		c0.256-0.055,0.493-0.109,0.729-0.164c0.292,1.13,0.42,2.261,0.547,3.464L132.186,16.38z M134.41,15.268
		c-0.292-0.985-0.565-1.988-1.003-2.917c0.237-0.091,0.475-0.128,0.711-0.219c0.401,0.93,0.767,1.86,1.003,2.844L134.41,15.268z
		 M143.272,15.778l1.659-0.018v0.729h-10.339V15.76h2.097V1.993h6.583V15.778z M142.506,2.704h-5.051v3.647l5.069-0.019
		L142.506,2.704z M137.455,10.982l5.051-0.018V7.062h-5.051V10.982z M137.455,11.693v4.084h5.051v-4.084H137.455z"/>
	<path class="st1" d="M162.005,9.232c-1.769-1.04-3.373-2.461-4.832-3.902c-0.967-0.93-1.878-1.987-2.717-3.045
		c-1.806,2.681-4.34,5.233-7.039,6.965l-0.747-0.419c2.626-1.458,4.905-3.756,6.655-6.218c0.438-0.602,0.875-1.24,1.24-1.878
		l0.62,0.365l-0.347,0.547c2.133,2.735,4.905,5.324,7.768,7.129L162.005,9.232z M158.887,17.474V16.07l-8.533-0.018v1.44h-0.803
		V10.8h10.12v6.673H158.887z M158.868,11.511h-8.515v3.847h8.515V11.511z M150.408,8.466V7.773h8.351v0.693H150.408z"/>
	<path class="st1" d="M167.007,3.233v11.961h6.583v1.094h-7.823V3.233H167.007z"/>
	<path class="st1" d="M180.813,3.233v13.056h-1.094V5.384c-1.35,1.276-2.389,1.732-3.318,2.097V6.497
		c2.607-1.422,3.19-2.334,3.665-3.264H180.813z"/>
	<path class="st1" d="M2.973,34.055l-1.642,4.121H0l5.307-13.056h1.294l5.562,13.056h-1.403l-1.696-4.121H2.973z M8.644,32.961
		l-2.699-6.546l-2.589,6.546H8.644z"/>
	<path class="st1" d="M14.719,28.731v1.349h0.037c0.346-0.529,1.13-1.568,2.844-1.568c1.806,0,2.298,1.094,2.517,1.568
		c0.492-0.62,1.276-1.568,2.954-1.568c1.039,0,1.751,0.438,2.134,0.857c0.328,0.346,0.711,1.04,0.711,2.371v6.437h-1.094v-5.872
		c0-1.167-0.037-2.844-1.988-2.844c-2.225,0-2.516,2.206-2.516,4.066v4.65h-1.095v-5.981c0-0.984,0.037-2.699-1.842-2.699
		c-1.914,0-2.662,1.769-2.662,3.647v5.033h-1.094v-9.445H14.719z"/>
	<path class="st1" d="M29.931,25.121v1.678h-1.094v-1.678H29.931z M29.931,28.731v9.445h-1.094v-9.445H29.931z"/>
	<path class="st1" d="M33.962,28.731v1.386h0.036c0.511-0.693,1.222-1.604,3.009-1.604c1.422,0,2.188,0.656,2.498,1.003
		c0.693,0.784,0.675,1.933,0.675,2.498v6.163h-1.094v-5.872c0-0.766-0.037-1.458-0.365-1.933c-0.383-0.565-1.058-0.894-1.823-0.894
		c-1.021,0-2.115,0.62-2.607,1.678c-0.273,0.583-0.328,1.313-0.328,2.917v4.103h-1.095v-9.445H33.962z"/>
	<path class="st1" d="M46.602,38.395c-2.662,0-4.23-2.042-4.212-4.887c0.018-3.264,1.622-4.996,4.212-4.996
		c2.553,0,4.23,1.732,4.23,4.996C50.832,36.298,49.537,38.395,46.602,38.395z M46.638,29.424c-2.078,0-3.081,1.75-3.081,4.084
		c0,2.589,1.294,3.975,3.1,3.975c1.805,0,3.009-1.44,3.009-3.975C49.665,30.919,48.553,29.424,46.638,29.424z"/>
	<path class="st1" d="M58.24,25.121l2.826,11.305h0.036l3.009-11.305h1.514l3.009,11.232h0.036l2.899-11.232h1.185l-3.501,13.056
		h-1.222l-3.117-11.67h-0.037l-3.19,11.67h-1.222l-3.483-13.056H58.24z"/>
	<path class="st1" d="M74.054,31.302c0.365-1.969,1.587-2.79,4.066-2.79c3.574,0,3.593,1.787,3.593,4.011
		c0,0.201-0.037,2.261-0.037,2.663c0,1.677,0.164,2.115,0.584,2.99h-1.222c-0.219-0.565-0.273-0.802-0.347-1.44
		c-0.42,0.456-1.531,1.659-3.848,1.659c-2.17,0-3.009-1.368-3.009-2.625c0-0.62,0.164-1.441,1.058-2.115
		c0.347-0.273,0.784-0.565,2.881-0.857c0.948-0.128,1.951-0.255,2.827-0.565v-0.328c0-1.167,0-2.535-2.48-2.535
		c-2.461,0-2.771,1.404-2.936,2.097L74.054,31.302z M80.601,33.089c-0.784,0.292-2.098,0.547-3.009,0.711
		c-1.24,0.219-2.59,0.456-2.59,1.878c0,1.076,0.985,1.805,2.061,1.805c0.766,0,1.769-0.347,2.553-0.985
		c0.675-0.547,0.985-1.294,0.985-2.79V33.089z"/>
	<path class="st1" d="M84.561,28.731l3.118,8.078l3.118-8.078h1.185l-3.792,9.445h-1.021l-3.793-9.445H84.561z"/>
	<path class="st1" d="M94.282,33.581c0.036,2.279,1.076,3.902,3.173,3.902c2.078,0,2.681-1.696,2.899-2.297l1.094,0.182
		c-0.328,0.912-1.076,3.027-4.048,3.027c-2.717,0-4.285-1.915-4.285-4.941c0-2.972,1.531-4.941,4.304-4.941
		c4.103,0,4.12,4.121,4.139,5.069H94.282z M100.391,32.669c-0.219-2.516-1.659-3.246-3.009-3.246c-0.565,0-2.717,0.146-3.081,3.246
		H100.391z"/>
	<path class="st1" d="M110.297,25.121v11.961h6.583v1.094h-7.823V25.121H110.297z"/>
	<path class="st1" d="M122.645,38.395c-2.662,0-4.23-2.042-4.212-4.887c0.019-3.264,1.623-4.996,4.212-4.996
		c2.553,0,4.23,1.732,4.23,4.996C126.875,36.298,125.581,38.395,122.645,38.395z M122.682,29.424c-2.079,0-3.082,1.75-3.082,4.084
		c0,2.589,1.295,3.975,3.1,3.975c1.806,0,3.009-1.44,3.009-3.975C125.708,30.919,124.596,29.424,122.682,29.424z"/>
	<path class="st1" d="M130.544,28.731h1.769v0.82h-1.769v6.2c0,1.167,0.127,1.66,1.058,1.66c0.146,0,0.31-0.019,0.875-0.128
		l0.146,0.894c-0.583,0.109-0.839,0.146-1.167,0.146c-2.042,0-2.006-1.368-2.006-2.425v-6.346h-1.313v-0.82h1.313v-2.425
		l1.095-0.711V28.731z"/>
	<path class="st1" d="M135.377,25.121v1.678h-1.094v-1.678H135.377z M135.377,28.731v9.445h-1.094v-9.445H135.377z"/>
	<path class="st1" d="M141.906,38.395c-2.662,0-4.23-2.042-4.212-4.887c0.018-3.264,1.622-4.996,4.212-4.996
		c2.553,0,4.23,1.732,4.23,4.996C146.137,36.298,144.842,38.395,141.906,38.395z M141.942,29.424c-2.078,0-3.081,1.75-3.081,4.084
		c0,2.589,1.294,3.975,3.1,3.975c1.805,0,3.009-1.44,3.009-3.975C144.97,30.919,143.857,29.424,141.942,29.424z"/>
	<path class="st1" d="M149.55,28.731v1.386h0.036c0.511-0.693,1.222-1.604,3.009-1.604c1.422,0,2.188,0.656,2.498,1.003
		c0.693,0.784,0.675,1.933,0.675,2.498v6.163h-1.094v-5.872c0-0.766-0.037-1.458-0.365-1.933c-0.383-0.565-1.058-0.894-1.823-0.894
		c-1.021,0-2.115,0.62-2.607,1.678c-0.273,0.583-0.328,1.313-0.328,2.917v4.103h-1.095v-9.445H149.55z"/>
	<path class="st1" d="M168.354,25.121c0.182,0,1.677,0,2.589,0.583c0.93,0.602,1.623,1.732,1.623,3.154
		c0,1.605-0.948,3.793-4.212,3.793h-3.301v5.525h-1.24V25.121H168.354z M165.054,26.214v5.343h2.954c1.386,0,3.282-0.401,3.282-2.68
		c0-2.644-2.389-2.663-3.282-2.663H165.054z"/>
	<path class="st1" d="M174.43,31.302c0.364-1.969,1.586-2.79,4.066-2.79c3.573,0,3.592,1.787,3.592,4.011
		c0,0.201-0.036,2.261-0.036,2.663c0,1.677,0.164,2.115,0.583,2.99h-1.222c-0.219-0.565-0.273-0.802-0.347-1.44
		c-0.419,0.456-1.531,1.659-3.847,1.659c-2.17,0-3.009-1.368-3.009-2.625c0-0.62,0.164-1.441,1.058-2.115
		c0.347-0.273,0.784-0.565,2.881-0.857c0.948-0.128,1.951-0.255,2.826-0.565v-0.328c0-1.167,0-2.535-2.479-2.535
		c-2.462,0-2.771,1.404-2.936,2.097L174.43,31.302z M180.976,33.089c-0.784,0.292-2.097,0.547-3.009,0.711
		c-1.239,0.219-2.589,0.456-2.589,1.878c0,1.076,0.984,1.805,2.061,1.805c0.766,0,1.769-0.347,2.553-0.985
		c0.675-0.547,0.984-1.294,0.984-2.79V33.089z"/>
	<path class="st1" d="M191.519,31.576c-0.401-1.368-1.495-2.152-2.918-2.152c-1.167,0-3.1,0.729-3.1,3.902
		c0,2.389,1.094,4.157,3.154,4.157c2.152,0,2.79-1.805,3.063-2.535l1.095,0.164c-0.219,0.912-0.912,3.282-4.213,3.282
		c-3.081,0-4.267-2.389-4.267-4.959c0-1.915,0.748-4.923,4.321-4.923c1.66,0,3.246,0.492,4.03,2.881L191.519,31.576z"/>
	<path class="st1" d="M196.189,25.121v7.986l4.632-4.376h1.55l-3.938,3.519l4.23,5.926h-1.44l-3.593-5.179l-1.44,1.276v3.902h-1.094
		V25.121H196.189z"/>
	<path class="st1" d="M210.673,25.121v11.961h6.582v1.094h-7.822V25.121H210.673z"/>
	<path class="st1" d="M224.479,25.121v13.056h-1.095V27.272c-1.349,1.276-2.389,1.732-3.318,2.097v-0.985
		c2.607-1.422,3.191-2.334,3.665-3.264H224.479z"/>
</g>
</svg>