<!-- Generator: Adobe Illustrator 19.2.0, SVG Export Plug-In  -->
<svg version="1.1"
	 xmlns="http://www.w3.org/2000/svg" xmlns:xlink="http://www.w3.org/1999/xlink" xmlns:a="http://ns.adobe.com/AdobeSVGViewerExtensions/3.0/"
	 x="0px" y="0px" width="248.623px" height="96.902px" viewBox="0 0 248.623 96.902"
	 style="enable-background:new 0 0 248.623 96.902;" xml:space="preserve">
<style type="text/css">
	.st0{fill:none;}
	.st1{fill:#3E3A39;}
</style>
<defs>
</defs>
<g>
	<rect x="0" y="59.764" class="st0" width="248.622" height="37.138"/>
	<path class="st1" d="M2.107,68.343v-4.966l-0.765,1.242l-0.477-0.274c0.766-1.184,1.501-2.396,1.905-3.739l0.462,0.217
		c-0.102,0.39-0.274,0.765-0.434,1.14h1.719c-0.231-0.361-0.52-0.736-0.809-1.068l0.447-0.231c0.361,0.404,0.664,0.866,0.981,1.299
		h1.964v0.491H4.851v1.126h1.703v0.491H4.851v1.227h1.717v0.491H4.851v1.271h2.266v0.491h-4.46v0.794H2.107z M11.548,69.094
		c-1.068,0.938-2.194,1.862-3.436,2.454c1.775,0.75,3.652,1.27,5.601,1.617l-0.375,0.491c-2.064-0.39-4.027-1.054-5.947-1.819
		c-1.905,0.779-3.897,1.357-5.976,1.718l-0.318-0.505c1.949-0.346,3.84-0.808,5.615-1.544c-1.068-0.563-2.137-1.299-2.959-2.324
		H2.468v-0.505h9.08V69.094z M4.315,62.454H2.656v1.126h1.659V62.454z M4.315,64.07H2.656v1.227h1.659V64.07z M4.315,67.059v-1.271
		H2.656v1.271H4.315z M4.475,69.18c0.866,0.924,1.877,1.588,2.96,2.064c1.125-0.477,2.193-1.285,3.175-2.035L4.475,69.18z
		 M10.754,61.919c-0.26-0.332-0.606-0.736-0.924-1.01l0.433-0.274c0.391,0.375,0.736,0.852,1.055,1.285h1.804v0.491H10.87v1.126
		h1.832v0.491H10.87v1.198h1.861v0.491H10.87v1.299h2.496v0.491H8.53v0.823H7.982v-4.893c-0.245,0.39-0.548,0.823-0.823,1.198
		l-0.447-0.231c0.664-0.895,1.646-2.771,1.963-3.897l0.535,0.101c-0.116,0.448-0.332,0.895-0.506,1.313H10.754z M10.335,62.411H8.53
		v1.126h1.805V62.411z M10.335,64.027H8.53v1.198h1.805V64.027z M10.335,65.716H8.53v1.299h1.805V65.716z"/>
	<path class="st1" d="M21.384,69.686h-4.129v-4.533h4.129v-1.169h-5.746v-0.52h5.746V62.05l-2.512,0.26
		c-0.506,0.058-1.04,0.058-1.56,0.101l-0.202-0.534c2.916-0.145,5.773-0.433,8.459-1.155l0.332,0.491
		c-1.285,0.332-2.613,0.592-3.955,0.779v1.473h5.816v0.52H21.96l-0.014,1.155l4.157,0.014v4.533L21.946,69.7v1.155l4.994,0.014
		v0.505h-4.994v1.299l6.192,0.014v0.505H15.177v-0.505h6.221v-1.313h-4.965v-0.52h4.965L21.384,69.686z M17.817,65.673v1.342h3.58
		l-0.014-1.357L17.817,65.673z M21.397,67.535h-3.58v1.631h3.58V67.535z M25.54,65.658h-3.58v1.357h3.58V65.658z M25.54,67.535
		h-3.58v1.631h3.58V67.535z"/>
	<path class="st1" d="M29.544,63.421v-0.505h4.677v0.491L29.544,63.421z M30.251,65.153l-0.014-0.505h3.363v0.505H30.251z
		 M30.251,66.9v-0.491h3.35V66.9H30.251z M32.95,72.89v-0.779l-1.992-0.015l-0.014,1.212l-0.563,0.015v-4.995h3.118l0.015,4.562
		H32.95z M32.95,68.848h-1.992v2.786h1.992V68.848z M32.186,62.757l-0.072-0.014c-0.26-0.693-0.577-1.386-0.981-2.036
		c0.145-0.086,0.303-0.202,0.477-0.245c0.39,0.664,0.736,1.357,1.039,2.05L32.186,62.757z M42.261,73.655
		c-1.313-0.404-2.598-0.866-3.84-1.458c-1.4,0.678-2.9,1.14-4.432,1.516l-0.273-0.52c1.414-0.332,2.801-0.722,4.1-1.328
		c-0.795-0.476-1.574-1.01-2.194-1.703h-0.968v-0.477h6.654v0.375c-0.735,0.678-1.5,1.299-2.295,1.79
		c1.141,0.548,2.339,0.953,3.551,1.313C42.478,73.337,42.376,73.497,42.261,73.655z M35.621,68.776v0.491h-0.563v-3.869
		c-0.188,0.361-0.505,0.678-0.793,1.025c-0.159-0.072-0.275-0.202-0.404-0.317c0.895-0.967,1.559-2.064,2.15-3.205l0.404,0.231
		c-0.145,0.346-0.318,0.693-0.491,1.01h2.844c-0.303-0.404-0.62-0.736-0.981-1.054l0.418-0.317c0.463,0.418,0.896,0.909,1.256,1.386
		h2.729v0.491H38.84V65.5l2.888,0.015v0.491h-2.902v0.866l2.887,0.015v0.491h-2.9v0.895l3.724,0.015v0.491H35.621z M37.036,63.58
		l-0.016-1.126H34.38v-0.476h2.641l0.016-1.487l0.563-0.015l0.014,3.104H37.036z M38.248,64.691h-2.627v0.837h2.627V64.691z
		 M38.248,66.034h-2.627V66.9h2.627V66.034z M38.248,67.391l-2.627,0.014V68.3l2.627-0.014V67.391z M36.328,70.162
		c0.649,0.534,1.328,1.054,2.093,1.371c0.736-0.332,1.343-0.924,2.064-1.342L36.328,70.162z M39.663,62.425v1.141h-0.549v-3.104
		h0.563v1.472h2.801v0.491H39.663z"/>
	<path class="st1" d="M44.042,71.793c0.721-0.274,1.414-0.649,2.121-0.967v-4.172h-1.631v-0.52h1.617v-3.522h-1.747v-0.52h4.215
		v0.505h-1.891v3.551h1.675v0.505h-1.675v3.897l1.891-0.91v0.563l-4.187,2.064L44.042,71.793z M48.444,73.396v-0.52h3.768v-2.771
		h-3.219v-0.52h3.219v-2.035h-2.887v-5.904h6.438v5.904h-2.988v2.035h3.406v0.52h-3.406v2.771h3.97v0.52H48.444z M49.902,62.165
		v2.093h2.31v-2.093H49.902z M49.902,64.763v2.267h2.31v-2.267H49.902z M52.774,62.165v2.093h2.41v-2.093H52.774z M55.185,64.763
		h-2.41v2.267h2.41V64.763z"/>
	<path class="st1" d="M70.448,67.809c-1.443,1.92-3.104,3.45-5.254,4.46c-1.776,0.837-3.682,1.386-5.645,1.761l-0.534-0.534
		c1.313-0.202,2.612-0.534,3.825-0.924c1.762-0.578,3.508-1.372,4.879-2.613c0.809-0.736,1.573-1.617,2.223-2.439L70.448,67.809z
		 M66.306,62.642h4.172l0.014,0.577h-4.186v2.252h5.456v0.577l-5.442-0.014l-0.014,4.503H65.67v-4.503l-6.38,0.014v-0.577h2.988
		v-3.652h0.635v3.637l2.771,0.015l-0.015-4.749l0.636-0.015V62.642z M59.333,70.479c1.343-0.823,2.541-2.122,3.479-3.392
		l0.491,0.346c-0.981,1.314-2.107,2.541-3.464,3.479L59.333,70.479z"/>
	<path class="st1" d="M73.397,72.255l-0.49-0.173c0.217-1.039,0.433-2.15,0.447-3.276l0.447,0.13
		C73.816,70.032,73.601,71.201,73.397,72.255z M77.396,72.948c-0.433,0.78-1.4,0.477-2.093,0.448l-0.116-0.534
		c0.477,0.029,1.53,0.418,1.833-0.361c0.115-0.563,0.203-1.141,0.26-1.732h-0.173c-0.216-0.722-0.462-1.443-0.751-2.136l0.404-0.13
		c0.145,0.246,0.419,0.75,0.592,1.342c0.087-0.707,0.131-1.559,0.159-2.251h-3.897v-6.525h4.244v0.491h-1.718v1.429h1.501v0.477
		l-1.516-0.015v1.53h1.486v0.476h-1.486l0.015,1.66h1.876C78.003,68.892,77.743,72.313,77.396,72.948z M75.649,61.559h-1.501v1.444
		h1.501V61.559z M74.163,63.479v1.53h1.486l0.015-1.53H74.163z M75.649,65.5l-1.486-0.015v1.66h1.486V65.5z M74.696,71.75
		c-0.043-0.924-0.158-1.819-0.36-2.67l0.433-0.087c0.203,0.837,0.361,1.747,0.419,2.642L74.696,71.75z M75.996,71.259
		c-0.173-0.793-0.376-1.587-0.664-2.338l0.462-0.101c0.26,0.736,0.534,1.545,0.693,2.324C76.313,71.187,76.155,71.216,75.996,71.259
		z M85.407,66.885c-0.649-0.477-1.169-0.996-1.616-1.66c-0.433,0.563-1.04,1.285-1.616,1.819l-0.318-0.375
		c0.722-0.693,1.154-1.227,1.617-1.935c-0.534-0.88-0.896-1.891-1.068-2.887h-0.434v-0.332l-0.375-0.015l-0.043,5.745h-0.52v-1.285
		l-3.061,0.823c-0.086-0.13-0.13-0.317-0.202-0.476c0.332-0.072,0.692-0.101,1.011-0.231v-4.576H78.22l0.014-0.476h3.955v0.332
		h3.161c-0.288,1.169-0.577,2.367-1.284,3.377c0.447,0.693,0.967,1.299,1.66,1.775L85.407,66.885z M80.76,72.717
		c-0.433-0.664-0.909-1.285-1.444-1.891c-0.26,0.678-0.592,1.299-1.039,2.179l-0.447-0.274c0.664-1.285,1.328-2.569,1.545-4.027
		l0.477,0.101c-0.059,0.52-0.203,0.996-0.347,1.472c0.635,0.693,1.155,1.415,1.688,2.136C81.063,72.5,80.933,72.674,80.76,72.717z
		 M81.986,67.924l0.015,5.572h-0.506v-5.485c-0.75,0.101-1.516,0.231-2.295,0.303l-0.26-0.433c1.834-0.173,3.609-0.491,5.326-0.967
		l0.304,0.375C83.733,67.521,82.853,67.751,81.986,67.924z M81.063,61.487h-1.761v1.083h1.761V61.487z M81.077,63.06h-1.762v1.083
		h1.762V63.06z M81.077,64.619h-1.762v1.313l1.762-0.462V64.619z M85.466,72.659c-0.491-0.664-1.04-1.371-1.617-1.963
		c-0.246,0.621-0.49,1.285-1.082,2.281l-0.404-0.274c0.707-1.299,1.328-2.656,1.443-4.186l0.477,0.115
		c-0.059,0.52-0.131,1.04-0.275,1.516c0.664,0.736,1.271,1.429,1.848,2.208L85.466,72.659z M82.882,61.848
		c0.217,0.794,0.461,1.631,0.881,2.381c0.418-0.592,0.721-1.386,0.98-2.396L82.882,61.848z"/>
	<path class="st1" d="M94.536,65.803c0.101,1.054-0.029,2.05-0.896,2.699l-0.404-0.375c0.376-0.245,0.62-0.664,0.708-1.083h-0.766
		v-1.241H94.536z"/>
	<path class="st1" d="M105.251,64.316c-0.346,0.678-0.793,1.313-1.184,1.978v7.564h-0.563v-6.785
		c-0.347,0.404-0.707,0.953-1.083,1.313l-0.462-0.317c1.184-1.184,2.064-2.613,2.858-4.027L105.251,64.316z M102.047,64.388
		c1.097-1.068,1.819-2.411,2.599-3.667l0.404,0.216c-0.636,1.184-1.588,2.771-2.643,3.897L102.047,64.388z M109.077,63.811
		c0.389,0.65,0.721,1.328,1.053,2.021l-0.49,0.245l-0.375-0.837l-4.071,0.52c-0.028-0.188-0.058-0.361-0.115-0.534l0.823-0.072
		c0.316-0.722,0.592-1.458,0.837-2.208h-1.688v-0.52h2.728c-0.447-0.476-0.968-0.924-1.487-1.299l0.404-0.361
		c0.535,0.418,1.068,0.823,1.56,1.342l-0.274,0.317h2.252v0.52h-2.945c-0.23,0.722-0.533,1.4-0.793,2.108l2.512-0.303l-0.376-0.736
		L109.077,63.811z M107.69,73.049c0.463,0.058,0.881,0.058,1.126,0.015c0.173,0.014,0.347-0.116,0.347-0.289v-1.689h-3.031
		l-0.015,2.67h-0.563v-7.188h4.158v6.308c0,0.39-0.318,0.722-0.65,0.708c-0.389,0.058-0.678,0.086-1.154,0.029L107.69,73.049z
		 M109.163,67.059h-3.031v1.472h3.031V67.059z M109.163,69.021h-3.031v1.516h3.031V69.021z M111.849,60.981
		c-0.016,0.895-0.116,1.804-0.246,2.67l3.118,0.015v0.52h-0.866c-0.115,2.064-0.303,4.215-1.098,6.077
		c0.535,1.169,1.314,2.251,2.107,3.291l-0.548,0.231c-0.649-0.88-1.356-1.934-1.862-2.873c-0.678,1.01-1.241,2.021-2.209,2.844
		c-0.158-0.072-0.288-0.217-0.433-0.332c0.996-0.881,1.79-2.006,2.339-3.176c-0.534-1.212-0.866-2.512-1.17-3.811l-0.52,1.4
		l-0.533-0.231c0.115-0.375,0.288-0.765,0.418-1.155c0.606-1.703,0.866-3.565,0.938-5.5L111.849,60.981z M113.248,64.171h-1.747
		c-0.028,0.318-0.101,0.621-0.173,0.924c0.231,1.516,0.577,2.988,1.112,4.374C113.032,67.838,113.133,66.452,113.248,64.171z"/>
	<path class="st1" d="M122.665,62.122c-0.303-0.491-0.549-1.039-0.895-1.516l0.461-0.289c0.318,0.505,0.621,0.996,0.881,1.516
		l-0.375,0.26l5.932,0.029v0.534h-10.854l-0.028,5.457c-0.015,1.963-0.318,3.897-1.4,5.485l-0.434-0.39
		c0.838-1.328,1.228-2.858,1.228-4.503l0.028-6.583H122.665z M129.001,70.913l-0.707,2.454c-0.057,0.188-0.158,0.231-0.332,0.231
		c-0.533-0.058-0.924-0.433-1.313-0.823c-1.545-1.487-2.354-3.393-2.643-5.428h-3.623v3.45l3.406-1.039v0.563l-5.211,1.631
		l-0.273-0.577c0.505-0.101,1.01-0.274,1.486-0.418v-6.684l1.111-0.058l2.281-0.231c1.213-0.13,2.396-0.361,3.536-0.679l0.606,0.419
		c-0.981,0.274-2.021,0.476-3.046,0.664c0.015,0.808,0.116,1.646,0.231,2.425h3.84v0.549h-3.739
		c0.304,2.093,1.284,4.099,3.046,5.528c0.115,0.086,0.202,0.015,0.23-0.101l0.621-2.151L129.001,70.913z M119.417,73.078v-0.534
		h5.717v0.534H119.417z M123.675,64.489c-0.36,0.029-0.707,0.101-1.068,0.13l-2.208,0.216v1.978h3.508
		c-0.087-0.606-0.13-1.227-0.202-1.848C123.675,64.792,123.689,64.648,123.675,64.489z"/>
	<path class="st1" d="M130.652,73.352c0.62-0.938,1.039-1.992,1.039-3.161v-5.904l-0.534,0.635l-0.447-0.375
		c1.025-1.184,1.862-2.497,2.267-3.941l0.491,0.173c-0.102,0.375-0.217,0.736-0.361,1.083h2.873
		c-0.275,0.809-0.607,1.588-1.025,2.338h1.631v8.776c0,0.318-0.145,0.578-0.505,0.635c-0.347,0.058-0.664,0.087-1.112,0.043
		l-0.26-0.505l0.953-0.043c0.217,0.029,0.347-0.13,0.347-0.317l0.015-2.728l-3.768-0.015c-0.072,1.328-0.447,2.555-1.155,3.609
		L130.652,73.352z M132.86,62.411c-0.316,0.635-0.678,1.212-1.111,1.79h2.57c0.346-0.577,0.648-1.169,0.895-1.79H132.86z
		 M132.269,64.749l0.016,2.006h1.559v-2.021L132.269,64.749z M132.269,67.304l0.016,2.208h1.559v-2.208H132.269z M136.008,66.77
		v-2.021l-1.573-0.015v2.021L136.008,66.77z M136.022,67.304h-1.588v2.208h1.588V67.304z M137.062,64.893
		c1.732-1.01,2.165-1.862,2.353-3.132h-1.919v-0.52l5.455-0.014c-0.129,1.024-0.201,1.992-0.418,2.988
		c-0.072,0.303-0.361,0.577-0.664,0.635c-0.447,0.086-0.938,0.014-1.4,0l-0.158-0.52l1.313,0.015c0.216,0,0.347-0.116,0.403-0.289
		c0.145-0.751,0.231-1.53,0.289-2.281h-2.324c-0.188,1.14-0.447,2.425-2.468,3.537L137.062,64.893z M137.206,70.407v-0.548h2.944
		v-2.353h-1.631c-0.173,0.693-0.39,1.372-0.692,2.006l-0.521-0.245c0.521-1.097,0.78-2.237,0.938-3.479l0.534,0.072
		c-0.044,0.375-0.087,0.765-0.173,1.111h1.529l0.015-1.516h0.577v1.516h2.252l-0.014,0.534h-2.238v2.367h2.786v0.534h-2.786v3.277
		h-0.577v-3.277H137.206z"/>
	<path class="st1" d="M147.329,66.654c-0.648-0.779-1.414-1.458-2.193-2.093l0.361-0.447c0.75,0.606,1.544,1.4,2.193,2.122
		L147.329,66.654z M146.478,70.869l1.242-2.223l0.346-0.693l0.419,0.317l-1.054,2.006c-0.534,1.025-1.198,2.064-1.818,3.031
		l-0.447-0.346L146.478,70.869z M148.109,63.594c-0.649-0.809-1.372-1.544-2.151-2.237l0.404-0.361
		c0.809,0.765,1.486,1.415,2.18,2.238L148.109,63.594z M157.823,73.669c-2.136-1.328-4.445-3.363-5.008-5.86
		c-0.016-0.015-0.044-0.015-0.072-0.015c-0.447,2.512-2.354,4.59-4.547,5.904l-0.463-0.419c1.689-0.981,3.436-2.555,4.1-4.417
		c0.131-0.346,0.246-0.693,0.347-1.054l-3.219-0.015v-0.52h3.306c0.23-1.155,0.158-2.107,0.158-3.276h-3.089l0.015-0.534h3.074
		V60.52h0.578v2.945h3.464v3.796h1.646v0.534h-4.721c0.621,2.324,2.758,4.128,4.779,5.355L157.823,73.669z M153.017,63.999
		c0,1.169,0.029,2.194-0.158,3.262h3.002v-3.262H153.017z"/>
	<path class="st1" d="M161.64,72.082c-0.477,0.159-0.953,0.347-1.443,0.477l-0.317-0.548c0.895-0.231,1.731-0.477,2.569-0.78
		c0.563-1.054,1.082-2.122,1.386-3.276l0.563,0.202c-0.275,0.953-0.68,1.862-1.098,2.757l0.115-0.015l2.078-0.736
		c0.029,0.173,0,0.39,0.029,0.577L161.64,72.082z M159.907,61.891v-0.534l5.398-0.015l0.016,0.534L159.907,61.891z M160.441,66.929
		l-0.015-3.392h4.446v3.392H160.441z M161.597,70.609c-0.231-0.823-0.549-1.617-0.938-2.382l0.505-0.216
		c0.347,0.779,0.679,1.559,0.982,2.353L161.597,70.609z M164.267,64.042h-3.219v2.324h3.219V64.042z M166.995,72.573l-1.039,0.852
		l-0.621-0.332c0.838-0.635,1.646-1.227,2.367-2.006l0.491,0.361C167.847,71.836,167.457,72.197,166.995,72.573z M172.394,61.501
		h-2.974c-0.101,0.578-0.26,1.126-0.476,1.646l2.439,0.015v7.29l-4.98-0.015v-7.275h1.861c0.26-0.52,0.434-1.097,0.549-1.674h-2.93
		v-0.549l6.524,0.015L172.394,61.501z M170.792,63.667l-3.783,0.014v1.646l3.783-0.014V63.667z M170.792,65.86h-3.783v1.674h3.783
		V65.86z M167.038,68.112l-0.014,1.79h3.781l0.015-1.776L167.038,68.112z M171.6,73.367c-0.635-0.765-1.328-1.386-2.079-2.021
		l0.491-0.347c0.736,0.635,1.444,1.271,2.137,1.992C171.976,73.121,171.788,73.266,171.6,73.367z"/>
	<path class="st1" d="M186.761,73.713c-1.891-0.375-3.752-0.837-5.499-1.559c-1.992,0.852-3.983,1.328-6.106,1.603l-0.23-0.578
		c2.094-0.26,4.057-0.664,5.803-1.386c-0.924-0.404-1.746-1.068-2.469-1.804c-1.169,1.126-2.641,1.949-4.012,2.468l-0.348-0.462
		c1.675-0.649,3.263-1.559,4.563-2.974h-4.259v-0.52h4.591c0.316-0.361,0.52-0.722,0.678-1.111l0.462,0.26
		c-0.13,0.231-0.288,0.534-0.505,0.852h7.404v0.52h-7.723l-0.49,0.606c0.736,0.823,1.559,1.386,2.584,1.876
		c0.924-0.477,1.805-1.198,2.439-2.021l0.447,0.289c-0.621,0.823-1.458,1.588-2.338,2.036c1.559,0.649,3.508,1.126,5.269,1.4
		L186.761,73.713z M177.177,65.442c-0.434,0.491-1.039,1.025-1.631,1.429c1.284-0.115,2.627-0.245,3.926-0.361
		c-0.273-0.231-0.621-0.418-0.953-0.606l0.304-0.318c0.708,0.404,1.443,0.924,2.079,1.588l-0.361,0.347l-0.606-0.592
		c-1.731,0.13-3.175,0.26-4.979,0.447l-0.145-0.447c0.605-0.404,1.285-0.982,1.775-1.487h-2.584l-0.014-0.477h1.602v-3.681h5.066
		v0.505h-4.475v0.664h3.883v0.505h-3.883v0.708h3.854v0.491h-3.854v0.794h4.821v0.491H177.177z M181.349,63.089l-0.318-0.447
		c1.502-0.52,2.975-1.126,4.331-2.007l0.404,0.347C184.394,61.891,182.894,62.569,181.349,63.089z M181.507,67.333l-0.273-0.447
		c1.703-0.52,3.521-1.371,5.167-2.425l0.36,0.39C185.317,65.846,183.297,66.784,181.507,67.333z M181.854,64.98l-0.347-0.448
		c1.473-0.534,2.902-1.14,4.244-1.963l0.289,0.375C184.726,63.796,183.297,64.417,181.854,64.98z M184.005,68.401
		c-0.391-0.39-0.823-0.736-1.314-1.01l0.361-0.361c0.477,0.289,0.967,0.649,1.342,0.981L184.005,68.401z"/>
	<path class="st1" d="M191.487,62.338l0.014-1.848h0.563v1.833l2.988,0.015v0.548h-2.973l-0.016,1.487h2.151v4.403h-2.136v1.501
		h3.176v0.549h-3.176l-0.016,2.873h-0.563V70.84h-3.133v-0.563h3.119v-1.501h-2.195v-4.388h2.209v-1.487l-2.959-0.015v-0.548
		H191.487z M193.623,64.922h-3.739v1.285h3.739V64.922z M193.623,66.784h-3.739v1.429h3.739V66.784z M196.467,63.464
		c-0.288,0.722-1.097,2.18-1.487,2.786c-0.173-0.086-0.303-0.245-0.447-0.361c1.068-1.674,1.935-3.436,2.339-5.384l0.534,0.087
		c0.043,0.029-0.029,0.058-0.029,0.115c-0.217,0.75-0.434,1.516-0.693,2.208h4.663v0.549H196.467z M196.524,73.005
		c-0.39-0.101-0.779-0.346-0.938-0.722c-0.42-0.953,0.389-1.573,0.678-2.353c0.736-1.328,1.53-2.599,2.482-3.825h-3.074v-0.563
		h3.768v0.577l-1.357,1.963c-0.707,1.01-1.342,2.122-1.904,3.219c-0.102,0.217-0.116,0.477-0.029,0.693
		c0.115,0.246,0.361,0.448,0.621,0.477h3.232c0.289-0.043,0.563-0.274,0.621-0.563c0.102-0.505,0.174-1.011,0.23-1.53
		c0.188,0.058,0.332,0.173,0.506,0.274c-0.087,0.563-0.13,1.14-0.303,1.646c-0.116,0.332-0.477,0.649-0.823,0.707H196.524z"/>
	<path class="st1" d="M205.22,66.265c-0.463,1.342-1.198,2.598-1.949,3.825l-0.477-0.375c1.17-1.718,2.079-3.565,2.411-5.644h-2.237
		v-0.534h2.237l0.015-2.916h0.605l-0.014,2.901h1.703v0.548h-1.689v9.671h-0.605V66.265z M207.731,68.3
		c-0.174,0.072-0.332,0.188-0.506,0.26c-0.332-0.996-0.822-1.934-1.342-2.858c0.145-0.087,0.303-0.159,0.461-0.231
		C206.88,66.38,207.399,67.304,207.731,68.3z M215.627,63.724v0.548h-3.71l-0.014,3.262h2.598l0.015,6.207h-0.606V72.63h-4.475
		l0.014,1.111h-0.605l-0.015-6.207h2.483v-3.262h-3.436v-0.548h3.436v-3.161h0.592v3.161H215.627z M213.895,68.083h-4.46v4.027
		l4.46-0.015V68.083z"/>
	<path class="st1" d="M218.273,73.54V61.097h4.691l-0.015,4.359h-4.057v8.083H218.273z M218.894,61.66v1.285h3.465V61.66H218.894z
		 M218.894,63.507v1.4h3.465v-1.4H218.894z M221.247,71.75v-4.59l4.951-0.015v4.374l-0.606-0.015v-0.708l-3.738-0.014l0.015,0.967
		H221.247z M221.868,67.708l-0.015,2.526h3.724l0.015-2.526H221.868z M227.31,72.905c0.289,0.029,0.751,0.115,0.996,0.029
		c0.174-0.029,0.332-0.145,0.332-0.347v-7.145h-4.129v-4.331l4.721,0.015v11.649c-0.043,0.289-0.245,0.563-0.534,0.664
		c-0.36,0.087-0.751,0.015-1.097,0.043L227.31,72.905z M228.624,61.674h-3.508v1.256h3.508V61.674z M225.13,64.893h3.494v-1.4
		l-3.508-0.015L225.13,64.893z"/>
	<path class="st1" d="M233.651,69.917c0.375,0.52,0.982,1.083,1.473,1.487v-4.316h-3.133v-0.505h6.179v0.505h-2.497v1.876h2.28
		v0.505h-2.28v2.338c0.779,0.433,1.631,0.779,2.569,0.779l4.894-0.014l1.486-0.058l-0.303,0.635h-6.279
		c-1.818,0-3.306-1.126-4.504-2.497c-0.202,1.068-0.621,2.079-1.313,2.916l-0.433-0.462c1.082-1.415,1.342-3.175,1.256-5.066h0.605
		V69.917z M237.304,65.456h-4.359v-4.215h4.359V65.456z M236.741,61.747h-3.234v1.371h3.234V61.747z M236.741,64.951v-1.328h-3.234
		v1.328H236.741z M243.685,69.252h-4.951v-6.048h1.861c0.217-0.448,0.375-1.011,0.477-1.501h-2.916v-0.52h5.846v0.52h-2.323
		c-0.116,0.477-0.274,1.054-0.462,1.501h2.469V69.252z M238.372,71.836c0.736-0.621,1.328-1.386,1.79-2.136l0.534,0.317
		c-0.506,0.794-1.098,1.588-1.877,2.165L238.372,71.836z M239.296,65.009h3.825v-1.299h-3.825V65.009z M243.121,66.871v-1.356
		h-3.825v1.356H243.121z M239.296,67.376v1.372h3.825v-1.372H239.296z M243.669,72.154c-0.461-0.75-1.067-1.415-1.731-2.021
		l0.52-0.347c0.664,0.606,1.271,1.241,1.775,1.978L243.669,72.154z"/>
	<path class="st1" d="M1.284,79.324h3.971c0.057,0,1.313,0.015,2.251,0.549c1.79,1.01,2.108,3.334,2.108,4.561
		c0,1.141-0.203,3.609-2.166,4.72c-0.605,0.347-1.79,0.505-2.193,0.505H1.284V79.324z M2.267,88.793h2.425
		c0.419,0,1.328,0,1.963-0.289c1.53-0.722,1.948-2.396,1.948-4.143c0-0.823-0.158-3.046-1.92-3.854
		c-0.635-0.303-1.385-0.317-1.991-0.317H2.267V88.793z"/>
	<path class="st1" d="M14.424,89.833c-2.107,0-3.349-1.617-3.335-3.869c0.015-2.584,1.285-3.955,3.335-3.955
		c2.021,0,3.349,1.371,3.349,3.955C17.772,88.172,16.747,89.833,14.424,89.833z M14.452,82.73c-1.645,0-2.439,1.386-2.439,3.233
		c0,2.05,1.025,3.147,2.454,3.147s2.382-1.141,2.382-3.147C16.849,83.914,15.968,82.73,14.452,82.73z"/>
	<path class="st1" d="M24.459,89.659v-1.111h-0.028c-0.404,0.563-0.968,1.285-2.383,1.285c-1.125,0-1.703-0.534-1.948-0.794
		c-0.577-0.606-0.563-1.544-0.563-1.978v-4.879h0.867v4.633c0,0.606,0.028,1.169,0.288,1.544c0.304,0.433,0.837,0.708,1.443,0.708
		c0.809,0,1.675-0.505,2.064-1.342c0.202-0.448,0.26-1.04,0.26-2.31v-3.233h0.866v7.477H24.459z"/>
	<path class="st1" d="M28.489,89.659h-0.866V79.324h0.866v4.071h0.029c0.346-0.462,1.097-1.386,2.8-1.386
		c2.396,0,3.32,2.006,3.32,3.854c0,1.068-0.39,3.97-3.407,3.97c-1.631,0-2.309-0.794-2.713-1.313h-0.029V89.659z M31.218,82.73
		c-0.65,0-1.242,0.216-1.718,0.606c-0.521,0.433-1.011,1.111-1.011,2.699c0,2.136,1.242,3.075,2.67,3.075
		c1.344,0,2.556-1.097,2.556-3.176C33.715,83.727,32.503,82.73,31.218,82.73z"/>
	<path class="st1" d="M37.341,79.324v10.335h-0.865V79.324H37.341z"/>
	<path class="st1" d="M40.128,86.021c0.029,1.805,0.852,3.089,2.512,3.089c1.646,0,2.122-1.343,2.295-1.819l0.866,0.144
		c-0.26,0.722-0.852,2.396-3.204,2.396c-2.151,0-3.393-1.516-3.393-3.912c0-2.353,1.213-3.912,3.406-3.912
		c3.248,0,3.263,3.262,3.277,4.013H40.128z M44.964,85.3c-0.174-1.992-1.314-2.569-2.382-2.569c-0.448,0-2.151,0.116-2.439,2.569
		H44.964z"/>
	<path class="st1" d="M52.171,86.021c0.029,1.805,0.852,3.089,2.512,3.089c1.646,0,2.122-1.343,2.295-1.819l0.866,0.144
		c-0.26,0.722-0.852,2.396-3.204,2.396c-2.151,0-3.393-1.516-3.393-3.912c0-2.353,1.213-3.912,3.406-3.912
		c3.248,0,3.263,3.262,3.277,4.013H52.171z M57.007,85.3c-0.174-1.992-1.314-2.569-2.382-2.569c-0.448,0-2.151,0.116-2.439,2.569
		H57.007z"/>
	<path class="st1" d="M59.997,82.182v-0.794c0-1.025,0.145-1.372,0.404-1.66c0.347-0.39,0.852-0.577,1.415-0.577
		c0.274,0,0.491,0.029,1.097,0.173l-0.158,0.708c-0.434-0.058-0.578-0.072-0.736-0.072c-1.068,0-1.154,0.649-1.154,1.559v0.664
		h1.572v0.649h-1.572v6.828h-0.867v-6.828H58.8v-0.649H59.997z"/>
	<path class="st1" d="M64.012,82.182v-0.794c0-1.025,0.145-1.372,0.404-1.66c0.347-0.39,0.852-0.577,1.415-0.577
		c0.273,0,0.49,0.029,1.097,0.173l-0.159,0.708c-0.433-0.058-0.577-0.072-0.736-0.072c-1.068,0-1.154,0.649-1.154,1.559v0.664h1.573
		v0.649h-1.573v6.828h-0.866v-6.828h-1.198v-0.649H64.012z"/>
	<path class="st1" d="M68.228,86.021c0.029,1.805,0.852,3.089,2.512,3.089c1.646,0,2.123-1.343,2.295-1.819l0.867,0.144
		c-0.26,0.722-0.852,2.396-3.205,2.396c-2.15,0-3.393-1.516-3.393-3.912c0-2.353,1.213-3.912,3.407-3.912
		c3.247,0,3.263,3.262,3.276,4.013H68.228z M73.063,85.3c-0.173-1.992-1.313-2.569-2.381-2.569c-0.448,0-2.151,0.116-2.439,2.569
		H73.063z"/>
	<path class="st1" d="M80.991,84.434c-0.317-1.083-1.184-1.703-2.31-1.703c-0.924,0-2.454,0.578-2.454,3.089
		c0,1.891,0.867,3.292,2.498,3.292c1.703,0,2.208-1.429,2.425-2.007l0.866,0.13c-0.174,0.722-0.723,2.599-3.335,2.599
		c-2.439,0-3.378-1.891-3.378-3.926c0-1.516,0.592-3.897,3.422-3.897c1.313,0,2.568,0.39,3.189,2.281L80.991,84.434z"/>
	<path class="st1" d="M84.892,82.182h1.4v0.649h-1.4v4.908c0,0.924,0.102,1.313,0.838,1.313c0.115,0,0.245-0.014,0.692-0.101
		l0.116,0.708c-0.463,0.086-0.664,0.116-0.924,0.116c-1.617,0-1.588-1.083-1.588-1.92v-5.023h-1.04v-0.649h1.04v-1.92l0.865-0.563
		V82.182z"/>
	<path class="st1" d="M94.696,89.833c-2.107,0-3.35-1.617-3.335-3.869c0.015-2.584,1.284-3.955,3.335-3.955
		c2.021,0,3.348,1.371,3.348,3.955C98.044,88.172,97.02,89.833,94.696,89.833z M94.725,82.73c-1.646,0-2.439,1.386-2.439,3.233
		c0,2.05,1.024,3.147,2.454,3.147c1.429,0,2.381-1.141,2.381-3.147C97.12,83.914,96.24,82.73,94.725,82.73z"/>
	<path class="st1" d="M100.141,82.182v-0.794c0-1.025,0.145-1.372,0.404-1.66c0.347-0.39,0.852-0.577,1.415-0.577
		c0.273,0,0.49,0.029,1.097,0.173l-0.159,0.708c-0.433-0.058-0.577-0.072-0.736-0.072c-1.068,0-1.154,0.649-1.154,1.559v0.664h1.573
		v0.649h-1.573v6.828h-0.866v-6.828h-1.198v-0.649H100.141z"/>
	<path class="st1" d="M108.79,79.324v1.328h-0.866v-1.328H108.79z M108.79,82.182v7.477h-0.866v-7.477H108.79z"/>
	<path class="st1" d="M113.958,89.833c-2.107,0-3.349-1.617-3.334-3.869c0.014-2.584,1.285-3.955,3.334-3.955
		c2.021,0,3.35,1.371,3.35,3.955C117.308,88.172,116.282,89.833,113.958,89.833z M113.987,82.73c-1.646,0-2.439,1.386-2.439,3.233
		c0,2.05,1.025,3.147,2.454,3.147s2.382-1.141,2.382-3.147C116.384,83.914,115.503,82.73,113.987,82.73z"/>
	<path class="st1" d="M120.01,82.182v1.097h0.028c0.404-0.548,0.968-1.27,2.383-1.27c1.125,0,1.731,0.52,1.977,0.794
		c0.549,0.621,0.535,1.53,0.535,1.978v4.879h-0.867v-4.648c0-0.606-0.028-1.155-0.288-1.53c-0.304-0.447-0.837-0.707-1.444-0.707
		c-0.808,0-1.674,0.491-2.063,1.328c-0.217,0.462-0.26,1.04-0.26,2.31v3.248h-0.866v-7.477H120.01z"/>
	<path class="st1" d="M128.053,79.324v1.328h-0.866v-1.328H128.053z M128.053,82.182v7.477h-0.866v-7.477H128.053z"/>
	<path class="st1" d="M135.574,84.434c-0.317-1.083-1.184-1.703-2.31-1.703c-0.924,0-2.453,0.578-2.453,3.089
		c0,1.891,0.865,3.292,2.496,3.292c1.704,0,2.209-1.429,2.426-2.007l0.865,0.13c-0.172,0.722-0.721,2.599-3.334,2.599
		c-2.439,0-3.377-1.891-3.377-3.926c0-1.516,0.592-3.897,3.42-3.897c1.314,0,2.57,0.39,3.19,2.281L135.574,84.434z"/>
	<path class="st1" d="M143.489,82.182h1.4v0.649h-1.4v4.908c0,0.924,0.102,1.313,0.837,1.313c0.116,0,0.245-0.014,0.692-0.101
		l0.116,0.708c-0.462,0.086-0.664,0.116-0.924,0.116c-1.616,0-1.588-1.083-1.588-1.92v-5.023h-1.04v-0.649h1.04v-1.92l0.866-0.563
		V82.182z"/>
	<path class="st1" d="M147.2,82.182v1.501h0.029c0.158-0.548,0.533-1.674,1.717-1.674c0.621,0,1.011,0.245,1.328,0.447l-0.332,0.765
		c-0.477-0.202-0.707-0.289-1.01-0.289c-0.274,0-0.896,0.014-1.328,0.996c-0.13,0.274-0.202,0.779-0.26,1.256
		c-0.043,0.375-0.059,0.866-0.059,1.054v3.421h-0.865v-7.477H147.2z"/>
	<path class="st1" d="M151.706,86.021c0.028,1.805,0.852,3.089,2.512,3.089c1.645,0,2.121-1.343,2.295-1.819l0.865,0.144
		c-0.26,0.722-0.852,2.396-3.204,2.396c-2.151,0-3.392-1.516-3.392-3.912c0-2.353,1.212-3.912,3.406-3.912
		c3.248,0,3.262,3.262,3.276,4.013H151.706z M156.541,85.3c-0.173-1.992-1.313-2.569-2.382-2.569c-0.447,0-2.15,0.116-2.439,2.569
		H156.541z"/>
	<path class="st1" d="M158.97,84.217c0.288-1.559,1.256-2.208,3.219-2.208c2.829,0,2.844,1.415,2.844,3.176
		c0,0.159-0.029,1.79-0.029,2.107c0,1.328,0.13,1.674,0.462,2.367h-0.967c-0.173-0.447-0.217-0.635-0.274-1.14
		c-0.332,0.361-1.213,1.313-3.046,1.313c-1.718,0-2.382-1.083-2.382-2.079c0-0.491,0.13-1.141,0.838-1.674
		c0.273-0.217,0.62-0.448,2.28-0.679c0.751-0.101,1.544-0.202,2.237-0.447v-0.26c0-0.924,0-2.007-1.963-2.007
		c-1.949,0-2.194,1.112-2.324,1.66L158.97,84.217z M164.151,85.632c-0.621,0.231-1.66,0.433-2.382,0.563
		c-0.981,0.173-2.05,0.361-2.05,1.487c0,0.852,0.779,1.429,1.631,1.429c0.607,0,1.4-0.274,2.021-0.78
		c0.534-0.433,0.779-1.025,0.779-2.208V85.632z"/>
	<path class="st1" d="M168.37,82.182h1.399v0.649h-1.399v4.908c0,0.924,0.101,1.313,0.836,1.313c0.116,0,0.246-0.014,0.693-0.101
		l0.115,0.708c-0.461,0.086-0.664,0.116-0.924,0.116c-1.616,0-1.588-1.083-1.588-1.92v-5.023h-1.039v-0.649h1.039v-1.92l0.867-0.563
		V82.182z"/>
	<path class="st1" d="M172.182,82.182v1.068h0.028c0.275-0.418,0.896-1.241,2.252-1.241c1.43,0,1.819,0.866,1.992,1.241
		c0.39-0.491,1.011-1.241,2.338-1.241c0.823,0,1.387,0.346,1.689,0.678c0.26,0.274,0.563,0.823,0.563,1.876v5.096h-0.865v-4.648
		c0-0.924-0.029-2.252-1.574-2.252c-1.761,0-1.992,1.747-1.992,3.219v3.681h-0.865v-4.735c0-0.779,0.029-2.136-1.458-2.136
		c-1.516,0-2.107,1.4-2.107,2.887v3.984h-0.866v-7.477H172.182z"/>
	<path class="st1" d="M183.806,86.021c0.029,1.805,0.852,3.089,2.512,3.089c1.646,0,2.122-1.343,2.295-1.819l0.866,0.144
		c-0.26,0.722-0.852,2.396-3.204,2.396c-2.151,0-3.393-1.516-3.393-3.912c0-2.353,1.213-3.912,3.406-3.912
		c3.248,0,3.263,3.262,3.277,4.013H183.806z M188.642,85.3c-0.174-1.992-1.314-2.569-2.382-2.569c-0.448,0-2.151,0.116-2.439,2.569
		H188.642z"/>
	<path class="st1" d="M192.239,82.182v1.097h0.028c0.404-0.548,0.968-1.27,2.382-1.27c1.126,0,1.732,0.52,1.978,0.794
		c0.548,0.621,0.534,1.53,0.534,1.978v4.879h-0.866v-4.648c0-0.606-0.028-1.155-0.288-1.53c-0.304-0.447-0.838-0.707-1.444-0.707
		c-0.808,0-1.675,0.491-2.063,1.328c-0.217,0.462-0.26,1.04-0.26,2.31v3.248h-0.867v-7.477H192.239z"/>
	<path class="st1" d="M200.47,82.182h1.4v0.649h-1.4v4.908c0,0.924,0.102,1.313,0.837,1.313c0.116,0,0.245-0.014,0.692-0.101
		l0.116,0.708c-0.462,0.086-0.664,0.116-0.924,0.116c-1.616,0-1.588-1.083-1.588-1.92v-5.023h-1.04v-0.649h1.04v-1.92l0.866-0.563
		V82.182z"/>
</g>
<g>
	<rect x="0" y="0" class="st0" width="198.218" height="49.493"/>
	<path class="st1" d="M0.784,16.835c1.076-2.261,2.061-4.613,2.863-7.02l0.547,0.31C3.3,12.97,2.479,14.939,1.349,17.273
		L0.784,16.835z M3.354,7.864c-0.802-0.82-1.677-1.513-2.498-2.243l0.492-0.438l2.499,2.17L3.354,7.864z M4.485,3.178L4.048,3.707
		L1.696,1.574l0.455-0.438L4.485,3.178z M5.962,16.216c0.402,0.109,1.004,0.109,1.459,0.055c0.584-0.019,0.693-0.583,0.803-0.985
		c0.401-1.513,0.475-3.082,0.547-4.759l0.092-1.878L6.619,8.63c-0.055,2.297-0.492,4.577-1.604,6.509
		c-0.42,0.748-0.875,1.477-1.35,2.188c-0.201-0.146-0.42-0.274-0.602-0.456c1.55-2.17,2.844-4.832,2.844-7.622V5.129h-1.75V4.473
		h6.164v0.638H6.655L6.638,7.974l2.953,0.019c-0.018,2.206-0.036,4.212-0.419,6.364c-0.164,0.966-0.273,2.389-1.459,2.553
		C7.147,17,6.819,17,6.291,16.945L5.962,16.216z M6.108,1.026C6.255,0.936,6.51,0.844,6.71,0.753l1.441,3.063L7.494,4.053
		L6.108,1.026z M12.417,0.954c-0.036,0.857-0.273,1.732-0.51,2.571h5.051v0.675h-5.252c-0.291,0.766-0.547,1.477-0.893,2.243
		l-0.676-0.273c0.055-0.219,0.184-0.419,0.273-0.638c0.621-1.513,1.168-3.045,1.313-4.723L12.417,0.954z M13.165,9.159l1.824-2.207
		h-3.738V6.296l4.613,0.018v0.675c-0.639,0.784-1.277,1.55-1.97,2.352v1.696h2.79v0.638l-2.809,0.018l0.019,4.851
		c0,0.419-0.2,0.656-0.547,0.784c-0.493,0.255-1.021,0.146-1.678,0.127l-0.328-0.675c0.474,0,0.984,0.109,1.386,0.019
		c0.273-0.037,0.42-0.255,0.42-0.547v-4.577l-2.881,0.018l0.018-0.656h2.863L13.165,9.159z"/>
	<path class="st1" d="M21.522,14.885l-0.292-0.693c0.657-0.036,1.313-0.127,1.933-0.273v-2.334h-2.297v6.108h-0.711v-6.09
		l-1.004-0.019V10.91l1.004-0.019V9.706h0.729v1.185h2.298V9.195l-2.534,0.019V4.382h0.711v4.139h4.704
		c0.019-1.55,0.019-2.681,0-4.158h0.712v4.832h-2.881v1.696h3.391l-0.018,5.507c0,0.492-0.365,0.839-0.766,0.894
		c-0.584,0.146-1.186,0.109-1.896,0.091l-0.256-0.766c0.475,0.091,1.367,0.091,1.586,0.055c0.402,0,0.602-0.255,0.639-0.51
		l0.018-4.595c-0.875-0.018-1.786,0-2.68,0v2.225c0.383-0.018,0.766-0.109,1.148-0.219l-0.474-1.149l0.638-0.182
		c0.383,0.93,0.729,1.823,0.912,2.826c-0.183,0.073-0.401,0.182-0.62,0.237l-0.292-1.094L21.522,14.885z M27.978,2.996V3.67
		l-8.807-0.018V2.978l4.594,0.018c-0.51-0.565-1.002-1.003-1.622-1.404l0.438-0.474c0.547,0.383,1.294,0.912,1.751,1.404
		l-0.402,0.456L27.978,2.996z M25.242,7.956c-0.364-0.438-0.839-0.894-1.276-1.276c-0.62,0.474-1.222,1.039-1.878,1.422
		l-0.419-0.511c0.583-0.401,1.203-0.839,1.731-1.331c-0.456-0.438-0.948-0.711-1.513-1.076l0.383-0.547
		c0.564,0.31,1.075,0.693,1.604,1.094c0.348-0.347,0.857-0.802,1.168-1.185l0.455,0.456c-0.291,0.401-0.729,0.784-1.094,1.186
		c0.475,0.456,0.803,0.766,1.24,1.24L25.242,7.956z M28.798,17.748l0.018-11.105c-0.236,0.748-0.729,1.586-1.148,2.297l-0.583-0.401
		c1.403-2.297,2.206-4.869,2.826-7.476l0.62,0.219c-0.219,1.076-0.529,2.061-0.839,3.082h5.562l-0.019,0.675h-2.607v2.826h2.353
		v0.675h-2.353l0.019,2.936l2.334-0.018v0.675h-2.353l0.019,3.392l2.881-0.019l-0.018,0.693h-5.981v1.514L28.798,17.748z
		 M31.935,5.129h-2.389v2.844h2.389V5.129z M31.916,11.584l0.019-2.917h-2.389v2.917H31.916z M29.563,12.259l-0.018,3.374h2.389
		l-0.019-3.374H29.563z M32.499,4.035c-0.291-0.766-0.729-1.514-1.221-2.225l0.583-0.346c0.492,0.711,0.948,1.477,1.294,2.279
		L32.499,4.035z"/>
	<path class="st1" d="M40.31,2.267h10.667l-0.019,0.693L46.272,6.46v2.225l7.402,0.018v0.693l-7.402,0.018v7.002
		c0,0.383-0.273,0.748-0.693,0.803c-0.547,0.182-1.367,0.091-2.297,0.073l-0.347-0.766c0.711,0.019,1.239,0.073,2.024,0.055
		c0.328-0.019,0.528-0.292,0.528-0.511V9.414h-7.896l-0.018-0.729l7.913,0.018V6.059c1.478-0.93,2.881-1.987,4.267-3.045
		L40.31,2.978V2.267z"/>
	<path class="st1" d="M71.751,17.62c-2.389-0.474-4.74-1.058-6.947-1.969c-2.516,1.076-5.032,1.678-7.713,2.024L56.8,16.945
		c2.644-0.328,5.123-0.838,7.33-1.75c-1.168-0.51-2.207-1.349-3.118-2.279c-1.478,1.422-3.337,2.462-5.069,3.118l-0.438-0.583
		c2.115-0.82,4.121-1.969,5.762-3.756h-5.379v-0.656h5.799c0.4-0.456,0.656-0.912,0.856-1.404l0.583,0.328
		c-0.164,0.292-0.363,0.674-0.638,1.076h9.354v0.656h-9.756l-0.619,0.766c0.93,1.039,1.969,1.75,3.264,2.37
		c1.167-0.602,2.279-1.513,3.082-2.553l0.564,0.365c-0.783,1.04-1.842,2.006-2.953,2.571c1.969,0.82,4.43,1.422,6.654,1.769
		L71.751,17.62z M59.644,7.171c-0.547,0.62-1.313,1.295-2.061,1.805c1.623-0.146,3.319-0.31,4.96-0.456
		c-0.347-0.292-0.784-0.529-1.203-0.766l0.383-0.401c0.894,0.51,1.823,1.167,2.626,2.005l-0.456,0.438L63.126,9.05
		c-2.188,0.164-4.011,0.328-6.29,0.565L56.653,9.05c0.766-0.511,1.623-1.24,2.243-1.878h-3.265L55.614,6.57h2.023V1.92h6.4v0.638
		h-5.652v0.839h4.905v0.638h-4.905v0.894h4.869v0.62h-4.869v1.002h6.09v0.62H59.644z M64.913,4.199l-0.4-0.565
		c1.896-0.656,3.756-1.422,5.471-2.534l0.51,0.438C68.761,2.686,66.864,3.543,64.913,4.199z M65.114,9.56l-0.347-0.565
		c2.151-0.656,4.449-1.732,6.528-3.063l0.455,0.492C69.929,7.682,67.376,8.867,65.114,9.56z M65.552,6.588l-0.438-0.565
		c1.859-0.674,3.665-1.44,5.361-2.479l0.364,0.474C69.181,5.093,67.376,5.877,65.552,6.588z M68.269,10.91
		c-0.492-0.493-1.039-0.93-1.659-1.276l0.456-0.456c0.602,0.365,1.222,0.82,1.695,1.24L68.269,10.91z"/>
	<path class="st1" d="M75.806,11.712c-0.092,1.112-0.201,2.261-0.438,3.355c-0.183,0.857-0.475,1.714-0.857,2.516l-0.675-0.456
		c0.784-1.459,1.076-3.082,1.204-4.705c0.091-1.003,0.109-2.225,0.109-3.228V1.938h3.957v14.333c0,0.62-0.42,1.203-1.04,1.203
		h-1.604l-0.273-0.748l1.659,0.037c0.219-0.018,0.547-0.127,0.547-0.511V9.743c-0.62,0.784-1.367,1.641-2.024,2.443L75.806,11.712z
		 M75.86,2.595v3.136l0.346-0.31c0.529,0.383,1.86,1.495,2.152,1.933l-0.475,0.547c-0.602-0.711-1.275-1.313-2.023-1.878
		c0,0.693,0.018,4.632-0.037,5.616c0.748-0.638,1.751-1.969,2.571-2.954v-6.09H75.86z M79.216,17.091
		c1.822-0.912,3.592-2.389,4.613-4.249h-4.413v-0.656h4.687c0.182-0.493,0.273-1.021,0.346-1.55h-3.574V5.33h7.896v5.306h-3.611
		c-0.036,0.547-0.182,1.058-0.31,1.55h5.324v0.656h-4.649c0.675,1.678,3.137,3.61,4.668,4.285l-0.42,0.565
		c-1.969-0.966-4.066-2.753-5.051-4.85h-0.127c-0.984,2.079-2.881,3.756-4.924,4.795L79.216,17.091z M82.862,2.759h1.604v0.656
		h-1.604v1.586h-0.711V3.415h-2.717V2.759h2.717V0.954h0.711V2.759z M88.06,5.986h-6.474v1.586h6.474V5.986z M88.06,8.229h-6.474
		v1.75h6.474V8.229z M84.904,2.759h1.787V0.936h0.711v1.823h2.534v0.656h-2.534v1.55h-0.711v-1.55h-1.787V2.759z"/>
	<path class="st1" d="M92.04,4.619V3.98h5.908v0.62L92.04,4.619z M92.934,6.807l-0.019-0.638h4.248v0.638H92.934z M92.934,9.013
		v-0.62h4.229v0.62H92.934z M96.343,16.581v-0.985l-2.516-0.018l-0.019,1.531l-0.711,0.019v-6.309h3.938l0.018,5.762H96.343z
		 M96.343,11.475h-2.516v3.52h2.516V11.475z M95.377,3.78l-0.091-0.018c-0.328-0.875-0.73-1.75-1.24-2.571
		c0.182-0.109,0.383-0.255,0.602-0.31c0.492,0.838,0.93,1.714,1.313,2.589L95.377,3.78z M108.104,17.547
		c-1.66-0.511-3.282-1.094-4.851-1.842c-1.769,0.857-3.665,1.44-5.598,1.915l-0.347-0.656c1.787-0.419,3.537-0.912,5.179-1.678
		c-1.003-0.602-1.987-1.276-2.771-2.151h-1.222v-0.602h8.406v0.474c-0.931,0.857-1.896,1.641-2.9,2.261
		c1.441,0.693,2.955,1.203,4.486,1.659C108.378,17.146,108.25,17.346,108.104,17.547z M99.717,11.384v0.62h-0.712V7.117
		c-0.236,0.456-0.638,0.857-1.002,1.295c-0.201-0.091-0.347-0.255-0.511-0.401c1.13-1.222,1.97-2.607,2.717-4.048l0.511,0.292
		c-0.183,0.438-0.401,0.875-0.62,1.276h3.592c-0.383-0.51-0.784-0.93-1.239-1.331l0.528-0.401c0.583,0.528,1.13,1.148,1.587,1.75
		h3.445v0.62h-4.23v1.076l3.647,0.018v0.62h-3.665v1.094l3.646,0.018v0.62h-3.665v1.131l4.704,0.018v0.62H99.717z M101.503,4.819
		l-0.018-1.422h-3.337V2.795h3.337l0.018-1.878l0.712-0.018l0.019,3.92H101.503z M103.035,6.223h-3.318v1.058h3.318V6.223z
		 M103.035,7.919h-3.318v1.094h3.318V7.919z M103.035,9.633l-3.318,0.018v1.13l3.318-0.018V9.633z M100.61,13.134
		c0.82,0.674,1.678,1.331,2.644,1.732c0.931-0.419,1.696-1.167,2.607-1.696L100.61,13.134z M104.822,3.36v1.44h-0.692v-3.92h0.711
		v1.86h3.537v0.62H104.822z"/>
	<path class="st1" d="M110.353,15.194c0.912-0.346,1.787-0.82,2.682-1.222v-5.27h-2.061V8.047h2.041V3.598h-2.205V2.941h5.324v0.638
		h-2.389v4.486h2.115v0.638h-2.115v4.923l2.389-1.149v0.711l-5.289,2.607L110.353,15.194z M115.915,17.219v-0.657h4.759v-3.501
		h-4.066v-0.656h4.066V9.833h-3.647V2.376h8.133v7.458h-3.774v2.571h4.304v0.656h-4.304v3.501h5.015v0.657H115.915z M117.757,3.032
		v2.644h2.917V3.032H117.757z M117.757,6.314v2.863h2.917V6.314H117.757z M121.385,3.032v2.644h3.046V3.032H121.385z M124.431,6.314
		h-3.046v2.863h3.046V6.314z"/>
	<path class="st1" d="M133.681,14.301c-0.656-1.186-1.112-1.75-1.769-2.681c-0.456,2.079-1.495,3.866-2.571,5.616
		c-0.219-0.055-0.42-0.273-0.639-0.383c1.259-1.951,2.408-3.848,2.607-6.273l0.092-1.148l0.018-8.333h0.639v5.707
		c0.475-0.438,1.404-1.532,1.97-2.261c0.2,0.109,0.364,0.255,0.547,0.401c-0.747,0.985-1.623,1.896-2.517,2.681
		c0,1.148,0.037,1.987-0.072,3.082c0.93,1.294,1.586,1.86,2.261,3.209L133.681,14.301z M128.702,9.068
		c0.566-1.204,1.021-2.425,1.295-3.756c0.219,0.055,0.401,0.127,0.62,0.201c-0.255,1.349-0.747,2.535-1.239,3.792L128.702,9.068z
		 M132.86,17.164c1.24-2.261,2.188-4.613,2.188-7.293V2.048h8.352v3.975h-7.641v1.933h8.479l-0.036,4.048l-0.146,2.936
		c-0.036,0.912,0.055,2.224-1.148,2.516c-0.839,0.018-1.714-0.037-2.535-0.109l-0.055-0.711l2.098,0.182
		c0.328,0.037,0.656-0.219,0.784-0.511c0.146-0.912,0.255-1.969,0.273-2.899l0.073-3.045V8.594h-7.768
		c0.072,2.225-0.164,4.395-0.967,6.291c-0.383,0.893-0.784,1.805-1.258,2.662L132.86,17.164z M142.671,2.704h-6.912v2.644h6.912
		V2.704z M137.4,15.65v-5.343h3.938v4.941h-0.729v-0.82h-2.498v1.222H137.4z M140.628,10.982h-2.516v2.808h2.516V10.982z"/>
	<path class="st1" d="M147.308,5.257c0.93,0.748,1.914,1.514,2.754,2.334l-0.475,0.529c-0.839-0.802-1.823-1.641-2.734-2.334
		L147.308,5.257z M147.017,16.981c1.439-2.225,2.498-4.631,3.391-7.093l0.602,0.474c-0.947,2.425-1.969,4.923-3.445,7.111
		L147.017,16.981z M150.626,4.437c-0.838-0.839-1.787-1.732-2.717-2.499l0.456-0.51c0.656,0.51,1.294,1.058,1.878,1.641l0.839,0.857
		L150.626,4.437z M161.786,5.348v12.016h-0.785v-1.586l-8.168-0.018l0.018,1.604h-0.783V5.366h4.449V0.881l0.766,0.018v4.449
		H161.786z M156.517,6.041h-3.684v3.957h3.684V6.041z M156.517,10.672h-3.338l-0.346,0.018v4.413h3.684V10.672z M161.001,6.041
		H157.3v3.957h3.701V6.041z M161.001,10.672H157.3v4.431h3.701V10.672z"/>
	<path class="st1" d="M7.111,25.121c1.075,0,2.006,0.237,2.644,0.711c0.82,0.62,1.295,1.678,1.295,2.772
		c0,1.915-1.186,3.227-3.793,3.464v0.037c0.984,0.474,1.459,0.784,2.407,2.243l2.479,3.829h-1.586l-1.914-3.009
		c-1.715-2.68-2.407-2.99-3.902-2.99H2.845v5.999h-1.24V25.121H7.111z M2.845,26.214v4.869h3.446c0.784,0,3.482,0.019,3.482-2.461
		c0-2.297-2.315-2.407-3.428-2.407H2.845z"/>
	<path class="st1" d="M14.208,33.581c0.037,2.279,1.076,3.902,3.173,3.902c2.079,0,2.681-1.696,2.899-2.297l1.094,0.182
		c-0.328,0.912-1.076,3.027-4.048,3.027c-2.717,0-4.285-1.915-4.285-4.941c0-2.972,1.532-4.941,4.304-4.941
		c4.103,0,4.121,4.121,4.139,5.069H14.208z M20.317,32.669c-0.219-2.516-1.66-3.246-3.01-3.246c-0.564,0-2.717,0.146-3.081,3.246
		H20.317z"/>
	<path class="st1" d="M29.054,31.174c-0.255-0.839-0.547-1.75-2.406-1.75c-1.386,0-2.207,0.565-2.207,1.532
		c0,0.875,0.475,1.349,2.809,1.842c1.914,0.401,3.282,1.039,3.282,2.698c0,1.532-1.13,2.899-3.683,2.899
		c-2.608,0-3.502-1.24-3.866-2.771l1.13-0.201c0.146,0.529,0.547,2.061,2.771,2.061c1.605,0,2.48-0.839,2.48-1.823
		c0-0.93-0.693-1.404-2.771-1.842c-2.006-0.419-3.318-1.094-3.318-2.662c0-0.93,0.638-2.644,3.354-2.644
		c1.86,0,3.009,0.547,3.501,2.498L29.054,31.174z"/>
	<path class="st1" d="M39.013,38.176v-1.404h-0.036c-0.511,0.711-1.222,1.623-3.009,1.623c-1.422,0-2.151-0.675-2.461-1.003
		c-0.73-0.766-0.711-1.951-0.711-2.498v-6.163h1.094v5.853c0,0.766,0.036,1.477,0.364,1.951c0.383,0.547,1.058,0.894,1.823,0.894
		c1.021,0,2.115-0.638,2.607-1.696c0.256-0.565,0.328-1.313,0.328-2.917v-4.084h1.095v9.445H39.013z"/>
	<path class="st1" d="M43.995,28.731v1.896h0.035c0.201-0.693,0.676-2.115,2.17-2.115c0.785,0,1.277,0.31,1.678,0.565l-0.419,0.967
		c-0.602-0.255-0.894-0.365-1.276-0.365c-0.347,0-1.131,0.018-1.678,1.258c-0.164,0.346-0.255,0.984-0.328,1.586
		c-0.055,0.474-0.072,1.094-0.072,1.332v4.321H43.01v-9.445H43.995z"/>
	<path class="st1" d="M50.068,28.731v1.896h0.036c0.201-0.693,0.675-2.115,2.17-2.115c0.784,0,1.276,0.31,1.678,0.565l-0.42,0.967
		c-0.602-0.255-0.893-0.365-1.275-0.365c-0.348,0-1.131,0.018-1.678,1.258c-0.164,0.346-0.256,0.984-0.328,1.586
		c-0.055,0.474-0.073,1.094-0.073,1.332v4.321h-1.095v-9.445H50.068z"/>
	<path class="st1" d="M55.759,33.581c0.037,2.279,1.076,3.902,3.173,3.902c2.079,0,2.681-1.696,2.899-2.297l1.094,0.182
		c-0.328,0.912-1.076,3.027-4.048,3.027c-2.717,0-4.285-1.915-4.285-4.941c0-2.972,1.532-4.941,4.304-4.941
		c4.103,0,4.121,4.121,4.139,5.069H55.759z M61.868,32.669c-0.219-2.516-1.66-3.246-3.01-3.246c-0.564,0-2.717,0.146-3.081,3.246
		H61.868z"/>
	<path class="st1" d="M71.882,31.576c-0.401-1.368-1.496-2.152-2.918-2.152c-1.167,0-3.1,0.729-3.1,3.902
		c0,2.389,1.094,4.157,3.154,4.157c2.152,0,2.79-1.805,3.063-2.535l1.095,0.164c-0.219,0.912-0.912,3.282-4.213,3.282
		c-3.082,0-4.267-2.389-4.267-4.959c0-1.915,0.747-4.923,4.321-4.923c1.66,0,3.246,0.492,4.029,2.881L71.882,31.576z"/>
	<path class="st1" d="M76.808,28.731h1.77v0.82h-1.77v6.2c0,1.167,0.128,1.66,1.059,1.66c0.146,0,0.31-0.019,0.875-0.128
		l0.146,0.894c-0.583,0.109-0.839,0.146-1.167,0.146c-2.042,0-2.006-1.368-2.006-2.425v-6.346h-1.313v-0.82h1.313v-2.425
		l1.094-0.711V28.731z"/>
	<path class="st1" d="M80.146,31.302c0.364-1.969,1.587-2.79,4.066-2.79c3.573,0,3.593,1.787,3.593,4.011
		c0,0.201-0.037,2.261-0.037,2.663c0,1.677,0.164,2.115,0.584,2.99H87.13c-0.219-0.565-0.273-0.802-0.346-1.44
		c-0.42,0.456-1.531,1.659-3.848,1.659c-2.17,0-3.009-1.368-3.009-2.625c0-0.62,0.164-1.441,1.058-2.115
		c0.347-0.273,0.784-0.565,2.881-0.857c0.948-0.128,1.951-0.255,2.826-0.565v-0.328c0-1.167,0-2.535-2.479-2.535
		c-2.462,0-2.771,1.404-2.936,2.097L80.146,31.302z M86.692,33.089c-0.783,0.292-2.097,0.547-3.008,0.711
		c-1.24,0.219-2.59,0.456-2.59,1.878c0,1.076,0.984,1.805,2.061,1.805c0.766,0,1.769-0.347,2.553-0.985
		c0.675-0.547,0.984-1.294,0.984-2.79V33.089z"/>
	<path class="st1" d="M91.765,28.731v1.386h0.037c0.51-0.693,1.222-1.604,3.009-1.604c1.422,0,2.188,0.656,2.498,1.003
		c0.692,0.784,0.675,1.933,0.675,2.498v6.163H96.89v-5.872c0-0.766-0.037-1.458-0.365-1.933c-0.383-0.565-1.058-0.894-1.824-0.894
		c-1.021,0-2.114,0.62-2.607,1.678c-0.273,0.583-0.328,1.313-0.328,2.917v4.103h-1.094v-9.445H91.765z"/>
	<path class="st1" d="M102.162,28.731h1.769v0.82h-1.769v6.2c0,1.167,0.128,1.66,1.058,1.66c0.146,0,0.311-0.019,0.875-0.128
		l0.146,0.894c-0.584,0.109-0.84,0.146-1.168,0.146c-2.041,0-2.006-1.368-2.006-2.425v-6.346h-1.313v-0.82h1.313v-2.425l1.095-0.711
		V28.731z"/>
	<path class="st1" d="M119.835,30.755v-5.634h1.239v13.056h-1.239v-6.327h-7.514v6.327h-1.239V25.121h1.239v5.634H119.835z"/>
	<path class="st1" d="M123.74,31.302c0.364-1.969,1.587-2.79,4.066-2.79c3.573,0,3.593,1.787,3.593,4.011
		c0,0.201-0.037,2.261-0.037,2.663c0,1.677,0.164,2.115,0.584,2.99h-1.223c-0.219-0.565-0.273-0.802-0.346-1.44
		c-0.42,0.456-1.531,1.659-3.848,1.659c-2.17,0-3.009-1.368-3.009-2.625c0-0.62,0.164-1.441,1.058-2.115
		c0.347-0.273,0.784-0.565,2.881-0.857c0.948-0.128,1.951-0.255,2.826-0.565v-0.328c0-1.167,0-2.535-2.479-2.535
		c-2.462,0-2.771,1.404-2.936,2.097L123.74,31.302z M130.286,33.089c-0.783,0.292-2.097,0.547-3.008,0.711
		c-1.24,0.219-2.59,0.456-2.59,1.878c0,1.076,0.984,1.805,2.061,1.805c0.766,0,1.769-0.347,2.553-0.985
		c0.675-0.547,0.984-1.294,0.984-2.79V33.089z"/>
	<path class="st1" d="M135.377,25.121v1.678h-1.094v-1.678H135.377z M135.377,28.731v9.445h-1.094v-9.445H135.377z"/>
	<path class="st1" d="M139.28,28.731v1.896h0.036c0.2-0.693,0.675-2.115,2.17-2.115c0.784,0,1.276,0.31,1.678,0.565l-0.419,0.967
		c-0.602-0.255-0.895-0.365-1.277-0.365c-0.346,0-1.13,0.018-1.678,1.258c-0.164,0.346-0.254,0.984-0.328,1.586
		c-0.055,0.474-0.072,1.094-0.072,1.332v4.321h-1.094v-9.445H139.28z"/>
	<path class="st1" d="M151.464,25.121l4.104,11.305l4.156-11.305h1.842v13.056h-1.131V26.379h-0.055l-4.303,11.797h-1.039
		l-4.23-11.797h-0.055v11.797h-1.131V25.121H151.464z"/>
	<path class="st1" d="M164.269,31.302c0.365-1.969,1.587-2.79,4.066-2.79c3.574,0,3.593,1.787,3.593,4.011
		c0,0.201-0.036,2.261-0.036,2.663c0,1.677,0.164,2.115,0.583,2.99h-1.222c-0.219-0.565-0.273-0.802-0.347-1.44
		c-0.419,0.456-1.531,1.659-3.847,1.659c-2.17,0-3.01-1.368-3.01-2.625c0-0.62,0.164-1.441,1.059-2.115
		c0.346-0.273,0.783-0.565,2.881-0.857c0.947-0.128,1.951-0.255,2.826-0.565v-0.328c0-1.167,0-2.535-2.48-2.535
		c-2.461,0-2.771,1.404-2.936,2.097L164.269,31.302z M170.815,33.089c-0.784,0.292-2.098,0.547-3.009,0.711
		c-1.239,0.219-2.589,0.456-2.589,1.878c0,1.076,0.984,1.805,2.061,1.805c0.766,0,1.768-0.347,2.553-0.985
		c0.674-0.547,0.984-1.294,0.984-2.79V33.089z"/>
	<path class="st1" d="M180.081,31.174c-0.255-0.839-0.547-1.75-2.406-1.75c-1.386,0-2.207,0.565-2.207,1.532
		c0,0.875,0.475,1.349,2.809,1.842c1.914,0.401,3.282,1.039,3.282,2.698c0,1.532-1.13,2.899-3.683,2.899
		c-2.608,0-3.502-1.24-3.866-2.771l1.13-0.201c0.146,0.529,0.547,2.061,2.771,2.061c1.605,0,2.48-0.839,2.48-1.823
		c0-0.93-0.693-1.404-2.771-1.842c-2.006-0.419-3.318-1.094-3.318-2.662c0-0.93,0.638-2.644,3.354-2.644
		c1.86,0,3.009,0.547,3.501,2.498L180.081,31.174z"/>
	<path class="st1" d="M185.008,25.121v7.986l4.632-4.376h1.55l-3.938,3.519l4.23,5.926h-1.441l-3.592-5.179l-1.44,1.276v3.902
		h-1.094V25.121H185.008z"/>
</g>
</svg>