<!-- Generator: Adobe Illustrator 19.2.0, SVG Export Plug-In  -->
<svg version="1.1"
	 xmlns="http://www.w3.org/2000/svg" xmlns:xlink="http://www.w3.org/1999/xlink" xmlns:a="http://ns.adobe.com/AdobeSVGViewerExtensions/3.0/"
	 x="0px" y="0px" width="304.917px" height="115.774px" viewBox="0 0 304.917 115.774"
	 style="enable-background:new 0 0 304.917 115.774;" xml:space="preserve">
<style type="text/css">
	.st0{fill:none;}
	.st1{fill:#3E3A39;}
</style>
<defs>
</defs>
<g>
	<rect y="59.764" class="st0" width="304.917" height="56.009"/>
	<path class="st1" d="M0.664,73.179c0.896-1.833,1.718-3.724,2.281-5.644l0.447,0.318c-0.779,2.454-1.43,3.912-2.281,5.615
		L0.664,73.179z M2.686,66.164c-0.592-0.621-1.343-1.227-2.007-1.775l0.39-0.347c0.635,0.52,1.343,1.097,1.949,1.704L2.686,66.164z
		 M3.148,62.887c-0.549-0.548-1.198-1.27-1.834-1.775l0.419-0.317c0.621,0.548,1.256,1.184,1.833,1.732L3.148,62.887z M3.493,68.372
		c2.483-1.025,3.941-1.747,5.023-2.497l0.434,0.303l-0.304,0.246c1.43,0.938,3.075,1.544,4.721,2.035
		c-0.072,0.159-0.231,0.303-0.347,0.462c-1.675-0.577-3.32-1.212-4.792-2.237c-1.4,0.852-2.873,1.544-4.403,2.079L3.493,68.372z
		 M7.348,64.908c-0.087-0.217-0.245-0.433-0.375-0.635c0.144-0.086,0.288-0.188,0.433-0.26c0.347,0.491,0.635,1.04,0.938,1.53
		l-0.447,0.332l-0.289-0.52l-2.685,0.477l-0.866,0.188l-0.188-0.476c0.577-0.679,1.342-1.588,1.775-2.382l0.49,0.216
		c-0.303,0.505-1.01,1.473-1.386,1.963L7.348,64.908z M8.993,68.141c-1.429,0.938-2.974,1.631-4.604,2.165l-0.317-0.39
		c1.573-0.534,3.104-1.14,4.46-2.064L8.993,68.141z M4.273,73.28c2.801-0.606,5.399-1.761,7.68-3.479l0.462,0.274
		c-1.876,1.487-3.897,2.786-7.766,3.667L4.273,73.28z M4.721,71.389c2.107-0.751,4.432-1.79,5.528-2.555l0.447,0.274
		c-1.198,0.895-3.002,1.79-5.688,2.685L4.721,71.389z M10.48,61.14c0.708,0.592,1.444,1.328,2.122,1.949l-0.433,0.375
		c-0.317-0.26-0.534-0.534-0.852-0.823L6.049,62.93l-0.78,0.086l-0.202-0.563c0.953-0.649,1.964-1.342,2.873-2.136l0.404,0.317
		c-0.722,0.65-1.501,1.227-2.281,1.761l4.721-0.202c-0.174-0.245-0.447-0.447-0.679-0.649L10.48,61.14z M12.776,66.293
		c-0.159-0.361-0.318-0.649-0.52-0.981c-1.098,0.159-2.209,0.303-3.292,0.534l-0.245-0.462c0.577-0.765,1.184-1.588,1.603-2.469
		l0.447,0.289c-0.39,0.649-0.837,1.4-1.313,2.006c0.837-0.087,1.675-0.246,2.526-0.347c-0.116-0.289-0.304-0.505-0.477-0.779
		l0.447-0.303c0.491,0.708,0.924,1.443,1.313,2.18L12.776,66.293z"/>
	<path class="st1" d="M27.836,73.251c-3.161-2.411-4.923-4.835-6.005-8.112c-1.732,4.345-3.35,5.673-6.077,8.17l-0.447-0.404
		c2.915-2.411,5.297-5.052,6.322-9.325c-0.044-0.548-0.044-1.111-0.072-1.689h-2.801v-0.548h3.421c0,1.978,0.059,3.883,0.938,5.514
		c1.775,3.277,2.844,4.1,5.168,5.976L27.836,73.251z"/>
	<path class="st1" d="M42.363,73.713c-1.891-0.375-3.753-0.837-5.5-1.559c-1.992,0.852-3.983,1.328-6.105,1.603l-0.231-0.578
		c2.094-0.26,4.057-0.664,5.803-1.386c-0.924-0.404-1.746-1.068-2.468-1.804c-1.17,1.126-2.642,1.949-4.013,2.468l-0.347-0.462
		c1.674-0.649,3.262-1.559,4.562-2.974h-4.259v-0.52h4.591c0.317-0.361,0.52-0.722,0.678-1.111l0.462,0.26
		c-0.13,0.231-0.288,0.534-0.505,0.852h7.405v0.52h-7.723l-0.491,0.606c0.736,0.823,1.56,1.386,2.584,1.876
		c0.924-0.477,1.805-1.198,2.439-2.021l0.447,0.289c-0.62,0.823-1.458,1.588-2.338,2.036c1.559,0.649,3.508,1.126,5.269,1.4
		L42.363,73.713z M32.778,65.442c-0.433,0.491-1.039,1.025-1.631,1.429c1.284-0.115,2.627-0.245,3.926-0.361
		c-0.273-0.231-0.62-0.418-0.952-0.606l0.303-0.318c0.708,0.404,1.443,0.924,2.079,1.588l-0.361,0.347l-0.606-0.592
		c-1.731,0.13-3.175,0.26-4.979,0.447l-0.145-0.447c0.606-0.404,1.285-0.982,1.775-1.487h-2.584l-0.014-0.477h1.602v-3.681h5.066
		v0.505h-4.475v0.664h3.883v0.505h-3.883v0.708h3.854v0.491h-3.854v0.794h4.821v0.491H32.778z M36.949,63.089l-0.317-0.447
		c1.501-0.52,2.974-1.126,4.33-2.007l0.404,0.347C39.995,61.891,38.494,62.569,36.949,63.089z M37.109,67.333l-0.274-0.447
		c1.703-0.52,3.521-1.371,5.167-2.425l0.361,0.39C40.919,65.846,38.898,66.784,37.109,67.333z M37.454,64.98l-0.346-0.448
		c1.472-0.534,2.901-1.14,4.243-1.963l0.289,0.375C40.327,63.796,38.898,64.417,37.454,64.98z M39.606,68.401
		c-0.39-0.39-0.823-0.736-1.313-1.01l0.36-0.361c0.477,0.289,0.967,0.649,1.343,0.981L39.606,68.401z"/>
	<path class="st1" d="M46.366,67.636c-0.231,1.184-0.679,2.295-1.126,3.407c-0.188,0.462-0.376,0.924-0.621,1.328l-0.505-0.246
		c0.722-1.458,1.27-3.045,1.703-4.648L46.366,67.636z M50.119,62.959v0.534h-1.992v1.848h-0.621v-1.862H44.33v-0.52h3.176v-2.006
		h0.621v2.006H50.119z M48.502,71.331c0,0.563-0.188,1.054,0.217,1.4c0.217,0.173,0.49,0.188,0.779,0.188h2.944
		c0.347-0.101,0.578-0.433,0.606-0.779l0.347-1.704c0.188,0.043,0.361,0.116,0.534,0.188l-0.433,2.165
		c-0.217,0.52-0.766,0.678-1.285,0.678h-3.263c-0.346,0-0.649-0.188-0.865-0.476c-0.159-0.202-0.202-0.448-0.202-0.708v-5.37h0.62
		V71.331z M51.736,68.487c-0.188,0.087-0.375,0.188-0.592,0.246c-0.418-1.126-0.924-2.208-1.486-3.277
		c0.158-0.086,0.317-0.216,0.49-0.289C50.739,66.236,51.274,67.347,51.736,68.487z M53.54,62.959h3.204v0.534h-3.189v1.819h-0.636
		v-1.833h-2.035v-0.52h2.05v-2.035h0.606V62.959z M56.889,71.938c-0.158,0.13-0.332,0.274-0.52,0.346
		c-0.664-1.516-1.415-2.988-2.31-4.417c0.173-0.072,0.317-0.173,0.505-0.245C55.475,69.007,56.21,70.451,56.889,71.938z"/>
	<path class="st1" d="M68.745,70.191c-1.747-1.083-3.089-3.089-3.638-4.764c-0.896,1.79-2.035,3.493-3.638,4.894l-0.433-0.375
		c1.761-1.53,2.93-3.45,3.883-5.398l-0.058-0.433h-4.562v9.296h-0.592v-9.844l5.037,0.014c-0.086-0.794-0.072-1.415-0.086-2.208
		h-2.599v-0.548h3.176c-0.015,1.443,0.015,2.079,0.087,2.757l5.211-0.014v8.92c0,0.303-0.202,0.736-0.751,0.751
		c-0.404,0-1.126,0.029-1.486,0l-0.274-0.606c0.563,0.043,0.996,0.072,1.573,0c0.188-0.029,0.347-0.173,0.347-0.39v-8.127h-4.519
		c0.447,2.18,1.285,3.912,3.753,5.658L68.745,70.191z"/>
	<path class="st1" d="M82.839,63.406l0.273,0.188c-0.202,0.433-0.563,0.866-0.808,1.27h2.425v3.407l-8.488,0.015v-3.421l5.399,0.015
		c0.36-0.462,0.692-0.981,0.996-1.473H78.22c0.303,0.332,0.635,0.722,0.952,1.097l-0.447,0.318c-0.332-0.39-0.577-0.736-0.924-1.097
		l0.317-0.318h-3.002v4.359c0,2.064-0.332,4.229-1.17,6.02c-0.173-0.072-0.317-0.202-0.49-0.289c0.779-1.79,1.097-3.883,1.097-5.933
		l-0.015-6.423h10.596v2.295L82.839,63.406z M75.116,62.887h9.469v-1.27h-9.469V62.887z M80.255,65.37H76.79v2.396h3.465V65.37z
		 M83.488,73.554v-0.693l-5.933,0.014v0.722h-0.563v-4.359l7.073,0.014v4.302H83.488z M77.873,65.716
		c0.505,0.448,1.01,0.881,1.458,1.4l-0.404,0.303l-1.43-1.429L77.873,65.716z M77.541,71.36v0.996h5.947V71.36H77.541z
		 M83.502,69.772h-5.946v1.068h5.946V69.772z M80.818,67.766h3.335V65.37h-3.335V67.766z M81.641,67.174
		c0.418-0.491,0.866-1.039,1.241-1.588l0.404,0.231c-0.361,0.578-0.779,1.126-1.228,1.646L81.641,67.174z"/>
	<path class="st1" d="M94.536,65.803c0.101,1.054-0.029,2.05-0.896,2.699l-0.404-0.375c0.376-0.245,0.621-0.664,0.708-1.083h-0.766
		v-1.241H94.536z"/>
	<path class="st1" d="M103.158,73.872l0.015-7.665c-0.289,0.491-0.606,1.039-0.996,1.501c-0.173-0.13-0.289-0.317-0.419-0.462
		c1.458-1.92,2.18-4.171,2.642-6.524l0.534,0.159c-0.26,1.357-0.678,2.757-1.154,4.042v8.949H103.158z M105.078,71.129v-7.462h0.621
		l-0.015,7.462H105.078z M105.555,73.337c2.844-0.678,5.528-1.732,7.867-3.637c0.115-0.072,0.274-0.188,0.36-0.274l0.347,0.375
		c-2.122,1.992-4.734,3.204-7.463,3.854l-0.722,0.173L105.555,73.337z M113.912,63.089H112.7c-0.434,0.91-1.054,1.775-1.862,2.512
		c1.212,0.808,2.569,1.328,3.94,1.718l-0.347,0.505c-1.429-0.375-2.771-0.982-4.013-1.819l-0.072,0.014
		c-1.169,0.866-2.454,1.53-3.796,2.006l-0.26-0.476c1.271-0.491,2.525-1.068,3.651-1.92c-0.678-0.621-1.212-1.227-1.746-1.949
		c-0.462,0.52-0.881,1.097-1.4,1.588c-0.158-0.159-0.347-0.216-0.505-0.317c1.356-1.285,2.208-2.627,2.786-4.172l0.548,0.173
		c-0.23,0.534-0.433,1.083-0.722,1.588h5.023L113.912,63.089z M106.579,71.1c2.036-0.563,3.955-1.429,5.645-2.844l0.462,0.347
		c-1.4,1.241-3.061,1.978-4.706,2.699l-0.996,0.289L106.579,71.1z M111.228,67.448c-1.285,1.068-2.742,1.804-4.259,2.382
		l-0.36-0.462c1.501-0.491,2.901-1.212,4.172-2.237L111.228,67.448z M108.557,63.104c0.391,0.808,1.054,1.587,1.805,2.15
		c0.736-0.577,1.241-1.4,1.688-2.165L108.557,63.104z"/>
	<path class="st1" d="M118.696,67.91l-0.015,5.875h-0.605l0.014-6.38c-0.418,0.491-1.039,1.141-1.486,1.588l-0.375-0.433
		c1.429-1.4,2.685-2.916,3.377-4.706h-3.06v-0.52h3.897c-0.274,1.111-1.011,2.208-1.747,3.276l-0.015,0.664l0.332,0.26
		c0.534-0.433,0.981-0.866,1.473-1.357l0.404,0.419c-0.462,0.433-0.981,0.866-1.415,1.27c0.404,0.347,0.91,0.693,1.313,1.04
		l-0.375,0.433L118.696,67.91z M118.104,60.722c0.332,0.649,0.722,1.371,1.039,2.035l-0.476,0.231l-1.054-2.035L118.104,60.722z
		 M125.119,73.266h-0.606v-2.815l-2.425,0.015v3.32h-0.606V64.98l3.031,0.014V63.32h-3.782v-0.534h3.797l-0.015-2.223h0.606
		l0.015,2.223h3.94v0.549l-3.955-0.015v1.66l3.031,0.014v7.81c0,0.289-0.145,0.534-0.434,0.664c-0.39,0.173-0.996,0.072-1.399,0.087
		l-0.231-0.549c0.447,0.015,0.693,0.087,1.141,0.015c0.188,0,0.332-0.159,0.332-0.39v-2.18h-2.439V73.266z M124.498,67.419
		l0.015-1.891h-2.425v1.891H124.498z M124.498,67.954h-2.41v1.978h2.425L124.498,67.954z M127.544,65.528h-2.41l-0.015,1.876
		l2.425,0.015V65.528z M125.119,69.931l2.439-0.015v-1.963h-2.439V69.931z M126.361,60.981l0.477-0.246
		c0.346,0.448,0.822,1.083,1.068,1.53l-0.491,0.26L126.361,60.981z"/>
	<path class="st1" d="M140.483,67c-0.563,1.473-1.544,2.7-2.829,3.71c1.747,1.097,3.681,1.703,5.673,2.208
		c-0.072,0.173-0.202,0.347-0.317,0.534c-2.05-0.563-4.057-1.198-5.875-2.353c-1.79,1.126-3.768,1.876-5.817,2.425
		c-0.145-0.145-0.26-0.332-0.39-0.491c1.992-0.505,3.897-1.213,5.658-2.252l0.044-0.058c-1.155-0.866-2.007-1.992-2.599-3.19h-0.837
		V67H140.483z M141.97,62.208c-0.491,0.866-1.141,1.732-1.747,2.541h2.757V66.9h-0.605v-1.617h-10.466v1.674h-0.606v-2.223h8.185
		c0.736-0.895,1.43-1.79,1.949-2.8L141.97,62.208z M140.195,61.198l-2.396,0.303l-3.118,0.246l-2.223,0.058l-0.217-0.015
		l-0.332-0.534c0.736-0.043,1.603,0.014,2.396-0.043l2.656-0.188c1.631-0.116,3.233-0.361,4.807-0.65l0.347,0.491L140.195,61.198z
		 M133.511,64.417c-0.303-0.664-0.621-1.328-1.039-1.949l0.52-0.217c0.39,0.621,0.736,1.285,1.024,1.949L133.511,64.417z
		 M134.695,67.535c0.563,1.083,1.4,2.137,2.454,2.815c1.054-0.736,1.848-1.747,2.454-2.815H134.695z M136.917,62.05
		c0.26,0.707,0.52,1.4,0.722,2.15l-0.548,0.145c-0.174-0.75-0.434-1.458-0.722-2.151L136.917,62.05z"/>
	<path class="st1" d="M148.052,63.565h1.675v0.505h-1.689v3.19c0.577-0.274,1.184-0.592,1.732-0.895l0.028,0.592
		c-0.563,0.317-1.169,0.621-1.746,0.909v4.879c0,0.39-0.145,0.65-0.491,0.736c-0.39,0.145-0.866,0.058-1.299,0.086l-0.26-0.548
		c0.375,0.015,0.751,0,1.054-0.043c0.202,0,0.361-0.188,0.361-0.39v-4.431l-1.689,0.88l-0.289-0.433
		c0.664-0.347,1.314-0.664,1.979-1.025V64.07h-1.964v-0.52h1.949l0.015-3.132h0.62L148.052,63.565z M152.426,71.75
		c-0.823,0.707-1.689,1.356-2.584,1.949l-0.404-0.39c0.837-0.548,1.746-1.184,2.555-1.905L152.426,71.75z M157.131,64.677v6.135
		h-6.799v-6.135H157.131z M156.741,63.709h-6.063v-2.583h6.063V63.709z M150.953,65.196v1.271h5.543v-1.285L150.953,65.196z
		 M156.496,66.972h-5.543l0.015,1.343h5.528V66.972z M150.953,68.848v1.444h5.543v-1.458L150.953,68.848z M156.121,61.646h-4.808
		L151.3,63.19h4.821V61.646z M157.565,73.525c-0.924-0.65-1.833-1.271-2.771-1.848l0.36-0.375c0.968,0.563,1.935,1.169,2.844,1.819
		L157.565,73.525z"/>
	<path class="st1" d="M162.636,60.765c-0.317,1.501-1.154,2.8-1.978,4.114c0.434,0,1.892-0.289,2.541-0.491
		c0.317-0.52,0.592-1.054,0.808-1.617l0.521,0.216c-1.213,2.743-2.743,4.46-3.695,5.644l0.52-0.086l2.814-0.578
		c-0.101-0.231-0.245-0.635-0.549-1.212l0.52-0.246c0.246,0.375,0.434,0.837,0.606,1.271c0.231,0.563,0.404,1.14,0.578,1.718
		l-0.593,0.173c-0.101-0.404-0.201-0.852-0.346-1.227l-3.407,0.722l-1.024,0.346c-0.102-0.144-0.173-0.303-0.274-0.433
		c0.953-1.068,2.627-3.147,3.133-4.027c-0.521,0.029-1.184,0.202-2.281,0.447l-0.549,0.188l-0.245-0.476
		c1.228-1.603,2.007-3.32,2.382-4.634L162.636,60.765z M159.706,73.309c0.505-1.054,0.865-2.122,0.909-3.363l0.563,0.159
		c-0.072,1.141-0.404,2.324-0.808,3.407L159.706,73.309z M162.405,72.731c-0.044-0.967-0.202-1.905-0.448-2.8
		c0.202-0.043,0.391-0.087,0.578-0.13c0.23,0.895,0.332,1.79,0.433,2.742L162.405,72.731z M164.166,71.851
		c-0.23-0.78-0.447-1.574-0.794-2.31c0.188-0.072,0.375-0.101,0.563-0.173c0.317,0.736,0.605,1.472,0.793,2.251L164.166,71.851z
		 M171.182,72.255l1.313-0.014v0.577h-8.185v-0.577h1.66V61.342h5.211V72.255z M170.575,61.905h-3.999v2.887l4.014-0.014
		L170.575,61.905z M166.576,68.458l3.999-0.014v-3.089h-3.999V68.458z M166.576,69.021v3.233h3.999v-3.233H166.576z"/>
	<path class="st1" d="M176.946,60.808c-0.477,1.4-0.996,2.786-1.805,4.056c0.52-0.043,1.039-0.144,1.559-0.216
		c0.246-0.592,0.448-1.198,0.65-1.79l0.548,0.231l-0.13,0.433l-0.924,2.18c-0.418,0.981-0.938,1.92-1.573,2.786l0.13-0.014
		c0.664-0.231,1.328-0.418,1.992-0.635c-0.102-0.332-0.245-0.664-0.404-0.981c0.13-0.086,0.332-0.159,0.52-0.202
		c0.332,0.722,0.693,1.429,0.938,2.18c-0.202,0.072-0.375,0.202-0.592,0.246l-0.245-0.722l-0.39,0.101l-2.079,0.708
		c-0.245,0.086-0.491,0.216-0.736,0.317l-0.217-0.52c1.011-1.126,1.632-2.411,2.224-3.71c-0.693,0.043-1.357,0.231-2.035,0.361
		l-0.159-0.39c0.953-1.458,1.617-3.031,2.137-4.677L176.946,60.808z M175.459,70.147c-0.145,1.169-0.317,2.324-0.635,3.421
		l-0.606-0.115c0.274-1.111,0.505-2.252,0.606-3.436L175.459,70.147z M176.513,72.833c-0.115-0.996-0.36-1.935-0.592-2.858
		c0.174-0.043,0.361-0.072,0.534-0.13c0.274,0.938,0.447,1.92,0.577,2.901L176.513,72.833z M178.49,71.966
		c-0.173,0.115-0.404,0.202-0.62,0.274c-0.202-0.866-0.434-1.732-0.708-2.555c0.188-0.043,0.361-0.086,0.549-0.13
		C178.014,70.335,178.26,71.144,178.49,71.966z M187.051,70.985c-0.116,0.765-0.274,1.617-0.491,2.252
		c-0.029,0.173-0.13,0.317-0.317,0.346c-0.304,0.015-0.577-0.332-0.852-0.693c-0.404-0.52-0.708-1.054-0.981-1.617
		c-0.621,0.837-1.43,1.775-2.224,2.411c-0.188-0.072-0.346-0.246-0.534-0.303c0.938-0.779,1.862-1.761,2.512-2.815
		c-0.39-1.285-0.505-2.728-0.548-4.085l-5.63-0.014v-0.534l3.146-0.015c0.347-0.736,0.649-1.487,0.896-2.266l0.563,0.159
		c-0.173,0.708-0.477,1.429-0.765,2.107l1.761,0.015l0.015-5.327h0.606l-0.015,5.312l2.67,0.015l0.015,0.548h-2.685
		c0.028,1.112,0.115,2.252,0.39,3.306c0.491-0.75,0.881-1.588,1.213-2.382l0.505,0.274c-0.404,0.996-0.896,1.978-1.487,2.916
		c0.274,0.736,0.664,1.443,1.198,2.064c0.087,0.015,0.044-0.101,0.087-0.145c0.13-0.635,0.26-1.328,0.347-1.992L187.051,70.985z
		 M178.548,63.19v-0.534h4.533v0.534H178.548z M179.848,65.673c-0.289-0.606-0.563-1.227-0.91-1.805
		c0.174-0.101,0.376-0.173,0.578-0.231c0.332,0.592,0.62,1.242,0.88,1.848L179.848,65.673z M179.069,73.106V67.65h3.449l0.015,4.734
		h-0.606v-0.563h-2.237l-0.015,1.271L179.069,73.106z M179.674,68.17l0.015,1.256l2.237,0.015v-1.256L179.674,68.17z
		 M179.703,69.931l-0.015,1.313h2.252v-1.299L179.703,69.931z M180.685,62.439c-0.245-0.534-0.477-1.112-0.794-1.631
		c0.173-0.101,0.347-0.202,0.534-0.26c0.289,0.52,0.577,1.04,0.779,1.588L180.685,62.439z M185.419,61.732
		c0.404,0.75,0.722,1.544,1.011,2.338l-0.592,0.246c-0.274-0.794-0.563-1.588-0.967-2.338L185.419,61.732z"/>
	<path class="st1" d="M199.657,73.337c-0.289,0.043-0.896,0.058-1.256,0c-0.102-0.231-0.217-0.433-0.347-0.635
		c0.419,0.043,1.111,0.086,1.328,0.014c0.159-0.014,0.317-0.289,0.317-0.447l0.015-10.61h-9.513v11.923h-0.62V61.068h10.754v11.635
		C200.336,73.02,199.975,73.294,199.657,73.337z M191.588,64.171v-0.577h6.741v0.577H191.588z M196.929,70.927v-0.881h-3.983v1.271
		h-0.65v-5.226h5.283v4.836H196.929z M196.944,66.669l-4.013,0.014v2.786h4.013V66.669z"/>
	<path class="st1" d="M206.317,71.346v-0.91l-2.28-0.014l0.015,1.299h-0.606v-9.873h3.479v9.498H206.317z M206.331,65.658v-3.277
		h-2.295v3.292L206.331,65.658z M206.331,66.207h-2.295v3.681h2.295V66.207z M211.008,60.418h0.606v1.905l2.858,0.015v0.534h-2.844
		v2.396l3.623,0.015v0.548h-7.766v-0.548h3.536v-2.411h-2.757v-0.534h2.742V60.418z M215.41,67.824v0.548h-2.063l-0.015,4.475
		c0,0.318-0.245,0.679-0.52,0.736c-0.534,0.116-1.141,0.116-1.762,0.072l-0.13-0.549c0.549,0.072,1.068,0.072,1.473,0
		c0.159,0,0.332-0.173,0.332-0.375v-4.374H207.5v-0.52l5.226-0.014v-1.501h0.606v1.501H215.41z M209.392,69.671l-0.217-0.217
		l0.419-0.346c0.635,0.678,1.154,1.299,1.775,2.021l-0.434,0.347L209.392,69.671z"/>
	<path class="st1" d="M223.543,69.686h-4.129v-4.533h4.129v-1.169h-5.745v-0.52h5.745V62.05l-2.512,0.26
		c-0.506,0.058-1.04,0.058-1.56,0.101l-0.202-0.534c2.916-0.145,5.774-0.433,8.459-1.155l0.332,0.491
		c-1.284,0.332-2.612,0.592-3.955,0.779v1.473h5.817v0.52h-5.803l-0.015,1.155l4.157,0.014v4.533l-4.157,0.015v1.155l4.994,0.014
		v0.505h-4.994v1.299l6.192,0.014v0.505h-12.962v-0.505h6.221v-1.313h-4.965v-0.52h4.965L223.543,69.686z M219.978,65.673v1.342
		h3.579l-0.014-1.357L219.978,65.673z M223.557,67.535h-3.579v1.631h3.579V67.535z M227.7,65.658h-3.58v1.357h3.58V65.658z
		 M227.7,67.535h-3.58v1.631h3.58V67.535z"/>
	<path class="st1" d="M234.836,60.765c-0.317,1.501-1.155,2.8-1.978,4.114c0.433,0,1.891-0.289,2.54-0.491
		c0.317-0.52,0.592-1.054,0.809-1.617l0.52,0.216c-1.213,2.743-2.742,4.46-3.695,5.644l0.52-0.086l2.815-0.578
		c-0.102-0.231-0.246-0.635-0.549-1.212l0.52-0.246c0.245,0.375,0.433,0.837,0.606,1.271c0.23,0.563,0.404,1.14,0.577,1.718
		l-0.592,0.173c-0.101-0.404-0.202-0.852-0.347-1.227l-3.406,0.722l-1.025,0.346c-0.101-0.144-0.173-0.303-0.273-0.433
		c0.952-1.068,2.627-3.147,3.132-4.027c-0.52,0.029-1.184,0.202-2.28,0.447l-0.549,0.188l-0.245-0.476
		c1.227-1.603,2.006-3.32,2.382-4.634L234.836,60.765z M231.905,73.309c0.505-1.054,0.866-2.122,0.909-3.363l0.563,0.159
		c-0.072,1.141-0.404,2.324-0.809,3.407L231.905,73.309z M234.605,72.731c-0.043-0.967-0.202-1.905-0.447-2.8
		c0.202-0.043,0.39-0.087,0.577-0.13c0.231,0.895,0.332,1.79,0.434,2.742L234.605,72.731z M236.366,71.851
		c-0.231-0.78-0.448-1.574-0.794-2.31c0.188-0.072,0.375-0.101,0.563-0.173c0.317,0.736,0.606,1.472,0.794,2.251L236.366,71.851z
		 M243.381,72.255l1.313-0.014v0.577h-8.185v-0.577h1.66V61.342h5.211V72.255z M242.775,61.905h-3.998v2.887l4.013-0.014
		L242.775,61.905z M238.777,68.458l3.998-0.014v-3.089h-3.998V68.458z M238.777,69.021v3.233h3.998v-3.233H238.777z"/>
	<path class="st1" d="M258.961,73.713c-1.891-0.375-3.753-0.837-5.499-1.559c-1.992,0.852-3.984,1.328-6.106,1.603l-0.23-0.578
		c2.093-0.26,4.056-0.664,5.803-1.386c-0.924-0.404-1.747-1.068-2.469-1.804c-1.169,1.126-2.642,1.949-4.013,2.468l-0.347-0.462
		c1.675-0.649,3.263-1.559,4.562-2.974h-4.258v-0.52h4.59c0.317-0.361,0.52-0.722,0.679-1.111l0.462,0.26
		c-0.13,0.231-0.289,0.534-0.505,0.852h7.404v0.52h-7.723l-0.49,0.606c0.736,0.823,1.559,1.386,2.584,1.876
		c0.924-0.477,1.804-1.198,2.439-2.021l0.447,0.289c-0.621,0.823-1.458,1.588-2.339,2.036c1.56,0.649,3.508,1.126,5.269,1.4
		L258.961,73.713z M249.377,65.442c-0.434,0.491-1.04,1.025-1.632,1.429c1.285-0.115,2.628-0.245,3.927-0.361
		c-0.274-0.231-0.621-0.418-0.953-0.606l0.304-0.318c0.707,0.404,1.443,0.924,2.078,1.588l-0.36,0.347l-0.606-0.592
		c-1.732,0.13-3.176,0.26-4.98,0.447l-0.144-0.447c0.605-0.404,1.284-0.982,1.775-1.487h-2.584l-0.015-0.477h1.603v-3.681h5.066
		v0.505h-4.475v0.664h3.883v0.505h-3.883v0.708h3.854v0.491h-3.854v0.794h4.821v0.491H249.377z M253.548,63.089l-0.317-0.447
		c1.502-0.52,2.974-1.126,4.33-2.007l0.404,0.347C256.594,61.891,255.093,62.569,253.548,63.089z M253.707,67.333l-0.274-0.447
		c1.703-0.52,3.522-1.371,5.168-2.425l0.36,0.39C257.518,65.846,255.497,66.784,253.707,67.333z M254.054,64.98l-0.347-0.448
		c1.473-0.534,2.901-1.14,4.244-1.963l0.288,0.375C256.926,63.796,255.497,64.417,254.054,64.98z M256.204,68.401
		c-0.39-0.39-0.822-0.736-1.313-1.01l0.361-0.361c0.476,0.289,0.967,0.649,1.342,0.981L256.204,68.401z"/>
	<path class="st1" d="M267.007,62.959v0.534L265,63.479v2.079h-0.592v-2.079h-2.021c-0.087,1.04-0.304,1.992-0.853,2.83
		l-0.216,0.332l-0.434-0.231c0.13-0.346,0.332-0.693,0.491-1.054c0.549-1.212,0.404-2.656,0.433-3.998
		c1.386-0.173,2.786-0.332,4.057-0.794l0.36,0.418c-1.184,0.404-2.512,0.606-3.811,0.779v1.184L267.007,62.959z M265.289,72.241
		c-1.256,0.678-2.599,1.14-3.984,1.516l-0.303-0.448c1.356-0.39,2.728-0.75,3.955-1.472L265.289,72.241z M267.021,66.034
		l-0.332-0.318c0.506-0.837,0.896-1.703,1.011-2.699v-1.631c1.458-0.145,2.959-0.303,4.244-0.866l0.447,0.447
		c-1.271,0.477-2.656,0.679-4.057,0.852l0.015,1.083h4.778v0.505h-2.122L270.99,65.5h-0.577v-2.079l-2.137-0.015
		c-0.23,0.938-0.52,1.819-1.054,2.613l3.897,0.015v5.269h-8.141l-0.015-5.254L267.021,66.034z M263.542,66.568v1.039h6.972v-1.039
		H263.542z M270.529,68.126h-6.986v1.025h6.986V68.126z M263.557,69.671v1.14l6.972-0.015l-0.015-1.125H263.557z M272.506,73.799
		c-1.256-0.664-2.612-1.227-3.97-1.631l0.318-0.404c1.414,0.361,2.699,0.981,4.013,1.617L272.506,73.799z"/>
	<path class="st1" d="M275.933,73.482l-0.592-0.26c0.419-1.054,0.722-2.208,0.837-3.421l0.578,0.173
		C276.654,71.172,276.352,72.371,275.933,73.482z M279.975,69.296c-0.072-0.246-0.102-0.491-0.231-0.708l-2.785,0.448l-1.256,0.26
		l-0.231-0.462c1.039-1.111,1.92-2.338,2.729-3.565c-0.751,0.015-1.473,0.145-2.18,0.246l-0.274-0.549
		c1.141-1.256,1.79-2.786,2.425-4.287l0.506,0.202c-0.087,0.404-0.274,0.779-0.448,1.169c-0.418,0.981-0.952,1.919-1.688,2.757
		c0.679-0.043,1.356-0.116,2.035-0.188c0.361-0.578,0.693-1.184,1.011-1.805l0.563,0.217c-0.981,1.963-2.136,3.869-3.796,5.456
		h0.375l2.801-0.433c-0.174-0.448-0.434-0.895-0.664-1.343l0.534-0.202c0.505,0.794,0.909,1.646,1.154,2.57L279.975,69.296z
		 M278.084,72.775c-0.029-0.477-0.087-1.025-0.202-1.501c-0.102-0.433-0.231-0.866-0.404-1.27l0.592-0.116
		c0.303,0.88,0.563,1.79,0.606,2.786L278.084,72.775z M279.86,72.183c-0.174-0.837-0.491-1.617-0.866-2.381l0.563-0.173
		c0.404,0.75,0.736,1.53,0.909,2.367L279.86,72.183z M287.755,63.926h-3.306v2.136h2.931v0.563h-6.453v-0.549l2.873-0.014v-2.136
		h-3.233v-0.563h3.233v-2.569c0.217-0.015,0.433-0.015,0.649-0.015v2.598l3.32-0.014L287.755,63.926z M286.399,73.237l-0.015-0.91
		h-4.461l0.015,1.054h-0.649V68.3h5.745v4.937H286.399z M286.384,68.863h-4.446v2.901l4.461-0.014L286.384,68.863z"/>
	<path class="st1" d="M291.412,66.351c-0.418,1.141-0.924,2.425-1.486,3.551l-0.447-0.433c0.852-1.689,1.688-3.393,1.948-5.327
		v-0.159l-1.862-0.015v-0.52h1.848l-0.014-2.901h0.605v2.901h1.66v0.52h-1.66v9.686h-0.62L291.412,66.351z M293.202,68.098
		c-0.288-0.707-0.534-1.429-0.895-2.107l0.49-0.231c0.332,0.679,0.621,1.386,0.924,2.079L293.202,68.098z M300.91,72.875
		c0,0.202-0.115,0.708-0.722,0.722c-0.23,0.043-1.01,0.058-1.414,0c-0.044-0.202-0.115-0.375-0.145-0.578
		c0.477-0.029,0.881,0.101,1.386,0.015c0.245-0.043,0.303-0.246,0.303-0.404V71.1h-5.196v2.526h-0.606V71.1H292.9v-0.52h1.616
		l0.015-3.825h2.829l0.015-1.025h-4.1v-0.52h2.656v-1.285l-1.688-0.015l-0.015-0.505l1.688-0.014V62.31h-2.28v-0.52l2.28,0.015
		l-0.015-1.313h0.606v1.299l2.367,0.015v-1.342l0.606-0.015v1.342l2.252,0.015v0.505h-2.252l-0.015,1.083l1.689,0.014v0.505h-1.675
		v1.299h2.801v0.505h-4.316l0.015,1.054l2.944-0.015v3.825h1.545v0.52h-1.56V72.875z M295.152,70.609h2.223v-1.472h-2.223V70.609z
		 M297.374,67.304h-2.208v1.328h2.208V67.304z M298.904,62.324h-2.353l-0.015,1.083l2.367-0.014V62.324z M296.552,63.926v1.27h2.353
		v-1.27H296.552z M300.348,67.304h-2.339v1.328h2.339V67.304z M300.362,69.137h-2.354v1.472h2.354V69.137z"/>
	<path class="st1" d="M5.63,79.324c0.852,0,1.588,0.188,2.093,0.563c0.649,0.491,1.025,1.328,1.025,2.194
		c0,1.516-0.938,2.555-3.003,2.743v0.029c0.779,0.375,1.155,0.621,1.905,1.775l1.964,3.031H8.359l-1.516-2.382
		c-1.357-2.122-1.906-2.367-3.09-2.367H2.252v4.749H1.271V79.324H5.63z M2.252,80.19v3.854h2.729c0.62,0,2.757,0.015,2.757-1.949
		c0-1.819-1.833-1.905-2.714-1.905H2.252z"/>
	<path class="st1" d="M11.248,86.021c0.029,1.805,0.852,3.089,2.512,3.089c1.646,0,2.122-1.343,2.295-1.819l0.866,0.144
		c-0.26,0.722-0.852,2.396-3.204,2.396c-2.151,0-3.393-1.516-3.393-3.912c0-2.353,1.213-3.912,3.407-3.912
		c3.247,0,3.262,3.262,3.276,4.013H11.248z M16.084,85.3c-0.173-1.992-1.313-2.569-2.382-2.569c-0.447,0-2.15,0.116-2.439,2.569
		H16.084z"/>
	<path class="st1" d="M18.512,84.217c0.289-1.559,1.256-2.208,3.22-2.208c2.829,0,2.843,1.415,2.843,3.176
		c0,0.159-0.028,1.79-0.028,2.107c0,1.328,0.13,1.674,0.462,2.367h-0.967c-0.174-0.447-0.217-0.635-0.274-1.14
		c-0.332,0.361-1.213,1.313-3.046,1.313c-1.718,0-2.382-1.083-2.382-2.079c0-0.491,0.13-1.141,0.837-1.674
		c0.274-0.217,0.621-0.448,2.281-0.679c0.75-0.101,1.544-0.202,2.237-0.447v-0.26c0-0.924,0-2.007-1.963-2.007
		c-1.949,0-2.194,1.112-2.324,1.66L18.512,84.217z M23.695,85.632c-0.621,0.231-1.66,0.433-2.382,0.563
		c-0.981,0.173-2.05,0.361-2.05,1.487c0,0.852,0.779,1.429,1.631,1.429c0.606,0,1.4-0.274,2.021-0.78
		c0.534-0.433,0.779-1.025,0.779-2.208V85.632z"/>
	<path class="st1" d="M27.61,82.182v1.501h0.028c0.159-0.548,0.534-1.674,1.718-1.674c0.621,0,1.011,0.245,1.328,0.447l-0.332,0.765
		c-0.477-0.202-0.707-0.289-1.011-0.289c-0.273,0-0.895,0.014-1.327,0.996c-0.131,0.274-0.202,0.779-0.261,1.256
		c-0.043,0.375-0.058,0.866-0.058,1.054v3.421h-0.866v-7.477H27.61z"/>
	<path class="st1" d="M32.418,82.182v1.501h0.028c0.159-0.548,0.534-1.674,1.718-1.674c0.621,0,1.011,0.245,1.328,0.447
		l-0.332,0.765c-0.477-0.202-0.707-0.289-1.011-0.289c-0.273,0-0.895,0.014-1.327,0.996c-0.131,0.274-0.202,0.779-0.261,1.256
		c-0.043,0.375-0.058,0.866-0.058,1.054v3.421h-0.866v-7.477H32.418z"/>
	<path class="st1" d="M36.158,84.217c0.288-1.559,1.256-2.208,3.219-2.208c2.829,0,2.844,1.415,2.844,3.176
		c0,0.159-0.029,1.79-0.029,2.107c0,1.328,0.13,1.674,0.462,2.367h-0.967c-0.173-0.447-0.217-0.635-0.274-1.14
		c-0.332,0.361-1.212,1.313-3.046,1.313c-1.718,0-2.382-1.083-2.382-2.079c0-0.491,0.13-1.141,0.838-1.674
		c0.274-0.217,0.62-0.448,2.28-0.679c0.751-0.101,1.545-0.202,2.237-0.447v-0.26c0-0.924,0-2.007-1.963-2.007
		c-1.948,0-2.194,1.112-2.324,1.66L36.158,84.217z M41.34,85.632c-0.62,0.231-1.66,0.433-2.382,0.563
		c-0.981,0.173-2.05,0.361-2.05,1.487c0,0.852,0.78,1.429,1.632,1.429c0.606,0,1.4-0.274,2.021-0.78
		c0.534-0.433,0.779-1.025,0.779-2.208V85.632z"/>
	<path class="st1" d="M45.357,82.182v1.097h0.028c0.404-0.548,0.968-1.27,2.382-1.27c1.126,0,1.732,0.52,1.978,0.794
		c0.549,0.621,0.534,1.53,0.534,1.978v4.879h-0.866v-4.648c0-0.606-0.028-1.155-0.288-1.53c-0.304-0.447-0.838-0.707-1.444-0.707
		c-0.808,0-1.674,0.491-2.063,1.328c-0.217,0.462-0.26,1.04-0.26,2.31v3.248H44.49v-7.477H45.357z"/>
	<path class="st1" d="M59.043,82.182v6.885c0,1.819-0.52,3.623-3.623,3.623c-1.616,0-2.944-0.491-3.06-2.208l0.852,0.173
		c0.101,0.447,0.274,1.313,2.078,1.313c2.079,0,2.873-1.04,2.873-2.728v-0.722h-0.029c-0.39,0.505-1.054,1.313-2.757,1.313
		c-2.526,0-3.32-2.281-3.32-3.883c0-1.371,0.606-3.94,3.32-3.94c1.79,0,2.482,0.981,2.757,1.429h0.029v-1.256H59.043z M55.55,82.73
		c-1.746,0-2.569,1.487-2.569,3.176c0,1.761,0.866,3.205,2.556,3.205c1.024,0,2.641-0.606,2.641-3.104
		C58.177,83.813,56.993,82.73,55.55,82.73z"/>
	<path class="st1" d="M61.804,86.021c0.028,1.805,0.852,3.089,2.512,3.089c1.646,0,2.122-1.343,2.295-1.819l0.866,0.144
		c-0.26,0.722-0.852,2.396-3.205,2.396c-2.15,0-3.392-1.516-3.392-3.912c0-2.353,1.212-3.912,3.406-3.912
		c3.248,0,3.263,3.262,3.276,4.013H61.804z M66.639,85.3c-0.173-1.992-1.313-2.569-2.381-2.569c-0.448,0-2.151,0.116-2.439,2.569
		H66.639z"/>
	<path class="st1" d="M74.265,79.324v1.328H73.4v-1.328H74.265z M74.265,82.182v7.477H73.4v-7.477H74.265z"/>
	<path class="st1" d="M79.434,89.833c-2.107,0-3.349-1.617-3.334-3.869c0.014-2.584,1.284-3.955,3.334-3.955
		c2.021,0,3.349,1.371,3.349,3.955C82.782,88.172,81.758,89.833,79.434,89.833z M79.463,82.73c-1.646,0-2.439,1.386-2.439,3.233
		c0,2.05,1.024,3.147,2.453,3.147c1.43,0,2.382-1.141,2.382-3.147C81.859,83.914,80.979,82.73,79.463,82.73z"/>
	<path class="st1" d="M85.486,82.182v1.097h0.028c0.404-0.548,0.968-1.27,2.382-1.27c1.126,0,1.732,0.52,1.978,0.794
		c0.549,0.621,0.534,1.53,0.534,1.978v4.879h-0.866v-4.648c0-0.606-0.028-1.155-0.288-1.53c-0.304-0.447-0.838-0.707-1.444-0.707
		c-0.808,0-1.674,0.491-2.063,1.328c-0.217,0.462-0.26,1.04-0.26,2.31v3.248h-0.866v-7.477H85.486z"/>
	<path class="st1" d="M93.529,79.324v1.328h-0.866v-1.328H93.529z M93.529,82.182v7.477h-0.866v-7.477H93.529z"/>
	<path class="st1" d="M101.05,84.434c-0.317-1.083-1.184-1.703-2.31-1.703c-0.924,0-2.454,0.578-2.454,3.089
		c0,1.891,0.866,3.292,2.497,3.292c1.704,0,2.209-1.429,2.426-2.007l0.865,0.13c-0.173,0.722-0.722,2.599-3.334,2.599
		c-2.439,0-3.378-1.891-3.378-3.926c0-1.516,0.592-3.897,3.421-3.897c1.313,0,2.569,0.39,3.19,2.281L101.05,84.434z"/>
	<path class="st1" d="M108.748,92.517h-0.866V82.182h0.866v1.212h0.028c0.376-0.491,1.126-1.386,2.786-1.386
		c2.469,0,3.335,2.079,3.335,3.854c0,1.068-0.39,3.97-3.407,3.97c-1.631,0-2.31-0.794-2.714-1.313h-0.028V92.517z M111.476,82.73
		c-0.692,0-1.27,0.246-1.717,0.606c-0.521,0.418-1.011,1.111-1.011,2.699c0,2.136,1.241,3.075,2.67,3.075
		c1.343,0,2.556-1.097,2.556-3.176C113.974,83.741,112.776,82.73,111.476,82.73z"/>
	<path class="st1" d="M116.416,84.217c0.288-1.559,1.256-2.208,3.219-2.208c2.829,0,2.844,1.415,2.844,3.176
		c0,0.159-0.029,1.79-0.029,2.107c0,1.328,0.13,1.674,0.462,2.367h-0.967c-0.173-0.447-0.217-0.635-0.274-1.14
		c-0.332,0.361-1.212,1.313-3.046,1.313c-1.718,0-2.382-1.083-2.382-2.079c0-0.491,0.13-1.141,0.838-1.674
		c0.274-0.217,0.62-0.448,2.28-0.679c0.751-0.101,1.545-0.202,2.237-0.447v-0.26c0-0.924,0-2.007-1.963-2.007
		c-1.948,0-2.194,1.112-2.324,1.66L116.416,84.217z M121.598,85.632c-0.62,0.231-1.66,0.433-2.382,0.563
		c-0.981,0.173-2.05,0.361-2.05,1.487c0,0.852,0.78,1.429,1.632,1.429c0.606,0,1.4-0.274,2.021-0.78
		c0.534-0.433,0.779-1.025,0.779-2.208V85.632z"/>
	<path class="st1" d="M125.817,82.182h1.399v0.649h-1.399v4.908c0,0.924,0.101,1.313,0.837,1.313c0.115,0,0.245-0.014,0.692-0.101
		l0.116,0.708c-0.462,0.086-0.664,0.116-0.924,0.116c-1.617,0-1.588-1.083-1.588-1.92v-5.023h-1.04v-0.649h1.04v-1.92l0.866-0.563
		V82.182z"/>
	<path class="st1" d="M129.83,82.182h1.4v0.649h-1.4v4.908c0,0.924,0.102,1.313,0.837,1.313c0.116,0,0.246-0.014,0.693-0.101
		l0.115,0.708c-0.462,0.086-0.664,0.116-0.924,0.116c-1.616,0-1.588-1.083-1.588-1.92v-5.023h-1.039v-0.649h1.039v-1.92l0.866-0.563
		V82.182z"/>
	<path class="st1" d="M133.238,86.021c0.028,1.805,0.852,3.089,2.512,3.089c1.646,0,2.122-1.343,2.295-1.819l0.866,0.144
		c-0.26,0.722-0.852,2.396-3.205,2.396c-2.15,0-3.392-1.516-3.392-3.912c0-2.353,1.212-3.912,3.406-3.912
		c3.248,0,3.263,3.262,3.276,4.013H133.238z M138.073,85.3c-0.173-1.992-1.313-2.569-2.381-2.569c-0.448,0-2.151,0.116-2.439,2.569
		H138.073z"/>
	<path class="st1" d="M141.571,82.182v1.501h0.028c0.159-0.548,0.534-1.674,1.718-1.674c0.621,0,1.011,0.245,1.328,0.447
		l-0.332,0.765c-0.477-0.202-0.707-0.289-1.011-0.289c-0.273,0-0.895,0.014-1.327,0.996c-0.131,0.274-0.202,0.779-0.261,1.256
		c-0.043,0.375-0.058,0.866-0.058,1.054v3.421h-0.866v-7.477H141.571z"/>
	<path class="st1" d="M146.48,82.182v1.097h0.029c0.404-0.548,0.967-1.27,2.382-1.27c1.126,0,1.731,0.52,1.978,0.794
		c0.548,0.621,0.534,1.53,0.534,1.978v4.879h-0.866v-4.648c0-0.606-0.029-1.155-0.289-1.53c-0.303-0.447-0.837-0.707-1.443-0.707
		c-0.809,0-1.675,0.491-2.064,1.328c-0.217,0.462-0.26,1.04-0.26,2.31v3.248h-0.866v-7.477H146.48z"/>
	<path class="st1" d="M158.537,79.324v1.328h-0.866v-1.328H158.537z M158.537,82.182v7.477h-0.866v-7.477H158.537z"/>
	<path class="st1" d="M161.729,82.182v1.097h0.028c0.404-0.548,0.968-1.27,2.382-1.27c1.126,0,1.732,0.52,1.978,0.794
		c0.549,0.621,0.534,1.53,0.534,1.978v4.879h-0.866v-4.648c0-0.606-0.028-1.155-0.288-1.53c-0.304-0.447-0.838-0.707-1.444-0.707
		c-0.808,0-1.674,0.491-2.063,1.328c-0.217,0.462-0.26,1.04-0.26,2.31v3.248h-0.866v-7.477H161.729z"/>
	<path class="st1" d="M169.959,82.182h1.4v0.649h-1.4v4.908c0,0.924,0.102,1.313,0.837,1.313c0.116,0,0.246-0.014,0.693-0.101
		l0.115,0.708c-0.462,0.086-0.664,0.116-0.924,0.116c-1.616,0-1.588-1.083-1.588-1.92v-5.023h-1.039v-0.649h1.039v-1.92l0.866-0.563
		V82.182z"/>
	<path class="st1" d="M175.749,89.833c-2.107,0-3.35-1.617-3.335-3.869c0.015-2.584,1.285-3.955,3.335-3.955
		c2.021,0,3.349,1.371,3.349,3.955C179.098,88.172,178.072,89.833,175.749,89.833z M175.778,82.73c-1.646,0-2.439,1.386-2.439,3.233
		c0,2.05,1.025,3.147,2.454,3.147s2.382-1.141,2.382-3.147C178.174,83.914,177.293,82.73,175.778,82.73z"/>
	<path class="st1" d="M184.645,84.217c0.289-1.559,1.256-2.208,3.22-2.208c2.829,0,2.843,1.415,2.843,3.176
		c0,0.159-0.028,1.79-0.028,2.107c0,1.328,0.13,1.674,0.462,2.367h-0.967c-0.174-0.447-0.217-0.635-0.274-1.14
		c-0.332,0.361-1.213,1.313-3.046,1.313c-1.718,0-2.382-1.083-2.382-2.079c0-0.491,0.13-1.141,0.837-1.674
		c0.274-0.217,0.621-0.448,2.281-0.679c0.75-0.101,1.544-0.202,2.237-0.447v-0.26c0-0.924,0-2.007-1.963-2.007
		c-1.949,0-2.194,1.112-2.324,1.66L184.645,84.217z M189.827,85.632c-0.621,0.231-1.66,0.433-2.382,0.563
		c-0.981,0.173-2.05,0.361-2.05,1.487c0,0.852,0.779,1.429,1.631,1.429c0.606,0,1.4-0.274,2.021-0.78
		c0.534-0.433,0.779-1.025,0.779-2.208V85.632z"/>
	<path class="st1" d="M197.756,82.182v1.501h0.029c0.158-0.548,0.534-1.674,1.718-1.674c0.62,0,1.01,0.245,1.328,0.447l-0.332,0.765
		c-0.477-0.202-0.708-0.289-1.011-0.289c-0.274,0-0.896,0.014-1.328,0.996c-0.13,0.274-0.202,0.779-0.26,1.256
		c-0.043,0.375-0.058,0.866-0.058,1.054v3.421h-0.866v-7.477H197.756z"/>
	<path class="st1" d="M202.262,86.021c0.028,1.805,0.852,3.089,2.512,3.089c1.646,0,2.122-1.343,2.295-1.819l0.866,0.144
		c-0.26,0.722-0.852,2.396-3.205,2.396c-2.15,0-3.392-1.516-3.392-3.912c0-2.353,1.212-3.912,3.406-3.912
		c3.248,0,3.263,3.262,3.276,4.013H202.262z M207.097,85.3c-0.173-1.992-1.313-2.569-2.381-2.569c-0.448,0-2.151,0.116-2.439,2.569
		H207.097z"/>
	<path class="st1" d="M216.353,82.182v6.885c0,1.819-0.52,3.623-3.623,3.623c-1.616,0-2.944-0.491-3.06-2.208l0.852,0.173
		c0.101,0.447,0.274,1.313,2.078,1.313c2.079,0,2.873-1.04,2.873-2.728v-0.722h-0.029c-0.39,0.505-1.054,1.313-2.757,1.313
		c-2.526,0-3.32-2.281-3.32-3.883c0-1.371,0.606-3.94,3.32-3.94c1.79,0,2.482,0.981,2.757,1.429h0.029v-1.256H216.353z
		 M212.86,82.73c-1.746,0-2.569,1.487-2.569,3.176c0,1.761,0.866,3.205,2.556,3.205c1.024,0,2.641-0.606,2.641-3.104
		C215.487,83.813,214.303,82.73,212.86,82.73z"/>
	<path class="st1" d="M223.501,89.659v-1.111h-0.028c-0.404,0.563-0.968,1.285-2.382,1.285c-1.126,0-1.703-0.534-1.949-0.794
		c-0.577-0.606-0.563-1.544-0.563-1.978v-4.879h0.866v4.633c0,0.606,0.028,1.169,0.288,1.544c0.304,0.433,0.838,0.708,1.443,0.708
		c0.809,0,1.675-0.505,2.064-1.342c0.202-0.448,0.26-1.04,0.26-2.31v-3.233h0.866v7.477H223.501z"/>
	<path class="st1" d="M227.561,79.324v10.335h-0.866V79.324H227.561z"/>
	<path class="st1" d="M229.582,84.217c0.289-1.559,1.256-2.208,3.22-2.208c2.829,0,2.843,1.415,2.843,3.176
		c0,0.159-0.028,1.79-0.028,2.107c0,1.328,0.13,1.674,0.462,2.367h-0.967c-0.174-0.447-0.217-0.635-0.274-1.14
		c-0.332,0.361-1.213,1.313-3.046,1.313c-1.718,0-2.382-1.083-2.382-2.079c0-0.491,0.13-1.141,0.837-1.674
		c0.274-0.217,0.621-0.448,2.281-0.679c0.75-0.101,1.544-0.202,2.237-0.447v-0.26c0-0.924,0-2.007-1.963-2.007
		c-1.949,0-2.194,1.112-2.324,1.66L229.582,84.217z M234.765,85.632c-0.621,0.231-1.66,0.433-2.382,0.563
		c-0.981,0.173-2.05,0.361-2.05,1.487c0,0.852,0.779,1.429,1.631,1.429c0.606,0,1.4-0.274,2.021-0.78
		c0.534-0.433,0.779-1.025,0.779-2.208V85.632z"/>
	<path class="st1" d="M238.68,82.182v1.501h0.028c0.159-0.548,0.534-1.674,1.718-1.674c0.621,0,1.011,0.245,1.328,0.447
		l-0.332,0.765c-0.477-0.202-0.707-0.289-1.011-0.289c-0.273,0-0.895,0.014-1.327,0.996c-0.131,0.274-0.202,0.779-0.261,1.256
		c-0.043,0.375-0.058,0.866-0.058,1.054v3.421H237.9v-7.477H238.68z"/>
	<path class="st1" d="M246.997,82.182v-0.794c0-1.025,0.145-1.372,0.404-1.66c0.346-0.39,0.852-0.577,1.414-0.577
		c0.274,0,0.491,0.029,1.098,0.173l-0.159,0.708c-0.433-0.058-0.577-0.072-0.736-0.072c-1.068,0-1.154,0.649-1.154,1.559v0.664
		h1.573v0.649h-1.573v6.828h-0.866v-6.828h-1.198v-0.649H246.997z"/>
	<path class="st1" d="M253.595,89.833c-2.107,0-3.349-1.617-3.334-3.869c0.014-2.584,1.284-3.955,3.334-3.955
		c2.021,0,3.349,1.371,3.349,3.955C256.944,88.172,255.919,89.833,253.595,89.833z M253.624,82.73c-1.646,0-2.439,1.386-2.439,3.233
		c0,2.05,1.024,3.147,2.453,3.147c1.43,0,2.382-1.141,2.382-3.147C256.02,83.914,255.14,82.73,253.624,82.73z"/>
	<path class="st1" d="M259.545,82.182v1.501h0.028c0.159-0.548,0.534-1.674,1.718-1.674c0.621,0,1.011,0.245,1.328,0.447
		l-0.332,0.765c-0.476-0.202-0.707-0.289-1.01-0.289c-0.274,0-0.896,0.014-1.328,0.996c-0.13,0.274-0.202,0.779-0.26,1.256
		c-0.044,0.375-0.058,0.866-0.058,1.054v3.421h-0.866v-7.477H259.545z"/>
	<path class="st1" d="M264.454,82.182v1.068h0.029c0.274-0.418,0.895-1.241,2.252-1.241c1.429,0,1.818,0.866,1.992,1.241
		c0.39-0.491,1.01-1.241,2.338-1.241c0.823,0,1.386,0.346,1.689,0.678c0.26,0.274,0.563,0.823,0.563,1.876v5.096h-0.866v-4.648
		c0-0.924-0.028-2.252-1.573-2.252c-1.761,0-1.992,1.747-1.992,3.219v3.681h-0.866v-4.735c0-0.779,0.029-2.136-1.458-2.136
		c-1.516,0-2.107,1.4-2.107,2.887v3.984h-0.866v-7.477H264.454z"/>
	<path class="st1" d="M279.892,82.182v-0.794c0-1.025,0.144-1.372,0.403-1.66c0.347-0.39,0.853-0.577,1.415-0.577
		c0.274,0,0.491,0.029,1.097,0.173l-0.158,0.708c-0.434-0.058-0.577-0.072-0.736-0.072c-1.068,0-1.155,0.649-1.155,1.559v0.664
		h1.574v0.649h-1.574v6.828h-0.865v-6.828h-1.198v-0.649H279.892z"/>
	<path class="st1" d="M286.489,89.833c-2.107,0-3.349-1.617-3.334-3.869c0.015-2.584,1.284-3.955,3.334-3.955
		c2.021,0,3.35,1.371,3.35,3.955C289.839,88.172,288.814,89.833,286.489,89.833z M286.519,82.73c-1.646,0-2.439,1.386-2.439,3.233
		c0,2.05,1.024,3.147,2.454,3.147c1.429,0,2.382-1.141,2.382-3.147C288.915,83.914,288.034,82.73,286.519,82.73z"/>
	<path class="st1" d="M292.44,82.182v1.501h0.028c0.159-0.548,0.534-1.674,1.718-1.674c0.621,0,1.011,0.245,1.328,0.447
		l-0.332,0.765c-0.476-0.202-0.707-0.289-1.01-0.289c-0.274,0-0.896,0.014-1.328,0.996c-0.13,0.274-0.202,0.779-0.26,1.256
		c-0.044,0.375-0.058,0.866-0.058,1.054v3.421h-0.866v-7.477H292.44z"/>
	<path class="st1" d="M6.005,106.659v-1.111H5.977c-0.404,0.563-0.968,1.285-2.382,1.285c-1.126,0-1.703-0.534-1.949-0.794
		c-0.577-0.606-0.563-1.544-0.563-1.978v-4.879h0.866v4.633c0,0.606,0.028,1.169,0.288,1.544c0.304,0.433,0.838,0.708,1.443,0.708
		c0.809,0,1.675-0.505,2.064-1.342c0.202-0.448,0.26-1.04,0.26-2.31v-3.233h0.866v7.477H6.005z"/>
	<path class="st1" d="M10.065,96.324v10.335H9.198V96.324H10.065z"/>
	<path class="st1" d="M13.458,99.182h1.399v0.649h-1.399v4.908c0,0.924,0.101,1.313,0.837,1.313c0.115,0,0.245-0.014,0.692-0.101
		l0.116,0.708c-0.462,0.086-0.664,0.116-0.924,0.116c-1.617,0-1.588-1.083-1.588-1.92v-5.023h-1.04v-0.649h1.04v-1.92l0.866-0.563
		V99.182z"/>
	<path class="st1" d="M17.284,96.324v1.328h-0.866v-1.328H17.284z M17.284,99.182v7.477h-0.866v-7.477H17.284z"/>
	<path class="st1" d="M20.476,99.182v1.068h0.028c0.274-0.418,0.896-1.241,2.252-1.241c1.429,0,1.818,0.866,1.992,1.241
		c0.39-0.491,1.011-1.241,2.338-1.241c0.823,0,1.386,0.346,1.689,0.678c0.26,0.274,0.563,0.823,0.563,1.876v5.096h-0.866v-4.648
		c0-0.924-0.028-2.252-1.573-2.252c-1.761,0-1.992,1.747-1.992,3.219v3.681h-0.865v-4.735c0-0.779,0.028-2.136-1.458-2.136
		c-1.516,0-2.107,1.4-2.107,2.887v3.984H19.61v-7.477H20.476z"/>
	<path class="st1" d="M31.334,101.217c0.289-1.559,1.256-2.208,3.22-2.208c2.829,0,2.843,1.415,2.843,3.176
		c0,0.159-0.028,1.79-0.028,2.107c0,1.328,0.13,1.674,0.462,2.367h-0.967c-0.174-0.447-0.217-0.635-0.274-1.14
		c-0.332,0.361-1.213,1.313-3.046,1.313c-1.718,0-2.382-1.083-2.382-2.079c0-0.491,0.13-1.141,0.837-1.674
		c0.274-0.217,0.621-0.448,2.281-0.679c0.75-0.101,1.544-0.202,2.237-0.447v-0.26c0-0.924,0-2.007-1.963-2.007
		c-1.949,0-2.194,1.112-2.324,1.66L31.334,101.217z M36.517,102.632c-0.621,0.231-1.66,0.433-2.382,0.563
		c-0.981,0.173-2.05,0.361-2.05,1.487c0,0.852,0.779,1.429,1.631,1.429c0.606,0,1.4-0.274,2.021-0.78
		c0.534-0.433,0.779-1.025,0.779-2.208V102.632z"/>
	<path class="st1" d="M40.735,99.182h1.4v0.649h-1.4v4.908c0,0.924,0.102,1.313,0.837,1.313c0.116,0,0.246-0.014,0.693-0.101
		l0.115,0.708c-0.462,0.086-0.664,0.116-0.924,0.116c-1.616,0-1.588-1.083-1.588-1.92v-5.023h-1.039v-0.649h1.039v-1.92l0.866-0.563
		V99.182z"/>
	<path class="st1" d="M44.143,103.021c0.028,1.805,0.852,3.089,2.512,3.089c1.646,0,2.122-1.343,2.295-1.819l0.866,0.144
		c-0.26,0.722-0.852,2.396-3.205,2.396c-2.15,0-3.392-1.516-3.392-3.912c0-2.353,1.212-3.912,3.406-3.912
		c3.248,0,3.263,3.262,3.276,4.013H44.143z M48.978,102.3c-0.173-1.992-1.313-2.569-2.381-2.569c-0.448,0-2.151,0.116-2.439,2.569
		H48.978z"/>
	<path class="st1" d="M59.909,101.116c-0.202-0.664-0.433-1.386-1.905-1.386c-1.097,0-1.746,0.447-1.746,1.212
		c0,0.693,0.375,1.068,2.223,1.458c1.516,0.317,2.599,0.823,2.599,2.136c0,1.213-0.896,2.295-2.916,2.295
		c-2.064,0-2.771-0.981-3.061-2.194l0.896-0.159c0.115,0.418,0.433,1.631,2.193,1.631c1.271,0,1.964-0.664,1.964-1.444
		c0-0.736-0.549-1.111-2.194-1.458c-1.588-0.332-2.627-0.866-2.627-2.108c0-0.736,0.505-2.093,2.655-2.093
		c1.473,0,2.382,0.433,2.771,1.978L59.909,101.116z"/>
	<path class="st1" d="M63.81,96.324v3.955h0.029c0.404-0.548,0.967-1.27,2.382-1.27c1.126,0,1.731,0.52,1.978,0.794
		c0.548,0.621,0.534,1.53,0.534,1.978v4.879h-0.866v-4.648c0-0.606-0.029-1.155-0.289-1.53c-0.303-0.447-0.837-0.707-1.443-0.707
		c-0.809,0-1.675,0.491-2.064,1.328c-0.217,0.462-0.26,1.04-0.26,2.31v3.248h-0.866V96.324H63.81z"/>
	<path class="st1" d="M71.435,103.021c0.028,1.805,0.852,3.089,2.512,3.089c1.646,0,2.122-1.343,2.295-1.819l0.866,0.144
		c-0.26,0.722-0.852,2.396-3.205,2.396c-2.15,0-3.392-1.516-3.392-3.912c0-2.353,1.212-3.912,3.406-3.912
		c3.248,0,3.263,3.262,3.276,4.013H71.435z M76.27,102.3c-0.173-1.992-1.313-2.569-2.381-2.569c-0.448,0-2.151,0.116-2.439,2.569
		H76.27z"/>
	<path class="st1" d="M79.463,103.021c0.029,1.805,0.852,3.089,2.512,3.089c1.646,0,2.122-1.343,2.295-1.819l0.866,0.144
		c-0.26,0.722-0.852,2.396-3.204,2.396c-2.151,0-3.393-1.516-3.393-3.912c0-2.353,1.213-3.912,3.407-3.912
		c3.247,0,3.262,3.262,3.276,4.013H79.463z M84.299,102.3c-0.173-1.992-1.313-2.569-2.382-2.569c-0.447,0-2.15,0.116-2.439,2.569
		H84.299z"/>
	<path class="st1" d="M87.897,99.182v1.097h0.028c0.404-0.548,0.968-1.27,2.382-1.27c1.126,0,1.732,0.52,1.978,0.794
		c0.549,0.621,0.534,1.53,0.534,1.978v4.879h-0.866v-4.648c0-0.606-0.028-1.155-0.288-1.53c-0.304-0.447-0.838-0.707-1.444-0.707
		c-0.808,0-1.674,0.491-2.063,1.328c-0.217,0.462-0.26,1.04-0.26,2.31v3.248H87.03v-7.477H87.897z"/>
	<path class="st1" d="M99.94,96.324v3.955h0.028c0.404-0.548,0.968-1.27,2.382-1.27c1.126,0,1.732,0.52,1.978,0.794
		c0.549,0.621,0.534,1.53,0.534,1.978v4.879h-0.866v-4.648c0-0.606-0.028-1.155-0.288-1.53c-0.304-0.447-0.838-0.707-1.444-0.707
		c-0.808,0-1.674,0.491-2.063,1.328c-0.217,0.462-0.26,1.04-0.26,2.31v3.248h-0.866V96.324H99.94z"/>
	<path class="st1" d="M106.799,101.217c0.288-1.559,1.256-2.208,3.219-2.208c2.829,0,2.844,1.415,2.844,3.176
		c0,0.159-0.029,1.79-0.029,2.107c0,1.328,0.13,1.674,0.462,2.367h-0.967c-0.173-0.447-0.217-0.635-0.274-1.14
		c-0.332,0.361-1.212,1.313-3.046,1.313c-1.718,0-2.382-1.083-2.382-2.079c0-0.491,0.13-1.141,0.838-1.674
		c0.274-0.217,0.62-0.448,2.28-0.679c0.751-0.101,1.545-0.202,2.237-0.447v-0.26c0-0.924,0-2.007-1.963-2.007
		c-1.948,0-2.194,1.112-2.324,1.66L106.799,101.217z M111.981,102.632c-0.62,0.231-1.66,0.433-2.382,0.563
		c-0.981,0.173-2.05,0.361-2.05,1.487c0,0.852,0.78,1.429,1.632,1.429c0.606,0,1.4-0.274,2.021-0.78
		c0.534-0.433,0.779-1.025,0.779-2.208V102.632z"/>
	<path class="st1" d="M116.011,96.324v1.328h-0.865v-1.328H116.011z M116.011,99.182v7.477h-0.865v-7.477H116.011z"/>
	<path class="st1" d="M119.102,99.182v1.501h0.028c0.159-0.548,0.534-1.674,1.718-1.674c0.621,0,1.011,0.245,1.328,0.447
		l-0.332,0.765c-0.477-0.202-0.707-0.289-1.011-0.289c-0.273,0-0.895,0.014-1.327,0.996c-0.131,0.274-0.202,0.779-0.261,1.256
		c-0.043,0.375-0.058,0.866-0.058,1.054v3.421h-0.866v-7.477H119.102z"/>
</g>
<g>
	<rect x="0" y="0" class="st0" width="208.917" height="49.493"/>
	<path class="st1" d="M0.784,16.835c1.075-2.261,2.061-4.613,2.862-7.02l0.547,0.31C3.3,12.97,2.48,14.939,1.349,17.273
		L0.784,16.835z M3.355,7.864c-0.802-0.82-1.677-1.513-2.498-2.243l0.492-0.438l2.499,2.17L3.355,7.864z M4.486,3.178L4.048,3.707
		L1.696,1.574l0.456-0.438L4.486,3.178z M5.962,16.216c0.401,0.109,1.003,0.109,1.459,0.055c0.584-0.019,0.693-0.583,0.803-0.985
		c0.401-1.513,0.474-3.082,0.547-4.759l0.091-1.878L6.619,8.63c-0.055,2.297-0.492,4.577-1.604,6.509
		c-0.42,0.748-0.876,1.477-1.35,2.188c-0.201-0.146-0.42-0.274-0.602-0.456c1.55-2.17,2.844-4.832,2.844-7.622V5.129h-1.75V4.473
		h6.163v0.638H6.655L6.637,7.974l2.954,0.019c-0.019,2.206-0.036,4.212-0.419,6.364c-0.164,0.966-0.273,2.389-1.459,2.553
		C7.148,17,6.82,17,6.291,16.945L5.962,16.216z M6.109,1.026C6.254,0.936,6.51,0.844,6.71,0.753l1.44,3.063L7.494,4.053L6.109,1.026
		z M12.417,0.954c-0.036,0.857-0.273,1.732-0.511,2.571h5.052v0.675h-5.252c-0.292,0.766-0.547,1.477-0.894,2.243l-0.675-0.273
		c0.055-0.219,0.183-0.419,0.273-0.638c0.62-1.513,1.167-3.045,1.313-4.723L12.417,0.954z M13.165,9.159l1.823-2.207H11.25V6.296
		l4.613,0.018v0.675c-0.638,0.784-1.276,1.55-1.969,2.352v1.696h2.79v0.638l-2.809,0.018l0.019,4.851
		c0,0.419-0.201,0.656-0.547,0.784c-0.493,0.255-1.021,0.146-1.678,0.127l-0.328-0.675c0.474,0,0.984,0.109,1.386,0.019
		c0.273-0.037,0.419-0.255,0.419-0.547v-4.577l-2.881,0.018l0.019-0.656h2.862L13.165,9.159z"/>
	<path class="st1" d="M21.523,14.885l-0.292-0.693c0.656-0.036,1.313-0.127,1.933-0.273v-2.334h-2.297v6.108h-0.712v-6.09
		l-1.003-0.019V10.91l1.003-0.019V9.706h0.729v1.185h2.298V9.195l-2.535,0.019V4.382h0.712v4.139h4.704
		c0.019-1.55,0.019-2.681,0-4.158h0.711v4.832h-2.881v1.696h3.392l-0.019,5.507c0,0.492-0.364,0.839-0.766,0.894
		c-0.583,0.146-1.186,0.109-1.896,0.091l-0.255-0.766c0.474,0.091,1.367,0.091,1.586,0.055c0.401,0,0.602-0.255,0.639-0.51
		l0.018-4.595c-0.875-0.018-1.786,0-2.68,0v2.225c0.383-0.018,0.766-0.109,1.148-0.219l-0.474-1.149l0.638-0.182
		c0.383,0.93,0.729,1.823,0.912,2.826c-0.183,0.073-0.401,0.182-0.62,0.237l-0.292-1.094L21.523,14.885z M27.978,2.996V3.67
		L19.17,3.652V2.978l4.595,0.018c-0.51-0.565-1.003-1.003-1.622-1.404l0.438-0.474c0.547,0.383,1.294,0.912,1.75,1.404l-0.401,0.456
		L27.978,2.996z M25.242,7.956c-0.365-0.438-0.839-0.894-1.276-1.276c-0.62,0.474-1.222,1.039-1.878,1.422l-0.42-0.511
		c0.584-0.401,1.203-0.839,1.732-1.331c-0.456-0.438-0.948-0.711-1.514-1.076l0.383-0.547c0.565,0.31,1.076,0.693,1.604,1.094
		c0.347-0.347,0.857-0.802,1.167-1.185l0.456,0.456c-0.292,0.401-0.729,0.784-1.094,1.186c0.474,0.456,0.802,0.766,1.24,1.24
		L25.242,7.956z M28.798,17.748l0.018-11.105c-0.236,0.748-0.729,1.586-1.148,2.297l-0.583-0.401
		c1.403-2.297,2.206-4.869,2.826-7.476l0.62,0.219c-0.219,1.076-0.529,2.061-0.839,3.082h5.562l-0.019,0.675h-2.607v2.826h2.353
		v0.675h-2.353l0.019,2.936l2.334-0.018v0.675h-2.353l0.019,3.392l2.881-0.019l-0.019,0.693h-5.98v1.514L28.798,17.748z
		 M31.934,5.129h-2.389v2.844h2.389V5.129z M31.916,11.584l0.018-2.917h-2.389v2.917H31.916z M29.564,12.259l-0.019,3.374h2.389
		l-0.018-3.374H29.564z M32.499,4.035c-0.292-0.766-0.729-1.514-1.222-2.225l0.584-0.346c0.492,0.711,0.948,1.477,1.294,2.279
		L32.499,4.035z"/>
	<path class="st1" d="M40.31,2.267h10.667l-0.019,0.693L46.273,6.46v2.225l7.402,0.018v0.693l-7.402,0.018v7.002
		c0,0.383-0.274,0.748-0.693,0.803c-0.547,0.182-1.367,0.091-2.298,0.073l-0.346-0.766c0.711,0.019,1.239,0.073,2.023,0.055
		c0.328-0.019,0.529-0.292,0.529-0.511V9.414h-7.896l-0.019-0.729l7.914,0.018V6.059c1.477-0.93,2.881-1.987,4.267-3.045
		L40.31,2.978V2.267z"/>
	<path class="st1" d="M71.751,17.62c-2.389-0.474-4.74-1.058-6.947-1.969c-2.516,1.076-5.032,1.678-7.713,2.024l-0.292-0.729
		c2.645-0.328,5.124-0.838,7.33-1.75c-1.167-0.51-2.206-1.349-3.117-2.279c-1.478,1.422-3.337,2.462-5.069,3.118l-0.438-0.583
		c2.115-0.82,4.12-1.969,5.762-3.756h-5.379v-0.656h5.798c0.401-0.456,0.657-0.912,0.857-1.404l0.583,0.328
		c-0.164,0.292-0.364,0.674-0.638,1.076h9.354v0.656h-9.756l-0.62,0.766c0.931,1.039,1.97,1.75,3.265,2.37
		c1.167-0.602,2.279-1.513,3.081-2.553l0.565,0.365c-0.784,1.04-1.842,2.006-2.954,2.571c1.97,0.82,4.431,1.422,6.655,1.769
		L71.751,17.62z M59.644,7.171c-0.547,0.62-1.313,1.295-2.061,1.805c1.623-0.146,3.319-0.31,4.96-0.456
		c-0.347-0.292-0.784-0.529-1.203-0.766l0.383-0.401c0.894,0.51,1.823,1.167,2.626,2.005l-0.456,0.438L63.126,9.05
		c-2.188,0.164-4.011,0.328-6.29,0.565L56.654,9.05c0.766-0.511,1.623-1.24,2.243-1.878h-3.265L55.614,6.57h2.023V1.92h6.4v0.638
		h-5.652v0.839h4.905v0.638h-4.905v0.894h4.868v0.62h-4.868v1.002h6.09v0.62H59.644z M64.913,4.199l-0.4-0.565
		c1.896-0.656,3.756-1.422,5.47-2.534l0.511,0.438C68.761,2.686,66.864,3.543,64.913,4.199z M65.114,9.56l-0.347-0.565
		c2.151-0.656,4.449-1.732,6.527-3.063l0.456,0.492C69.928,7.682,67.375,8.867,65.114,9.56z M65.552,6.588l-0.438-0.565
		c1.859-0.674,3.665-1.44,5.36-2.479l0.365,0.474C69.181,5.093,67.375,5.877,65.552,6.588z M68.269,10.91
		c-0.492-0.493-1.039-0.93-1.659-1.276l0.456-0.456c0.602,0.365,1.222,0.82,1.695,1.24L68.269,10.91z"/>
	<path class="st1" d="M76.809,9.943c-0.292,1.496-0.857,2.899-1.423,4.304c-0.237,0.583-0.474,1.167-0.784,1.677l-0.638-0.31
		c0.911-1.841,1.604-3.847,2.151-5.871L76.809,9.943z M81.549,4.035V4.71h-2.517v2.334h-0.783V4.691h-4.012V4.035h4.012V1.5h0.783
		v2.535H81.549z M79.507,14.611c0,0.711-0.237,1.331,0.273,1.769c0.273,0.219,0.62,0.237,0.984,0.237h3.72
		c0.438-0.127,0.729-0.547,0.767-0.984l0.438-2.152c0.236,0.055,0.456,0.146,0.675,0.237l-0.548,2.735
		c-0.273,0.656-0.966,0.857-1.622,0.857h-4.121c-0.438,0-0.82-0.237-1.095-0.602c-0.2-0.255-0.255-0.565-0.255-0.894V9.031h0.784
		V14.611z M83.591,11.019c-0.236,0.109-0.474,0.237-0.747,0.31c-0.529-1.422-1.167-2.79-1.878-4.139c0.2-0.109,0.4-0.273,0.62-0.364
		C82.333,8.174,83.008,9.579,83.591,11.019z M85.87,4.035h4.049V4.71h-4.03v2.297h-0.802V4.691h-2.571V4.035h2.589V1.464h0.766
		V4.035z M90.101,15.377c-0.2,0.164-0.419,0.346-0.656,0.438c-0.839-1.915-1.787-3.774-2.917-5.58c0.219-0.091,0.4-0.219,0.638-0.31
		C88.314,11.675,89.244,13.499,90.101,15.377z"/>
	<path class="st1" d="M99.972,12.532h-5.215V6.807h5.215V5.33h-7.257V4.673h7.257V2.886l-3.173,0.329
		c-0.638,0.073-1.313,0.073-1.97,0.127l-0.255-0.675c3.684-0.182,7.294-0.547,10.686-1.458l0.419,0.62
		c-1.623,0.419-3.3,0.748-4.996,0.985v1.86h7.349V5.33h-7.33l-0.019,1.459l5.252,0.018v5.726l-5.252,0.019v1.458l6.31,0.018v0.638
		h-6.31v1.641l7.822,0.019v0.638H92.131v-0.638h7.859v-1.66h-6.273v-0.656h6.273L99.972,12.532z M95.468,7.463v1.696h4.522
		l-0.019-1.714L95.468,7.463z M99.99,9.815h-4.522v2.061h4.522V9.815z M105.223,7.445h-4.521v1.714h4.521V7.445z M105.223,9.815
		h-4.521v2.061h4.521V9.815z"/>
	<path class="st1" d="M114.237,1.264c-0.4,1.896-1.458,3.537-2.498,5.197c0.548,0,2.389-0.365,3.21-0.62
		c0.4-0.656,0.747-1.331,1.021-2.042l0.656,0.273c-1.531,3.464-3.464,5.634-4.668,7.129l0.657-0.109l3.556-0.729
		c-0.128-0.292-0.311-0.802-0.693-1.532l0.656-0.31c0.311,0.474,0.547,1.058,0.767,1.604c0.291,0.711,0.51,1.44,0.729,2.17
		l-0.747,0.219c-0.128-0.511-0.256-1.076-0.438-1.55l-4.304,0.912l-1.295,0.438c-0.127-0.182-0.219-0.383-0.346-0.547
		c1.203-1.35,3.318-3.975,3.957-5.087c-0.657,0.037-1.496,0.255-2.882,0.565l-0.692,0.237l-0.311-0.602
		c1.551-2.024,2.535-4.194,3.009-5.854L114.237,1.264z M110.535,17.109c0.639-1.331,1.094-2.68,1.148-4.249l0.712,0.201
		c-0.092,1.44-0.511,2.936-1.021,4.303L110.535,17.109z M113.946,16.38c-0.055-1.222-0.256-2.407-0.565-3.538
		c0.255-0.055,0.492-0.109,0.729-0.164c0.292,1.13,0.419,2.261,0.547,3.464L113.946,16.38z M116.17,15.268
		c-0.292-0.985-0.565-1.988-1.003-2.917c0.236-0.091,0.474-0.128,0.711-0.219c0.401,0.93,0.766,1.86,1.003,2.844L116.17,15.268z
		 M125.031,15.778l1.659-0.018v0.729h-10.339V15.76h2.098V1.993h6.582V15.778z M124.266,2.704h-5.051v3.647l5.069-0.019
		L124.266,2.704z M119.215,10.982l5.051-0.018V7.062h-5.051V10.982z M119.215,11.693v4.084h5.051v-4.084H119.215z"/>
	<path class="st1" d="M130.308,17.82l0.018-9.683c-0.364,0.62-0.766,1.313-1.258,1.896c-0.219-0.164-0.365-0.401-0.529-0.583
		c1.842-2.425,2.754-5.27,3.337-8.242l0.675,0.201c-0.328,1.714-0.856,3.482-1.459,5.105V17.82H130.308z M132.733,14.356V4.929
		h0.784l-0.019,9.427H132.733z M133.334,17.146c3.592-0.857,6.983-2.188,9.938-4.595c0.146-0.091,0.347-0.237,0.456-0.347
		l0.438,0.474c-2.681,2.516-5.98,4.048-9.427,4.869l-0.912,0.219L133.334,17.146z M143.892,4.199h-1.531
		c-0.548,1.149-1.331,2.243-2.353,3.173c1.531,1.021,3.246,1.678,4.978,2.17l-0.438,0.638c-1.805-0.474-3.501-1.24-5.069-2.297
		l-0.091,0.018c-1.477,1.094-3.1,1.933-4.796,2.535l-0.328-0.602c1.604-0.62,3.191-1.349,4.613-2.425
		c-0.856-0.784-1.531-1.55-2.206-2.462c-0.584,0.657-1.112,1.386-1.769,2.006c-0.201-0.201-0.438-0.273-0.639-0.401
		c1.714-1.623,2.79-3.318,3.52-5.27l0.693,0.219c-0.292,0.675-0.548,1.368-0.912,2.006h6.346L143.892,4.199z M134.629,14.319
		c2.57-0.711,4.996-1.805,7.129-3.592l0.584,0.438c-1.769,1.568-3.865,2.498-5.944,3.41l-1.258,0.365L134.629,14.319z M140.5,9.706
		c-1.623,1.349-3.465,2.279-5.379,3.009l-0.456-0.583c1.896-0.62,3.665-1.532,5.27-2.827L140.5,9.706z M137.127,4.217
		c0.492,1.021,1.331,2.006,2.279,2.717c0.93-0.729,1.568-1.769,2.133-2.735L137.127,4.217z"/>
	<path class="st1" d="M146.761,4.619V3.98h5.907v0.62L146.761,4.619z M147.654,6.807l-0.019-0.638h4.248v0.638H147.654z
		 M147.654,9.013v-0.62h4.229v0.62H147.654z M151.064,16.581v-0.985l-2.516-0.018l-0.019,1.531l-0.711,0.019v-6.309h3.938
		l0.018,5.762H151.064z M151.064,11.475h-2.516v3.52h2.516V11.475z M150.098,3.78l-0.092-0.018c-0.328-0.875-0.729-1.75-1.239-2.571
		c0.182-0.109,0.383-0.255,0.602-0.31c0.492,0.838,0.93,1.714,1.313,2.589L150.098,3.78z M162.825,17.547
		c-1.66-0.511-3.282-1.094-4.851-1.842c-1.769,0.857-3.665,1.44-5.598,1.915l-0.347-0.656c1.787-0.419,3.537-0.912,5.179-1.678
		c-1.003-0.602-1.988-1.276-2.771-2.151h-1.222v-0.602h8.405v0.474c-0.93,0.857-1.896,1.641-2.899,2.261
		c1.44,0.693,2.954,1.203,4.486,1.659C163.099,17.146,162.971,17.346,162.825,17.547z M154.438,11.384v0.62h-0.712V7.117
		c-0.236,0.456-0.638,0.857-1.003,1.295c-0.2-0.091-0.346-0.255-0.51-0.401c1.13-1.222,1.969-2.607,2.717-4.048l0.51,0.292
		c-0.182,0.438-0.4,0.875-0.619,1.276h3.592c-0.383-0.51-0.784-0.93-1.24-1.331l0.529-0.401c0.583,0.528,1.13,1.148,1.586,1.75
		h3.446v0.62h-4.23v1.076l3.647,0.018v0.62h-3.665v1.094l3.646,0.018v0.62h-3.665v1.131l4.704,0.018v0.62H154.438z M156.224,4.819
		l-0.018-1.422h-3.337V2.795h3.337l0.018-1.878l0.712-0.018l0.018,3.92H156.224z M157.756,6.223h-3.318v1.058h3.318V6.223z
		 M157.756,7.919h-3.318v1.094h3.318V7.919z M157.756,9.633l-3.318,0.018v1.13l3.318-0.018V9.633z M155.33,13.134
		c0.821,0.674,1.678,1.331,2.645,1.732c0.93-0.419,1.695-1.167,2.607-1.696L155.33,13.134z M159.543,3.36v1.44h-0.693v-3.92h0.711
		v1.86h3.538v0.62H159.543z"/>
	<path class="st1" d="M170.161,14.301c-0.656-1.186-1.112-1.75-1.769-2.681c-0.456,2.079-1.495,3.866-2.571,5.616
		c-0.219-0.055-0.42-0.273-0.639-0.383c1.259-1.951,2.407-3.848,2.607-6.273l0.092-1.148L167.9,1.1h0.639v5.707
		c0.474-0.438,1.404-1.532,1.97-2.261c0.2,0.109,0.364,0.255,0.547,0.401c-0.748,0.985-1.623,1.896-2.517,2.681
		c0,1.148,0.036,1.987-0.073,3.082c0.931,1.294,1.587,1.86,2.262,3.209L170.161,14.301z M165.183,9.068
		c0.565-1.204,1.021-2.425,1.295-3.756c0.219,0.055,0.401,0.127,0.62,0.201c-0.255,1.349-0.748,2.535-1.24,3.792L165.183,9.068z
		 M169.341,17.164c1.239-2.261,2.188-4.613,2.188-7.293V2.048h8.352v3.975h-7.641v1.933h8.479l-0.037,4.048l-0.146,2.936
		c-0.036,0.912,0.055,2.224-1.148,2.516c-0.839,0.018-1.714-0.037-2.535-0.109l-0.055-0.711l2.098,0.182
		c0.328,0.037,0.656-0.219,0.784-0.511c0.146-0.912,0.255-1.969,0.273-2.899l0.072-3.045V8.594h-7.768
		c0.073,2.225-0.164,4.395-0.967,6.291c-0.383,0.893-0.783,1.805-1.258,2.662L169.341,17.164z M179.151,2.704h-6.911v2.644h6.911
		V2.704z M173.881,15.65v-5.343h3.938v4.941h-0.729v-0.82h-2.498v1.222H173.881z M177.109,10.982h-2.517v2.808h2.517V10.982z"/>
	<path class="st1" d="M183.788,5.257c0.93,0.748,1.914,1.514,2.753,2.334l-0.474,0.529c-0.839-0.802-1.823-1.641-2.735-2.334
		L183.788,5.257z M183.496,16.981c1.44-2.225,2.498-4.631,3.392-7.093l0.602,0.474c-0.948,2.425-1.969,4.923-3.446,7.111
		L183.496,16.981z M187.107,4.437c-0.839-0.839-1.787-1.732-2.717-2.499l0.456-0.51c0.656,0.51,1.294,1.058,1.878,1.641l0.839,0.857
		L187.107,4.437z M198.266,5.348v12.016h-0.784v-1.586l-8.169-0.018l0.019,1.604h-0.784V5.366h4.449V0.881l0.766,0.018v4.449
		H198.266z M192.996,6.041h-3.684v3.957h3.684V6.041z M192.996,10.672h-3.337l-0.347,0.018v4.413h3.684V10.672z M197.482,6.041
		h-3.701v3.957h3.701V6.041z M197.482,10.672h-3.701v4.431h3.701V10.672z"/>
	<path class="st1" d="M3.154,25.121v13.056h-1.24V25.121H3.154z"/>
	<path class="st1" d="M10.121,38.395c-2.662,0-4.23-2.042-4.212-4.887c0.019-3.264,1.623-4.996,4.212-4.996
		c2.553,0,4.23,1.732,4.23,4.996C14.352,36.298,13.058,38.395,10.121,38.395z M10.158,29.424c-2.079,0-3.082,1.75-3.082,4.084
		c0,2.589,1.295,3.975,3.1,3.975c1.806,0,3.009-1.44,3.009-3.975C13.185,30.919,12.072,29.424,10.158,29.424z"/>
	<path class="st1" d="M17.765,28.731v1.386h0.037c0.51-0.693,1.222-1.604,3.009-1.604c1.422,0,2.188,0.656,2.498,1.003
		c0.692,0.784,0.674,1.933,0.674,2.498v6.163h-1.094v-5.872c0-0.766-0.036-1.458-0.364-1.933c-0.383-0.565-1.058-0.894-1.824-0.894
		c-1.021,0-2.114,0.62-2.607,1.678c-0.273,0.583-0.328,1.313-0.328,2.917v4.103h-1.094v-9.445H17.765z"/>
	<path class="st1" d="M27.925,25.121v1.678h-1.094v-1.678H27.925z M27.925,28.731v9.445h-1.094v-9.445H27.925z"/>
	<path class="st1" d="M37.426,31.576c-0.401-1.368-1.495-2.152-2.918-2.152c-1.167,0-3.1,0.729-3.1,3.902
		c0,2.389,1.094,4.157,3.154,4.157c2.152,0,2.79-1.805,3.063-2.535l1.095,0.164c-0.219,0.912-0.912,3.282-4.213,3.282
		c-3.081,0-4.267-2.389-4.267-4.959c0-1.915,0.748-4.923,4.321-4.923c1.66,0,3.246,0.492,4.03,2.881L37.426,31.576z"/>
	<path class="st1" d="M54.954,30.755v-5.634h1.239v13.056h-1.239v-6.327h-7.513v6.327h-1.24V25.121h1.24v5.634H54.954z"/>
	<path class="st1" d="M58.86,31.302c0.365-1.969,1.587-2.79,4.066-2.79c3.574,0,3.593,1.787,3.593,4.011
		c0,0.201-0.037,2.261-0.037,2.663c0,1.677,0.164,2.115,0.584,2.99h-1.222c-0.219-0.565-0.273-0.802-0.347-1.44
		c-0.419,0.456-1.531,1.659-3.848,1.659c-2.17,0-3.009-1.368-3.009-2.625c0-0.62,0.164-1.441,1.058-2.115
		c0.347-0.273,0.784-0.565,2.881-0.857c0.948-0.128,1.951-0.255,2.827-0.565v-0.328c0-1.167,0-2.535-2.48-2.535
		c-2.461,0-2.771,1.404-2.936,2.097L58.86,31.302z M65.406,33.089c-0.784,0.292-2.098,0.547-3.009,0.711
		c-1.24,0.219-2.59,0.456-2.59,1.878c0,1.076,0.985,1.805,2.061,1.805c0.766,0,1.769-0.347,2.553-0.985
		c0.675-0.547,0.985-1.294,0.985-2.79V33.089z"/>
	<path class="st1" d="M70.496,25.121v1.678h-1.094v-1.678H70.496z M70.496,28.731v9.445h-1.094v-9.445H70.496z"/>
	<path class="st1" d="M74.4,28.731v1.896h0.036c0.201-0.693,0.675-2.115,2.17-2.115c0.784,0,1.276,0.31,1.678,0.565l-0.419,0.967
		c-0.602-0.255-0.894-0.365-1.276-0.365c-0.347,0-1.131,0.018-1.678,1.258c-0.164,0.346-0.255,0.984-0.328,1.586
		c-0.055,0.474-0.073,1.094-0.073,1.332v4.321h-1.094v-9.445H74.4z"/>
	<path class="st1" d="M90.231,25.121c1.075,0,2.006,0.237,2.644,0.711c0.82,0.62,1.295,1.678,1.295,2.772
		c0,1.915-1.186,3.227-3.793,3.464v0.037c0.984,0.474,1.459,0.784,2.407,2.243l2.479,3.829h-1.586l-1.915-3.009
		c-1.714-2.68-2.406-2.99-3.902-2.99h-1.896v5.999h-1.24V25.121H90.231z M85.964,26.214v4.869h3.446
		c0.783,0,3.482,0.019,3.482-2.461c0-2.297-2.315-2.407-3.428-2.407H85.964z"/>
	<path class="st1" d="M97.327,33.581c0.036,2.279,1.076,3.902,3.173,3.902c2.079,0,2.681-1.696,2.899-2.297l1.094,0.182
		c-0.328,0.912-1.076,3.027-4.048,3.027c-2.717,0-4.285-1.915-4.285-4.941c0-2.972,1.531-4.941,4.304-4.941
		c4.103,0,4.12,4.121,4.139,5.069H97.327z M103.436,32.669c-0.219-2.516-1.659-3.246-3.009-3.246c-0.565,0-2.717,0.146-3.081,3.246
		H103.436z"/>
	<path class="st1" d="M112.173,31.174c-0.255-0.839-0.547-1.75-2.406-1.75c-1.386,0-2.207,0.565-2.207,1.532
		c0,0.875,0.475,1.349,2.809,1.842c1.914,0.401,3.282,1.039,3.282,2.698c0,1.532-1.131,2.899-3.684,2.899
		c-2.607,0-3.501-1.24-3.865-2.771l1.13-0.201c0.146,0.529,0.547,2.061,2.771,2.061c1.605,0,2.48-0.839,2.48-1.823
		c0-0.93-0.693-1.404-2.771-1.842c-2.006-0.419-3.319-1.094-3.319-2.662c0-0.93,0.639-2.644,3.355-2.644
		c1.86,0,3.009,0.547,3.501,2.498L112.173,31.174z"/>
	<path class="st1" d="M122.132,38.176v-1.404h-0.036c-0.511,0.711-1.222,1.623-3.009,1.623c-1.422,0-2.151-0.675-2.462-1.003
		c-0.729-0.766-0.711-1.951-0.711-2.498v-6.163h1.094v5.853c0,0.766,0.037,1.477,0.365,1.951c0.383,0.547,1.058,0.894,1.823,0.894
		c1.021,0,2.115-0.638,2.607-1.696c0.256-0.565,0.328-1.313,0.328-2.917v-4.084h1.095v9.445H122.132z"/>
	<path class="st1" d="M127.113,28.731v1.896h0.036c0.201-0.693,0.675-2.115,2.17-2.115c0.784,0,1.276,0.31,1.678,0.565l-0.419,0.967
		c-0.602-0.255-0.894-0.365-1.276-0.365c-0.347,0-1.131,0.018-1.678,1.258c-0.164,0.346-0.255,0.984-0.328,1.586
		c-0.055,0.474-0.073,1.094-0.073,1.332v4.321h-1.094v-9.445H127.113z"/>
	<path class="st1" d="M133.188,28.731v1.896h0.036c0.2-0.693,0.675-2.115,2.17-2.115c0.784,0,1.276,0.31,1.678,0.565l-0.42,0.967
		c-0.602-0.255-0.894-0.365-1.276-0.365c-0.347,0-1.13,0.018-1.678,1.258c-0.164,0.346-0.255,0.984-0.328,1.586
		c-0.055,0.474-0.072,1.094-0.072,1.332v4.321h-1.095v-9.445H133.188z"/>
	<path class="st1" d="M138.878,33.581c0.036,2.279,1.076,3.902,3.173,3.902c2.079,0,2.681-1.696,2.899-2.297l1.094,0.182
		c-0.328,0.912-1.076,3.027-4.048,3.027c-2.717,0-4.285-1.915-4.285-4.941c0-2.972,1.531-4.941,4.304-4.941
		c4.103,0,4.12,4.121,4.139,5.069H138.878z M144.987,32.669c-0.219-2.516-1.659-3.246-3.009-3.246c-0.565,0-2.717,0.146-3.081,3.246
		H144.987z"/>
	<path class="st1" d="M155,31.576c-0.4-1.368-1.495-2.152-2.917-2.152c-1.167,0-3.1,0.729-3.1,3.902
		c0,2.389,1.094,4.157,3.154,4.157c2.151,0,2.79-1.805,3.063-2.535l1.094,0.164c-0.219,0.912-0.912,3.282-4.212,3.282
		c-3.082,0-4.267-2.389-4.267-4.959c0-1.915,0.747-4.923,4.321-4.923c1.659,0,3.245,0.492,4.029,2.881L155,31.576z"/>
	<path class="st1" d="M159.927,28.731h1.769v0.82h-1.769v6.2c0,1.167,0.128,1.66,1.058,1.66c0.146,0,0.311-0.019,0.875-0.128
		l0.146,0.894c-0.584,0.109-0.839,0.146-1.167,0.146c-2.042,0-2.006-1.368-2.006-2.425v-6.346h-1.313v-0.82h1.313v-2.425
		l1.094-0.711V28.731z"/>
	<path class="st1" d="M163.266,31.302c0.364-1.969,1.586-2.79,4.066-2.79c3.573,0,3.592,1.787,3.592,4.011
		c0,0.201-0.036,2.261-0.036,2.663c0,1.677,0.164,2.115,0.583,2.99h-1.222c-0.219-0.565-0.273-0.802-0.347-1.44
		c-0.419,0.456-1.531,1.659-3.847,1.659c-2.17,0-3.009-1.368-3.009-2.625c0-0.62,0.164-1.441,1.058-2.115
		c0.347-0.273,0.784-0.565,2.881-0.857c0.948-0.128,1.951-0.255,2.826-0.565v-0.328c0-1.167,0-2.535-2.479-2.535
		c-2.462,0-2.771,1.404-2.936,2.097L163.266,31.302z M169.812,33.089c-0.784,0.292-2.097,0.547-3.009,0.711
		c-1.239,0.219-2.589,0.456-2.589,1.878c0,1.076,0.984,1.805,2.061,1.805c0.766,0,1.769-0.347,2.553-0.985
		c0.675-0.547,0.984-1.294,0.984-2.79V33.089z"/>
	<path class="st1" d="M174.884,28.731v1.386h0.037c0.51-0.693,1.222-1.604,3.009-1.604c1.422,0,2.188,0.656,2.498,1.003
		c0.692,0.784,0.674,1.933,0.674,2.498v6.163h-1.094v-5.872c0-0.766-0.036-1.458-0.364-1.933c-0.383-0.565-1.058-0.894-1.824-0.894
		c-1.021,0-2.114,0.62-2.607,1.678c-0.273,0.583-0.328,1.313-0.328,2.917v4.103h-1.094v-9.445H174.884z"/>
	<path class="st1" d="M185.281,28.731h1.769v0.82h-1.769v6.2c0,1.167,0.127,1.66,1.058,1.66c0.146,0,0.31-0.019,0.875-0.128
		l0.146,0.894c-0.583,0.109-0.839,0.146-1.167,0.146c-2.042,0-2.006-1.368-2.006-2.425v-6.346h-1.313v-0.82h1.313v-2.425
		l1.095-0.711V28.731z"/>
</g>
</svg>