<!-- Generator: Adobe Illustrator 19.2.0, SVG Export Plug-In  -->
<svg version="1.1"
	 xmlns="http://www.w3.org/2000/svg" xmlns:xlink="http://www.w3.org/1999/xlink" xmlns:a="http://ns.adobe.com/AdobeSVGViewerExtensions/3.0/"
	 x="0px" y="0px" width="236.942px" height="177.569px" viewBox="0 0 236.942 177.569"
	 style="enable-background:new 0 0 236.942 177.569;" xml:space="preserve">
<style type="text/css">
	.st0{fill:none;}
	.st1{fill:#3E3A39;}
</style>
<defs>
</defs>
<g>
	<rect x="0" y="0" class="st0" width="236.941" height="44.331"/>
	<path class="st1" d="M0.857,14.739c0.273-0.328,0.638-0.639,0.966-0.985c2.006-2.188,3.829-4.668,4.212-7.566H1.477V5.494h5.398
		c-0.274,2.553-1.259,4.796-2.863,6.802c-0.784,0.966-1.678,2.061-2.571,2.898L0.857,14.739z M9.281,3.288
		c0.438,1.495,1.112,2.972,1.896,4.357c1.787-1.039,3.082-2.133,4.285-3.1l0.639,0.401c-1.404,1.295-3.01,2.315-4.541,3.354
		c1.35,2.371,3.592,4.65,5.58,6.438l-0.547,0.638c-3.902-3.318-6.255-7.038-7.275-10.484L9.281,16.435
		c0,0.401-0.127,0.912-0.711,1.021c-0.656,0.109-1.332,0.146-2.079,0.072L6.145,16.8c0.621,0.055,1.204,0.072,1.824,0
		c0.291,0,0.528-0.347,0.528-0.657L8.479,0.881c0.292,0,0.547-0.019,0.803,0V3.288z"/>
	<path class="st1" d="M18.97,15.578c1.185-2.298,2.353-4.65,2.99-7.167l0.565,0.365c-0.82,2.936-1.824,5.124-2.918,7.13
		L18.97,15.578z M19.717,2.54c1.094,1.186,2.098,2.407,2.973,3.702L22.16,6.606c-0.875-1.24-1.951-2.589-3.008-3.684L19.717,2.54z
		 M25.99,11.184h2.516v0.656l-2.589,0.018c-0.036,0.401-0.146,0.767-0.219,1.149c0.784,0.729,1.495,1.35,2.151,2.242l-0.51,0.42
		c-0.676-0.857-1.441-1.604-1.916-1.951c-0.564,1.459-1.658,2.717-2.917,3.793l-0.474-0.456c1.623-1.331,2.99-3.1,3.191-5.179
		h-2.682l-0.018-0.656h2.699l0.018-2.353h-1.222l-0.802,1.787c-0.219-0.073-0.438-0.146-0.639-0.273
		c0.639-1.222,1.148-2.498,1.477-3.848l0.639,0.201c-0.128,0.51-0.292,1.003-0.438,1.495h3.92l0.019,0.656h-2.225L25.99,11.184z
		 M24.057,5.038c0,0.42,0.201,0.639,0.62,0.639l3.884,0.018v0.639L24.13,6.314c-0.456,0-0.82-0.328-0.82-0.802V1.081h0.729v1.97
		h3.975v0.656h-3.975L24.057,5.038z M32.189,10.892h2.735v0.656h-2.718v4.285c1.059,0.292,2.225,0.383,3.374,0.347l-0.328,0.711
		c-2.298-0.055-4.54-0.492-5.981-2.37c-0.291,0.93-0.656,1.786-1.494,2.789l-0.566-0.291c0.949-1.276,1.441-2.152,1.66-3.429
		c0.219-1.258,0.328-2.68,0.346-3.956l0.693,0.091c-0.072,1.331-0.219,2.717-0.438,3.993c0.584,0.711,1.186,1.404,2.023,1.769
		l0.019-7.804l-2.972-0.019V7.025h6.71c-0.383,0.894-0.729,1.787-1.204,2.645c-0.2-0.092-0.4-0.201-0.583-0.311
		c0.273-0.619,0.62-1.203,0.82-1.695h-2.042L32.189,10.892z M31.515,5.13c0.784-0.803,1.604-1.623,2.298-2.498l-4.979,0.018V1.975
		h5.781v0.712c-0.748,1.002-1.66,1.969-2.572,2.844c0.383,0.311,0.785,0.639,1.168,0.948l-0.547,0.42
		c-0.912-0.784-1.896-1.532-2.9-2.188l0.402-0.492L31.515,5.13z"/>
	<path class="st1" d="M37.848,5.421c1.059,0.821,2.006,1.769,2.936,2.662l-0.528,0.603l-2.006-1.97l-0.875-0.748L37.848,5.421z
		 M37.429,16.745c1.732-2.024,3.136-4.213,4.34-6.492l0.602,0.401c-1.239,2.298-2.626,4.559-4.34,6.583L37.429,16.745z M41.75,5.057
		c-0.619-0.82-1.714-1.842-2.936-2.973L39.38,1.61c1.021,0.911,1.987,1.896,2.862,2.862L41.75,5.057z M48.387,5.185v3.282h5.325
		v0.656h-4.358v6.309c0.037,0.256,0.219,0.492,0.438,0.62l0.365,0.109h1.933c0.237-0.055,0.456-0.2,0.603-0.401
		c0.273-0.675,0.254-1.458,0.438-2.151c0.236,0.019,0.438,0.183,0.656,0.273c-0.128,0.711-0.201,1.495-0.401,2.17
		c-0.2,0.456-0.657,0.803-1.112,0.803L49.7,16.836c-0.474-0.128-0.875-0.492-1.021-0.948l-0.109-0.547V9.123h-1.77
		c-0.255,2.389-0.564,4.777-2.498,6.455c-0.984,0.838-2.023,1.477-3.082,2.042l-0.474-0.602c1.678-0.876,3.61-1.988,4.468-3.884
		c0.547-1.223,0.766-2.663,0.838-3.994l-3.865-0.018V8.467h5.434V5.185h-2.717c-0.474,0.984-0.966,1.987-1.641,2.862
		c-0.219-0.128-0.42-0.255-0.639-0.438c1.277-1.659,2.006-3.556,2.699-5.471c0.219,0.037,0.455,0.183,0.674,0.273l-0.783,2.061
		h2.389V1.063h0.766v3.409h4.541v0.712H48.387z"/>
	<path class="st1" d="M71.752,17.62c-2.389-0.475-4.741-1.058-6.947-1.97c-2.517,1.076-5.033,1.678-7.713,2.024l-0.293-0.729
		c2.645-0.328,5.125-0.839,7.33-1.751c-1.166-0.51-2.205-1.349-3.117-2.279c-1.477,1.423-3.337,2.462-5.069,3.118l-0.438-0.583
		c2.115-0.82,4.12-1.97,5.762-3.757h-5.379v-0.656h5.798c0.402-0.456,0.657-0.911,0.857-1.403l0.584,0.328
		c-0.164,0.291-0.365,0.674-0.639,1.075h9.354v0.656h-9.755l-0.621,0.767c0.931,1.039,1.97,1.75,3.265,2.37
		c1.167-0.602,2.279-1.514,3.081-2.553l0.565,0.364c-0.784,1.04-1.841,2.006-2.954,2.571c1.97,0.82,4.432,1.423,6.656,1.769
		L71.752,17.62z M59.645,7.172c-0.548,0.62-1.313,1.295-2.061,1.805c1.623-0.146,3.318-0.31,4.959-0.455
		c-0.346-0.292-0.783-0.529-1.203-0.767l0.383-0.4c0.894,0.51,1.823,1.167,2.626,2.005l-0.456,0.438L63.127,9.05
		c-2.188,0.164-4.012,0.328-6.291,0.565L56.653,9.05c0.767-0.511,1.623-1.24,2.243-1.878h-3.264L55.614,6.57h2.024V1.92h6.4v0.639
		h-5.653v0.839h4.905v0.638h-4.905v0.894h4.868v0.62h-4.868v1.003h6.091v0.62H59.645z M64.914,4.199l-0.401-0.565
		c1.896-0.656,3.756-1.422,5.47-2.534l0.511,0.438C68.762,2.687,66.865,3.543,64.914,4.199z M65.114,9.561l-0.347-0.565
		c2.152-0.656,4.449-1.732,6.527-3.063l0.457,0.492C69.928,7.683,67.375,8.867,65.114,9.561z M65.552,6.588l-0.438-0.565
		c1.86-0.674,3.665-1.44,5.36-2.479l0.365,0.475C69.181,5.093,67.375,5.877,65.552,6.588z M68.269,10.91
		c-0.492-0.493-1.039-0.931-1.659-1.276l0.456-0.456c0.602,0.364,1.222,0.82,1.696,1.239L68.269,10.91z"/>
	<path class="st1" d="M73.818,14.739c0.273-0.328,0.638-0.639,0.966-0.985c2.006-2.188,3.829-4.668,4.212-7.566h-4.559V5.494h5.398
		c-0.274,2.553-1.259,4.796-2.863,6.802c-0.784,0.966-1.678,2.061-2.571,2.898L73.818,14.739z M82.242,3.288
		c0.438,1.495,1.112,2.972,1.896,4.357c1.787-1.039,3.082-2.133,4.285-3.1l0.639,0.401c-1.404,1.295-3.01,2.315-4.541,3.354
		c1.35,2.371,3.592,4.65,5.58,6.438l-0.547,0.638c-3.902-3.318-6.255-7.038-7.275-10.484l-0.037,11.542
		c0,0.401-0.127,0.912-0.711,1.021c-0.656,0.109-1.332,0.146-2.079,0.072L79.105,16.8c0.621,0.055,1.204,0.072,1.824,0
		c0.291,0,0.528-0.347,0.528-0.657L81.439,0.881c0.292,0,0.547-0.019,0.803,0V3.288z"/>
	<path class="st1" d="M10.339,30.755v-5.634h1.239v13.056h-1.239V31.85H2.826v6.327h-1.24V25.121h1.24v5.634H10.339z"/>
	<path class="st1" d="M14.701,28.731l3.1,8.169l3.245-8.169h1.076l-4.468,11.323c-0.564,1.44-1.258,1.951-2.188,1.951
		c-0.219,0-0.438-0.019-1.059-0.164l-0.127-1.112c0.602,0.128,0.803,0.146,1.003,0.146c0.729,0,0.966-0.255,1.276-1.039l0.656-1.659
		l-3.738-9.445H14.701z"/>
	<path class="st1" d="M30.896,25.121h1.095v13.056h-1.095v-1.44c-0.528,0.583-1.495,1.659-3.556,1.659
		c-3.173,0-4.212-2.863-4.212-5.015c0-2.097,0.984-4.868,4.23-4.868c2.206,0,3.081,1.148,3.501,1.75h0.036V25.121z M27.522,37.483
		c0.62,0,1.495-0.146,2.261-0.839c0.475-0.419,1.112-1.203,1.112-3.228c0-3.173-2.097-3.993-3.446-3.993
		c-1.623,0-3.154,1.259-3.154,4.048C24.295,36.098,25.826,37.483,27.522,37.483z"/>
	<path class="st1" d="M35.859,28.731v1.896h0.035c0.201-0.693,0.676-2.115,2.17-2.115c0.785,0,1.277,0.31,1.678,0.564l-0.419,0.967
		c-0.602-0.255-0.894-0.364-1.276-0.364c-0.347,0-1.131,0.018-1.678,1.258c-0.164,0.347-0.255,0.984-0.328,1.586
		c-0.055,0.475-0.072,1.095-0.072,1.332v4.321h-1.095v-9.445H35.859z"/>
	<path class="st1" d="M40.583,31.302c0.364-1.969,1.587-2.789,4.066-2.789c3.573,0,3.593,1.786,3.593,4.011
		c0,0.201-0.037,2.262-0.037,2.663c0,1.677,0.164,2.114,0.584,2.99h-1.223c-0.219-0.565-0.273-0.803-0.346-1.44
		c-0.42,0.455-1.531,1.659-3.848,1.659c-2.17,0-3.009-1.368-3.009-2.626c0-0.62,0.164-1.44,1.058-2.115
		c0.347-0.273,0.784-0.565,2.881-0.856c0.948-0.128,1.951-0.256,2.826-0.565v-0.328c0-1.167,0-2.535-2.479-2.535
		c-2.462,0-2.771,1.404-2.936,2.097L40.583,31.302z M47.129,33.089c-0.783,0.292-2.097,0.547-3.008,0.711
		c-1.24,0.22-2.59,0.456-2.59,1.879c0,1.075,0.984,1.805,2.061,1.805c0.766,0,1.769-0.347,2.553-0.984
		c0.675-0.547,0.984-1.295,0.984-2.79V33.089z"/>
	<path class="st1" d="M52.457,28.731h1.769v0.82h-1.769v6.199c0,1.167,0.127,1.66,1.058,1.66c0.146,0,0.31-0.019,0.875-0.128
		l0.146,0.894c-0.583,0.109-0.838,0.146-1.166,0.146c-2.043,0-2.006-1.367-2.006-2.425v-6.346h-1.313v-0.82h1.313v-2.426
		l1.094-0.711V28.731z"/>
	<path class="st1" d="M57.291,25.121v1.677h-1.094v-1.677H57.291z M57.291,28.731v9.445h-1.094v-9.445H57.291z"/>
	<path class="st1" d="M63.819,38.396c-2.662,0-4.23-2.042-4.212-4.887c0.018-3.265,1.623-4.996,4.212-4.996
		c2.553,0,4.23,1.731,4.23,4.996C68.05,36.299,66.756,38.396,63.819,38.396z M63.855,29.424c-2.078,0-3.081,1.751-3.081,4.085
		c0,2.589,1.294,3.975,3.1,3.975s3.009-1.44,3.009-3.975C66.883,30.919,65.771,29.424,63.855,29.424z"/>
	<path class="st1" d="M71.463,28.731v1.386H71.5c0.51-0.693,1.221-1.604,3.008-1.604c1.422,0,2.188,0.656,2.498,1.003
		c0.693,0.783,0.675,1.933,0.675,2.498v6.163h-1.094v-5.872c0-0.766-0.036-1.458-0.364-1.933c-0.383-0.565-1.059-0.894-1.824-0.894
		c-1.021,0-2.115,0.62-2.607,1.678c-0.273,0.584-0.328,1.313-0.328,2.918v4.103h-1.094v-9.445H71.463z"/>
	<path class="st1" d="M91.234,25.121c1.075,0,2.006,0.236,2.644,0.711c0.82,0.62,1.294,1.678,1.294,2.771
		c0,1.915-1.185,3.228-3.792,3.465v0.036c0.984,0.474,1.458,0.784,2.407,2.243l2.479,3.829H94.68l-1.914-3.009
		c-1.714-2.681-2.406-2.99-3.902-2.99h-1.896v5.999h-1.24V25.121H91.234z M86.967,26.215v4.868h3.447
		c0.783,0,3.482,0.019,3.482-2.461c0-2.298-2.316-2.407-3.428-2.407H86.967z"/>
	<path class="st1" d="M98.331,33.581c0.036,2.279,1.075,3.902,3.173,3.902c2.078,0,2.68-1.695,2.898-2.297l1.095,0.182
		c-0.329,0.912-1.076,3.027-4.048,3.027c-2.717,0-4.285-1.915-4.285-4.941c0-2.973,1.531-4.941,4.303-4.941
		c4.104,0,4.121,4.12,4.14,5.068H98.331z M104.439,32.67c-0.219-2.517-1.66-3.246-3.009-3.246c-0.565,0-2.717,0.146-3.081,3.246
		H104.439z"/>
	<path class="st1" d="M109.238,28.731h1.769v0.82h-1.769v6.199c0,1.167,0.127,1.66,1.058,1.66c0.146,0,0.31-0.019,0.875-0.128
		l0.146,0.894c-0.583,0.109-0.838,0.146-1.166,0.146c-2.043,0-2.006-1.367-2.006-2.425v-6.346h-1.313v-0.82h1.313v-2.426
		l1.094-0.711V28.731z"/>
	<path class="st1" d="M116.552,38.396c-2.662,0-4.23-2.042-4.212-4.887c0.018-3.265,1.623-4.996,4.212-4.996
		c2.553,0,4.23,1.731,4.23,4.996C120.782,36.299,119.488,38.396,116.552,38.396z M116.588,29.424c-2.078,0-3.081,1.751-3.081,4.085
		c0,2.589,1.294,3.975,3.1,3.975s3.009-1.44,3.009-3.975C119.615,30.919,118.503,29.424,116.588,29.424z"/>
	<path class="st1" d="M129.229,38.177v-1.404h-0.037c-0.51,0.711-1.222,1.623-3.008,1.623c-1.423,0-2.152-0.675-2.463-1.003
		c-0.729-0.766-0.711-1.951-0.711-2.498v-6.163h1.094v5.853c0,0.767,0.037,1.478,0.365,1.951c0.383,0.547,1.058,0.894,1.824,0.894
		c1.021,0,2.115-0.638,2.607-1.695c0.255-0.565,0.328-1.313,0.328-2.918v-4.084h1.094v9.445H129.229z"/>
	<path class="st1" d="M139.807,31.576c-0.4-1.368-1.494-2.152-2.917-2.152c-1.167,0-3.1,0.729-3.1,3.902
		c0,2.389,1.094,4.157,3.154,4.157c2.151,0,2.79-1.805,3.063-2.534l1.094,0.164c-0.219,0.911-0.912,3.282-4.212,3.282
		c-3.081,0-4.267-2.389-4.267-4.96c0-1.914,0.748-4.923,4.321-4.923c1.659,0,3.245,0.492,4.03,2.881L139.807,31.576z"/>
	<path class="st1" d="M144.479,25.121v4.996h0.037c0.51-0.693,1.221-1.604,3.008-1.604c1.422,0,2.188,0.656,2.498,1.003
		c0.693,0.783,0.675,1.933,0.675,2.498v6.163h-1.094v-5.872c0-0.766-0.036-1.458-0.364-1.933c-0.383-0.565-1.059-0.894-1.824-0.894
		c-1.021,0-2.115,0.62-2.607,1.678c-0.273,0.584-0.328,1.313-0.328,2.918v4.103h-1.094V25.121H144.479z"/>
	<path class="st1" d="M165.799,28.622c-0.035-0.602-0.236-2.699-3.081-2.699c-1.878,0-3.045,1.021-3.045,2.353
		c0,1.714,1.642,2.188,3.063,2.479c2.042,0.42,4.649,0.985,4.649,3.812c0,1.458-0.966,3.829-4.613,3.829
		c-2.479,0-4.54-0.93-4.832-4.14l1.222-0.109c0.055,0.492,0.128,1.112,0.529,1.751c0.802,1.276,2.206,1.477,2.99,1.477
		c1.878,0,3.501-0.93,3.501-2.735c0-1.969-2.225-2.37-3.392-2.589c-1.732-0.328-4.322-0.875-4.322-3.665
		c0-1.86,1.404-3.482,4.158-3.482c1.35,0,2.881,0.31,3.72,1.55c0.565,0.82,0.62,1.531,0.656,2.115L165.799,28.622z"/>
	<path class="st1" d="M170.836,25.121v4.996h0.036c0.511-0.693,1.222-1.604,3.009-1.604c1.422,0,2.188,0.656,2.498,1.003
		c0.693,0.783,0.674,1.933,0.674,2.498v6.163h-1.094v-5.872c0-0.766-0.036-1.458-0.364-1.933c-0.383-0.565-1.058-0.894-1.823-0.894
		c-1.021,0-2.115,0.62-2.607,1.678c-0.273,0.584-0.328,1.313-0.328,2.918v4.103h-1.095V25.121H170.836z"/>
	<path class="st1" d="M179.5,31.302c0.365-1.969,1.586-2.789,4.066-2.789c3.574,0,3.592,1.786,3.592,4.011
		c0,0.201-0.036,2.262-0.036,2.663c0,1.677,0.164,2.114,0.583,2.99h-1.221c-0.219-0.565-0.273-0.803-0.348-1.44
		c-0.419,0.455-1.531,1.659-3.847,1.659c-2.17,0-3.009-1.368-3.009-2.626c0-0.62,0.164-1.44,1.058-2.115
		c0.347-0.273,0.784-0.565,2.881-0.856c0.948-0.128,1.951-0.256,2.827-0.565v-0.328c0-1.167,0-2.535-2.48-2.535
		c-2.461,0-2.771,1.404-2.936,2.097L179.5,31.302z M186.047,33.089c-0.785,0.292-2.098,0.547-3.01,0.711
		c-1.239,0.22-2.589,0.456-2.589,1.879c0,1.075,0.985,1.805,2.061,1.805c0.766,0,1.769-0.347,2.553-0.984
		c0.675-0.547,0.985-1.295,0.985-2.79V33.089z"/>
	<path class="st1" d="M191.119,28.731v1.349h0.036c0.347-0.528,1.13-1.567,2.845-1.567c1.805,0,2.297,1.094,2.516,1.567
		c0.492-0.619,1.277-1.567,2.955-1.567c1.039,0,1.75,0.438,2.133,0.856c0.328,0.347,0.711,1.04,0.711,2.371v6.437h-1.094v-5.872
		c0-1.167-0.037-2.844-1.988-2.844c-2.225,0-2.516,2.206-2.516,4.065v4.65h-1.094v-5.981c0-0.984,0.036-2.698-1.842-2.698
		c-1.915,0-2.662,1.769-2.662,3.646v5.033h-1.095v-9.445H191.119z"/>
	<path class="st1" d="M206.295,41.787H205.2V28.731h1.095v1.531h0.035c0.475-0.62,1.423-1.75,3.52-1.75
		c3.119,0,4.213,2.625,4.213,4.868c0,1.35-0.492,5.015-4.304,5.015c-2.061,0-2.917-1.003-3.429-1.659h-0.035V41.787z M209.74,29.424
		c-0.875,0-1.604,0.311-2.17,0.766c-0.656,0.529-1.275,1.404-1.275,3.41c0,2.699,1.567,3.884,3.373,3.884
		c1.695,0,3.227-1.386,3.227-4.012C212.895,30.7,211.382,29.424,209.74,29.424z"/>
	<path class="st1" d="M219.955,38.396c-2.662,0-4.23-2.042-4.212-4.887c0.019-3.265,1.622-4.996,4.212-4.996
		c2.553,0,4.23,1.731,4.23,4.996C224.186,36.299,222.891,38.396,219.955,38.396z M219.992,29.424c-2.079,0-3.082,1.751-3.082,4.085
		c0,2.589,1.295,3.975,3.1,3.975s3.009-1.44,3.009-3.975C223.019,30.919,221.906,29.424,219.992,29.424z"/>
	<path class="st1" d="M230.097,38.396c-2.662,0-4.23-2.042-4.212-4.887c0.018-3.265,1.623-4.996,4.212-4.996
		c2.553,0,4.23,1.731,4.23,4.996C234.327,36.299,233.033,38.396,230.097,38.396z M230.133,29.424c-2.078,0-3.081,1.751-3.081,4.085
		c0,2.589,1.294,3.975,3.1,3.975s3.009-1.44,3.009-3.975C233.16,30.919,232.048,29.424,230.133,29.424z"/>
</g>
<g>
	<rect x="0" y="58.3" class="st0" width="213.941" height="54.031"/>
	<path class="st1" d="M5.727,63.411l0.072-1.313H3.83l-2.443,0.091v-1.823l2.443,0.091h1.969l-0.072-1.186h2.061l-0.055,1.186h2.99
		l-0.073-1.167h2.024l-0.055,1.167h2.115l2.406-0.091v1.823l-2.406-0.091h-2.115l0.055,1.313l-1.824-0.019
		c1.168,0.62,2.243,1.021,3.246,1.24c0.984,0.2,2.206,0.347,3.684,0.364c-0.128,0.219-0.219,0.383-0.273,0.492l-0.348,0.985
		l-0.164,0.438c-0.547-0.091-1.075-0.183-1.604-0.292l-0.055,1.35v1.003l0.055,1.914l-1.97-0.072l-8.68,0.036
		c-0.091,0.547-0.164,0.967-0.237,1.258c-0.072,0.292-0.182,0.639-0.346,1.058c-0.164,0.42-0.383,0.857-0.656,1.313
		s-0.656,0.93-1.149,1.44c-0.328-0.273-0.565-0.475-0.729-0.602c-0.164-0.109-0.547-0.328-1.148-0.657
		c0.383-0.255,0.693-0.51,0.912-0.766c0.236-0.255,0.474-0.583,0.692-0.984c0.237-0.401,0.401-0.803,0.492-1.203
		c0.11-0.401,0.183-0.821,0.22-1.259c0.055-0.438,0.09-0.802,0.109-1.094l0.072-1.367v-1.313l-1.094,0.273
		c-0.365-0.784-0.602-1.239-0.729-1.404l-0.364-0.455c0.236,0.018,0.692,0.018,1.385-0.037c0.676-0.036,1.459-0.236,2.371-0.547
		c0.912-0.31,1.732-0.675,2.479-1.094H5.727z M13.439,69.538v-0.565H4.851l-0.036,0.565H13.439z M13.439,67.896v-0.583H4.887v0.583
		H13.439z M4.96,71.27l1.732,0.055h7.366l1.732-0.055l-0.055,1.496v1.477l0.055,1.878h-2.115l0.037-0.528H7.039l0.036,0.528H4.96
		l0.073-1.987v-1.367L4.96,71.27z M8.115,66.092C7.933,65.8,7.75,65.508,7.568,65.234c1.021-0.255,1.567-0.401,1.622-0.438
		l0.383-0.128c0.292,0.438,0.565,0.857,0.821,1.276l-0.566,0.146h3.374c-1.295-0.365-2.626-1.003-4.012-1.915
		c-1.403,0.766-2.298,1.203-2.681,1.35l-1.459,0.565H8.115z M13.73,74.06l-0.018-1.386H7.039v1.386H13.73z M8.297,62.481
		l0.256-0.328c0.82,0.364,1.35,0.564,1.586,0.602l0.456,0.072l-0.219,0.311l0.273,0.183l0.073-1.222h-2.99l0.035,0.893
		C8.042,62.736,8.225,62.572,8.297,62.481z"/>
	<path class="st1" d="M28.452,61.605v11.142h3.938v-8.552l-0.055-2.079h2.297l-0.055,1.915v9.719l0.055,1.878h-2.242v-0.875h-9.975
		l-2.334,0.072l0.055-2.078v-8.37l-0.055-2.278h2.407l-0.073,2.278v8.37h3.757V61.605L26.1,59.691h2.407L28.452,61.605z"/>
	<path class="st1" d="M38.614,63.43c0.876,0.692,1.659,1.403,2.334,2.133c-0.183,0.201-0.401,0.438-0.675,0.729
		s-0.492,0.547-0.639,0.748c-0.383-0.456-0.766-0.857-1.13-1.204c-0.383-0.347-0.82-0.711-1.294-1.075
		C37.666,64.414,38.141,63.958,38.614,63.43z M37.922,72.984c0.255-0.328,0.602-0.985,1.021-1.951
		c0.438-0.985,0.784-2.043,1.076-3.173c0.128,0.091,0.364,0.255,0.675,0.492c0.328,0.237,0.528,0.364,0.602,0.383l0.365,0.2
		c-0.074,0.292-0.184,0.639-0.329,1.058c-0.128,0.42-0.456,1.222-0.984,2.426c-0.547,1.203-1.058,2.261-1.568,3.136
		c-0.109-0.182-0.237-0.364-0.364-0.564c-0.128-0.201-0.492-0.62-1.094-1.24C37.466,73.567,37.666,73.313,37.922,72.984z
		 M40.584,62.791c-0.675-0.803-1.459-1.531-2.334-2.17c0.51-0.401,0.967-0.856,1.385-1.35c0.657,0.493,1.441,1.186,2.371,2.061
		C41.531,61.807,41.058,62.299,40.584,62.791z M43.264,59.691h2.443l1.605-0.055l-0.055,1.35v3.537l0.055,1.459l-1.568-0.073h-1.842
		v7.731l0.092,2.279h-2.006l0.091-2.298V61.916l-0.091-2.262L43.264,59.691z M45.543,62.043V61.26l-1.641-0.019v0.802H45.543z
		 M45.543,64.359v-0.839h-1.641v0.839H45.543z M44.814,72.091v-3.774l-0.055-1.295l1.349,0.055h3.21l1.239-0.055l-0.055,1.24v3.829
		l0.055,1.567l-1.294-0.055h-3.338l-1.166,0.055L44.814,72.091z M48.625,69.446v-0.894h-1.988v0.894H48.625z M48.625,71.981v-1.04
		h-1.988v1.021L48.625,71.981z M48.205,64.761v-3.829l-0.055-1.259l1.313,0.055h2.771l1.294-0.055l-0.072,1.751l-0.018,12.964
		c0,0.456-0.074,0.803-0.219,1.021c-0.165,0.219-0.42,0.401-0.748,0.528c-0.347,0.128-1.039,0.237-2.079,0.292
		c-0.019-0.219-0.036-0.438-0.055-0.656c-0.036-0.237-0.128-0.511-0.237-0.82l-0.236-0.639c0.893,0.109,1.404,0.092,1.531-0.072
		c0.128-0.146,0.183-0.42,0.183-0.821v-7.238h-2.225l-1.204,0.055L48.205,64.761z M51.579,62.062v-0.766l-1.587,0.019v0.747H51.579z
		 M51.579,64.45v-0.948l-1.587,0.019v0.93H51.579z"/>
	<path class="st1" d="M56.636,72.018c0.31-0.748,0.528-1.386,0.711-1.915c0.165-0.51,0.329-0.93,0.401-1.239l0.164-0.675
		c0.62,0.511,1.076,0.839,1.35,0.967l0.475,0.219c-0.384,1.112-0.748,2.133-1.113,3.1c-0.346,0.948-0.674,1.75-0.984,2.425
		l-0.492,1.039c-0.565-0.729-1.112-1.313-1.66-1.769C55.925,73.494,56.308,72.783,56.636,72.018z M56.18,65.325
		c0.146-0.2,0.347-0.583,0.602-1.13c1.387,0.894,2.262,1.477,2.645,1.732c-0.328,0.528-0.565,0.966-0.711,1.294l-0.256,0.584
		c-0.51-0.438-0.947-0.766-1.295-1.003c-0.346-0.237-0.82-0.529-1.439-0.875C55.87,65.727,56.034,65.526,56.18,65.325z
		 M56.69,60.476c0.164-0.219,0.364-0.584,0.602-1.058c0.894,0.62,1.751,1.258,2.571,1.933c-0.511,0.711-0.912,1.276-1.186,1.678
		c-0.711-0.656-1.55-1.295-2.498-1.915C56.344,60.913,56.508,60.694,56.69,60.476z M61.979,72.163l-2.298,0.073v-1.914l2.298,0.055
		h2.826l0.109-0.803l-3.865,0.164c-0.037-0.164-0.073-0.328-0.109-0.492c-0.037-0.146-0.201-0.547-0.475-1.203
		c0.711-0.092,1.295-0.183,1.75-0.311c0.457-0.109,0.785-0.237,0.985-0.347l1.058-0.528l-2.443,0.073
		c-0.128-0.584-0.237-0.985-0.328-1.24l-0.164-0.438c0.383-0.109,0.857-0.328,1.44-0.656c0.565-0.329,1.112-0.784,1.659-1.35
		c0.273,0.31,0.565,0.565,0.875,0.784c-0.072-0.237-0.146-0.511-0.236-0.821c-0.092-0.31-0.273-0.711-0.529-1.203
		c0.693-0.2,1.058-0.328,1.131-0.364l0.273-0.146c-0.675,0.055-1.076,0.092-1.203,0.109c-0.109,0-0.603,0.019-1.496,0.055
		l-2.771,0.109c-0.055-0.236-0.109-0.474-0.164-0.711c-0.055-0.219-0.201-0.675-0.438-1.386c0.784,0.092,1.44,0.164,1.933,0.183
		c0.511,0.036,1.678-0.019,3.52-0.109c1.823-0.073,3.1-0.201,3.847-0.365l0.931-0.2c0.073,0.219,0.146,0.438,0.273,0.656
		c0.091,0.237,0.328,0.639,0.711,1.222c-0.894,0.164-2.517,0.311-4.851,0.438c0.401,1.003,0.602,1.532,0.621,1.587l0.127,0.401
		c-0.164,0.055-0.292,0.091-0.365,0.109l-0.802,0.31l-0.474,0.164c0.182,0.183,0.4,0.347,0.638,0.492
		c-0.656,0.42-1.276,0.766-1.878,1.04l2.006-0.019c0.711-0.475,1.167-0.82,1.367-1.021l0.311-0.31
		c0.146,0.146,0.273,0.273,0.383,0.383c0.127,0.109,0.528,0.419,1.186,0.93c-0.329,0.256-0.857,0.62-1.587,1.076
		s-1.514,0.911-2.37,1.367l3.264-0.072c-0.219-0.292-0.456-0.548-0.675-0.767c0.692-0.346,1.13-0.62,1.331-0.82l0.256-0.255
		c0.729,0.875,1.367,1.769,1.932,2.698c-0.164,0.109-0.31,0.219-0.455,0.328c-0.128,0.092-0.475,0.401-1.039,0.93
		c-0.092-0.182-0.183-0.383-0.273-0.583l-3.593,0.073c0.31,0.109,0.62,0.182,0.948,0.236l-0.219,0.603h2.79l2.279-0.055v1.914
		l-2.279-0.073h-2.024c0.201,0.201,0.401,0.401,0.62,0.603c0.219,0.182,0.675,0.474,1.35,0.838c0.692,0.384,1.55,0.584,2.571,0.639
		c-0.42,0.511-0.73,0.967-0.895,1.386l-0.236,0.584c-0.037,0-0.511-0.165-1.404-0.475c-0.912-0.328-1.659-0.729-2.225-1.222
		c-0.584-0.492-1.094-1.021-1.514-1.586c-0.164,0.236-0.383,0.492-0.602,0.747c-0.236,0.273-0.711,0.675-1.477,1.186
		c-0.766,0.528-1.842,0.984-3.228,1.367c-0.347-0.62-0.767-1.294-1.259-2.006c0.584-0.036,1.021-0.072,1.313-0.127
		c0.31-0.055,0.692-0.164,1.148-0.311c0.456-0.164,0.857-0.364,1.222-0.602c0.347-0.219,0.711-0.565,1.094-1.021H61.979z
		 M62.215,61.824c0.328,0.876,0.584,1.568,0.767,2.115c-0.692,0.201-1.259,0.401-1.696,0.603c-0.273-0.876-0.438-1.404-0.51-1.605
		l-0.219-0.528C61.066,62.299,61.632,62.099,62.215,61.824z M68.47,62.919c0.128-0.256,0.364-0.766,0.657-1.532
		c0.966,0.383,1.458,0.584,1.458,0.584l0.383,0.128c-0.328,0.893-0.711,1.695-1.13,2.425c-0.748-0.365-1.204-0.565-1.387-0.62
		l-0.455-0.128C68.178,63.466,68.324,63.192,68.47,62.919z"/>
	<path class="st1" d="M2.298,87.466c0.894,0.711,1.678,1.422,2.334,2.134c-0.492,0.492-0.948,0.984-1.331,1.477
		c-0.711-0.857-1.514-1.623-2.425-2.279C1.223,88.523,1.696,88.086,2.298,87.466z M1.568,97.221c0.256-0.31,0.656-1.075,1.186-2.297
		s0.839-2.115,0.948-2.681l0.109-0.529c0.692,0.493,1.222,0.857,1.604,1.095c-0.072,0.219-0.182,0.565-0.328,1.058
		c-0.146,0.474-0.456,1.239-0.894,2.279c-0.456,1.058-0.766,1.787-0.984,2.188c-0.22,0.42-0.419,0.784-0.603,1.095
		c-0.2-0.237-0.346-0.401-0.438-0.492c-0.072-0.073-0.474-0.42-1.221-1.021C1.113,97.769,1.313,97.531,1.568,97.221z M5.617,83.837
		l1.239,0.055H9.5l1.587-0.055l-0.055,1.368v3.519l0.055,1.259l-1.568-0.073H7.494v7.914l0.092,2.261H5.599l0.073-2.279V85.296
		c-0.457,0.419-0.73,0.692-0.84,0.803l-0.547,0.619c-0.273-0.346-0.638-0.729-1.075-1.148c-0.456-0.419-0.876-0.766-1.24-1.039
		c0.128-0.128,0.237-0.237,0.31-0.311l0.785-0.729l0.291-0.31c0.237,0.183,0.62,0.511,1.131,0.948
		c0.51,0.456,0.783,0.692,0.803,0.711l0.383,0.401L5.617,83.837z M9.209,86.427v-0.803H7.494v0.803H9.209z M9.209,88.469v-0.711
		H7.494v0.711H9.209z M9.1,96.108h1.295v-1.185H9.793l-1.24,0.072v-1.641l1.148,0.073h0.693v-1.095H9.519L8.37,92.389v-1.695
		l1.203,0.055h3.72l1.203-0.037v1.678l-1.185-0.055h-0.985v1.095h0.857l1.021-0.073l0.018,1.641l-0.911-0.072h-0.985v1.185h1.149
		l1.222-0.055v1.623l-1.222-0.073H9.008l-1.057,0.073v-1.641L9.1,96.108z M11.907,88.761v-3.593l-0.073-1.276l1.313,0.073h2.917
		l1.313-0.073l-0.091,1.751v12.745c0,0.456-0.073,0.803-0.238,1.021c-0.145,0.219-0.419,0.401-0.802,0.547
		c-0.383,0.146-1.148,0.237-2.279,0.273c-0.019-0.219-0.036-0.474-0.055-0.747s-0.109-0.529-0.2-0.748l-0.256-0.602
		c0.383,0,0.748,0.019,1.113,0.036c0.364,0.019,0.602-0.036,0.692-0.164c0.091-0.127,0.146-0.31,0.146-0.547v-7.476h-2.352
		l-1.223,0.055L11.907,88.761z M15.408,86.499v-0.856h-1.695v0.856H15.408z M15.408,88.56v-0.766h-1.695v0.766H15.408z"/>
	<path class="st1" d="M21.541,91.04c-0.729-0.839-1.568-1.605-2.498-2.316c0.511-0.438,0.967-0.875,1.35-1.331
		c1.148,0.984,1.933,1.714,2.37,2.188C22.471,89.891,22.07,90.383,21.541,91.04z M22.234,96.2c-0.511,1.258-0.895,2.151-1.186,2.644
		l-0.347,0.584c-0.164-0.237-0.328-0.456-0.492-0.657c-0.164-0.2-0.511-0.547-1.039-1.058c0.583-0.766,1.058-1.622,1.477-2.607
		c0.401-0.966,0.692-1.786,0.894-2.461l0.219-0.767c0.183,0.146,0.311,0.256,0.401,0.311c0.073,0.055,0.492,0.31,1.259,0.784
		C23.127,93.866,22.727,94.941,22.234,96.2z M22.471,86.755c-0.127-0.164-0.291-0.365-0.51-0.602
		c-0.201-0.237-0.766-0.748-1.678-1.532c0.328-0.292,0.783-0.747,1.35-1.35c0.182,0.164,0.51,0.456,1.002,0.876
		c0.475,0.4,0.803,0.674,0.949,0.875l0.291,0.364C23.4,85.824,22.927,86.28,22.471,86.755z M33.648,92.298h-1.331
		c0.219,0.109,0.474,0.2,0.747,0.292c-0.273,0.419-0.455,0.675-0.528,0.766l-0.401,0.456h1.186l1.477-0.055v1.531l-1.567-0.055
		h-2.644l0.018,0.93h2.771l2.243-0.091v1.751l-2.279-0.092h-2.753v0.766l0.072,1.495h-2.061l0.055-1.44v-0.82h-3.228l-2.06,0.092
		v-1.751l1.969,0.091h3.318v-0.93h-3.008l-1.514,0.055v-1.531l1.459,0.055h1.367c-0.328-0.42-0.693-0.803-1.113-1.131
		c0.256-0.109,0.493-0.237,0.73-0.383h-1.568L23.4,92.389v-1.531l1.787,0.091h3.465v-0.675h-2.826l-1.331,0.055v-1.477l1.423,0.073
		h2.734V88.25h-2.918l-1.458,0.055l0.073-1.204v-2.406l-0.073-1.259l1.478,0.073h7.932l1.477-0.073l-0.055,1.368v2.206l0.055,1.295
		l-1.367-0.055h-3.174v0.675h2.827l1.276-0.073v1.477l-1.44-0.055h-2.663v0.675h3.064l1.951-0.091v1.531L33.648,92.298z
		 M27.303,85.113h-1.075v1.659h1.075V85.113z M27.904,92.298c0.273,0.273,0.584,0.62,0.949,1.021
		c-0.328,0.164-0.621,0.328-0.895,0.492h2.682c-0.201-0.109-0.42-0.201-0.657-0.273c0.384-0.347,0.692-0.767,0.948-1.24H27.904z
		 M30.422,85.113h-1.295v1.659h1.295V85.113z M33.248,85.113h-1.076v1.659h1.076V85.113z"/>
	<path class="st1" d="M42.316,84.694h8.551l2.518-0.073V86.7l-2.535-0.073l-9.537,0.019c-0.164,0.273-0.31,0.528-0.455,0.766
		l1.258,0.055h8.388l1.659-0.055L52.09,89.07l-0.128,2.425l2.024-0.072v1.987l-2.024-0.073l-0.109,2.207l1.769-0.055v2.042
		l-1.969-0.055c-0.019,0.219-0.055,0.528-0.128,0.93c-0.055,0.383-0.292,0.711-0.657,0.967c-0.383,0.273-0.82,0.474-1.294,0.583
		c-0.492,0.128-1.386,0.219-2.698,0.273c-0.183-0.82-0.328-1.35-0.438-1.568l-0.311-0.656c1.404,0.037,2.261,0,2.57-0.109
		c0.311-0.091,0.493-0.183,0.548-0.255l0.146-0.183h-8.533l-1.842,0.073l0.273-1.204c0.201-0.893,0.291-1.458,0.328-1.659
		l0.183-1.331h-0.675l-1.732,0.073v-1.987l1.787,0.072h0.857c0.055-0.291,0.091-0.492,0.109-0.602
		c0.018-0.127,0.072-0.656,0.146-1.586l0.109-1.259c-0.438,0.62-0.784,1.04-1.04,1.295l-0.711,0.711
		c-0.127-0.219-0.273-0.455-0.438-0.711c-0.164-0.237-0.492-0.602-1.002-1.094c0.838-0.565,1.422-1.095,1.75-1.587
		c0.328-0.51,0.639-1.058,0.894-1.622c0.273-0.584,0.456-1.04,0.547-1.368l0.164-0.602c0.747,0.219,1.495,0.364,2.243,0.456
		C42.626,83.946,42.462,84.329,42.316,84.694z M45.471,95.562c-0.547-0.656-1.131-1.203-1.751-1.659
		c0.292-0.164,0.583-0.347,0.857-0.547h-2.698l-0.328,2.206H45.471z M45.197,91.532c-0.511-0.675-0.857-1.095-1.039-1.259
		l-0.365-0.31c0.346-0.164,0.675-0.364,0.984-0.602h-2.406l-0.273,2.151L45.197,91.532z M46.766,91.514h3.172l0.037-2.151
		l-4.03-0.019c0.62,0.565,1.021,0.967,1.204,1.203l0.364,0.456C47.221,91.167,46.966,91.35,46.766,91.514z M47.641,94.941
		c-0.328,0.183-0.529,0.311-0.602,0.383l-0.219,0.237h2.881l0.146-2.206H46.09C46.619,93.848,47.13,94.377,47.641,94.941z"/>
	<path class="st1" d="M58.423,90.456h10.776l2.371-0.091v2.625l-2.371-0.091H58.423l-2.315,0.091v-2.625L58.423,90.456z"/>
	<path class="st1" d="M73.855,97.494c0.091-0.219,0.164-0.547,0.236-0.984c0.073-0.438,0.109-0.729,0.128-0.875l0.073-0.729
		c0.638,0.164,1.239,0.255,1.75,0.273c-0.055,0.292-0.092,0.511-0.109,0.656l-0.201,1.386c-0.055,0.438-0.236,1.131-0.492,2.061
		c-0.146-0.146-0.255-0.236-0.328-0.291c-0.055-0.037-0.492-0.329-1.33-0.876C73.691,97.914,73.781,97.713,73.855,97.494z
		 M74.949,86.608c0.291-0.438,0.638-1.003,1.039-1.677c0.383-0.675,0.693-1.35,0.93-2.024c0.183,0.128,0.365,0.255,0.547,0.364
		c0.183,0.109,0.621,0.311,1.295,0.603c-0.729,1.148-1.568,2.425-2.534,3.811c0.565,0.055,1.13,0.073,1.731,0.073
		c0.164-0.219,0.311-0.42,0.42-0.603c0.128-0.182,0.365-0.692,0.729-1.531c0.62,0.492,1.185,0.857,1.732,1.112
		c-0.474,0.748-0.821,1.276-1.021,1.568c-0.219,0.31-0.711,0.966-1.478,1.951c-0.766,1.003-1.33,1.714-1.695,2.151l2.298-0.219
		c-0.219-0.383-0.438-0.748-0.657-1.076c0.639-0.31,1.131-0.583,1.459-0.82c0.146,0.292,0.438,0.784,0.82,1.459
		c0.402,0.692,0.712,1.294,0.985,1.805c-0.183,0.092-0.31,0.164-0.383,0.201c-0.055,0.036-0.401,0.255-1.04,0.656
		c0.201,0.438,0.402,0.875,0.584,1.276c0.183,0.419,0.42,1.021,0.711,1.823c-0.602,0.219-1.186,0.475-1.732,0.784
		c-0.127-0.547-0.273-1.039-0.4-1.459c-0.146-0.438-0.383-1.075-0.766-1.914c0.583-0.183,1.021-0.365,1.313-0.547l-0.219-0.693
		c-0.511,0.036-0.857,0.055-1.039,0.073c-0.184,0.018-0.767,0.127-1.732,0.273c-0.984,0.164-1.696,0.273-2.115,0.401
		c-0.037-0.109-0.073-0.201-0.092-0.274l-0.438-0.966l-0.236-0.547c0.364-0.256,0.656-0.475,0.875-0.656
		c0.219-0.201,0.528-0.548,0.93-1.04c0.401-0.511,0.784-1.021,1.131-1.568c-0.584,0.019-1.039,0.037-1.387,0.037
		c-0.346,0-0.674,0.018-1.002,0.072c-0.037-0.127-0.073-0.273-0.109-0.455c-0.037-0.164-0.183-0.584-0.438-1.24
		C74.311,87.447,74.639,87.064,74.949,86.608z M78.086,94.979c0.072,0.547,0.127,1.058,0.199,1.513
		c0.055,0.456,0.092,0.693,0.092,0.712l0.164,1.331c-0.492,0.018-1.131,0.109-1.896,0.273c0-0.365,0-0.639,0-0.82
		c0-0.183-0.018-0.529-0.036-1.04s-0.036-0.802-0.036-0.875l-0.164-0.857C77.137,95.16,77.702,95.069,78.086,94.979z M83.993,83.071
		c0.146,0.036,0.692,0.183,1.678,0.419c-0.164,0.365-0.347,0.729-0.528,1.095l3.664-0.019l1.021,1.24
		c-0.164,0.347-0.311,0.656-0.456,0.948c-0.146,0.273-0.419,0.729-0.839,1.367c-0.4,0.62-0.692,1.021-0.875,1.222l-0.456,0.511
		c0.347,0.237,0.748,0.492,1.186,0.729c0.456,0.255,1.185,0.456,2.188,0.62c-0.219,0.273-0.401,0.51-0.529,0.692
		c-0.146,0.201-0.383,0.584-0.711,1.186c-1.24-0.492-2.426-1.131-3.574-1.915c-0.894,0.529-1.586,0.948-2.078,1.222
		c-0.511,0.292-1.095,0.529-1.751,0.767c-0.091-0.128-0.183-0.274-0.292-0.42c-0.091-0.146-0.419-0.565-1.002-1.24
		c0.547-0.109,1.094-0.255,1.641-0.474c0.547-0.2,1.222-0.584,2.061-1.131c-0.456-0.583-0.894-1.167-1.295-1.75
		c-0.346,0.419-0.693,0.856-1.076,1.294c-0.127-0.127-0.255-0.255-0.364-0.383c-0.128-0.109-0.547-0.419-1.259-0.93
		c0.184-0.146,0.438-0.364,0.748-0.656c0.328-0.292,0.693-0.748,1.039-1.35c0.365-0.62,0.621-1.148,0.82-1.586
		c0.201-0.438,0.348-0.821,0.42-1.167l0.109-0.492C83.684,82.962,83.865,83.017,83.993,83.071z M81.914,98.333v-3.628l-0.055-1.459
		l1.532,0.055h4.632l1.239-0.055l-0.073,1.367v3.993l0.037,1.459h-1.97l0.019-0.602h-3.482v0.547h-1.934L81.914,98.333z
		 M87.275,97.731v-2.735h-3.482v2.735H87.275z M84.686,87.229c0.109,0.164,0.438,0.656,1.021,1.459
		c0.328-0.328,0.602-0.602,0.784-0.82c0.2-0.237,0.31-0.438,0.401-0.62l0.492-0.93h-3.191
		C84.412,86.755,84.576,87.064,84.686,87.229z"/>
	<path class="st1" d="M94.594,90.42c0.893-0.529,1.695-1.131,2.406-1.806h-2.516l-1.915,0.055v-1.987l1.915,0.055h4.74l0.019-0.93
		c-1.003,0.018-2.425,0.055-4.285,0.127c-0.164-0.729-0.31-1.203-0.401-1.422l-0.273-0.638c1.167,0.091,2.225,0.127,3.173,0.146
		c0.93,0,2.206-0.036,3.847-0.2c1.623-0.146,2.608-0.311,2.973-0.438l0.675-0.219c0.511,1.003,0.784,1.532,0.839,1.604l0.365,0.548
		c-1.076,0.091-2.682,0.219-4.797,0.364v1.058h5.143l1.531-0.055v1.987l-1.531-0.055l-3.063-0.018
		c0.254,0.255,0.474,0.474,0.674,0.656c0.201,0.164,0.511,0.383,0.912,0.656c0.419,0.273,0.912,0.547,1.477,0.82
		c0.584,0.273,1.367,0.492,2.334,0.656c-0.492,0.729-0.766,1.24-0.857,1.532l-0.2,0.583c-1.094-0.4-1.86-0.747-2.334-1.003
		l-1.094-0.602c-0.164,0.602-0.328,1.259-0.492,1.97h2.005l1.059-0.055c-0.019,0.638-0.019,1.112-0.037,1.422l-0.072,1.148
		c-0.037,0.639-0.092,1.149-0.183,1.514c-0.073,0.365-0.255,0.729-0.583,1.095c-0.311,0.346-0.857,0.602-1.587,0.783
		c-0.729,0.164-1.532,0.273-2.389,0.329c-0.128-0.767-0.273-1.295-0.401-1.587l-0.291-0.656c0.51,0.055,0.984,0.073,1.403,0.073
		c0.747,0,1.24-0.128,1.495-0.401c0.256-0.256,0.365-0.529,0.401-0.784l0.128-1.094h-2.462l-0.894,0.036
		c0.109-0.311,0.201-0.584,0.273-0.82c0.073-0.237,0.164-0.675,0.292-1.313l-2.37-0.018c-0.073,0.383-0.201,0.911-0.365,1.586
		c-0.164,0.693-0.529,1.422-1.076,2.17c-0.564,0.766-1.203,1.367-1.951,1.769c-0.766,0.42-1.586,0.766-2.461,1.095
		c-0.365-0.729-0.639-1.204-0.839-1.423l-0.474-0.528c0.747-0.128,1.404-0.311,1.969-0.529c0.584-0.219,1.058-0.492,1.44-0.82
		c0.364-0.328,0.675-0.711,0.912-1.131c0.255-0.438,0.419-0.766,0.456-0.984l0.236-1.186h-0.383l-1.714,0.073v-1.477
		c-0.747,0.438-1.532,0.875-2.353,1.294c-0.51-0.839-0.802-1.331-0.893-1.458l-0.365-0.511
		C92.788,91.295,93.718,90.931,94.594,90.42z M97.128,91.751h6.108l0.839-0.037c-0.493-0.383-0.894-0.711-1.222-1.003
		c-0.311-0.273-0.803-0.802-1.477-1.567v0.784l0.055,1.495h-2.243l0.055-1.495l0.019-0.748c-0.219,0.237-0.512,0.511-0.857,0.839
		c-0.365,0.328-1.112,0.912-2.279,1.695L97.128,91.751z"/>
	<path class="st1" d="M118.96,91.495l-0.638,0.237c-0.201,0.146-0.511,0.201-0.729,0.383l-0.474-0.839
		c-0.603,0.019-1.605,0.164-2.334,0.164c-0.73,0.019-1.423,0.146-1.77,0.146c-0.4,0.018-0.93,0.091-1.842,0.164l-0.619-1.44
		c0.674-0.256,1.057-0.438,1.166-0.511l0.383-0.256h-1.002h-0.875V88.25l1.294,0.036v-3.154l-0.036-1.714l1.914,0.036h3.063
		l2.061-0.036v1.386l-2.061-0.037h-3.045v0.475h3.1l1.696-0.036v1.075l-1.696-0.036h-3.1v0.492h3.118l1.678-0.055v1.112
		l-1.696-0.036h-3.1v0.528h3.118l2.352-0.055v1.386l-0.911-0.073c0.2,0.274,1.075,1.259,1.458,1.824L118.96,91.495z M126.053,99.555
		l-0.2,0.383c-1.148-0.146-2.261-0.236-2.99-0.383c-0.729-0.164-1.842-0.383-2.79-0.729c-0.364,0.146-0.547,0.256-0.93,0.384
		c-0.383,0.127-0.748,0.31-1.604,0.492c-0.528,0.109-1.514,0.419-2.498,0.511c-0.2-0.384-0.493-0.675-0.62-0.839l-0.711-0.821
		c0.438,0.055,1.695-0.109,2.352-0.219c0.766-0.127,1.459-0.255,1.934-0.455c-0.292-0.183-1.021-0.62-1.642-1.04
		c-0.347-0.255-0.675-0.511-0.856-0.711c-0.529,0.948-1.095,1.642-1.86,2.261c-0.419,0.328-0.894,0.639-1.44,0.948
		c-0.164-0.146-0.547-0.438-0.693-0.511c-0.109-0.091-0.51-0.291-1.166-0.638c0.619-0.219,1.239-0.547,1.805-1.003
		c0.529-0.438,1.021-0.967,1.404-1.568c0.255-0.383,0.455-0.784,0.602-1.222h-1.623l-1.969,0.019v-1.386l1.986,0.018h1.824
		c0.055-0.383,0.092-0.528,0.092-0.619v-0.894c0.729,0.018,1.731,0.127,2.369,0.219c-0.146,0.438-0.109,0.583-0.127,0.675
		l-0.128,0.619h5.489l-0.547-0.328l-0.748-0.328l1.203-1.44l0.602,0.383l0.839,0.529l0.821,0.347l-0.748,0.838h1.24l1.914-0.036
		v1.514l-1.823-0.055h-8.497c-0.109,0.438-0.456,1.112-0.656,1.44c0.364-0.292,0.856-0.711,1.057-0.984
		c0.219,0.273,0.566,0.565,0.985,0.856c0.729,0.529,1.604,1.04,2.17,1.295c0.401-0.273,0.948-0.857,1.44-1.55
		c0.236-0.328,0.455-0.675,0.639-1.021l1.786,1.112c-0.237,0.365-0.656,0.82-1.003,1.24c-0.255,0.328-0.583,0.638-0.838,0.875
		c0.875,0.328,1.986,0.328,2.498,0.42c0.729,0.109,1.641,0.036,2.406,0.055C126.4,98.68,126.107,99.464,126.053,99.555z
		 M114.766,89.544l0.164,0.146l-1.002,0.547l2.406-0.055l-0.383-0.383c0.164-0.091,0.401-0.128,0.565-0.256H114.766z
		 M122.717,85.387c-0.785,0.237-1.824,0.492-3.1,0.784c-0.256-0.62-0.457-1.003-0.603-1.222l-0.31-0.474
		c0.656-0.055,1.386-0.128,2.188-0.237c0.785-0.109,1.879-0.492,3.283-1.148c0.182,0.2,0.364,0.383,0.51,0.564
		c0.164,0.146,0.475,0.401,0.912,0.712C124.467,84.804,123.519,85.132,122.717,85.387z M123.063,90.547
		c-0.875,0.274-1.823,0.548-2.862,0.784c-0.109-0.2-0.219-0.419-0.328-0.62c-0.128-0.219-0.384-0.583-0.803-1.094
		c0.639-0.055,1.131-0.109,1.459-0.183c0.328-0.055,1.003-0.219,2.024-0.51c1.002-0.292,2.023-0.767,3.063-1.404
		c0.401,0.602,0.676,0.984,0.803,1.131l0.401,0.455C125.196,89.8,123.938,90.273,123.063,90.547z M123.336,87.775
		c-1.002,0.347-1.586,0.547-1.768,0.584l-1.478,0.347c-0.091-0.183-0.183-0.384-0.255-0.529c-0.092-0.183-0.328-0.528-0.693-1.076
		c0.93-0.109,1.714-0.273,2.352-0.474c0.639-0.183,1.24-0.383,1.787-0.584c0.547-0.2,1.113-0.474,1.715-0.82
		c0.164,0.164,0.291,0.292,0.383,0.383l0.455,0.511l0.512,0.492C125.342,87.046,124.34,87.447,123.336,87.775z"/>
</g>
<g>
	<rect x="0" y="117.667" class="st0" width="225.733" height="59.902"/>
	<path class="st1" d="M1.154,131.298l-0.26-0.592c0.795-0.145,1.848-0.404,2.699-0.621v-4.749H1.256v-0.52h2.354v-1.861H2.035
		v-0.477c-0.26,0.375-0.534,0.722-0.794,1.01l-0.462-0.36c1.242-1.443,2.252-3.017,3.046-4.764c0.173,0.072,0.288,0.173,0.447,0.274
		l-0.23,0.549c0.823,0.808,1.718,1.761,2.41,2.655l-0.39,0.318c-0.664-0.866-1.473-1.718-2.252-2.469
		c-0.477,0.881-1.097,1.833-1.732,2.714h3.639v0.549H4.172v1.848h2.093v0.52H4.172v4.604c0.736-0.188,1.529-0.375,2.324-0.621v0.549
		C4.793,130.302,2.642,130.879,1.154,131.298z M2.525,129.652c-0.288-0.895-0.707-2.035-1.154-2.858
		c0.145-0.101,0.303-0.13,0.462-0.188c0.419,0.823,0.866,1.935,1.155,2.829C2.857,129.537,2.686,129.58,2.525,129.652z
		 M4.98,129.335l-0.463-0.174c0.592-0.967,0.982-1.861,1.271-2.785c0.158,0.086,0.303,0.115,0.447,0.202
		C5.961,127.4,5.558,128.354,4.98,129.335z M5.369,131.602c-0.101-0.159-0.188-0.332-0.316-0.462
		c1.27-0.563,2.453-1.155,3.564-1.964c0.131,0.102,0.274,0.217,0.391,0.361C7.867,130.403,6.625,131.023,5.369,131.602z
		 M8.242,121.612c-0.49-0.852-1.126-1.775-1.775-2.541c0.115-0.115,0.274-0.216,0.418-0.317c0.736,0.852,1.271,1.573,1.791,2.512
		C8.545,121.396,8.4,121.511,8.242,121.612z M7.059,128.901v-6.914h2.526v-3.594h0.563v3.565h2.439v6.942H7.059z M11.995,122.493
		H7.621v1.559h4.374V122.493z M11.995,124.586H7.621v1.53h4.374V124.586z M11.995,126.636H7.621v1.732h4.374V126.636z
		 M13.367,131.529c-0.852-0.736-1.834-1.415-2.902-1.992l0.434-0.347c0.967,0.534,1.963,1.169,2.814,1.891L13.367,131.529z
		 M11.316,121.569l-0.389-0.318c0.692-0.794,1.24-1.631,1.746-2.525c0.158,0.043,0.289,0.202,0.447,0.288
		C12.602,119.895,11.995,120.789,11.316,121.569z"/>
	<path class="st1" d="M15.118,129.335c0.217-0.26,0.505-0.505,0.765-0.779c1.588-1.732,3.031-3.695,3.335-5.991h-3.608v-0.548h4.272
		c-0.216,2.021-0.996,3.796-2.267,5.384c-0.62,0.766-1.328,1.631-2.035,2.295L15.118,129.335z M21.787,120.27
		c0.347,1.184,0.881,2.354,1.502,3.45c1.414-0.823,2.439-1.688,3.392-2.454l0.505,0.317c-1.111,1.025-2.381,1.834-3.594,2.656
		c1.068,1.877,2.844,3.681,4.417,5.096l-0.433,0.505c-3.09-2.627-4.951-5.571-5.76-8.3l-0.029,9.138
		c0,0.317-0.102,0.722-0.563,0.808c-0.52,0.087-1.055,0.116-1.646,0.058l-0.273-0.577c0.49,0.043,0.953,0.058,1.443,0
		c0.23,0,0.418-0.274,0.418-0.52l-0.014-12.082c0.23,0,0.433-0.015,0.635,0V120.27z"/>
	<path class="st1" d="M37.064,130.591c0.678,0.101,1.689,0.23,2.035,0.158c0.606-0.115,0.707-0.952,0.838-1.501
		c0.548-2.439,0.592-4.042,0.75-6.914h-4.489c-0.534,4.634-1.313,6.207-5.543,9.065l-0.462-0.419
		c4.605-2.873,4.966-4.98,5.369-8.661l-4.416,0.015v-0.563h4.46c0.087-1.097,0.072-2.15,0.058-3.247h0.65
		c-0.016,1.92-0.059,2.67-0.088,3.233l5.082,0.014c-0.159,3.754-0.231,5.717-1.039,8.646c-0.145,0.521-0.419,0.809-0.91,0.853
		c-0.678,0.043-1.256,0.014-2.05-0.059L37.064,130.591z"/>
	<path class="st1" d="M47.304,121.713l1.892,0.015v0.549l-1.892-0.015v3.32c0.649-0.304,1.241-0.722,1.876-1.04v0.593l-1.876,1.067
		v5.327h-0.606v-4.966l-2.064,1.141l-0.316-0.506c0.822-0.317,1.602-0.837,2.381-1.271v-3.666h-1.313
		c-0.144,0.837-0.332,1.646-0.692,2.396l-0.534-0.246c0.679-1.414,0.808-3.074,0.866-4.72l0.549,0.043
		c0.014,0.606-0.088,1.343-0.145,1.992l1.27-0.015v-3.276h0.606V121.713z M49.729,120.472l2.656-0.015v-2.035h0.606v2.035h2.987
		v0.534l-2.987,0.015v2.137h3.724v0.548h-7.707v-0.548l3.363-0.015l0.014-2.122h-2.656V120.472z M52.313,131.009
		c0.563,0.044,0.982,0.029,1.227-0.028c0.275-0.015,0.348-0.26,0.348-0.447v-4.229l-4.851-0.015l-0.015-0.549l4.865,0.015v-1.501
		h0.605v1.501l2.426-0.015v0.563h-2.426v4.445c0,0.246-0.072,0.549-0.361,0.679c-0.461,0.202-1.039,0.087-1.559,0.115
		L52.313,131.009z M50.248,127.228c0.664,0.534,1.256,1.141,1.877,1.761l-0.462,0.361c-0.606-0.636-1.155-1.198-1.833-1.775
		L50.248,127.228z"/>
	<path class="st1" d="M59.81,131.11c0.606,0.058,1.14,0.072,1.53,0c0.245-0.115,0.289-0.231,0.317-0.375
		c0.462-1.328,0.592-2.714,0.563-4.144h-3.234l0.217-2.237c0.058-0.592,0.058-1.169,0.087-1.775h2.959v-2.714l-3.19-0.014
		l0.015-0.534h3.768v3.796h-2.987c-0.059,0.996-0.131,1.963-0.246,2.916h3.189l-0.014,0.909c0.043,0.029-0.015,0.015,0,0.058
		c-0.058,1.43-0.217,2.829-0.65,4.1c-0.057,0.188-0.26,0.404-0.432,0.462c-0.506,0.145-1.04,0.115-1.588,0.145L59.81,131.11z
		 M68.688,119.952c0.865,0.895,1.746,1.891,2.223,3.003l-0.506,0.346c-0.086-0.058-0.072-0.188-0.115-0.274
		c-0.173-0.39-0.39-0.779-0.649-1.14l-2.31,0.375l-0.015,2.122h2.743v3.436l-2.729,0.015c-0.029,0.722-0.015,1.501-0.015,2.223
		c0.708-0.058,1.386-0.217,2.079-0.332c-0.217-0.332-0.506-0.722-0.809-1.025l-0.145-0.201l0.462-0.274
		c0.866,0.952,1.588,1.978,2.107,3.104l-0.491,0.404c-0.072-0.174-0.129-0.376-0.23-0.563c-0.158-0.317-0.332-0.635-0.534-0.938
		l-1.919,0.289l-4.548,0.736c-0.071-0.217-0.13-0.462-0.202-0.679c1.256-0.029,2.454-0.188,3.623-0.404l0.029-0.087v-2.266h-2.901
		v-3.45h2.887v-1.978c-0.88,0.13-1.775,0.303-2.642,0.52l-0.188-0.692c1.054-1.098,1.805-2.367,2.41-3.652l0.549,0.231
		c-0.577,1.169-1.256,2.338-2.121,3.349l0.62-0.058l3.911-0.664c-0.316-0.434-0.664-0.823-1.024-1.155L68.688,119.952z
		 M64.414,124.933v2.353h2.31v-2.367L64.414,124.933z M67.33,124.933v2.338h2.15v-2.353L67.33,124.933z"/>
	<path class="st1" d="M80.096,123.705c0.102,1.054-0.029,2.05-0.895,2.699l-0.404-0.375c0.375-0.245,0.62-0.664,0.707-1.083h-0.766
		v-1.241H80.096z"/>
	<path class="st1" d="M97.162,124.903c-0.563,1.473-1.544,2.699-2.828,3.71c1.746,1.097,3.68,1.703,5.672,2.208
		c-0.072,0.174-0.201,0.347-0.317,0.534c-2.05-0.563-4.056-1.198-5.874-2.353c-1.791,1.126-3.768,1.876-5.818,2.425
		c-0.145-0.145-0.26-0.332-0.389-0.49c1.991-0.506,3.896-1.213,5.658-2.252l0.043-0.058c-1.154-0.866-2.006-1.992-2.598-3.19h-0.838
		v-0.534H97.162z M98.649,120.111c-0.491,0.866-1.14,1.731-1.747,2.54h2.758v2.151h-0.606v-1.617H88.588v1.675h-0.605v-2.224h8.184
		c0.736-0.895,1.43-1.79,1.949-2.8L98.649,120.111z M96.874,119.101l-2.396,0.303l-3.118,0.246l-2.223,0.058l-0.217-0.015
		l-0.332-0.534c0.736-0.043,1.603,0.015,2.396-0.043l2.656-0.188c1.631-0.116,3.233-0.361,4.807-0.65l0.347,0.491L96.874,119.101z
		 M90.19,122.319c-0.303-0.664-0.62-1.328-1.039-1.948l0.52-0.217c0.39,0.621,0.736,1.285,1.024,1.948L90.19,122.319z
		 M91.374,125.438c0.563,1.083,1.4,2.137,2.454,2.814c1.054-0.736,1.848-1.746,2.454-2.814H91.374z M93.598,119.952
		c0.26,0.707,0.52,1.4,0.721,2.15l-0.548,0.145c-0.173-0.75-0.433-1.458-0.722-2.15L93.598,119.952z"/>
	<path class="st1" d="M104.731,121.468h1.675v0.505h-1.689v3.19c0.578-0.274,1.184-0.592,1.732-0.895l0.029,0.592
		c-0.563,0.317-1.17,0.62-1.747,0.909v4.879c0,0.39-0.144,0.649-0.491,0.736c-0.389,0.145-0.865,0.058-1.299,0.086l-0.26-0.548
		c0.375,0.015,0.751,0,1.054-0.044c0.202,0,0.361-0.188,0.361-0.39v-4.431l-1.688,0.88l-0.289-0.433
		c0.664-0.347,1.313-0.664,1.978-1.025v-3.508h-1.964v-0.52h1.949l0.015-3.132h0.62L104.731,121.468z M109.105,129.652
		c-0.822,0.707-1.689,1.356-2.584,1.949l-0.404-0.391c0.838-0.548,1.746-1.184,2.555-1.905L109.105,129.652z M113.811,122.579v6.135
		h-6.799v-6.135H113.811z M113.422,121.612h-6.063v-2.584h6.063V121.612z M107.633,123.099v1.271h5.543v-1.284L107.633,123.099z
		 M113.176,124.874h-5.543l0.015,1.343h5.528V124.874z M107.633,126.751v1.443h5.543v-1.458L107.633,126.751z M112.801,119.548
		h-4.807l-0.015,1.545h4.821V119.548z M114.244,131.428c-0.924-0.649-1.833-1.271-2.771-1.848l0.361-0.375
		c0.967,0.563,1.934,1.169,2.844,1.818L114.244,131.428z"/>
	<path class="st1" d="M129.002,131.615c-1.891-0.375-3.754-0.837-5.5-1.559c-1.992,0.852-3.984,1.328-6.105,1.603l-0.231-0.578
		c2.093-0.26,4.056-0.664,5.803-1.386c-0.924-0.403-1.747-1.067-2.468-1.804c-1.17,1.126-2.643,1.948-4.014,2.468l-0.346-0.462
		c1.674-0.649,3.262-1.559,4.561-2.974h-4.258v-0.52h4.59c0.318-0.36,0.52-0.722,0.679-1.111l0.462,0.26
		c-0.13,0.231-0.289,0.534-0.505,0.852h7.405v0.52h-7.723l-0.491,0.606c0.736,0.823,1.56,1.386,2.584,1.877
		c0.924-0.477,1.804-1.198,2.439-2.021l0.447,0.289c-0.62,0.823-1.458,1.588-2.339,2.035c1.56,0.649,3.508,1.126,5.27,1.4
		L129.002,131.615z M119.417,123.345c-0.433,0.49-1.04,1.024-1.632,1.429c1.285-0.115,2.628-0.245,3.927-0.361
		c-0.274-0.23-0.62-0.418-0.952-0.605l0.303-0.318c0.707,0.404,1.443,0.924,2.078,1.588l-0.36,0.347l-0.606-0.592
		c-1.732,0.13-3.176,0.26-4.98,0.447l-0.144-0.447c0.606-0.404,1.284-0.981,1.775-1.486h-2.584l-0.015-0.477h1.603v-3.681h5.066
		v0.505h-4.475v0.664h3.883v0.505h-3.883v0.708h3.854v0.49h-3.854v0.794h4.821v0.491H119.417z M123.588,120.991l-0.316-0.447
		c1.501-0.52,2.973-1.126,4.33-2.007l0.404,0.347C126.635,119.793,125.133,120.472,123.588,120.991z M123.748,125.235l-0.275-0.447
		c1.703-0.52,3.522-1.371,5.168-2.425l0.361,0.39C127.559,123.749,125.537,124.687,123.748,125.235z M124.094,122.883l-0.346-0.448
		c1.472-0.533,2.9-1.14,4.243-1.963l0.288,0.375C126.967,121.699,125.537,122.319,124.094,122.883z M126.244,126.304
		c-0.389-0.39-0.822-0.736-1.313-1.011l0.36-0.36c0.476,0.288,0.967,0.649,1.343,0.981L126.244,126.304z"/>
	<path class="st1" d="M137.047,120.861v0.534l-2.006-0.015v2.079h-0.592v-2.079h-2.021c-0.086,1.04-0.303,1.992-0.852,2.83
		l-0.217,0.331l-0.433-0.23c0.13-0.347,0.332-0.693,0.491-1.054c0.548-1.213,0.404-2.656,0.433-3.998
		c1.386-0.174,2.786-0.332,4.056-0.794l0.361,0.418c-1.184,0.404-2.512,0.606-3.811,0.779v1.184L137.047,120.861z M135.329,130.144
		c-1.256,0.678-2.599,1.14-3.983,1.516l-0.304-0.448c1.356-0.39,2.729-0.75,3.955-1.472L135.329,130.144z M137.062,123.937
		l-0.332-0.318c0.505-0.837,0.896-1.703,1.011-2.699v-1.631c1.457-0.145,2.959-0.303,4.244-0.866l0.447,0.447
		c-1.271,0.477-2.656,0.679-4.057,0.853l0.015,1.082h4.778v0.505h-2.123l-0.014,2.094h-0.578v-2.079l-2.136-0.015
		c-0.231,0.938-0.521,1.819-1.054,2.613l3.897,0.015v5.269h-8.142l-0.014-5.255L137.062,123.937z M133.582,124.471v1.039h6.973
		v-1.039H133.582z M140.568,126.029h-6.986v1.024h6.986V126.029z M133.598,127.574v1.14l6.971-0.015l-0.014-1.125H133.598z
		 M142.547,131.702c-1.256-0.664-2.613-1.227-3.97-1.631l0.317-0.404c1.414,0.36,2.699,0.981,4.014,1.616L142.547,131.702z"/>
	<path class="st1" d="M145.699,126.072c0.678-0.852,1.313-1.775,1.775-2.757h-1.92v-0.52h2.887c-0.592,1.126-1.271,2.252-2.007,3.32
		h2.079c-0.203,0.909-0.491,1.79-0.881,2.612c0.375,0.419,0.895,0.895,1.371,1.227c1.111,0.606,2.367,0.938,3.695,0.938l4.547-0.015
		l0.823-0.058l-0.347,0.649l-5.514-0.058c-1.299-0.014-2.526-0.433-3.58-1.097c-0.447-0.289-0.852-0.736-1.227-1.126
		c-0.52,0.895-1.256,1.805-2.123,2.512l-0.316-0.491c1.429-1.284,2.381-2.829,2.771-4.604h-2.064L145.699,126.072z M146.031,119.447
		c0.172-0.072,0.331-0.188,0.504-0.246c0.448,0.722,0.867,1.444,1.256,2.194c-0.158,0.115-0.36,0.188-0.52,0.304
		C146.896,120.934,146.449,120.184,146.031,119.447z M157.766,119.952l-0.014,0.52l-8.689-0.015l0.014-0.505h3.797
		c-0.159-0.375-0.347-0.765-0.563-1.126c0.188-0.072,0.376-0.145,0.563-0.217c0.245,0.434,0.52,0.852,0.736,1.285l-0.102,0.043
		L157.766,119.952z M155.096,129.363c0.39,0.015,0.707,0.116,1.098,0.029c0.172-0.043,0.288-0.245,0.26-0.419v-6.265l-6.295,0.015
		l-0.014,7.059h-0.635l-0.015-7.578l2.035,0.015c-0.159-0.39-0.404-0.766-0.62-1.141c0.129-0.087,0.346-0.145,0.52-0.217
		c0.303,0.434,0.605,0.896,0.88,1.343h2.036c0.316-0.462,0.605-0.909,0.836-1.4l0.578,0.174c-0.159,0.418-0.462,0.837-0.693,1.241
		l2.007-0.015v7.116c0,0.26-0.274,0.635-0.563,0.635c-0.418,0.072-0.692,0.072-1.169,0.029L155.096,129.363z M152.252,129.335
		l-0.635,0.015l0.014-3.363h1.415l-0.015-1.228l-1.949,0.015l0.016-0.52h1.948l-0.015-0.967h0.635v0.967l1.964-0.015v0.52
		l-1.964,0.015v1.213h1.387l-0.015,2.987h-0.636v-0.332h-2.15V129.335z M152.252,128.107l2.165,0.015v-1.631h-2.165V128.107z"/>
	<path class="st1" d="M171.152,130.461c0,0.23-0.13,0.534-0.39,0.649c-0.347,0.173-1.083,0.217-1.862,0.202
		c-0.043-0.188-0.115-0.39-0.145-0.592c0.679,0.015,1.285,0.015,1.53-0.058c0.159-0.058,0.274-0.289,0.245-0.434l0.015-3.811h-4.042
		v4.215h-0.635v-4.215h-3.926c-0.131,1.848-0.52,3.608-1.747,5.009l-0.433-0.404c1.053-1.27,1.559-2.814,1.559-4.503v-7.218h9.844
		L171.152,130.461z M165.884,119.88h-3.927v2.699h3.927V119.88z M165.884,123.156h-3.927v2.671h3.927V123.156z M170.531,119.88
		h-4.027v2.699h4.027V119.88z M170.531,123.156h-4.027v2.671h4.027V123.156z"/>
	<path class="st1" d="M2.742,141.227l3.248,8.949l3.291-8.949h1.458v10.335H9.845v-9.339H9.801l-3.406,9.339H5.572l-3.35-9.339H2.18
		v9.339H1.285v-10.335H2.742z"/>
	<path class="st1" d="M16.027,151.735c-2.107,0-3.35-1.617-3.335-3.869c0.015-2.584,1.284-3.955,3.335-3.955
		c2.021,0,3.348,1.371,3.348,3.955C19.375,150.075,18.351,151.735,16.027,151.735z M16.056,144.633
		c-1.646,0-2.439,1.386-2.439,3.233c0,2.05,1.024,3.147,2.454,3.147c1.429,0,2.381-1.141,2.381-3.147
		C18.451,145.816,17.571,144.633,16.056,144.633z"/>
	<path class="st1" d="M22.092,141.227v1.328h-0.865v-1.328H22.092z M22.092,144.085v7.477h-0.865v-7.477H22.092z"/>
	<path class="st1" d="M28.604,146.019c-0.202-0.664-0.434-1.386-1.905-1.386c-1.097,0-1.747,0.447-1.747,1.213
		c0,0.692,0.375,1.068,2.223,1.458c1.517,0.317,2.6,0.822,2.6,2.136c0,1.213-0.896,2.296-2.916,2.296
		c-2.064,0-2.771-0.981-3.061-2.194l0.895-0.159c0.115,0.419,0.434,1.632,2.194,1.632c1.271,0,1.964-0.664,1.964-1.444
		c0-0.735-0.549-1.111-2.195-1.457c-1.588-0.332-2.627-0.866-2.627-2.108c0-0.735,0.506-2.093,2.656-2.093
		c1.473,0,2.382,0.434,2.771,1.978L28.604,146.019z"/>
	<path class="st1" d="M32.706,144.085h1.399v0.649h-1.399v4.907c0,0.924,0.101,1.313,0.837,1.313c0.115,0,0.246-0.014,0.693-0.101
		l0.115,0.707c-0.462,0.087-0.664,0.116-0.924,0.116c-1.617,0-1.588-1.083-1.588-1.92v-5.023h-1.039v-0.649h1.039v-1.92l0.866-0.563
		V144.085z"/>
	<path class="st1" d="M40.502,151.562v-1.111h-0.029c-0.404,0.563-0.967,1.285-2.381,1.285c-1.127,0-1.703-0.534-1.949-0.794
		c-0.577-0.606-0.563-1.545-0.563-1.978v-4.879h0.865v4.633c0,0.606,0.029,1.17,0.289,1.545c0.303,0.433,0.838,0.707,1.443,0.707
		c0.809,0,1.675-0.505,2.064-1.342c0.202-0.448,0.26-1.04,0.26-2.31v-3.233h0.866v7.477H40.502z"/>
	<path class="st1" d="M44.445,144.085v1.501h0.029c0.158-0.549,0.534-1.675,1.718-1.675c0.62,0,1.011,0.245,1.328,0.447
		l-0.332,0.766c-0.477-0.202-0.708-0.289-1.011-0.289c-0.273,0-0.895,0.015-1.328,0.996c-0.13,0.274-0.201,0.779-0.26,1.256
		c-0.043,0.375-0.058,0.866-0.058,1.054v3.421h-0.866v-7.477H44.445z"/>
	<path class="st1" d="M48.951,147.924c0.029,1.805,0.852,3.09,2.512,3.09c1.646,0,2.122-1.343,2.295-1.819l0.866,0.145
		c-0.26,0.722-0.852,2.396-3.204,2.396c-2.151,0-3.393-1.516-3.393-3.912c0-2.353,1.213-3.912,3.406-3.912
		c3.248,0,3.263,3.263,3.277,4.013H48.951z M53.787,147.202c-0.174-1.991-1.314-2.569-2.382-2.569c-0.448,0-2.151,0.116-2.439,2.569
		H53.787z"/>
	<path class="st1" d="M64.079,141.227v10.335h-0.866v-10.335H64.079z"/>
	<path class="st1" d="M69.248,151.735c-2.107,0-3.35-1.617-3.334-3.869c0.014-2.584,1.284-3.955,3.334-3.955
		c2.021,0,3.349,1.371,3.349,3.955C72.597,150.075,71.572,151.735,69.248,151.735z M69.277,144.633
		c-1.646,0-2.439,1.386-2.439,3.233c0,2.05,1.024,3.147,2.453,3.147c1.43,0,2.382-1.141,2.382-3.147
		C71.673,145.816,70.793,144.633,69.277,144.633z"/>
	<path class="st1" d="M79.63,146.336c-0.317-1.082-1.185-1.703-2.31-1.703c-0.924,0-2.454,0.578-2.454,3.089
		c0,1.892,0.866,3.292,2.497,3.292c1.703,0,2.209-1.43,2.426-2.007l0.865,0.13c-0.173,0.722-0.722,2.599-3.334,2.599
		c-2.439,0-3.378-1.892-3.378-3.927c0-1.516,0.592-3.897,3.421-3.897c1.313,0,2.569,0.39,3.19,2.281L79.63,146.336z"/>
	<path class="st1" d="M83.328,141.227v6.322l3.666-3.464h1.227l-3.117,2.785l3.349,4.691h-1.14l-2.844-4.1l-1.141,1.011v3.089
		h-0.866v-10.335H83.328z"/>
	<path class="st1" d="M96.622,144.085v-0.794c0-1.025,0.145-1.372,0.404-1.66c0.347-0.39,0.852-0.577,1.415-0.577
		c0.273,0,0.49,0.028,1.097,0.173l-0.159,0.707c-0.433-0.058-0.577-0.072-0.736-0.072c-1.068,0-1.154,0.649-1.154,1.56v0.664h1.573
		v0.649h-1.573v6.827h-0.866v-6.827h-1.198v-0.649H96.622z"/>
	<path class="st1" d="M100.838,147.924c0.029,1.805,0.852,3.09,2.512,3.09c1.646,0,2.123-1.343,2.295-1.819l0.867,0.145
		c-0.26,0.722-0.852,2.396-3.205,2.396c-2.15,0-3.393-1.516-3.393-3.912c0-2.353,1.213-3.912,3.407-3.912
		c3.247,0,3.263,3.263,3.276,4.013H100.838z M105.674,147.202c-0.173-1.991-1.313-2.569-2.381-2.569
		c-0.448,0-2.151,0.116-2.439,2.569H105.674z"/>
	<path class="st1" d="M108.102,146.12c0.289-1.56,1.256-2.209,3.22-2.209c2.829,0,2.843,1.415,2.843,3.176
		c0,0.159-0.028,1.79-0.028,2.107c0,1.328,0.13,1.675,0.462,2.367h-0.967c-0.174-0.447-0.217-0.635-0.274-1.14
		c-0.332,0.36-1.212,1.313-3.046,1.313c-1.718,0-2.382-1.083-2.382-2.079c0-0.49,0.13-1.141,0.837-1.674
		c0.275-0.217,0.621-0.448,2.281-0.679c0.75-0.102,1.545-0.202,2.237-0.447v-0.26c0-0.924,0-2.007-1.963-2.007
		c-1.948,0-2.194,1.111-2.324,1.66L108.102,146.12z M113.284,147.534c-0.62,0.231-1.66,0.434-2.382,0.563
		c-0.981,0.173-2.05,0.36-2.05,1.486c0,0.852,0.78,1.43,1.632,1.43c0.605,0,1.4-0.274,2.021-0.78
		c0.534-0.433,0.779-1.024,0.779-2.208V147.534z"/>
	<path class="st1" d="M117.502,144.085h1.4v0.649h-1.4v4.907c0,0.924,0.102,1.313,0.838,1.313c0.115,0,0.245-0.014,0.692-0.101
		l0.116,0.707c-0.463,0.087-0.664,0.116-0.924,0.116c-1.617,0-1.588-1.083-1.588-1.92v-5.023h-1.04v-0.649h1.04v-1.92l0.865-0.563
		V144.085z"/>
	<path class="st1" d="M125.299,151.562v-1.111h-0.029c-0.404,0.563-0.967,1.285-2.382,1.285c-1.126,0-1.703-0.534-1.948-0.794
		c-0.578-0.606-0.563-1.545-0.563-1.978v-4.879h0.866v4.633c0,0.606,0.029,1.17,0.289,1.545c0.303,0.433,0.837,0.707,1.443,0.707
		c0.809,0,1.674-0.505,2.064-1.342c0.201-0.448,0.26-1.04,0.26-2.31v-3.233h0.865v7.477H125.299z"/>
	<path class="st1" d="M129.242,144.085v1.501h0.029c0.158-0.549,0.533-1.675,1.717-1.675c0.621,0,1.011,0.245,1.328,0.447
		l-0.332,0.766c-0.477-0.202-0.707-0.289-1.01-0.289c-0.274,0-0.896,0.015-1.328,0.996c-0.13,0.274-0.202,0.779-0.26,1.256
		c-0.043,0.375-0.059,0.866-0.059,1.054v3.421h-0.865v-7.477H129.242z"/>
	<path class="st1" d="M133.748,147.924c0.028,1.805,0.852,3.09,2.512,3.09c1.645,0,2.121-1.343,2.295-1.819l0.865,0.145
		c-0.26,0.722-0.852,2.396-3.204,2.396c-2.151,0-3.392-1.516-3.392-3.912c0-2.353,1.212-3.912,3.406-3.912
		c3.248,0,3.262,3.263,3.276,4.013H133.748z M138.583,147.202c-0.173-1.991-1.313-2.569-2.382-2.569
		c-0.447,0-2.15,0.116-2.439,2.569H138.583z"/>
	<path class="st1" d="M142.787,150.19v1.371c0,0.722-0.131,1.343-0.924,1.92l-0.375-0.505c0.52-0.404,0.62-0.621,0.635-1.415h-0.563
		v-1.371H142.787z"/>
	<path class="st1" d="M157.668,141.227h0.865v10.335h-0.865v-1.14c-0.419,0.462-1.184,1.313-2.814,1.313
		c-2.512,0-3.335-2.267-3.335-3.97c0-1.66,0.779-3.854,3.349-3.854c1.746,0,2.439,0.909,2.771,1.386h0.029V141.227z
		 M154.997,151.014c0.491,0,1.185-0.116,1.79-0.664c0.375-0.332,0.881-0.953,0.881-2.556c0-2.512-1.66-3.161-2.729-3.161
		c-1.285,0-2.497,0.996-2.497,3.205C152.442,149.916,153.654,151.014,154.997,151.014z"/>
	<path class="st1" d="M161.294,147.924c0.028,1.805,0.852,3.09,2.512,3.09c1.646,0,2.122-1.343,2.295-1.819l0.866,0.145
		c-0.26,0.722-0.852,2.396-3.205,2.396c-2.15,0-3.392-1.516-3.392-3.912c0-2.353,1.212-3.912,3.407-3.912
		c3.247,0,3.262,3.263,3.275,4.013H161.294z M166.129,147.202c-0.172-1.991-1.313-2.569-2.381-2.569
		c-0.447,0-2.15,0.116-2.439,2.569H166.129z"/>
	<path class="st1" d="M173.047,146.019c-0.202-0.664-0.434-1.386-1.905-1.386c-1.097,0-1.747,0.447-1.747,1.213
		c0,0.692,0.375,1.068,2.223,1.458c1.517,0.317,2.6,0.822,2.6,2.136c0,1.213-0.896,2.296-2.916,2.296
		c-2.064,0-2.771-0.981-3.061-2.194l0.895-0.159c0.115,0.419,0.434,1.632,2.194,1.632c1.271,0,1.964-0.664,1.964-1.444
		c0-0.735-0.549-1.111-2.195-1.457c-1.588-0.332-2.627-0.866-2.627-2.108c0-0.735,0.506-2.093,2.656-2.093
		c1.473,0,2.382,0.434,2.771,1.978L173.047,146.019z"/>
	<path class="st1" d="M176.961,141.227v1.328h-0.865v-1.328H176.961z M176.961,144.085v7.477h-0.865v-7.477H176.961z"/>
	<path class="st1" d="M185.811,144.085v6.885c0,1.819-0.52,3.623-3.623,3.623c-1.616,0-2.944-0.49-3.06-2.208l0.852,0.173
		c0.101,0.447,0.274,1.313,2.079,1.313c2.078,0,2.872-1.039,2.872-2.728v-0.722h-0.028c-0.391,0.505-1.055,1.313-2.758,1.313
		c-2.525,0-3.32-2.281-3.32-3.884c0-1.371,0.607-3.94,3.32-3.94c1.79,0,2.482,0.981,2.758,1.43h0.028v-1.256H185.811z
		 M182.318,144.633c-1.747,0-2.57,1.487-2.57,3.176c0,1.761,0.867,3.205,2.556,3.205c1.024,0,2.642-0.606,2.642-3.104
		C184.945,145.716,183.762,144.633,182.318,144.633z"/>
	<path class="st1" d="M188.976,144.085v1.097h0.028c0.404-0.549,0.968-1.271,2.383-1.271c1.125,0,1.731,0.52,1.977,0.794
		c0.549,0.621,0.535,1.53,0.535,1.978v4.879h-0.867v-4.647c0-0.606-0.028-1.155-0.288-1.53c-0.304-0.447-0.837-0.707-1.444-0.707
		c-0.808,0-1.674,0.49-2.063,1.327c-0.217,0.462-0.26,1.04-0.26,2.31v3.248h-0.866v-7.477H188.976z"/>
	<path class="st1" d="M200.324,146.019c-0.202-0.664-0.434-1.386-1.905-1.386c-1.097,0-1.747,0.447-1.747,1.213
		c0,0.692,0.375,1.068,2.223,1.458c1.517,0.317,2.6,0.822,2.6,2.136c0,1.213-0.896,2.296-2.916,2.296
		c-2.064,0-2.771-0.981-3.061-2.194l0.895-0.159c0.115,0.419,0.434,1.632,2.194,1.632c1.271,0,1.964-0.664,1.964-1.444
		c0-0.735-0.549-1.111-2.195-1.457c-1.588-0.332-2.627-0.866-2.627-2.108c0-0.735,0.506-2.093,2.656-2.093
		c1.473,0,2.382,0.434,2.771,1.978L200.324,146.019z"/>
	<path class="st1" d="M210.299,144.085v-0.794c0-1.025,0.145-1.372,0.404-1.66c0.346-0.39,0.852-0.577,1.414-0.577
		c0.274,0,0.49,0.028,1.098,0.173l-0.159,0.707c-0.433-0.058-0.577-0.072-0.736-0.072c-1.068,0-1.155,0.649-1.155,1.56v0.664h1.574
		v0.649h-1.574v6.827h-0.865v-6.827H209.1v-0.649H210.299z"/>
	<path class="st1" d="M216.896,151.735c-2.107,0-3.35-1.617-3.334-3.869c0.014-2.584,1.284-3.955,3.334-3.955
		c2.021,0,3.349,1.371,3.349,3.955C220.245,150.075,219.221,151.735,216.896,151.735z M216.926,144.633
		c-1.646,0-2.439,1.386-2.439,3.233c0,2.05,1.024,3.147,2.453,3.147c1.43,0,2.382-1.141,2.382-3.147
		C219.321,145.816,218.441,144.633,216.926,144.633z"/>
	<path class="st1" d="M222.847,144.085v1.501h0.028c0.159-0.549,0.535-1.675,1.719-1.675c0.62,0,1.01,0.245,1.328,0.447
		l-0.332,0.766c-0.477-0.202-0.708-0.289-1.012-0.289c-0.273,0-0.895,0.015-1.327,0.996c-0.13,0.274-0.202,0.779-0.261,1.256
		c-0.043,0.375-0.057,0.866-0.057,1.054v3.421h-0.867v-7.477H222.847z"/>
	<path class="st1" d="M6.813,162.227H7.68v10.335H6.813v-1.14c-0.419,0.462-1.185,1.313-2.815,1.313
		c-2.512,0-3.334-2.267-3.334-3.97c0-1.66,0.779-3.854,3.349-3.854c1.747,0,2.439,0.909,2.771,1.386h0.029V162.227z M4.143,172.014
		c0.491,0,1.184-0.116,1.79-0.664c0.376-0.332,0.881-0.953,0.881-2.556c0-2.512-1.66-3.161-2.729-3.161
		c-1.284,0-2.497,0.996-2.497,3.205C1.588,170.916,2.801,172.014,4.143,172.014z"/>
	<path class="st1" d="M9.674,167.12c0.289-1.56,1.256-2.209,3.22-2.209c2.829,0,2.843,1.415,2.843,3.176
		c0,0.159-0.028,1.79-0.028,2.107c0,1.328,0.13,1.675,0.462,2.367h-0.967c-0.174-0.447-0.217-0.635-0.274-1.14
		c-0.332,0.36-1.212,1.313-3.046,1.313c-1.718,0-2.382-1.083-2.382-2.079c0-0.49,0.13-1.141,0.837-1.674
		c0.275-0.217,0.621-0.448,2.281-0.679c0.75-0.102,1.545-0.202,2.237-0.447v-0.26c0-0.924,0-2.007-1.963-2.007
		c-1.948,0-2.194,1.111-2.324,1.66L9.674,167.12z M14.856,168.534c-0.62,0.231-1.66,0.434-2.382,0.563
		c-0.981,0.173-2.05,0.36-2.05,1.486c0,0.852,0.78,1.43,1.632,1.43c0.605,0,1.4-0.274,2.021-0.78
		c0.534-0.433,0.779-1.024,0.779-2.208V168.534z"/>
	<path class="st1" d="M18.873,165.085v1.067h0.028c0.274-0.418,0.896-1.241,2.252-1.241c1.429,0,1.818,0.866,1.991,1.241
		c0.391-0.49,1.012-1.241,2.339-1.241c0.823,0,1.386,0.347,1.688,0.679c0.26,0.274,0.563,0.822,0.563,1.876v5.096h-0.866v-4.647
		c0-0.924-0.029-2.252-1.573-2.252c-1.761,0-1.992,1.746-1.992,3.219v3.681h-0.866v-4.734c0-0.779,0.029-2.137-1.457-2.137
		c-1.516,0-2.107,1.4-2.107,2.888v3.983h-0.867v-7.477H18.873z"/>
	<path class="st1" d="M29.731,167.12c0.288-1.56,1.256-2.209,3.22-2.209c2.828,0,2.843,1.415,2.843,3.176
		c0,0.159-0.028,1.79-0.028,2.107c0,1.328,0.129,1.675,0.461,2.367H35.26c-0.173-0.447-0.217-0.635-0.273-1.14
		c-0.332,0.36-1.213,1.313-3.047,1.313c-1.717,0-2.381-1.083-2.381-2.079c0-0.49,0.13-1.141,0.837-1.674
		c0.274-0.217,0.62-0.448,2.28-0.679c0.751-0.102,1.545-0.202,2.238-0.447v-0.26c0-0.924,0-2.007-1.963-2.007
		c-1.949,0-2.195,1.111-2.324,1.66L29.731,167.12z M34.914,168.534c-0.621,0.231-1.66,0.434-2.383,0.563
		c-0.98,0.173-2.049,0.36-2.049,1.486c0,0.852,0.779,1.43,1.631,1.43c0.606,0,1.4-0.274,2.021-0.78
		c0.533-0.433,0.779-1.024,0.779-2.208V168.534z"/>
	<path class="st1" d="M44.588,165.085v6.885c0,1.819-0.52,3.623-3.623,3.623c-1.617,0-2.945-0.49-3.061-2.208l0.852,0.173
		c0.102,0.447,0.275,1.313,2.079,1.313c2.079,0,2.872-1.039,2.872-2.728v-0.722h-0.028c-0.39,0.505-1.054,1.313-2.757,1.313
		c-2.526,0-3.32-2.281-3.32-3.884c0-1.371,0.606-3.94,3.32-3.94c1.789,0,2.482,0.981,2.757,1.43h0.028v-1.256H44.588z
		 M41.095,165.633c-1.747,0-2.569,1.487-2.569,3.176c0,1.761,0.866,3.205,2.555,3.205c1.025,0,2.642-0.606,2.642-3.104
		C43.722,166.716,42.538,165.633,41.095,165.633z"/>
	<path class="st1" d="M47.348,168.924c0.029,1.805,0.852,3.09,2.512,3.09c1.646,0,2.123-1.343,2.295-1.819l0.867,0.145
		c-0.26,0.722-0.852,2.396-3.205,2.396c-2.15,0-3.393-1.516-3.393-3.912c0-2.353,1.213-3.912,3.407-3.912
		c3.247,0,3.263,3.263,3.276,4.013H47.348z M52.184,168.202c-0.173-1.991-1.313-2.569-2.381-2.569c-0.448,0-2.151,0.116-2.439,2.569
		H52.184z"/>
	<path class="st1" d="M60.573,162.227h0.866v10.335h-0.866v-1.14c-0.419,0.462-1.184,1.313-2.814,1.313
		c-2.512,0-3.335-2.267-3.335-3.97c0-1.66,0.779-3.854,3.35-3.854c1.746,0,2.439,0.909,2.771,1.386h0.028V162.227z M57.902,172.014
		c0.492,0,1.185-0.116,1.791-0.664c0.375-0.332,0.88-0.953,0.88-2.556c0-2.512-1.659-3.161-2.728-3.161
		c-1.285,0-2.498,0.996-2.498,3.205C55.348,170.916,56.561,172.014,57.902,172.014z"/>
	<path class="st1" d="M68.618,162.227v3.955h0.028c0.404-0.549,0.968-1.271,2.383-1.271c1.125,0,1.731,0.52,1.977,0.794
		c0.549,0.621,0.535,1.53,0.535,1.978v4.879h-0.867v-4.647c0-0.606-0.028-1.155-0.288-1.53c-0.304-0.447-0.837-0.707-1.444-0.707
		c-0.808,0-1.674,0.49-2.063,1.327c-0.217,0.462-0.26,1.04-0.26,2.31v3.248h-0.866v-10.335H68.618z"/>
	<path class="st1" d="M75.478,167.12c0.288-1.56,1.256-2.209,3.22-2.209c2.828,0,2.843,1.415,2.843,3.176
		c0,0.159-0.028,1.79-0.028,2.107c0,1.328,0.129,1.675,0.461,2.367h-0.967c-0.173-0.447-0.217-0.635-0.273-1.14
		c-0.332,0.36-1.213,1.313-3.047,1.313c-1.717,0-2.381-1.083-2.381-2.079c0-0.49,0.13-1.141,0.837-1.674
		c0.274-0.217,0.62-0.448,2.28-0.679c0.751-0.102,1.545-0.202,2.238-0.447v-0.26c0-0.924,0-2.007-1.963-2.007
		c-1.949,0-2.195,1.111-2.324,1.66L75.478,167.12z M80.66,168.534c-0.621,0.231-1.66,0.434-2.383,0.563
		c-0.98,0.173-2.049,0.36-2.049,1.486c0,0.852,0.779,1.43,1.631,1.43c0.606,0,1.4-0.274,2.021-0.78
		c0.533-0.433,0.779-1.024,0.779-2.208V168.534z"/>
	<path class="st1" d="M84.689,162.227v1.328h-0.865v-1.328H84.689z M84.689,165.085v7.477h-0.865v-7.477H84.689z"/>
	<path class="st1" d="M87.78,165.085v1.501h0.028c0.159-0.549,0.535-1.675,1.719-1.675c0.62,0,1.01,0.245,1.328,0.447l-0.332,0.766
		c-0.477-0.202-0.708-0.289-1.012-0.289c-0.273,0-0.895,0.015-1.327,0.996c-0.13,0.274-0.202,0.779-0.261,1.256
		c-0.043,0.375-0.057,0.866-0.057,1.054v3.421H87v-7.477H87.78z"/>
</g>
</svg>