<!-- Generator: Adobe Illustrator 19.2.1, SVG Export Plug-In  -->
<svg version="1.1"
	 xmlns="http://www.w3.org/2000/svg" xmlns:xlink="http://www.w3.org/1999/xlink" xmlns:a="http://ns.adobe.com/AdobeSVGViewerExtensions/3.0/"
	 x="0px" y="0px" width="491.218px" height="315.481px" viewBox="0 0 491.218 315.481"
	 style="enable-background:new 0 0 491.218 315.481;" xml:space="preserve">
<style type="text/css">
	.st0{fill:#FFFFFF;}
	.st1{fill:none;stroke:#000000;stroke-width:0.72;}
	.st2{fill:none;stroke:#000000;stroke-width:0.7;}
</style>
<defs>
</defs>
<g>
	<path d="M50.696,153.67c-2.182-2.627-3.272-5.868-3.272-9.726c0-3.878,1.091-7.171,3.272-9.88h1.49
		c-2.222,2.826-3.332,6.113-3.332,9.86c0,3.727,1.104,6.975,3.312,9.747H50.696z"/>
	<path d="M64.326,149.359c-1.116,0.633-2.512,0.949-4.183,0.949c-2.13,0-3.847-0.739-5.149-2.217
		c-1.304-1.478-1.954-3.39-1.954-5.735c0-2.461,0.715-4.504,2.145-6.126c1.431-1.623,3.288-2.434,5.575-2.434
		c1.437,0,2.625,0.22,3.566,0.66v1.897c-1.091-0.632-2.293-0.949-3.605-0.949c-1.803,0-3.242,0.639-4.316,1.919
		c-1.075,1.279-1.612,2.922-1.612,4.93c0,1.905,0.503,3.459,1.509,4.662c1.005,1.203,2.355,1.805,4.046,1.805
		c1.529,0,2.854-0.357,3.978-1.073V149.359z"/>
	<path d="M66.042,142.243c0-2.565,0.66-4.614,1.983-6.147c1.323-1.533,3.112-2.3,5.365-2.3c2.091,0,3.774,0.75,5.051,2.248
		c1.277,1.5,1.916,3.432,1.916,5.797c0,2.551-0.646,4.6-1.935,6.147c-1.29,1.547-3.052,2.32-5.287,2.32
		c-2.136,0-3.852-0.753-5.148-2.258C66.691,146.544,66.042,144.608,66.042,142.243z M67.796,142.077c0,1.919,0.483,3.505,1.45,4.76
		c0.966,1.255,2.26,1.882,3.88,1.882c1.732,0,3.079-0.593,4.043-1.78c0.963-1.186,1.445-2.797,1.445-4.832
		c0-2.104-0.466-3.747-1.397-4.93s-2.248-1.774-3.953-1.774c-1.659,0-2.986,0.631-3.979,1.893S67.796,140.152,67.796,142.077z"/>
	<path d="M94.244,150.04h-1.999l-2.547-4.497c-0.543-0.963-1.036-1.593-1.48-1.893c-0.444-0.299-0.964-0.449-1.558-0.449h-1.5v6.838
		h-1.665v-15.976h4.469c1.391,0,2.499,0.376,3.321,1.129c0.824,0.753,1.235,1.793,1.235,3.12c0,2.207-1.12,3.641-3.361,4.301v0.041
		c0.418,0.193,0.763,0.444,1.034,0.753c0.271,0.31,0.677,0.922,1.219,1.836L94.244,150.04z M85.161,135.693v5.879h2.479
		c0.922,0,1.673-0.284,2.254-0.851c0.58-0.567,0.872-1.322,0.872-2.264c0-0.867-0.265-1.544-0.795-2.032
		c-0.528-0.489-1.299-0.732-2.312-0.732H85.161z"/>
	<path d="M105.097,135.672h-4.379v14.368h-1.676v-14.368h-4.369v-1.608h10.425V135.672z"/>
	<path d="M115.564,150.04h-7.976v-15.976h7.633v1.608h-5.968v5.436h5.517v1.608h-5.517v5.714h6.31V150.04z"/>
	<path d="M129.503,150.04h-2.038l-3.558-6.178c-0.098-0.172-0.215-0.43-0.352-0.773h-0.05c-0.006,0.034-0.123,0.292-0.352,0.773
		l-3.655,6.178h-2.068l5.095-8.034l-4.693-7.942h2.058l3.154,5.672c0.209,0.378,0.393,0.746,0.549,1.104h0.04
		c0.235-0.509,0.437-0.894,0.607-1.155l3.272-5.621h1.93l-4.782,7.921L129.503,150.04z"/>
	<path d="M130.953,153.67c2.201-2.757,3.302-6.006,3.302-9.747c0-3.761-1.11-7.047-3.332-9.86h1.5
		c2.195,2.709,3.292,6.003,3.292,9.88c0,3.851-1.097,7.093-3.292,9.726H130.953z"/>
</g>
<g>
	<path d="M127.584,90.556c0.562-0.422,1.084-1.035,1.566-1.774c0.461-0.74,0.822-1.437,1.084-2.092
		c0.26-0.655,0.402-1.246,0.481-1.754l0.08-0.57h-2.569l-1.745,0.063v-2.303l1.565,0.042h3.451l1.746-0.042
		c-0.021,0.528-0.04,1.014-0.081,1.437c-0.019,0.423-0.1,1.014-0.201,1.754c-0.12,0.74-0.341,1.437-0.601,2.092
		c-0.282,0.676-0.583,1.331-0.943,1.943c-0.362,0.634-0.703,1.162-1.024,1.605c-0.32,0.423-0.743,0.867-1.224,1.352
		c-0.502,0.486-1.004,0.909-1.504,1.268c-0.441-0.718-0.863-1.226-1.244-1.543l-0.562-0.486
		C126.439,91.295,127.022,90.978,127.584,90.556z M131.377,78.557h2.869l2.208-0.042c0.019,0.253,0.04,0.549,0.06,0.887
		c0.04,0.338,0.12,0.74,0.26,1.183c0.121,0.444,0.261,0.951,0.462,1.521c0.201,0.55,0.402,0.93,0.521,1.141l0.362,0.676
		c0.903-1.056,1.605-1.986,2.107-2.768c0.522-0.802,0.964-1.563,1.345-2.26c0.341,0.296,1.044,0.782,2.107,1.437
		c-1.425,2.028-2.889,3.95-4.354,5.767c0.701,0.993,1.404,1.816,2.107,2.471c0.703,0.676,1.284,1.162,1.746,1.437
		c0.461,0.296,0.983,0.549,1.565,0.803c-0.18,0.211-0.381,0.443-0.582,0.718c-0.221,0.275-0.542,0.802-0.983,1.584
		c-0.683-0.423-1.204-0.761-1.566-1.035c-0.36-0.275-0.902-0.718-1.625-1.394c-0.703-0.655-1.345-1.437-1.887-2.281
		c-0.561-0.845-1.103-1.817-1.625-2.916v6.76c0,0.38-0.1,0.697-0.32,0.972c-0.201,0.253-0.682,0.401-1.445,0.507
		c-0.743,0.085-1.364,0.148-1.866,0.106c-0.04-0.233-0.081-0.486-0.14-0.782c-0.04-0.296-0.121-0.591-0.261-0.887l-0.341-0.782
		c1.224,0.127,1.887,0.148,1.946,0.063c0.1-0.106,0.161-0.19,0.181-0.275c0.019-0.085,0.019-0.275,0.019-0.571v-9.845h-2.969
		l-1.686,0.063v-2.345L131.377,78.557z M132.319,73.888c0.663,0.253,2.85,1.078,6.563,2.492c-0.382,0.867-0.623,1.437-0.703,1.69
		l-0.261,0.803c-1.284-0.634-2.849-1.331-4.696-2.028l-1.646-0.613l-0.862-0.338C131.317,75.282,131.859,74.606,132.319,73.888z"/>
	<path d="M151.804,81.746c-0.481,0.824-1.304,1.796-2.448,2.895c-0.281-0.338-0.481-0.591-0.642-0.74l-0.843-0.761l-0.663-0.655
		c0.763-0.486,1.385-1.014,1.926-1.584c0.542-0.57,1.064-1.31,1.566-2.303c0.481-0.972,0.822-1.817,1.023-2.514
		c0.201-0.697,0.362-1.352,0.481-1.943c0.381,0.19,0.703,0.338,0.964,0.444c0.26,0.105,0.862,0.296,1.826,0.591
		c-0.1,0.19-0.181,0.338-0.221,0.444l-0.441,1.056l-0.32,0.676h6.441l0.763,1.204c-0.081,0.232-0.221,0.57-0.382,1.035
		c-0.18,0.465-1.063,2.113-2.648,4.943c0.462,1.056,0.863,1.859,1.205,2.387c0.341,0.55,0.843,1.183,1.525,1.881
		c0.682,0.697,1.385,1.204,2.107,1.457c0.743,0.275,1.405,0.423,2.008,0.507c-0.483,0.802-0.964,1.795-1.445,2.979
		c-0.623-0.19-1.244-0.444-1.887-0.803c-0.622-0.338-1.305-0.845-2.027-1.478c-0.722-0.634-1.345-1.394-1.847-2.303
		c-0.501-0.909-0.782-1.521-0.883-1.817l-0.201-0.57c-1.003,1.246-1.906,2.26-2.688,3c-0.803,0.76-1.706,1.394-2.709,1.965
		c-1.004,0.591-2.167,1.162-3.472,1.69c-0.422-1.141-0.722-1.838-0.903-2.113l-0.461-0.655c0.12-0.021,0.381-0.063,0.782-0.106
		c0.402-0.084,1.003-0.275,1.826-0.549c0.822-0.296,1.705-0.845,2.648-1.627c0.943-0.803,1.786-1.648,2.508-2.535
		c0.743-0.887,1.385-1.859,1.947-2.957c0.562-1.078,1.044-2.113,1.465-3.127h-4.755C152.687,80.247,152.306,80.902,151.804,81.746z"
		/>
	<path d="M165.631,83.711c0.06-0.402,0.1-1.078,0.18-2.049c0.06-0.951,0.121-1.732,0.121-2.324v-0.951
		c0.762,0.127,1.504,0.19,2.228,0.19c0,0.423,0,0.697,0,0.824c0,0.127-0.04,0.888-0.1,2.303c-0.06,1.415-0.14,2.26-0.181,2.556
		l-0.08,0.57c-0.281-0.042-0.481-0.063-0.622-0.084c-0.121,0-0.683,0.084-1.706,0.084C165.51,84.493,165.57,84.113,165.631,83.711z
		 M170.868,74.395l-0.081,2.07v2.07c0.522-0.085,1.125-0.275,1.807-0.57c0.201,0.528,0.341,0.951,0.462,1.31
		c0.1,0.317,0.22,0.782,0.381,1.394c0.201-0.74,0.362-1.479,0.481-2.261c0.121-0.76,0.18-1.352,0.18-1.774v-0.55
		c0.843,0.212,1.627,0.359,2.388,0.423c-0.1,0.782-0.18,1.267-0.22,1.458l-0.181,0.866h1.525v-2.641l-0.059-1.796h2.408l-0.06,1.859
		v2.577h1.987l1.745-0.063v2.366l-1.906-0.084h-1.826v3.528h2.067l1.345-0.021v2.303l-1.345-0.042h-2.067v4.035h2.167l1.887-0.085
		v2.387l-1.887-0.085h-7.886l-2.207,0.085v-2.387l2.247,0.085h3.391v-4.035h-2.107l-1.184,0.042v-2.303l1.244,0.021h2.046V81.05
		h-1.986c-0.483,1.901-1.244,3.591-2.269,5.07c-0.2-0.296-0.4-0.571-0.582-0.824c-0.18-0.232-0.542-0.613-1.084-1.141
		c0.542-0.57,0.964-1.31,1.305-2.239l0.22-0.613c-0.542,0.253-1.084,0.549-1.625,0.866c-0.04-0.253-0.08-0.57-0.14-0.929
		c-0.06-0.359-0.281-1.056-0.663-2.092v12.021l0.081,2.556h-2.449l0.081-2.577V76.55l-0.081-2.155H170.868z"/>
	<path d="M188.327,87.83l-2.228,0.063v-2.429l2.207,0.084h5.599l-0.06-1.416h2.449l-0.081,1.416h5.539l2.307-0.084v2.429
		l-2.268-0.063h-3.912c0.381,0.38,0.701,0.697,0.983,0.951c0.281,0.253,0.843,0.613,1.686,1.119
		c0.822,0.486,1.544,0.824,2.167,0.951c0.602,0.126,1.203,0.211,1.766,0.232c-0.521,0.951-0.843,1.605-0.983,1.986l-0.201,0.507
		c-0.943-0.275-1.926-0.655-2.93-1.162c-1.003-0.507-1.786-0.972-2.347-1.416c-0.542-0.444-1.144-0.993-1.807-1.669v2.662
		l0.081,1.711h-2.449l0.06-1.754v-2.535c-0.341,0.317-0.622,0.549-0.843,0.718c-0.22,0.169-0.682,0.507-1.385,1.014
		c-0.703,0.486-1.284,0.866-1.726,1.162c-0.441,0.275-1.284,0.718-2.489,1.331c-0.4-0.613-0.963-1.373-1.685-2.281
		c1.264-0.19,2.408-0.634,3.451-1.31c1.044-0.676,2.027-1.416,2.97-2.219H188.327z M187.504,76.782
		c0.743,0.761,1.525,1.627,2.347,2.557c-0.642,0.697-1.163,1.289-1.546,1.795c-0.843-1.162-1.444-1.88-1.785-2.176l-0.663-0.55
		C186.44,77.965,186.982,77.416,187.504,76.782z M187.444,82.465c0.241-0.148,0.662-0.443,1.244-0.866
		c0.582-0.444,1.063-0.845,1.425-1.183c0.362-0.359,0.722-0.76,1.103-1.183c0.1,0.232,0.201,0.465,0.322,0.676
		c0.1,0.232,0.362,0.697,0.782,1.416c-0.402,0.359-1.044,0.929-1.926,1.711c-0.903,0.781-1.766,1.542-2.588,2.303
		c-0.121-0.232-0.261-0.486-0.402-0.718c-0.14-0.253-0.483-0.782-1.024-1.584C186.862,82.803,187.222,82.613,187.444,82.465z
		 M190.153,74.12c0.362,0.401,0.763,0.845,1.244,1.373c0.462,0.507,0.843,0.887,1.063,1.12c-0.782,0.802-1.324,1.394-1.645,1.753
		c-0.261-0.401-0.522-0.781-0.784-1.162c-0.26-0.359-0.521-0.634-0.802-0.887l-0.663-0.592
		C189.029,75.325,189.571,74.796,190.153,74.12z M192.3,76.888l1.484,0.085h1.365c0.019-0.317,0.04-0.655,0.06-0.993
		c0.04-0.338,0.04-0.571,0.04-0.676l-0.1-0.951c0.362,0.085,0.642,0.148,0.822,0.19c0.181,0.021,0.723,0.063,1.646,0.148
		c-0.04,0.359-0.08,0.718-0.1,1.078c-0.04,0.38-0.06,0.591-0.08,0.655l-0.06,0.55h2.087l1.645-0.063
		c-0.06,0.676-0.14,1.352-0.241,2.028c-0.08,0.676-0.12,1.035-0.12,1.056l-0.1,1.352c-0.021,0.401-0.041,0.634,0.04,0.718
		c0.1,0.105,0.241,0.148,0.441,0.126c0.18-0.021,0.36-0.126,0.542-0.317c0.18-0.169,0.261-0.402,0.341-0.697l0.201-0.802
		c0.682,0.443,1.385,0.781,2.087,0.993c-0.382,1.014-0.602,1.605-0.663,1.795c-0.08,0.169-0.22,0.38-0.421,0.634
		c-0.181,0.275-0.362,0.465-0.542,0.571c-0.181,0.105-0.462,0.169-0.863,0.19c-0.502,0.042-1.023,0.042-1.565,0
		c-0.562-0.063-1.004-0.19-1.325-0.38c-0.32-0.169-0.521-0.338-0.582-0.486c-0.059-0.169-0.059-0.486-0.019-0.951l0.241-3.613
		h-1.485c-0.08,0.296-0.18,0.655-0.301,1.078c-0.14,0.444-0.322,0.908-0.602,1.416c-0.261,0.465-0.662,0.929-1.144,1.394
		c-0.481,0.464-1.163,1.035-2.086,1.732c-0.161-0.169-0.462-0.465-0.903-0.888c-0.441-0.422-0.782-0.761-1.004-1.014
		c0.903-0.275,1.646-0.676,2.207-1.183c0.583-0.528,0.964-1.141,1.225-1.838l0.26-0.697h-0.943l-1.484,0.085V76.888z"/>
	<path d="M215.879,83.838l-0.703,0.275c-0.22,0.169-0.561,0.232-0.803,0.443l-0.521-0.972c-0.663,0.021-1.766,0.19-2.569,0.19
		c-0.803,0.021-1.565,0.169-1.947,0.169c-0.441,0.021-1.023,0.106-2.027,0.19l-0.682-1.669c0.743-0.296,1.165-0.507,1.284-0.591
		l0.422-0.296h-1.104h-0.963v-1.5l1.425,0.042v-3.655l-0.041-1.986l2.108,0.042h3.372l2.268-0.042v1.605l-2.268-0.042h-3.352v0.55
		h3.412l1.867-0.042v1.246l-1.867-0.042h-3.412v0.571h3.432l1.847-0.063v1.289l-1.867-0.042h-3.412v0.613h3.432l2.589-0.063v1.605
		l-1.004-0.085c0.22,0.317,1.184,1.458,1.605,2.113L215.879,83.838z M223.685,93.176l-0.221,0.443
		c-1.264-0.169-2.488-0.275-3.291-0.443c-0.803-0.19-2.027-0.444-3.071-0.845c-0.402,0.169-0.602,0.296-1.023,0.444
		c-0.422,0.148-0.822,0.359-1.766,0.57c-0.583,0.127-1.666,0.486-2.75,0.591c-0.22-0.443-0.542-0.781-0.682-0.972l-0.782-0.951
		c0.481,0.063,1.866-0.127,2.589-0.253c0.842-0.148,1.605-0.296,2.126-0.528c-0.32-0.211-1.123-0.718-1.806-1.204
		c-0.381-0.296-0.743-0.591-0.943-0.824c-0.582,1.099-1.203,1.902-2.046,2.62c-0.462,0.38-0.984,0.739-1.585,1.098
		c-0.181-0.169-0.602-0.507-0.763-0.591c-0.12-0.105-0.562-0.338-1.284-0.74c0.682-0.253,1.364-0.634,1.987-1.162
		c0.582-0.507,1.123-1.12,1.546-1.817c0.281-0.443,0.501-0.908,0.662-1.416h-1.786l-2.167,0.021v-1.605l2.188,0.021h2.006
		c0.06-0.444,0.1-0.613,0.1-0.718V83.88c0.803,0.021,1.907,0.148,2.609,0.253c-0.16,0.507-0.12,0.676-0.14,0.782l-0.14,0.718h6.041
		l-0.602-0.38l-0.822-0.38l1.324-1.669l0.663,0.444l0.923,0.613l0.903,0.402l-0.824,0.972h1.365l2.107-0.042v1.754l-2.006-0.063
		h-9.352c-0.121,0.507-0.502,1.289-0.723,1.669c0.402-0.338,0.943-0.824,1.165-1.14c0.241,0.317,0.622,0.655,1.084,0.993
		c0.803,0.613,1.766,1.204,2.388,1.5c0.441-0.317,1.042-0.993,1.585-1.796c0.26-0.38,0.501-0.781,0.701-1.183l1.968,1.289
		c-0.261,0.423-0.723,0.951-1.104,1.437c-0.281,0.38-0.642,0.74-0.923,1.014c0.963,0.38,2.186,0.38,2.749,0.486
		c0.803,0.126,1.806,0.042,2.648,0.063C224.066,92.162,223.746,93.07,223.685,93.176z M211.263,81.578l0.181,0.169l-1.104,0.634
		l2.648-0.063l-0.421-0.444c0.18-0.106,0.441-0.148,0.622-0.296H211.263z M220.013,76.761c-0.862,0.275-2.006,0.571-3.412,0.909
		c-0.281-0.718-0.502-1.162-0.661-1.416l-0.341-0.55c0.722-0.063,1.525-0.148,2.408-0.275c0.862-0.126,2.067-0.57,3.612-1.331
		c0.201,0.232,0.402,0.444,0.561,0.655c0.181,0.169,0.522,0.465,1.004,0.824C221.939,76.085,220.895,76.465,220.013,76.761z
		 M220.395,82.74c-0.964,0.317-2.008,0.634-3.152,0.908c-0.12-0.232-0.241-0.486-0.36-0.718c-0.141-0.253-0.422-0.676-0.883-1.267
		c0.701-0.063,1.243-0.127,1.605-0.212c0.362-0.063,1.104-0.253,2.228-0.591c1.104-0.338,2.228-0.887,3.372-1.627
		c0.441,0.697,0.743,1.141,0.883,1.31l0.441,0.528C222.742,81.873,221.357,82.422,220.395,82.74z M220.695,79.528
		c-1.103,0.402-1.745,0.634-1.946,0.676l-1.625,0.402c-0.1-0.212-0.201-0.444-0.282-0.613c-0.1-0.212-0.36-0.613-0.762-1.247
		c1.023-0.126,1.887-0.317,2.588-0.549c0.703-0.211,1.365-0.444,1.968-0.676c0.601-0.232,1.224-0.549,1.885-0.951
		c0.181,0.19,0.322,0.338,0.422,0.443l0.502,0.592l0.561,0.57C222.903,78.684,221.799,79.148,220.695,79.528z"/>
	<path d="M226.533,83.901v-1.035l-0.04-1.331l2.247,0.085h14.027l1.907-0.063l-0.06,1.183v1.183l0.06,1.162h-2.349l0.041-0.761
		v-1.183h-13.506v0.972l0.04,0.972h-2.408L226.533,83.901z M226.714,75.472l2.008,0.085h5.679c-0.18-0.359-0.301-0.571-0.362-0.655
		l-0.281-0.402c0.642-0.085,1.485-0.317,2.488-0.697c0.141,0.19,0.242,0.338,0.301,0.423l0.382,0.76l0.281,0.571h5.418l1.807-0.085
		v1.986l-1.887-0.063h-13.927l-1.907,0.063V75.472z M230.667,86.754h9.473l1.766-0.063l-0.08,1.437v3.591
		c0,0.761-0.181,1.31-0.543,1.669c-0.341,0.338-1.404,0.57-3.19,0.634c-0.019-0.148-0.04-0.359-0.08-0.634
		c-0.021-0.253-0.1-0.549-0.241-0.908l-0.221-0.613c0.923,0.042,1.485,0.042,1.706,0c0.2-0.063,0.3-0.148,0.3-0.254v-0.105h-7.966
		v1.119l0.06,1.205h-2.388l0.06-1.268v-4.331l-0.06-1.542L230.667,86.754z M241.443,78.958v1.436l0.021,0.782l-1.625-0.042h-8.871
		l-1.304,0.042l0.04-0.655v-1.605l-0.04-0.887l1.284,0.042h8.869l1.646-0.042L241.443,78.958z M229.704,84.45l-0.04-0.866
		l1.344,0.042h9.132l0.502-0.021l0.822-0.021l-0.021,0.887v0.993l0.021,0.845l-1.324-0.063h-9.172l-1.304,0.063l0.04-0.866V84.45z
		 M239.557,88.528v-0.507L231.591,88v0.528H239.557z M239.557,90.281v-0.549h-7.966v0.549H239.557z M239.397,85.317v-0.634h-7.586
		l0.021,0.634H239.397z M239.337,79.93l0.021-0.549h-7.526v0.549H239.337z"/>
</g>
<g>
	<path d="M2.234,119.328c-0.327,1.946-0.764,3.552-1.312,4.817L0,123.66c0.476-1.175,0.905-2.699,1.283-4.569L2.234,119.328z
		 M6.946,117.791l-0.92,0.371c-0.073-0.399-0.14-0.722-0.206-0.97c-1.98,0.577-3.773,1.021-5.379,1.331l-0.363-0.908
		c1.535-1.451,2.867-3.139,3.997-5.064c-1.11,0.22-2.303,0.423-3.576,0.608l-0.235-0.969c1.489-1.829,2.652-3.936,3.488-6.322
		l0.989,0.278c-0.659,1.905-1.659,3.84-2.998,5.807c0.83-0.103,1.813-0.264,2.95-0.484c0.418-0.66,0.849-1.475,1.293-2.445
		l0.981,0.402c-1.666,3.253-3.351,5.828-5.056,7.725c1.169-0.241,2.364-0.543,3.586-0.908c-0.111-0.426-0.304-0.918-0.578-1.475
		l0.922-0.382C6.422,115.728,6.79,116.863,6.946,117.791z M4.693,123.557l-0.98,0.206c0.019-1.354-0.108-2.833-0.382-4.435
		l0.901-0.186C4.592,120.902,4.745,122.374,4.693,123.557z M7.407,121.845l-0.882,0.361c-0.215-1.079-0.503-2.08-0.862-3.002
		l0.843-0.361C6.911,119.799,7.211,120.8,7.407,121.845z M10.298,116.203l-0.882,0.443c-0.757-1.533-1.594-2.905-2.508-4.115
		c0.947-1.43,1.688-2.726,2.224-3.888l0.941,0.382c-0.588,1.286-1.248,2.455-1.98,3.507C8.917,113.638,9.652,114.862,10.298,116.203
		z M17.48,123.887H7.123v-1.052h4.635v-4.311H7.672v-1.073h9.308v1.073h-4.154v4.311h4.654V123.887z M17.236,107.498H7.142v-1.052
		h10.093V107.498z M13.865,116.079l-0.883,0.526c-0.672-1.361-1.483-2.692-2.43-3.991c0.941-1.43,1.646-2.692,2.116-3.785
		l1.019,0.34c-0.549,1.128-1.212,2.269-1.989,3.424C12.516,113.741,13.237,114.903,13.865,116.079z M17.422,116.12l-0.883,0.506
		c-0.666-1.334-1.489-2.651-2.468-3.95c0.888-1.354,1.61-2.658,2.165-3.909l0.98,0.382c-0.626,1.286-1.267,2.434-1.92,3.445
		C16.235,113.989,16.944,115.165,17.422,116.12z"/>
	<path d="M36.949,108.302H23.721c-1.071,1.547-2.207,2.857-3.409,3.93l-0.706-0.867c1.876-1.754,3.326-3.634,4.351-5.642
		l1.028,0.361c-0.196,0.453-0.405,0.842-0.626,1.165h12.59V108.302z M32.755,121.886h-5.761v2.404h-1.049v-2.404h-5.957v-1.041
		h5.957v-1.619H21.33v-0.99h4.615v-1.547h-5.251v-0.99h11.757v0.99h-5.458v1.547h4.674v0.99h-4.674v1.619h5.761V121.886z
		 M37.351,120.359c-0.522,2.696-1.205,4.043-2.047,4.043c-0.607,0-1.085-0.486-1.431-1.459c-0.346-0.973-0.519-2.769-0.519-5.389
		v-4.373H21.635v-1.073h12.737v5.168c0,1.299,0.046,2.365,0.138,3.197c0.091,0.832,0.201,1.446,0.328,1.841
		c0.127,0.395,0.215,0.626,0.265,0.691c0.048,0.065,0.122,0.098,0.22,0.098c0.327,0,0.686-1.124,1.078-3.373L37.351,120.359z
		 M25.083,114.769l-0.901,0.608c-0.484-0.55-0.993-1.014-1.529-1.392l0.951-0.619C24.08,113.717,24.574,114.185,25.083,114.769z
		 M35.803,110.685H24.084v-0.99h11.719V110.685z M30.404,113.862c-0.301,0.412-0.791,0.904-1.469,1.475l-0.96-0.526
		c0.632-0.543,1.107-1.007,1.42-1.393L30.404,113.862z"/>
	<path d="M44.37,106.126c-0.261,0.763-0.657,1.757-1.186,2.981l-0.803,1.794v13.501h-1.078v-11.521
		c-0.582,0.984-1.271,1.963-2.068,2.94l-0.724-0.887c1.783-2.145,3.383-5.188,4.801-9.128L44.37,106.126z M56.108,119.452
		c0,1.066-0.099,2.052-0.299,2.96c-0.2,0.908-0.59,1.427-1.171,1.558c-0.582,0.131-2.172,0.196-4.772,0.196
		c-0.62,0-1.156-0.007-1.607-0.021c-0.45-0.014-0.803-0.165-1.058-0.454c-0.254-0.288-0.382-0.68-0.382-1.175v-16.688h1.108v7.168
		h7.799v1.114h-7.799v8.365c0,0.137,0.045,0.266,0.137,0.386s0.2,0.183,0.324,0.186c0.123,0.004,0.567,0.005,1.331,0.005
		c2.698,0,4.246-0.055,4.645-0.165c0.398-0.11,0.626-1.403,0.686-3.878L56.108,119.452z"/>
	<path d="M63.575,110.54c-0.594,1.114-1.237,2.156-1.93,3.126v10.644h-1.058v-9.159c-0.784,0.894-1.506,1.647-2.165,2.258
		l-0.726-0.886c1.757-1.513,3.41-3.641,4.958-6.385L63.575,110.54z M62.968,106.25c-1.567,2.145-3.038,3.689-4.409,4.631
		l-0.686-0.825c1.417-0.914,2.796-2.345,4.135-4.291L62.968,106.25z M75.47,123.319l-0.402,1.083
		c-2.299-0.577-4.291-1.354-5.977-2.331c-1.928,1.059-4.027,1.826-6.301,2.3l-0.538-1.011c2.226-0.412,4.173-1.072,5.84-1.98
		c-1.059-0.866-1.914-1.718-2.567-2.558c-0.693,0.571-1.382,1.062-2.068,1.475l-0.745-0.804c0.954-0.543,1.663-1.035,2.127-1.475
		c-0.314-0.398-0.589-0.77-0.824-1.114l0.803-0.681c0.157,0.255,0.424,0.605,0.804,1.052c0.634-0.571,1.169-1.331,1.607-2.28
		l-3.372,0.155l-0.244-1.104c1.619-0.571,3.344-1.53,5.174-2.878l-4.449,0.258l-0.186-1.093c1.757-0.831,3.485-2.362,5.184-4.589
		l0.999,0.402c-1.327,1.836-2.711,3.208-4.154,4.115c1.005-0.027,2.378-0.124,4.115-0.289c0.926-0.777,1.783-1.561,2.566-2.352
		l1.029,0.495c-2.56,2.551-5.118,4.514-7.672,5.89c1.646-0.028,3.893-0.217,6.741-0.567c-0.34-0.55-0.761-1.135-1.264-1.754
		l0.882-0.577c1.261,1.581,2.218,3.077,2.871,4.486l-0.882,0.547c-0.267-0.605-0.588-1.189-0.96-1.753
		c-1.575,0.2-3.315,0.368-5.222,0.506c-0.386,0.88-0.732,1.54-1.039,1.98h6.222v1.041c-1.3,1.596-2.46,2.757-3.479,3.487
		C71.992,122.364,73.786,123.003,75.47,123.319z M72.159,117.915h-5.673c-0.053,0.083-0.108,0.152-0.167,0.206
		c0.868,1.073,1.786,1.953,2.754,2.641C70.085,120.088,71.114,119.139,72.159,117.915z"/>
	<path d="M82.783,117.069c-0.484-0.268-0.724-0.609-0.724-1.021c0-0.2,0.081-0.404,0.244-0.614c0.163-0.21,0.395-0.314,0.695-0.314
		c0.628,0,0.941,0.433,0.941,1.299c0,0.708-0.395,1.393-1.185,2.052l-0.422-0.34C82.633,117.712,82.783,117.358,82.783,117.069z"/>
	<path d="M107.244,119.709c-0.019,0.791-0.121,1.527-0.304,2.207c-0.183,0.681-0.377,1.154-0.583,1.419
		c-0.206,0.264-0.467,0.461-0.784,0.588c-0.317,0.127-0.988,0.201-2.014,0.222c-1.026,0.021-2.264,0.031-3.714,0.031
		c-1.143,0-2.433-0.01-3.87-0.031c-1.437-0.021-2.266-0.051-2.489-0.093c-0.223-0.041-0.437-0.146-0.642-0.314
		s-0.362-0.378-0.47-0.629c-0.108-0.251-0.161-0.538-0.161-0.862v-10.561h6.593l3.078-3.043h-6.527
		c-1.463,1.575-3.096,2.853-4.899,3.837l-0.655-0.887c2.783-1.561,4.928-3.523,6.437-5.889l1.087,0.423
		c-0.3,0.475-0.637,0.938-1.01,1.393h7.192v0.949c-0.803,0.88-1.867,1.953-3.194,3.218h5.458v6.013H93.272v4.528
		c0,0.145,0.075,0.311,0.225,0.5c0.15,0.189,0.416,0.305,0.798,0.346c0.382,0.041,2.063,0.062,5.042,0.062
		c3.188,0,4.974-0.033,5.36-0.098c0.385-0.065,0.676-0.222,0.872-0.469c0.196-0.247,0.35-0.675,0.461-1.284
		c0.11-0.608,0.179-1.294,0.206-2.057L107.244,119.709z M98.406,116.605v-3.826h-5.134v3.826H98.406z M104.687,116.605v-3.826
		h-5.174v3.826H104.687z"/>
	<path d="M126.685,115.656h-8.083v7.055c0,0.481-0.152,0.878-0.456,1.191c-0.304,0.313-0.707,0.469-1.211,0.469
		c-0.797,0-1.662-0.014-2.596-0.041l-0.401-1.134c1.523,0.041,2.56,0.062,3.116,0.062c0.131,0,0.243-0.062,0.337-0.186
		c0.094-0.124,0.143-0.251,0.143-0.382v-7.034h-8.25v-1.124h8.25v-2.744c2.011-1.244,3.831-2.668,5.458-4.27h-11.494v-1.135H124.5
		v1.135c-1.92,1.905-3.887,3.531-5.898,4.878v2.135h8.083V115.656z"/>
	<path d="M138.304,111.386l-0.822,0.701c-0.215-0.419-0.47-0.842-0.764-1.269c-2.424,0.365-4.918,0.616-7.486,0.753l-0.382-0.908
		c1.227-0.997,2.305-2.589,3.233-4.775l1.039,0.278c-0.79,1.76-1.665,3.198-2.625,4.311c2.097-0.178,3.949-0.382,5.556-0.608
		c-0.353-0.522-0.914-1.186-1.686-1.991l0.912-0.609C136.779,108.866,137.789,110.238,138.304,111.386z M137.002,123.134
		c0,0.351-0.123,0.646-0.368,0.887c-0.245,0.241-0.516,0.375-0.814,0.402c-0.296,0.028-0.935,0.042-1.916,0.042l-0.421-1.062
		c0.32,0.021,0.634,0.031,0.941,0.031c0.647,0,1.063-0.024,1.249-0.073c0.186-0.048,0.279-0.175,0.279-0.382v-3.435
		c-1.92,0.915-3.499,1.596-4.732,2.043l-0.461-0.712c-0.151,1.251-0.468,2.434-0.951,3.548l-0.922-0.557
		c0.614-1.664,0.922-3.345,0.922-5.044v-5.683h7.192V123.134z M135.953,118.359v-4.167h-5.076v1.506
		c1.385,0.261,2.835,0.677,4.35,1.248l-0.48,0.949c-1.548-0.543-2.838-0.918-3.87-1.124v2.052c0,0.591-0.027,1.169-0.079,1.733
		C132.105,120.129,133.824,119.397,135.953,118.359z M146.389,120.762c-0.065,1.066-0.207,1.845-0.422,2.336
		c-0.215,0.491-0.468,0.809-0.759,0.954c-0.29,0.145-0.834,0.216-1.631,0.216l-3.008-0.041c-0.451,0-0.814-0.135-1.087-0.408
		c-0.275-0.271-0.412-0.634-0.412-1.088v-7.942h1.019v3.063h5.761v1.011h-5.761v3.764c0,0.406,0.242,0.609,0.726,0.609
		c2.038,0,3.2-0.017,3.488-0.052c0.287-0.034,0.515-0.174,0.686-0.417c0.169-0.244,0.304-1.003,0.402-2.274L146.389,120.762z
		 M146.172,113.923h-5.839c-0.366,0-0.665-0.137-0.897-0.412c-0.232-0.275-0.347-0.602-0.347-0.98v-6.57h0.999v2.641h5.742v1.01
		h-5.742v2.765c0,0.337,0.179,0.505,0.539,0.505h5.545V113.923z"/>
	<path d="M153.056,113.964l-0.686,0.887c-0.778-0.77-1.976-1.691-3.595-2.764l0.568-0.866
		C150.903,112.232,152.142,113.146,153.056,113.964z M152.43,118.359c-0.797,2.235-1.728,4.177-2.792,5.827l-0.795-0.65
		c1.117-1.781,2.045-3.761,2.783-5.94L152.43,118.359z M153.811,108.704l-0.676,0.825c-1.137-1.087-2.316-2.032-3.537-2.837
		l0.628-0.846C151.512,106.721,152.706,107.673,153.811,108.704z M166.372,116.791l-0.539,0.949
		c-2.468-0.887-4.481-2.138-6.035-3.754c-1.934,1.705-4.115,2.98-6.546,3.826l-0.666-0.938c2.254-0.688,4.23-1.737,5.928-3.146
		c0-0.021-0.013-0.05-0.039-0.088c-0.027-0.037-0.042-0.07-0.05-0.098c-1.848,0.289-3.393,0.506-4.634,0.65l-0.275-0.887
		c0.999-0.873,1.78-1.809,2.341-2.806l0.883,0.444c-0.53,0.777-1.111,1.489-1.745,2.135c1.163-0.097,2.133-0.224,2.911-0.382
		c-0.177-0.351-0.363-0.646-0.559-0.887l0.745-0.443c0.346,0.399,0.718,0.969,1.116,1.712c0.092-0.069,0.161-0.141,0.207-0.217
		l0.862,0.175c0.6-0.867,1.1-1.798,1.498-2.795l0.872,0.258c-0.333,0.88-0.755,1.719-1.264,2.517c0.77-0.11,1.679-0.271,2.723-0.485
		c-0.215-0.316-0.431-0.598-0.646-0.845l0.744-0.485c0.732,0.791,1.375,1.647,1.931,2.568l-0.804,0.536
		c-0.248-0.44-0.447-0.759-0.597-0.959c-0.901,0.192-2.068,0.406-3.497,0.64C162.243,114.955,163.955,115.89,166.372,116.791z
		 M160.836,116.182c-1.561,1.809-3.534,3.032-5.917,3.672l-0.539-0.928c2.122-0.488,4.001-1.585,5.634-3.29L160.836,116.182z
		 M165.01,109.952l-0.764,0.588c-0.392-0.501-0.68-0.859-0.862-1.072c-1.822,0.337-4.605,0.574-8.348,0.711l-0.236-0.866
		c1.327-0.756,2.509-1.919,3.547-3.487l0.99,0.34c-0.818,1.252-1.653,2.211-2.508,2.878c1.894-0.021,3.785-0.168,5.673-0.443
		c-0.353-0.392-0.755-0.767-1.206-1.125l0.686-0.67C163.341,107.969,164.35,109.018,165.01,109.952z M162.942,117.833
		c-1.802,2.028-4.177,3.421-7.123,4.177l-0.559-0.928c2.842-0.695,5.122-1.984,6.84-3.868L162.942,117.833z M165.089,119.163
		c-2.143,2.73-5.158,4.497-9.045,5.302l-0.548-0.98c3.73-0.708,6.633-2.334,8.71-4.878L165.089,119.163z"/>
	<path d="M184.315,123.464l-0.676,0.98c-3.828-3.238-6.412-7.416-7.751-12.531c-1.718,5.315-4.501,9.406-8.348,12.274l-0.803-0.867
		c1.312-0.942,2.483-2.015,3.512-3.218c1.029-1.203,1.906-2.479,2.632-3.826c0.724-1.347,1.33-2.797,1.818-4.347
		c0.486-1.551,0.729-2.484,0.729-2.8l-0.117-1.63h-1.872v-1.135h2.93C176.414,113.288,179.063,118.987,184.315,123.464z"/>
	<path d="M204.383,123.258l-0.461,1.073c-2.855-0.64-5.223-1.527-7.104-2.661c-1.594,0.949-3.854,1.836-6.781,2.661l-0.519-1.032
		c2.391-0.605,4.477-1.385,6.261-2.341c-1.92-1.458-3.399-3.579-4.438-6.364h-1.068c-0.132,4.002-0.987,7.226-2.567,9.674
		l-0.843-0.732c1.607-2.33,2.41-5.401,2.41-9.21v-5.899h6.437v-2.579h1.068v2.579h7.261c-0.411,1.905-0.878,3.355-1.402,4.352
		l-1.047-0.299c0.509-0.996,0.884-1.994,1.126-2.991h-5.938v4.074h5.684c-0.622,3.149-2.189,5.635-4.703,7.457
		C199.725,122.065,201.933,122.811,204.383,123.258z M195.711,113.562v-4.074h-5.399v4.074H195.711z M201.051,114.594h-8.603
		c1.11,2.709,2.554,4.631,4.331,5.766C199.058,118.75,200.483,116.829,201.051,114.594z"/>
	<path d="M215.377,110.241h-2.264v2.011h-1.049v-2.011h-2.664c-0.328,1.423-0.902,2.476-1.725,3.156l-0.726-0.763
		c1.052-0.894,1.577-2.417,1.577-4.569c0-0.337-0.01-0.729-0.029-1.176c2.358-0.151,4.298-0.447,5.821-0.887l0.559,0.928
		c-1.588,0.434-3.361,0.729-5.321,0.887c0,0.152-0.019,0.629-0.058,1.434h5.879V110.241z M221.961,121.102h-8.544l0.501,0.763
		c-1.822,1.169-3.973,1.984-6.448,2.445l-0.519-0.928c2.619-0.558,4.674-1.317,6.163-2.28h-3.557v-8.127h12.404V121.102z
		 M220.943,115.316v-1.33h-10.318v1.33H220.943z M220.943,117.678v-1.393h-10.318v1.393H220.943z M220.943,120.133v-1.506h-10.318
		v1.506H220.943z M224.313,110.241h-3.096v2.032h-1v-2.032h-3.008c-0.32,1.018-0.755,1.781-1.304,2.289l-0.764-0.722
		c0.895-0.79,1.342-2.134,1.342-4.033c0-0.254-0.006-0.536-0.019-0.846c2.032-0.062,4.171-0.378,6.418-0.949l0.549,0.928
		c-2.195,0.502-4.184,0.819-5.967,0.949c0,0.605-0.021,1.069-0.059,1.392h6.908V110.241z M224.45,123.484l-0.538,0.918
		c-1.79-0.708-3.858-1.293-6.203-1.753l0.578-0.98C220.926,122.24,222.98,122.845,224.45,123.484z"/>
	<path d="M243.498,110.313h-13.914c0,4.311-0.156,7.423-0.466,9.334c-0.311,1.911-0.723,3.445-1.24,4.6l-0.843-0.732
		c0.432-0.983,0.791-2.322,1.078-4.017c0.288-1.695,0.432-4.313,0.432-7.854v-5.239h14.952V110.313z M242.469,109.313v-1.878
		h-12.884v1.878H242.469z M243.253,117.049h-12.404v-4.497h12.404V117.049z M242.655,124.31h-1.048v-0.949h-9.005v0.949h-1.029
		v-6.312h11.082V124.31z M236.512,116.058v-2.517h-4.615v2.517H236.512z M241.607,120.091v-1.083h-9.005v1.083H241.607z
		 M241.607,122.371v-1.31h-9.005v1.31H241.607z M235.11,115.316l-0.784,0.547c-0.411-0.584-0.832-1.076-1.264-1.475l0.824-0.547
		C234.311,114.24,234.718,114.732,235.11,115.316z M235.385,111.83l-0.941,0.484c-0.469-0.495-0.924-0.904-1.362-1.227l0.96-0.484
		C234.597,111.056,235.045,111.465,235.385,111.83z M242.234,116.058v-2.517h-4.703v2.517H242.234z M240.99,111.2
		c-0.34,0.337-0.883,0.722-1.627,1.156l-0.862-0.65c0.588-0.296,1.137-0.657,1.646-1.083L240.99,111.2z M241.067,114.305
		c-0.287,0.427-0.757,0.939-1.41,1.537l-0.774-0.526c0.62-0.571,1.081-1.062,1.381-1.475L241.067,114.305z"/>
</g>
<g>
	<path d="M143.523,143.831c-0.484-0.268-0.724-0.609-0.724-1.021c0-0.2,0.081-0.404,0.244-0.614c0.163-0.21,0.395-0.314,0.695-0.314
		c0.628,0,0.941,0.433,0.941,1.299c0,0.708-0.395,1.393-1.185,2.052l-0.422-0.34C143.373,144.474,143.523,144.119,143.523,143.831z"
		/>
</g>
<g>
	<path d="M158.15,141.252c0,0.282-0.305,1.021-0.915,2.218c-0.611,1.196-1.421,2.272-2.43,3.228
		c-1.01,0.956-2.148,1.802-3.415,2.538l-0.666-0.99c3.168-1.774,5.222-4.019,6.163-6.735h-5.418v-1.124h6.682V141.252z
		 M168.527,148.307l-0.726,0.908c-3.272-2.242-5.654-4.964-7.142-8.169v8.427c0,0.378-0.106,0.703-0.319,0.975
		c-0.212,0.271-0.439,0.447-0.681,0.526c-0.242,0.079-0.947,0.119-2.116,0.119c-0.464,0-0.905-0.014-1.323-0.041l-0.461-1.197
		c0.674,0.034,1.356,0.051,2.049,0.051c0.732,0,1.205-0.021,1.421-0.062c0.215-0.041,0.323-0.244,0.323-0.608v-11.428h-5.742v-1.114
		h6.85v1.31c0.411,1.554,0.96,2.82,1.646,3.796c2.318-1.732,4.004-3.372,5.055-4.92l0.824,0.784
		c-1.117,1.602-2.884,3.291-5.301,5.065C164.216,144.825,166.096,146.684,168.527,148.307z M163.383,134.806l-0.48,1.083
		c-1.594-0.825-3.906-1.623-6.937-2.393l0.499-0.99C159.098,133.111,161.403,133.878,163.383,134.806z"/>
	<path d="M188.031,150.277l-0.724,0.928c-3.28-2.173-5.634-4.857-7.065-8.055c-2.195,3.17-5.245,5.868-9.151,8.097l-0.784-0.908
		c2.991-1.595,5.529-3.595,7.613-5.998c2.084-2.403,3.459-4.997,4.125-7.782h-5.761c-1.273,1.988-2.91,3.779-4.909,5.374
		l-0.764-0.908c3.031-2.31,5.17-5.136,6.418-8.478l1.087,0.361c-0.34,0.908-0.722,1.747-1.146,2.517h6.466
		c-0.287,2.049-1.11,4.246-2.468,6.591C182.235,145.282,184.59,148.035,188.031,150.277z"/>
	<path d="M196.938,146.389c-1.999,1.809-3.913,3.166-5.742,4.074l-0.822-0.908c1.92-0.887,3.788-2.176,5.604-3.867L196.938,146.389z
		 M207.932,144.522h-8.271v6.642h-1.058v-6.642h-8.172v-1.052h8.172v-2.073h1.058v2.073h8.271V144.522z M194.509,136.817l-0.52,1.01
		c-0.849-0.625-1.999-1.196-3.449-1.712l0.48-0.969C192.477,135.662,193.639,136.219,194.509,136.817z M196.037,139.314
		c-1.594,1.293-3.188,2.348-4.782,3.166l-0.48-0.969c1.41-0.681,3.044-1.774,4.899-3.28L196.037,139.314z M196.115,134.197
		l-0.519,0.97c-0.882-0.632-2.055-1.231-3.518-1.795l0.441-0.97C194.1,132.981,195.298,133.579,196.115,134.197z M207.893,138.065
		c-0.079,1.272-0.19,2.123-0.333,2.552c-0.144,0.43-0.366,0.741-0.666,0.934c-0.301,0.192-0.83,0.289-1.588,0.289
		c-0.745,0-1.236-0.129-1.474-0.387c-0.238-0.258-0.358-0.641-0.358-1.15v-4.27h-2.685c-0.313,2.792-1.705,4.752-4.173,5.879
		l-0.706-0.959c2.339-0.887,3.62-2.527,3.841-4.92h-3.096v-1.052h3.234c0.091-0.908,0.137-1.699,0.137-2.373h1.049
		c-0.013,0.516-0.069,1.307-0.167,2.373h3.616v5.219c0,0.385,0.343,0.577,1.029,0.577c0.463,0,0.762-0.105,0.896-0.315
		c0.134-0.209,0.27-1.157,0.406-2.841L207.893,138.065z M207.952,149.638l-0.745,0.845c-1.469-1.368-3.416-2.691-5.84-3.971
		l0.764-0.866C204.457,146.897,206.397,148.228,207.952,149.638z"/>
	<path d="M227.843,146.471c-0.019,0.791-0.121,1.527-0.304,2.207c-0.183,0.681-0.377,1.154-0.583,1.419
		c-0.206,0.264-0.467,0.461-0.784,0.588s-0.988,0.201-2.014,0.222c-1.026,0.021-2.264,0.031-3.714,0.031
		c-1.143,0-2.433-0.01-3.87-0.031c-1.437-0.021-2.266-0.051-2.489-0.093c-0.223-0.041-0.437-0.146-0.642-0.314
		c-0.206-0.169-0.362-0.378-0.47-0.629c-0.108-0.251-0.161-0.538-0.161-0.862v-10.561h6.593l3.078-3.043h-6.527
		c-1.463,1.575-3.096,2.853-4.899,3.837l-0.655-0.887c2.783-1.561,4.928-3.523,6.437-5.889l1.087,0.423
		c-0.3,0.475-0.637,0.938-1.01,1.393h7.192v0.949c-0.803,0.88-1.867,1.953-3.194,3.218h5.458v6.013h-12.502v4.528
		c0,0.145,0.075,0.311,0.225,0.5c0.15,0.189,0.416,0.305,0.798,0.346c0.382,0.041,2.063,0.062,5.042,0.062
		c3.188,0,4.974-0.033,5.36-0.098c0.385-0.065,0.676-0.222,0.872-0.469s0.35-0.675,0.461-1.284c0.11-0.608,0.179-1.294,0.206-2.057
		L227.843,146.471z M219.005,143.367v-3.826h-5.134v3.826H219.005z M225.287,143.367v-3.826h-5.174v3.826H225.287z"/>
	<path d="M235.694,139.808c0.562,0,1.042,0.203,1.44,0.609c0.399,0.406,0.599,0.914,0.599,1.526c0,0.612-0.184,1.117-0.549,1.517
		c-0.366,0.398-0.837,0.598-1.411,0.598c-0.522,0-0.984-0.177-1.386-0.532c-0.403-0.354-0.603-0.896-0.603-1.624
		c0-0.681,0.204-1.2,0.613-1.558C234.804,139.987,235.237,139.808,235.694,139.808z M236.91,141.954
		c0-0.364-0.117-0.658-0.353-0.882c-0.235-0.224-0.519-0.336-0.853-0.336c-0.327,0-0.599,0.122-0.818,0.366
		c-0.219,0.244-0.329,0.528-0.329,0.851c0,0.303,0.105,0.588,0.314,0.856c0.209,0.268,0.492,0.402,0.853,0.402
		c0.339,0,0.622-0.117,0.847-0.351C236.797,142.628,236.91,142.325,236.91,141.954z"/>
</g>
<g>
	<rect x="266.323" y="0.36" class="st0" width="224.536" height="26.944"/>
	<rect x="266.323" y="0.36" class="st1" width="224.536" height="26.944"/>
	<g>
		<path d="M291.44,23.031l-0.862,0.918c-4.592-3.404-7.541-8.081-8.849-14.034c-0.935,5.431-3.863,10.093-8.785,13.988l-0.797-0.998
			c1.674-1.203,3.205-2.708,4.591-4.515c1.387-1.808,2.444-3.799,3.17-5.974c0.726-2.174,1.114-5.115,1.163-8.821h1.229
			c-0.042,4.288,0.769,8.087,2.436,11.396C286.403,18.302,288.638,20.982,291.44,23.031z"/>
		<path d="M313.491,22.884h-19.293v-1.203h9.031V5.854h-8.105V4.572h17.353v1.283h-8.052v15.827h9.065V22.884z"/>
		<path d="M334.026,18.845c-0.022,0.87-0.133,1.679-0.334,2.428c-0.201,0.749-0.415,1.269-0.641,1.56
			c-0.227,0.291-0.514,0.507-0.862,0.647c-0.349,0.14-1.087,0.221-2.216,0.244c-1.128,0.023-2.49,0.034-4.085,0.034
			c-1.257,0-2.676-0.011-4.257-0.034c-1.581-0.022-2.494-0.057-2.738-0.102c-0.244-0.045-0.479-0.161-0.705-0.346
			c-0.227-0.186-0.399-0.416-0.518-0.692c-0.118-0.276-0.178-0.591-0.178-0.947V10.018h7.254l3.384-3.347h-7.177
			c-1.61,1.732-3.407,3.139-5.39,4.22l-0.722-0.975c3.061-1.717,5.422-3.877,7.082-6.478l1.196,0.465
			c-0.33,0.522-0.7,1.033-1.11,1.532h7.912v1.044c-0.884,0.968-2.056,2.148-3.514,3.54h6.003v6.614h-13.753v4.981
			c0,0.159,0.082,0.342,0.248,0.55s0.458,0.335,0.879,0.38c0.42,0.045,2.269,0.068,5.545,0.068c3.506,0,5.471-0.036,5.896-0.108
			c0.424-0.072,0.744-0.244,0.959-0.516c0.215-0.272,0.385-0.743,0.507-1.413c0.122-0.669,0.197-1.423,0.226-2.263L334.026,18.845z
			 M324.304,15.429V11.22h-5.648v4.209H324.304z M331.213,15.429V11.22h-5.691v4.209H331.213z"/>
		<path d="M355.741,11.527h-9.226c-1.473,1.203-3.09,2.122-4.851,2.757l3.449-0.113c2.199-0.099,3.341-0.171,3.427-0.216
			c0.813-0.438,1.717-0.994,2.716-1.668l0.906,0.726c-3.629,2.473-7.275,4.107-10.94,4.901c3.808-0.091,7.509-0.307,11.102-0.647
			c-0.518-0.59-1.092-1.157-1.725-1.702l0.97-0.692c1.53,1.414,2.82,2.87,3.869,4.368l-0.84,0.76
			c-0.503-0.696-0.937-1.252-1.304-1.668c-2.328,0.197-4.506,0.336-6.532,0.42v3.483c0,0.651-0.18,1.095-0.539,1.333
			c-0.359,0.238-1.074,0.357-2.144,0.357c-0.244,0-0.485-0.008-0.722-0.023l-0.281-1.203c0.423,0.061,0.837,0.091,1.24,0.091
			c0.582,0,0.94-0.055,1.073-0.165c0.132-0.109,0.198-0.255,0.198-0.437v-3.392c-1.969,0.06-4.476,0.091-7.522,0.091l-0.14-1.067
			c3.032-0.71,5.91-1.656,8.634-2.836c-1.546,0.181-3.316,0.272-5.314,0.272c-0.561,0-1.136-0.007-1.725-0.023l-0.108-1.044
			c1.81-0.643,3.56-1.532,5.249-2.666h-8.149V10.46h9.033V8.554h-6.844V7.477h6.844V5.854h-8.052V4.788h8.052V3.597h1.24v1.191
			h7.921v1.067h-7.921v1.622h6.574v1.078h-6.574v1.906h8.956V11.527z M343.141,20.399c-1.344,1.119-3.243,2.205-5.701,3.256
			l-0.722-1.044c2.226-0.839,4.095-1.864,5.604-3.074L343.141,20.399z M355.364,22.725l-0.744,0.953
			c-1.703-1.301-3.589-2.386-5.659-3.256l0.711-0.998C351.878,20.369,353.776,21.47,355.364,22.725z"/>
		<path d="M377.197,7.431h-11.456c-0.827,1.732-1.832,3.366-3.019,4.901V24.03h-1.196V13.875c-1.092,1.18-2.145,2.107-3.158,2.78
			l-0.399-1.18c2.759-2.239,4.9-4.92,6.424-8.044h-6.402V6.229h7.006c0.366-0.681,0.761-1.565,1.185-2.655l1.154,0.397
			c-0.388,0.946-0.729,1.698-1.024,2.258h10.885V7.431z M377.197,17.63h-5.475v4.606c0,0.394-0.097,0.733-0.291,1.021
			c-0.194,0.287-0.457,0.49-0.792,0.607c-0.334,0.117-0.993,0.175-1.977,0.175c-0.582,0-1.165-0.022-1.746-0.068l-0.463-1.248
			c0.531,0.053,1.121,0.079,1.767,0.079c1.157,0,1.836-0.054,2.038-0.164c0.201-0.109,0.301-0.267,0.301-0.47V17.63h-6.649v-1.18
			h6.649v-1.77c1.093-0.764,2.26-1.77,3.503-3.018h-8.634V10.46H375.7v1.203c-1.38,1.452-2.705,2.644-3.978,3.574v1.214h5.475V17.63
			z"/>
		<path d="M399.117,23.167h-14.409v0.782h-1.218V13.796c-0.813,0.938-1.775,1.891-2.889,2.859l-0.862-0.953
			c2.68-2.261,4.71-4.686,6.09-7.272h-5.476V7.227h6.047c0.496-0.968,0.977-2.208,1.444-3.721l1.165,0.261
			c-0.395,1.195-0.831,2.349-1.305,3.461h11.016V8.43h-11.587c-0.755,1.414-1.562,2.685-2.425,3.812v9.712h6.359v-6.546h-4.84
			v-1.214h4.84v-4.3h1.185v4.3h5.325v1.214h-5.325v6.546h6.865V23.167z"/>
		<path d="M406.777,4.085c-0.279,0.703-0.657,1.55-1.132,2.541l-0.722,1.464V23.95h-1.174V10.336
			c-0.661,1.119-1.477,2.292-2.447,3.517l-0.733-1.146c2.047-2.549,3.725-5.57,5.033-9.065L406.777,4.085z M420.174,23.394H405.98
			v-1.203h4.461c-0.374-3.767-1.196-7.927-2.467-12.48l0.764-0.443h-2.468V8.066h6.553c-0.308-1.414-0.751-2.78-1.325-4.095
			l1.11-0.397c0.531,1.278,1.016,2.776,1.455,4.493h5.755v1.203h-2.22l0.701,0.284c-0.647,4.758-1.517,8.971-2.609,12.639h4.483
			V23.394z M417.102,9.269h-7.965c1.192,4.697,2.033,9.005,2.523,12.922h2.844C415.777,17.91,416.642,13.603,417.102,9.269z"/>
		<path d="M442.074,23.44h-19.099v-1.021h2.587v-9.825h5.141l0.55-1.645h-8.116V9.893h8.471l0.421-1.532h-8.008V4.186h16.921v4.175
			h-7.717l-0.441,1.532h8.956v1.055h-9.313l-0.506,1.645h7.522v9.825h2.63V23.44z M429.269,7.408V5.185h-4.127v2.223H429.269z
			 M438.322,15.01v-1.441h-11.607v1.441H438.322z M438.322,17.404v-1.441h-11.607v1.441H438.322z M438.322,19.934v-1.599h-11.607
			v1.599H438.322z M438.322,22.418V20.91h-11.607v1.509H438.322z M434.572,7.408V5.185h-4.149v2.223H434.572z M439.799,7.408V5.185
			h-4.084v2.223H439.799z"/>
		<path d="M462.733,23.95h-1.143v-1.509h-15.035v1.509h-1.176V4.436h17.353V23.95z M461.59,21.352V5.503h-15.035v15.85H461.59z
			 M460.458,12.128h-12.803v-0.953h5.874v-1.134h-4.527V6.784h10.152v3.256h-4.473v1.134h5.777V12.128z M459.446,20.093H448.7
			v-6.898h10.746V20.093z M458.347,19.151v-5.026h-8.526v5.026H458.347z M458.055,9.088V7.76h-7.922v1.327H458.055z M456.622,18.096
			h-5.12v-3.018h5.12V18.096z M455.587,17.188v-1.203h-3.05v1.203H455.587z"/>
		<path d="M472.422,14.238c-1.896,3.237-3.786,5.756-5.669,7.556l-0.884-0.885c1.897-1.717,3.722-4.156,5.476-7.318L472.422,14.238z
			 M485.183,10.994h-8.967v13.013h-1.185V10.994h-9.097V9.757h19.249V10.994z M482.78,5.344h-14.464V4.107h14.464V5.344z
			 M485.227,21.148l-0.97,0.601c-1.538-2.738-3.334-5.2-5.389-7.385l1.056-0.704C482.447,16.58,484.213,19.076,485.227,21.148z"/>
	</g>
</g>
<g>
	<path d="M106.571,218.817l2.087,0.085h5.7v-2.366h-4.114l-1.866,0.063v-2.472l1.866,0.042h4.114v-3.887l-0.081-2.599h2.669
		l-0.06,2.599v3.887h2.549c-0.381-0.359-0.964-0.824-1.746-1.373c0.402-0.402,0.763-0.782,1.064-1.12
		c0.32-0.359,0.642-0.781,0.963-1.289c0.322-0.486,0.682-1.078,1.084-1.775c0.803,0.634,1.345,0.972,1.606,1.12l0.662,0.359
		c-0.421,0.761-0.883,1.479-1.385,2.134c-0.481,0.655-1.023,1.31-1.625,1.943h0.582l2.087-0.042v2.472l-2.087-0.063h-3.753v2.366
		h5.279l2.427-0.085v2.535l-2.427-0.063h-5.279v2.387l0.06,2.915h-2.669l0.081-2.915v-2.387h-5.7l-2.087,0.063V218.817z
		 M109.38,208.867l0.362-0.465c0.743,0.655,1.324,1.205,1.746,1.605c0.441,0.423,1.144,1.078,2.127,2.028
		c-0.341,0.338-0.903,0.993-1.686,1.965c-0.682-0.802-1.305-1.5-1.866-2.07c-0.583-0.571-1.244-1.162-1.987-1.775
		C108.738,209.564,109.18,209.141,109.38,208.867z"/>
	<path d="M127.602,223.823c0.562-0.422,1.084-1.035,1.566-1.774c0.461-0.74,0.822-1.437,1.084-2.092
		c0.26-0.655,0.402-1.246,0.481-1.754l0.08-0.57h-2.569l-1.745,0.063v-2.303l1.565,0.042h3.451l1.746-0.042
		c-0.021,0.528-0.04,1.014-0.081,1.437c-0.019,0.423-0.1,1.014-0.201,1.754c-0.12,0.74-0.341,1.437-0.601,2.092
		c-0.282,0.676-0.583,1.331-0.943,1.943c-0.362,0.634-0.703,1.162-1.024,1.605c-0.32,0.423-0.743,0.866-1.224,1.352
		c-0.502,0.486-1.003,0.909-1.504,1.267c-0.441-0.718-0.863-1.225-1.244-1.542l-0.562-0.486
		C126.458,224.563,127.041,224.246,127.602,223.823z M131.394,211.824h2.87l2.208-0.042c0.019,0.253,0.04,0.549,0.059,0.887
		c0.041,0.338,0.121,0.74,0.261,1.183c0.121,0.444,0.261,0.951,0.462,1.521c0.201,0.55,0.402,0.93,0.521,1.141l0.362,0.676
		c0.903-1.056,1.606-1.986,2.107-2.768c0.522-0.802,0.964-1.563,1.345-2.26c0.341,0.296,1.044,0.782,2.107,1.437
		c-1.425,2.028-2.889,3.95-4.354,5.767c0.701,0.993,1.404,1.816,2.107,2.471c0.703,0.676,1.284,1.162,1.746,1.437
		c0.461,0.296,0.983,0.549,1.565,0.803c-0.18,0.211-0.381,0.443-0.582,0.718c-0.221,0.275-0.542,0.802-0.983,1.584
		c-0.683-0.423-1.205-0.761-1.566-1.035c-0.36-0.275-0.902-0.718-1.625-1.394c-0.703-0.655-1.345-1.437-1.887-2.281
		c-0.561-0.845-1.103-1.817-1.625-2.916v6.76c0,0.38-0.1,0.697-0.32,0.972c-0.201,0.253-0.682,0.401-1.445,0.507
		c-0.743,0.085-1.364,0.148-1.866,0.106c-0.04-0.233-0.081-0.486-0.14-0.782c-0.041-0.296-0.121-0.591-0.261-0.887l-0.341-0.782
		c1.224,0.127,1.887,0.148,1.946,0.063c0.1-0.106,0.161-0.19,0.181-0.275c0.019-0.085,0.019-0.275,0.019-0.571v-9.845h-2.969
		l-1.686,0.063v-2.345L131.394,211.824z M132.337,207.156c0.663,0.253,2.85,1.078,6.563,2.492c-0.382,0.867-0.623,1.437-0.703,1.69
		l-0.261,0.803c-1.284-0.634-2.849-1.331-4.696-2.028l-1.646-0.613l-0.862-0.338C131.335,208.55,131.877,207.874,132.337,207.156z"
		/>
	<path d="M151.822,215.014c-0.481,0.824-1.304,1.795-2.448,2.894c-0.281-0.338-0.481-0.591-0.642-0.74l-0.843-0.761l-0.663-0.655
		c0.763-0.486,1.385-1.014,1.926-1.584c0.542-0.57,1.064-1.31,1.566-2.303c0.481-0.972,0.822-1.817,1.023-2.514
		c0.201-0.697,0.362-1.352,0.481-1.943c0.381,0.19,0.703,0.338,0.964,0.444c0.26,0.105,0.862,0.296,1.826,0.591
		c-0.1,0.19-0.181,0.338-0.221,0.444l-0.441,1.056l-0.32,0.676h6.441l0.763,1.205c-0.081,0.232-0.221,0.57-0.381,1.035
		c-0.181,0.464-1.064,2.113-2.65,4.943c0.462,1.056,0.863,1.859,1.205,2.387c0.341,0.55,0.843,1.183,1.525,1.881
		c0.682,0.697,1.385,1.204,2.107,1.457c0.743,0.275,1.405,0.423,2.008,0.507c-0.483,0.802-0.964,1.796-1.445,2.979
		c-0.623-0.19-1.244-0.444-1.887-0.803c-0.622-0.338-1.305-0.845-2.027-1.478s-1.345-1.394-1.847-2.303
		c-0.501-0.909-0.782-1.521-0.883-1.817l-0.201-0.57c-1.003,1.246-1.906,2.26-2.688,3c-0.803,0.761-1.706,1.394-2.709,1.965
		c-1.004,0.591-2.167,1.162-3.472,1.69c-0.422-1.141-0.722-1.838-0.903-2.113l-0.461-0.655c0.12-0.021,0.381-0.063,0.782-0.106
		c0.401-0.084,1.003-0.275,1.826-0.549c0.822-0.296,1.705-0.845,2.648-1.627c0.943-0.803,1.786-1.648,2.508-2.535
		c0.743-0.887,1.385-1.859,1.947-2.957c0.562-1.078,1.044-2.113,1.465-3.127h-4.755
		C152.705,213.514,152.324,214.169,151.822,215.014z"/>
	<path d="M165.649,216.979c0.06-0.402,0.1-1.078,0.18-2.049c0.06-0.951,0.121-1.732,0.121-2.324v-0.951
		c0.762,0.127,1.504,0.19,2.228,0.19c0,0.423,0,0.697,0,0.824c0,0.127-0.04,0.888-0.1,2.303c-0.06,1.415-0.14,2.26-0.181,2.556
		l-0.08,0.57c-0.281-0.042-0.481-0.063-0.622-0.084c-0.121,0-0.683,0.084-1.706,0.084
		C165.528,217.76,165.588,217.38,165.649,216.979z M170.887,207.662l-0.08,2.07v2.07c0.521-0.085,1.123-0.275,1.806-0.57
		c0.201,0.528,0.341,0.951,0.462,1.31c0.1,0.317,0.22,0.781,0.381,1.394c0.201-0.74,0.362-1.479,0.481-2.261
		c0.121-0.76,0.18-1.352,0.18-1.774v-0.55c0.843,0.212,1.627,0.359,2.388,0.423c-0.1,0.782-0.18,1.267-0.22,1.458l-0.181,0.866
		h1.525v-2.641l-0.059-1.796h2.408l-0.06,1.859v2.577h1.987l1.746-0.063v2.366l-1.907-0.084h-1.826v3.528h2.067l1.345-0.021v2.303
		l-1.345-0.042h-2.067v4.036h2.167l1.887-0.085v2.387l-1.887-0.085h-7.886l-2.207,0.085v-2.387l2.247,0.085h3.391v-4.036h-2.107
		l-1.184,0.042v-2.303l1.244,0.021h2.046v-3.528h-1.986c-0.483,1.901-1.244,3.591-2.268,5.07c-0.201-0.296-0.402-0.571-0.583-0.824
		c-0.18-0.232-0.542-0.613-1.084-1.141c0.542-0.57,0.964-1.31,1.305-2.239l0.22-0.613c-0.542,0.253-1.084,0.549-1.625,0.866
		c-0.04-0.253-0.08-0.57-0.14-0.929s-0.281-1.056-0.662-2.092v12.021l0.08,2.556h-2.449l0.081-2.577v-14.598l-0.081-2.155H170.887z"
		/>
	<path d="M188.345,221.099l-2.228,0.063v-2.43l2.207,0.085h5.599l-0.06-1.416h2.449l-0.081,1.416h5.539l2.309-0.085v2.43
		l-2.269-0.063h-3.912c0.381,0.38,0.701,0.697,0.983,0.951c0.281,0.253,0.843,0.613,1.686,1.119
		c0.822,0.486,1.544,0.824,2.167,0.951c0.602,0.126,1.203,0.211,1.766,0.232c-0.521,0.951-0.843,1.605-0.983,1.986l-0.201,0.507
		c-0.943-0.275-1.926-0.655-2.93-1.162c-1.003-0.507-1.786-0.972-2.347-1.416c-0.542-0.444-1.144-0.993-1.807-1.669v2.662
		l0.081,1.711h-2.449l0.06-1.754v-2.535c-0.341,0.317-0.622,0.549-0.843,0.718c-0.22,0.169-0.682,0.507-1.385,1.014
		c-0.703,0.486-1.284,0.866-1.726,1.162c-0.441,0.275-1.284,0.718-2.489,1.331c-0.4-0.613-0.963-1.373-1.685-2.281
		c1.264-0.19,2.408-0.634,3.451-1.31c1.044-0.676,2.027-1.416,2.97-2.218H188.345z M187.522,210.049
		c0.743,0.761,1.525,1.627,2.347,2.557c-0.642,0.697-1.163,1.289-1.546,1.795c-0.843-1.162-1.444-1.88-1.785-2.176l-0.663-0.55
		C186.458,211.233,187,210.683,187.522,210.049z M187.462,215.732c0.241-0.148,0.662-0.443,1.244-0.866
		c0.582-0.444,1.063-0.845,1.425-1.183c0.362-0.359,0.722-0.76,1.104-1.183c0.099,0.232,0.2,0.465,0.32,0.676
		c0.1,0.232,0.362,0.697,0.782,1.416c-0.402,0.359-1.044,0.929-1.926,1.711c-0.903,0.781-1.766,1.542-2.588,2.303
		c-0.121-0.232-0.261-0.486-0.402-0.718c-0.14-0.253-0.483-0.782-1.024-1.584C186.88,216.07,187.241,215.88,187.462,215.732z
		 M190.171,207.388c0.362,0.401,0.763,0.845,1.244,1.373c0.461,0.507,0.843,0.887,1.063,1.12c-0.782,0.802-1.324,1.394-1.645,1.754
		c-0.261-0.402-0.522-0.782-0.784-1.162c-0.26-0.359-0.521-0.634-0.802-0.887l-0.663-0.592
		C189.047,208.592,189.589,208.064,190.171,207.388z M192.319,210.155l1.485,0.085h1.364c0.019-0.317,0.04-0.655,0.06-0.993
		c0.04-0.338,0.04-0.571,0.04-0.676l-0.1-0.951c0.362,0.085,0.642,0.148,0.822,0.19c0.181,0.021,0.723,0.063,1.646,0.148
		c-0.04,0.359-0.08,0.718-0.1,1.078c-0.04,0.38-0.06,0.591-0.08,0.655l-0.06,0.55h2.087l1.645-0.063
		c-0.06,0.676-0.14,1.352-0.241,2.028c-0.08,0.676-0.12,1.035-0.12,1.056l-0.1,1.352c-0.021,0.401-0.041,0.634,0.04,0.718
		c0.1,0.105,0.241,0.148,0.441,0.126c0.18-0.021,0.362-0.126,0.542-0.317c0.18-0.169,0.261-0.402,0.341-0.697l0.201-0.802
		c0.682,0.443,1.385,0.781,2.087,0.993c-0.382,1.014-0.602,1.605-0.663,1.795c-0.08,0.169-0.221,0.38-0.421,0.634
		c-0.181,0.275-0.362,0.465-0.542,0.571c-0.181,0.105-0.462,0.169-0.863,0.19c-0.502,0.042-1.023,0.042-1.565,0
		c-0.562-0.063-1.004-0.19-1.324-0.38c-0.322-0.169-0.522-0.338-0.583-0.486c-0.06-0.169-0.06-0.486-0.019-0.951l0.241-3.613h-1.485
		c-0.081,0.296-0.18,0.655-0.301,1.078c-0.14,0.444-0.322,0.908-0.602,1.416c-0.261,0.464-0.662,0.929-1.144,1.394
		c-0.481,0.464-1.163,1.035-2.086,1.732c-0.161-0.169-0.462-0.465-0.903-0.888c-0.441-0.423-0.782-0.76-1.004-1.014
		c0.903-0.275,1.646-0.676,2.207-1.183c0.583-0.528,0.964-1.141,1.225-1.838l0.26-0.697h-0.942l-1.485,0.085V210.155z"/>
	<path d="M215.896,217.105l-0.703,0.275c-0.22,0.169-0.561,0.233-0.803,0.444l-0.521-0.972c-0.663,0.021-1.766,0.19-2.569,0.19
		c-0.803,0.021-1.565,0.169-1.947,0.169c-0.441,0.021-1.023,0.106-2.027,0.19l-0.682-1.669c0.743-0.296,1.165-0.507,1.284-0.591
		l0.422-0.296h-1.104h-0.963v-1.5l1.425,0.042v-3.655l-0.041-1.986l2.108,0.042h3.372l2.268-0.042v1.605l-2.268-0.042h-3.352v0.55
		h3.412l1.867-0.042v1.246l-1.867-0.042h-3.412v0.571h3.432l1.847-0.063v1.289l-1.867-0.042h-3.412v0.613h3.432l2.589-0.063v1.606
		l-1.004-0.085c0.22,0.317,1.184,1.458,1.605,2.113L215.896,217.105z M223.702,226.443l-0.221,0.443
		c-1.264-0.169-2.488-0.275-3.291-0.443c-0.803-0.19-2.027-0.444-3.071-0.845c-0.402,0.169-0.602,0.296-1.023,0.444
		c-0.422,0.148-0.822,0.359-1.766,0.57c-0.583,0.127-1.666,0.486-2.75,0.591c-0.22-0.443-0.542-0.781-0.682-0.972l-0.782-0.951
		c0.481,0.063,1.866-0.126,2.589-0.253c0.842-0.148,1.605-0.296,2.126-0.528c-0.32-0.211-1.123-0.718-1.806-1.204
		c-0.381-0.296-0.743-0.591-0.943-0.824c-0.582,1.099-1.203,1.902-2.046,2.62c-0.462,0.38-0.984,0.74-1.585,1.098
		c-0.181-0.169-0.602-0.507-0.763-0.591c-0.12-0.106-0.562-0.338-1.284-0.74c0.682-0.253,1.364-0.634,1.987-1.162
		c0.582-0.507,1.123-1.12,1.546-1.817c0.281-0.444,0.501-0.908,0.662-1.416h-1.786l-2.167,0.021v-1.605l2.188,0.021h2.006
		c0.06-0.444,0.1-0.613,0.1-0.718v-1.035c0.803,0.021,1.907,0.148,2.609,0.253c-0.16,0.507-0.12,0.676-0.14,0.782l-0.14,0.718h6.041
		l-0.602-0.38l-0.822-0.38l1.324-1.669l0.663,0.444l0.923,0.613l0.903,0.402l-0.824,0.972h1.365l2.107-0.042v1.754l-2.006-0.063
		h-9.352c-0.121,0.507-0.502,1.289-0.723,1.669c0.402-0.338,0.943-0.824,1.165-1.14c0.241,0.317,0.622,0.655,1.084,0.993
		c0.803,0.613,1.766,1.204,2.388,1.5c0.441-0.317,1.042-0.993,1.585-1.795c0.26-0.38,0.501-0.782,0.701-1.183l1.968,1.289
		c-0.261,0.423-0.723,0.951-1.104,1.437c-0.281,0.38-0.642,0.74-0.923,1.014c0.963,0.38,2.186,0.38,2.749,0.486
		c0.803,0.127,1.806,0.042,2.648,0.063C224.083,225.429,223.763,226.338,223.702,226.443z M211.28,214.845l0.181,0.169l-1.104,0.634
		l2.648-0.063l-0.421-0.444c0.18-0.106,0.441-0.148,0.622-0.296H211.28z M220.03,210.028c-0.862,0.275-2.006,0.571-3.412,0.909
		c-0.281-0.718-0.502-1.162-0.662-1.416l-0.341-0.55c0.722-0.063,1.525-0.148,2.408-0.275c0.862-0.126,2.067-0.57,3.612-1.331
		c0.201,0.232,0.402,0.444,0.561,0.655c0.181,0.169,0.522,0.465,1.004,0.824C221.956,209.352,220.912,209.733,220.03,210.028z
		 M220.412,216.007c-0.964,0.317-2.008,0.634-3.152,0.908c-0.12-0.232-0.241-0.486-0.36-0.718c-0.141-0.253-0.422-0.676-0.883-1.267
		c0.701-0.063,1.243-0.127,1.605-0.212c0.362-0.063,1.104-0.253,2.228-0.591c1.104-0.338,2.228-0.887,3.372-1.627
		c0.441,0.697,0.743,1.141,0.883,1.31l0.441,0.528C222.759,215.141,221.374,215.69,220.412,216.007z M220.712,212.796
		c-1.103,0.402-1.745,0.634-1.946,0.676l-1.625,0.402c-0.1-0.211-0.201-0.444-0.282-0.613c-0.1-0.212-0.36-0.613-0.762-1.247
		c1.023-0.126,1.887-0.317,2.588-0.549c0.703-0.211,1.365-0.444,1.968-0.676c0.601-0.232,1.224-0.549,1.885-0.951
		c0.181,0.19,0.322,0.338,0.422,0.444l0.502,0.591l0.561,0.57C222.92,211.951,221.816,212.416,220.712,212.796z"/>
	<path d="M226.552,217.169v-1.035l-0.04-1.331l2.247,0.085h14.027l1.907-0.063l-0.06,1.183v1.183l0.06,1.162h-2.349l0.041-0.761
		v-1.183H228.88v0.972l0.04,0.972h-2.408L226.552,217.169z M226.732,208.74l2.008,0.085h5.679c-0.181-0.359-0.301-0.57-0.362-0.655
		l-0.281-0.401c0.642-0.085,1.485-0.317,2.488-0.697c0.141,0.19,0.242,0.338,0.301,0.423l0.382,0.761l0.281,0.57h5.418l1.807-0.085
		v1.986l-1.887-0.063h-13.927l-1.907,0.063V208.74z M230.685,220.021h9.473l1.766-0.063l-0.08,1.437v3.591
		c0,0.761-0.181,1.31-0.542,1.669c-0.342,0.338-1.405,0.57-3.191,0.634c-0.021-0.148-0.04-0.359-0.08-0.634
		c-0.021-0.253-0.1-0.549-0.241-0.908l-0.221-0.613c0.923,0.042,1.485,0.042,1.706,0c0.2-0.063,0.3-0.148,0.3-0.254v-0.105h-7.966
		v1.119l0.059,1.205h-2.387l0.06-1.267V221.5l-0.06-1.542L230.685,220.021z M241.462,212.226v1.437l0.021,0.781l-1.625-0.042h-8.871
		l-1.304,0.042l0.04-0.655v-1.605l-0.04-0.888l1.284,0.042h8.869l1.646-0.042L241.462,212.226z M229.722,217.719l-0.04-0.867
		l1.345,0.042h9.131l0.501-0.021l0.824-0.021l-0.021,0.887v0.993l0.021,0.845l-1.324-0.063h-9.172l-1.304,0.063l0.04-0.866V217.719z
		 M239.575,221.795v-0.507l-7.966-0.021v0.528H239.575z M239.575,223.549V223h-7.966v0.549H239.575z M239.415,218.584v-0.634h-7.586
		l0.021,0.634H239.415z M239.355,213.197l0.019-0.55h-7.525v0.55H239.355z"/>
</g>
<g>
	<path d="M36.781,246.167c0,2.221-0.094,3.923-0.284,5.105c-0.189,1.183-0.695,2.348-1.519,3.496
		c-0.822,1.148-1.988,2.09-3.497,2.826l-0.597-0.928c1.143-0.536,2.136-1.31,2.979-2.321c0.843-1.011,1.362-2.073,1.558-3.187
		c-1.763,0.564-3.658,1.09-5.683,1.578l-0.441-1.093c1.842-0.357,3.942-0.935,6.301-1.733c0.085-0.818,0.117-1.605,0.098-2.362
		h-5.84v-1.062h5.898v-3.187h-6.113v-1.125h6.113v-3.063h1.029V246.167z M46.815,252.386h-6.046v5.25h-1.078v-18.524h1.078v3.063
		h5.663v1.125h-5.663v3.445h5.241v1.093h-5.241v3.465h6.046V252.386z"/>
	<path d="M66.163,241.566H52.935c-1.071,1.547-2.207,2.857-3.409,3.93l-0.706-0.866c1.876-1.754,3.326-3.634,4.351-5.642
		l1.028,0.361c-0.196,0.454-0.405,0.842-0.626,1.165h12.59V241.566z M61.969,255.15h-5.761v2.404h-1.049v-2.404h-5.957v-1.041h5.957
		v-1.619h-4.615v-0.99h4.615v-1.547h-5.251v-0.99h11.757v0.99h-5.458v1.547h4.674v0.99h-4.674v1.619h5.761V255.15z M66.565,253.623
		c-0.522,2.696-1.205,4.043-2.047,4.043c-0.607,0-1.085-0.486-1.431-1.459c-0.346-0.973-0.519-2.769-0.519-5.389v-4.373H50.849
		v-1.073h12.737v5.168c0,1.299,0.046,2.365,0.138,3.197c0.091,0.832,0.201,1.446,0.328,1.841c0.127,0.395,0.215,0.626,0.265,0.691
		c0.048,0.065,0.122,0.098,0.22,0.098c0.327,0,0.686-1.124,1.078-3.373L66.565,253.623z M54.297,248.033l-0.901,0.608
		c-0.484-0.55-0.993-1.014-1.529-1.392l0.951-0.619C53.295,246.981,53.788,247.449,54.297,248.033z M65.017,243.949H53.298v-0.99
		h11.719V243.949z M59.618,247.126c-0.301,0.412-0.791,0.904-1.469,1.475l-0.96-0.526c0.632-0.543,1.107-1.007,1.42-1.393
		L59.618,247.126z"/>
	<path d="M73.583,239.39c-0.261,0.763-0.657,1.757-1.186,2.981l-0.803,1.794v13.501h-1.078v-11.521
		c-0.582,0.984-1.271,1.963-2.068,2.94l-0.724-0.887c1.783-2.145,3.383-5.188,4.801-9.128L73.583,239.39z M85.321,252.716
		c0,1.066-0.099,2.052-0.299,2.96c-0.2,0.908-0.59,1.427-1.171,1.558c-0.582,0.131-2.172,0.196-4.772,0.196
		c-0.62,0-1.156-0.007-1.607-0.021c-0.45-0.014-0.803-0.165-1.058-0.454c-0.254-0.288-0.382-0.68-0.382-1.175v-16.688h1.108v7.168
		h7.799v1.114h-7.799v8.365c0,0.137,0.045,0.266,0.137,0.386s0.2,0.183,0.324,0.186c0.123,0.004,0.567,0.005,1.331,0.005
		c2.698,0,4.246-0.055,4.645-0.165c0.398-0.11,0.626-1.403,0.686-3.878L85.321,252.716z"/>
	<path d="M89.615,243.825c-0.235,2.021-0.574,3.727-1.018,5.116l-1.029-0.299c0.463-1.512,0.793-3.166,0.989-4.961L89.615,243.825z
		 M93.868,245.774l-0.657,0.815c-0.555-0.695-1.091-1.286-1.607-1.774v12.759h-1.049v-18.462h1.049v4.291
		C92.395,244.111,93.149,244.901,93.868,245.774z M105.009,257.13H93.554v-1.093h5.596v-5.518h-4.635v-1.073h4.635v-4.672h-2.911
		c-0.509,1.409-1.091,2.613-1.744,3.61l-0.862-0.567c1.346-2.414,2.214-4.865,2.606-7.354l1.039,0.237
		c-0.183,1.121-0.408,2.108-0.676,2.96h2.548v-4.476h1.107v4.476h4.409v1.114h-4.409v4.672h3.949v1.073h-3.949v5.518h4.753V257.13z"
		/>
	<path d="M124.837,252.973c-0.019,0.791-0.121,1.527-0.304,2.207c-0.183,0.681-0.377,1.154-0.583,1.419
		c-0.206,0.264-0.467,0.461-0.784,0.588s-0.988,0.201-2.014,0.222c-1.026,0.021-2.264,0.031-3.714,0.031
		c-1.143,0-2.433-0.01-3.87-0.031c-1.437-0.021-2.266-0.051-2.489-0.093c-0.223-0.041-0.437-0.146-0.642-0.314
		c-0.206-0.169-0.362-0.378-0.47-0.629c-0.108-0.251-0.161-0.538-0.161-0.862v-10.561h6.593l3.078-3.043h-6.527
		c-1.463,1.575-3.096,2.853-4.899,3.837l-0.655-0.887c2.783-1.561,4.928-3.523,6.437-5.889l1.087,0.423
		c-0.3,0.475-0.637,0.938-1.01,1.393h7.192v0.949c-0.803,0.88-1.867,1.953-3.194,3.218h5.458v6.013h-12.502v4.528
		c0,0.145,0.075,0.311,0.225,0.5c0.15,0.189,0.416,0.305,0.798,0.346c0.382,0.041,2.063,0.062,5.042,0.062
		c3.188,0,4.974-0.033,5.36-0.098c0.385-0.065,0.676-0.222,0.872-0.469c0.196-0.247,0.35-0.675,0.461-1.284
		c0.11-0.608,0.179-1.294,0.206-2.057L124.837,252.973z M115.999,249.869v-3.826h-5.134v3.826H115.999z M122.281,249.869v-3.826
		h-5.174v3.826H122.281z"/>
	<path d="M144.28,248.92h-8.083v7.055c0,0.481-0.152,0.878-0.456,1.191c-0.304,0.313-0.707,0.469-1.211,0.469
		c-0.797,0-1.662-0.014-2.596-0.041l-0.402-1.134c1.523,0.041,2.56,0.062,3.116,0.062c0.131,0,0.243-0.062,0.337-0.186
		s0.143-0.251,0.143-0.382v-7.034h-8.25v-1.124h8.25v-2.744c2.011-1.244,3.831-2.668,5.458-4.27h-11.494v-1.135h13.002v1.135
		c-1.92,1.905-3.887,3.531-5.898,4.879v2.135h8.083V248.92z"/>
	<path d="M151.745,239.369c-0.15,0.639-0.415,1.485-0.793,2.537l-0.568,1.558v14.089h-1.049v-11.655
		c-0.724,1.43-1.339,2.513-1.842,3.249l-0.607-1.011c1.607-2.571,2.904-5.621,3.889-9.148L151.745,239.369z M164.366,257.068
		h-12.865v-0.969h6.026v-1.733h-5.302v-0.969h5.302v-1.671h-5.586v-0.969h5.586v-1.547h-5.105v-3.651h5.105v-1.227h-3.057v-2.258
		h-2.606v-0.97h2.606v-1.949h1.029v1.949h4.938v-1.949h1.019v1.949h2.664v0.97h-2.664v2.258h-2.911v1.227h4.939v3.651h-4.939v1.547
		h5.458v0.969h-5.458v1.671h5.174v0.969h-5.174v1.733h5.821V257.068z M157.527,248.198v-1.65h-4.037v1.65H157.527z M160.437,243.361
		v-1.289h-4.938v1.289H160.437z M162.455,248.198v-1.65h-3.91v1.65H162.455z"/>
	<path d="M176.407,244.65l-0.822,0.701c-0.215-0.419-0.47-0.842-0.764-1.269c-2.424,0.365-4.918,0.616-7.486,0.753l-0.382-0.908
		c1.227-0.997,2.305-2.589,3.233-4.775l1.039,0.278c-0.79,1.76-1.665,3.198-2.626,4.311c2.097-0.178,3.949-0.382,5.556-0.608
		c-0.353-0.522-0.914-1.186-1.686-1.991l0.912-0.609C174.882,242.13,175.892,243.502,176.407,244.65z M175.105,256.398
		c0,0.351-0.123,0.646-0.368,0.887c-0.245,0.241-0.516,0.375-0.814,0.402c-0.296,0.028-0.935,0.042-1.916,0.042l-0.421-1.062
		c0.32,0.021,0.634,0.031,0.941,0.031c0.647,0,1.063-0.024,1.249-0.073c0.186-0.048,0.279-0.175,0.279-0.382v-3.435
		c-1.92,0.915-3.499,1.596-4.732,2.043l-0.461-0.712c-0.151,1.251-0.468,2.434-0.951,3.548l-0.922-0.557
		c0.614-1.664,0.922-3.345,0.922-5.044v-5.683h7.192V256.398z M174.056,251.623v-4.167h-5.076v1.506
		c1.385,0.261,2.835,0.677,4.35,1.248l-0.48,0.949c-1.548-0.543-2.838-0.918-3.87-1.124v2.052c0,0.591-0.027,1.169-0.079,1.733
		C170.208,253.393,171.927,252.661,174.056,251.623z M184.492,254.026c-0.065,1.066-0.207,1.845-0.422,2.336
		c-0.215,0.491-0.468,0.809-0.759,0.954c-0.29,0.145-0.834,0.216-1.631,0.216l-3.008-0.041c-0.451,0-0.814-0.135-1.087-0.408
		c-0.275-0.272-0.412-0.634-0.412-1.088v-7.942h1.019v3.063h5.761v1.011h-5.761v3.764c0,0.406,0.242,0.609,0.726,0.609
		c2.038,0,3.2-0.017,3.488-0.052c0.287-0.034,0.515-0.174,0.686-0.417c0.169-0.244,0.304-1.003,0.402-2.274L184.492,254.026z
		 M184.275,247.187h-5.839c-0.366,0-0.665-0.137-0.897-0.412c-0.232-0.275-0.347-0.602-0.347-0.98v-6.57h0.999v2.641h5.742v1.01
		h-5.742v2.765c0,0.337,0.179,0.505,0.539,0.505h5.545V247.187z"/>
	<path d="M189.734,248.435c-0.379,2.166-0.928,4.177-1.646,6.034l-1.01-0.505c0.699-1.554,1.241-3.483,1.627-5.786L189.734,248.435z
		 M195.064,246.95h-3.311v10.665h-1.019V246.95h-3.409v-1.052h3.409v-6.714h1.019v6.714h3.311V246.95z M189.792,244.434l-0.97,0.423
		c-0.261-1.175-0.734-2.462-1.42-3.857l0.96-0.485C189.022,241.862,189.498,243.169,189.792,244.434z M194.927,240.937
		c-0.372,1.588-0.801,2.912-1.283,3.971l-0.981-0.475c0.536-1.011,0.951-2.317,1.244-3.919L194.927,240.937z M194.888,252.447
		l-1,0.423c-0.131-1.313-0.532-2.757-1.205-4.332l0.92-0.382C194.251,249.711,194.679,251.141,194.888,252.447z M204.5,244.042
		h-5.056v4.538h4.175v9.014h-1.069v-1.599h-5.957v1.599h-1.068v-9.014h2.871v-9.355h1.048v3.754h5.056V244.042z M202.55,254.892
		v-5.26h-5.957v5.26H202.55z"/>
	<path d="M212.972,240.638c0,0.22-0.548,1.946-1.646,5.178c1.006,1.636,1.509,3.276,1.509,4.92c0,0.619-0.103,1.11-0.308,1.475
		c-0.206,0.365-0.473,0.61-0.799,0.738c-0.327,0.127-0.924,0.19-1.792,0.19l-0.499-1.093c0.49,0.021,0.865,0.031,1.126,0.031
		c0.543,0,0.892-0.117,1.048-0.351c0.157-0.233,0.236-0.602,0.236-1.104c0-1.485-0.536-3.06-1.607-4.724
		c0.574-1.644,1.117-3.396,1.627-5.26h-3.37v16.915h-1.029v-17.998h5.506V240.638z M217.283,239.287
		c-0.196,0.709-0.506,1.606-0.93,2.692l-0.637,1.599v13.976h-0.999v-11.995c-0.576,1.011-1.052,1.737-1.431,2.176l-0.716-0.701
		c1.509-2.131,2.75-4.799,3.724-8.003L217.283,239.287z M224.446,244.227h-1.842v11.593c0,1.114-0.591,1.671-1.774,1.671h-1.498
		l-0.441-1.052h2.087c0.424,0,0.636-0.227,0.636-0.68v-11.531h-4.997v-1.052h4.997v-4.208h0.99v4.208h1.842V244.227z
		 M220.213,251.849l-0.902,0.423c-0.646-2.021-1.368-3.851-2.165-5.487l0.941-0.443C218.89,248.033,219.599,249.869,220.213,251.849
		z"/>
	<path d="M236.086,253.736c-2.704,0.743-5.673,1.417-8.907,2.022l-0.245-1.073c3.182-0.571,6.199-1.248,9.054-2.032L236.086,253.736
		z M244.394,253.2c-0.077,0.646-0.261,1.449-0.548,2.408c-0.288,0.96-0.568,1.533-0.843,1.723c-0.275,0.189-0.543,0.284-0.803,0.284
		c-0.601,0-1.258-0.421-1.97-1.264c-0.712-0.842-1.218-1.665-1.519-2.47c-1.202,1.348-2.499,2.517-3.889,3.507l-0.726-0.825
		c1.757-1.258,3.161-2.561,4.213-3.909c-0.726-3.389-1.097-6.607-1.117-9.654H227.14v-1.032h9.984
		c-0.04-0.722-0.059-1.65-0.059-2.785h1.029c0,1.279,0.019,2.207,0.058,2.785h6.016V243h-5.938c0.125,3.198,0.432,6.013,0.922,8.447
		c1.045-1.582,1.995-3.699,2.85-6.353l0.96,0.361c-0.836,2.785-1.986,5.256-3.448,7.416c0.313,1.031,0.761,1.897,1.342,2.599
		c0.58,0.701,1.012,1.052,1.293,1.052c0.111,0,0.219-0.059,0.323-0.175c0.105-0.117,0.264-0.547,0.475-1.289
		c0.213-0.743,0.387-1.592,0.525-2.547L244.394,253.2z M235.067,251.282h-6.712v-5.766h6.712V251.282z M234.018,250.209v-3.62
		h-4.596v3.62H234.018z M242.964,240.958l-0.822,0.691c-0.641-0.695-1.248-1.214-1.822-1.558l0.724-0.763
		C241.657,239.714,242.298,240.257,242.964,240.958z"/>
</g>
<g>
	<path d="M24.256,273.98l-0.686,0.887c-0.778-0.77-1.976-1.691-3.595-2.764l0.568-0.866
		C22.103,272.248,23.342,273.162,24.256,273.98z M23.629,278.375c-0.797,2.235-1.728,4.177-2.792,5.827l-0.795-0.65
		c1.117-1.781,2.045-3.761,2.783-5.94L23.629,278.375z M25.01,268.72l-0.676,0.825c-1.137-1.087-2.316-2.032-3.537-2.837
		l0.628-0.846C22.712,266.737,23.906,267.689,25.01,268.72z M37.572,276.807l-0.539,0.949c-2.468-0.887-4.481-2.138-6.035-3.754
		c-1.934,1.705-4.115,2.98-6.546,3.826l-0.666-0.938c2.254-0.688,4.23-1.737,5.928-3.146c0-0.021-0.013-0.05-0.039-0.088
		c-0.027-0.038-0.042-0.07-0.05-0.098c-1.848,0.289-3.393,0.505-4.634,0.65l-0.275-0.887c0.999-0.873,1.78-1.809,2.341-2.806
		l0.883,0.444c-0.53,0.777-1.111,1.489-1.745,2.135c1.163-0.097,2.133-0.224,2.911-0.382c-0.177-0.351-0.363-0.646-0.559-0.887
		l0.745-0.443c0.346,0.399,0.718,0.969,1.116,1.712c0.092-0.069,0.161-0.141,0.207-0.217l0.862,0.175
		c0.6-0.866,1.101-1.798,1.498-2.795l0.872,0.258c-0.333,0.88-0.755,1.719-1.264,2.517c0.77-0.11,1.679-0.272,2.723-0.485
		c-0.215-0.316-0.431-0.598-0.646-0.845l0.744-0.485c0.732,0.791,1.375,1.647,1.931,2.568l-0.804,0.536
		c-0.248-0.44-0.447-0.759-0.597-0.959c-0.901,0.192-2.068,0.406-3.497,0.64C33.443,274.971,35.154,275.906,37.572,276.807z
		 M32.036,276.198c-1.561,1.809-3.534,3.032-5.917,3.672l-0.539-0.928c2.122-0.488,4.001-1.585,5.634-3.29L32.036,276.198z
		 M36.21,269.968l-0.764,0.588c-0.392-0.501-0.68-0.859-0.862-1.072c-1.822,0.337-4.605,0.574-8.348,0.711L26,269.329
		c1.327-0.756,2.509-1.919,3.547-3.487l0.99,0.34c-0.818,1.252-1.653,2.211-2.508,2.878c1.894-0.021,3.785-0.168,5.673-0.443
		c-0.353-0.392-0.755-0.767-1.206-1.125l0.686-0.67C34.541,267.985,35.55,269.034,36.21,269.968z M34.142,277.848
		c-1.802,2.028-4.177,3.421-7.123,4.177l-0.559-0.928c2.842-0.695,5.122-1.984,6.84-3.868L34.142,277.848z M36.289,279.179
		c-2.143,2.73-5.158,4.497-9.045,5.302l-0.548-0.98c3.73-0.708,6.633-2.334,8.71-4.879L36.289,279.179z"/>
	<path d="M55.515,283.48l-0.676,0.98c-3.828-3.238-6.412-7.416-7.751-12.531c-1.718,5.315-4.501,9.406-8.348,12.274l-0.803-0.866
		c1.312-0.942,2.483-2.015,3.512-3.218c1.029-1.203,1.906-2.479,2.632-3.826c0.724-1.347,1.33-2.797,1.818-4.347
		c0.486-1.551,0.729-2.484,0.729-2.8l-0.117-1.63h-1.872v-1.135h2.93C47.614,273.304,50.263,279.003,55.515,283.48z"/>
	<path d="M64.528,278.777h-5.625v-7.138l-0.382,0.413l-0.578-0.887c1.248-1.554,2.218-3.314,2.911-5.281l0.92,0.443
		c-0.261,0.688-0.434,1.117-0.519,1.289h2.625v0.98c-0.484,0.914-0.899,1.622-1.244,2.124h1.891V278.777z M59.873,279.952
		c-0.117,1.41-0.379,2.861-0.784,4.353l-0.92-0.33c0.385-1.217,0.665-2.641,0.842-4.27L59.873,279.952z M62.696,268.597h-1.882
		c-0.438,0.839-0.859,1.547-1.264,2.124h1.92C61.98,269.972,62.389,269.264,62.696,268.597z M61.256,274.249v-2.527h-1.402v2.527
		H61.256z M61.256,277.776v-2.547h-1.402v2.547H61.256z M61.559,284.037l-0.989,0.124c0.025-0.365,0.039-0.746,0.039-1.145
		c0-0.894-0.065-1.914-0.196-3.063l0.882-0.062C61.471,281.548,61.559,282.93,61.559,284.037z M63.382,283.356l-0.922,0.32
		c-0.091-1.375-0.3-2.623-0.626-3.744l0.901-0.144C63.055,281.046,63.271,282.235,63.382,283.356z M63.587,274.249v-2.527h-1.411
		v2.527H63.587z M63.587,277.776v-2.547h-1.411v2.547H63.587z M65.066,282.613l-0.862,0.361c-0.137-0.839-0.45-1.887-0.94-3.146
		l0.842-0.268C64.479,280.523,64.799,281.541,65.066,282.613z M69.819,275.414c0,4.339-1.469,7.354-4.409,9.045l-0.726-0.804
		c1.444-0.866,2.421-1.787,2.93-2.764c-0.399-0.729-0.847-1.365-1.342-1.908c-0.261,0.447-0.522,0.836-0.784,1.166l-0.745-0.722
		c1.189-1.637,1.911-3.432,2.166-5.384l0.93,0.145c-0.077,0.522-0.16,0.932-0.244,1.227H69.819z M68.515,271.742
		c-0.64,0.743-1.616,1.55-2.929,2.424l-0.618-0.908c1.131-0.619,2.101-1.371,2.911-2.258L68.515,271.742z M75.346,270.453H70.75
		v3.991h-1.049v-3.991h-4.517v-0.99h4.517v-3.527h1.049v3.527h4.596V270.453z M68.457,268.318l-0.882,0.588
		c-0.549-0.928-1.085-1.63-1.607-2.104l0.843-0.619C67.595,267.002,68.144,267.714,68.457,268.318z M68.8,276.466H67.33
		c-0.117,0.42-0.311,0.956-0.578,1.609c0.568,0.674,1.022,1.258,1.362,1.754C68.427,279.017,68.656,277.897,68.8,276.466z
		 M75.542,281.334h-1.745v3.125h-0.98v-3.125h-2.37c0.208-1.43,0.342-2.847,0.401-4.249h-0.422v-1.011h2.391v-1.867h0.98v1.867
		h1.421v1.011h-1.421v3.249h1.745V281.334z M72.798,280.334v-3.249h-0.989c-0.053,1.059-0.144,2.142-0.275,3.249H72.798z
		 M74.355,266.843c-0.686,0.983-1.247,1.685-1.685,2.104l-0.843-0.568c0.712-0.729,1.267-1.434,1.665-2.114L74.355,266.843z
		 M75.521,273.434l-0.724,0.815c-0.98-1.011-1.937-1.784-2.871-2.321l0.666-0.784C73.918,272.004,74.895,272.767,75.521,273.434z"/>
	<path d="M84.249,284.326H83.21v-7.601h-2.43c-0.04,3.184-0.647,5.6-1.822,7.251l-0.824-0.722c1.104-1.699,1.646-3.875,1.627-6.529
		h-1.754v-1.032h5.203v-2.919h-3.9v-6.508h1.01v5.415h2.89v-5.796h1.039V284.326z M95.409,283.552l-0.803,0.887
		c-2.072-2.468-3.675-5.59-4.812-9.365c-0.371,3.17-1.75,6.299-4.135,9.386l-0.911-0.784c2.547-3.074,3.955-6.762,4.223-11.067H85.2
		v-1.104h3.791v-5.529h1.039v5.529h5.154v1.104h-4.968C91.196,277.133,92.926,280.781,95.409,283.552z M94.468,269.886l-0.882,0.526
		c-0.405-0.853-1.101-1.888-2.087-3.105l0.843-0.619C93.172,267.645,93.88,268.71,94.468,269.886z"/>
	<path d="M114.714,275.456h-9.289c-0.549,0.811-1.192,1.564-1.93,2.258v5.322c1.104-0.165,2.642-0.657,4.615-1.475l0.226,1.052
		c-2.176,0.846-4.083,1.43-5.723,1.754l-0.559-0.928c0.255-0.117,0.382-0.32,0.382-0.609v-4.187
		c-1.281,1.004-2.779,1.929-4.498,2.775l-0.666-0.908c3.077-1.465,5.36-3.149,6.85-5.054h-6.83v-1.011h8.309v-2.362h-6.957v-1.062
		h6.957v-2.258h-7.868v-1.032h7.868v-1.774h1.029v1.774h7.72v1.032h-7.72v2.258h6.722v1.062h-6.722v2.362h8.083V275.456z
		 M114.85,283.459l-0.578,0.98c-1.842-0.729-3.372-1.651-4.589-2.769c-1.219-1.117-2.243-2.694-3.072-4.729l0.882-0.557
		c0.653,1.567,1.312,2.737,1.978,3.507c1.444-1.024,2.617-2.073,3.518-3.146l0.824,0.701c-1.242,1.327-2.447,2.403-3.616,3.228
		C111.38,281.83,112.93,282.758,114.85,283.459z"/>
	<path d="M133.842,270.329h-13.914c0,4.311-0.156,7.423-0.466,9.334c-0.311,1.911-0.723,3.445-1.24,4.6l-0.843-0.732
		c0.432-0.983,0.791-2.322,1.078-4.017c0.288-1.695,0.432-4.313,0.432-7.854v-5.24h14.952V270.329z M132.813,269.329v-1.878h-12.884
		v1.878H132.813z M133.596,277.065h-12.404v-4.497h12.404V277.065z M132.999,284.326h-1.049v-0.949h-9.005v0.949h-1.029v-6.312
		h11.082V284.326z M126.855,276.074v-2.517h-4.615v2.517H126.855z M131.95,280.107v-1.083h-9.005v1.083H131.95z M131.95,282.387
		v-1.31h-9.005v1.31H131.95z M125.454,275.332l-0.784,0.547c-0.411-0.584-0.832-1.076-1.264-1.475l0.824-0.547
		C124.654,274.255,125.062,274.748,125.454,275.332z M125.728,271.846l-0.941,0.484c-0.469-0.495-0.924-0.904-1.362-1.228
		l0.96-0.484C124.941,271.072,125.389,271.481,125.728,271.846z M132.578,276.074v-2.517h-4.703v2.517H132.578z M131.334,271.216
		c-0.34,0.337-0.883,0.722-1.627,1.156l-0.862-0.65c0.588-0.296,1.137-0.657,1.646-1.083L131.334,271.216z M131.411,274.321
		c-0.287,0.427-0.757,0.939-1.41,1.537l-0.774-0.526c0.62-0.571,1.081-1.062,1.381-1.475L131.411,274.321z"/>
	<path d="M140.305,286.925c-2.182-2.627-3.272-5.868-3.272-9.726c0-3.878,1.091-7.171,3.272-9.88h1.49
		c-2.222,2.826-3.332,6.113-3.332,9.86c0,3.727,1.104,6.975,3.312,9.747H140.305z"/>
	<path d="M153.936,282.613c-1.116,0.633-2.512,0.949-4.183,0.949c-2.13,0-3.847-0.739-5.149-2.217
		c-1.304-1.478-1.954-3.39-1.954-5.735c0-2.461,0.715-4.504,2.145-6.126c1.431-1.623,3.288-2.434,5.575-2.434
		c1.437,0,2.625,0.22,3.566,0.66v1.897c-1.091-0.633-2.293-0.949-3.605-0.949c-1.803,0-3.242,0.639-4.316,1.919
		c-1.075,1.279-1.612,2.922-1.612,4.93c0,1.905,0.503,3.459,1.509,4.662c1.005,1.203,2.355,1.805,4.046,1.805
		c1.529,0,2.854-0.357,3.978-1.073V282.613z"/>
	<path d="M167.925,276.868c0,4.463-1.911,6.694-5.732,6.694c-3.645,0-5.467-2.148-5.467-6.446v-9.798h1.665v9.674
		c0,3.321,1.336,4.982,4.008,4.982c2.573,0,3.86-1.602,3.86-4.807v-9.85h1.666V276.868z"/>
	<path d="M180.774,268.926h-4.379v14.368h-1.676v-14.368h-4.369v-1.608h10.425V268.926z"/>
	<path d="M187.152,268.855h-1.5v12.903h1.5v1.537h-4.664v-1.537h1.5v-12.903h-1.5v-1.536h4.664V268.855z"/>
	<path d="M200.078,282.613c-1.116,0.633-2.512,0.949-4.183,0.949c-2.13,0-3.847-0.739-5.149-2.217
		c-1.304-1.478-1.954-3.39-1.954-5.735c0-2.461,0.715-4.504,2.145-6.126c1.431-1.623,3.288-2.434,5.575-2.434
		c1.437,0,2.625,0.22,3.566,0.66v1.897c-1.091-0.633-2.293-0.949-3.605-0.949c-1.803,0-3.242,0.639-4.316,1.919
		c-1.075,1.279-1.612,2.922-1.612,4.93c0,1.905,0.503,3.459,1.509,4.662c1.005,1.203,2.355,1.805,4.046,1.805
		c1.529,0,2.854-0.357,3.978-1.073V282.613z"/>
	<path d="M210.753,283.294h-7.799v-15.976h1.665v14.367h6.134V283.294z"/>
	<path d="M221.19,283.294h-7.976v-15.976h7.633v1.608h-5.968v5.436h5.517v1.608h-5.517v5.714h6.31V283.294z"/>
	<path d="M222.858,286.925c2.201-2.757,3.302-6.006,3.302-9.747c0-3.761-1.11-7.047-3.332-9.86h1.5
		c2.195,2.709,3.292,6.003,3.292,9.88c0,3.851-1.097,7.093-3.292,9.726H222.858z"/>
</g>
<g>
	<path d="M235.382,277.085c-0.484-0.268-0.724-0.609-0.724-1.021c0-0.2,0.081-0.404,0.244-0.614c0.163-0.21,0.395-0.314,0.695-0.314
		c0.628,0,0.941,0.433,0.941,1.299c0,0.708-0.395,1.393-1.185,2.052l-0.422-0.34C235.232,277.728,235.382,277.374,235.382,277.085z"
		/>
</g>
<g>
	<path d="M117.887,306.405c-1.999,1.809-3.913,3.166-5.742,4.074l-0.822-0.908c1.92-0.887,3.788-2.176,5.604-3.867L117.887,306.405z
		 M128.881,304.537h-8.271v6.642h-1.058v-6.642h-8.172v-1.052h8.172v-2.073h1.058v2.073h8.271V304.537z M115.457,296.833l-0.52,1.01
		c-0.849-0.625-1.999-1.196-3.449-1.712l0.48-0.969C113.426,295.678,114.588,296.235,115.457,296.833z M116.986,299.329
		c-1.594,1.293-3.188,2.348-4.782,3.166l-0.48-0.969c1.41-0.681,3.044-1.774,4.899-3.28L116.986,299.329z M117.063,294.213
		l-0.519,0.97c-0.882-0.633-2.055-1.231-3.518-1.795l0.441-0.97C115.049,292.997,116.247,293.595,117.063,294.213z M128.841,298.081
		c-0.079,1.272-0.19,2.123-0.333,2.552c-0.144,0.43-0.366,0.741-0.666,0.934c-0.301,0.192-0.83,0.289-1.588,0.289
		c-0.745,0-1.236-0.129-1.474-0.387c-0.238-0.258-0.358-0.641-0.358-1.15v-4.27h-2.685c-0.313,2.792-1.705,4.752-4.173,5.879
		l-0.706-0.959c2.339-0.887,3.62-2.527,3.841-4.92h-3.096v-1.052h3.234c0.091-0.908,0.137-1.699,0.137-2.373h1.049
		c-0.013,0.516-0.069,1.307-0.167,2.373h3.616v5.219c0,0.385,0.343,0.577,1.029,0.577c0.463,0,0.762-0.105,0.896-0.315
		c0.134-0.209,0.27-1.157,0.406-2.841L128.841,298.081z M128.9,309.654l-0.745,0.845c-1.469-1.368-3.416-2.691-5.84-3.971
		l0.764-0.866C125.405,306.913,127.345,308.244,128.9,309.654z"/>
	<path d="M148.792,306.487c-0.019,0.791-0.121,1.527-0.304,2.207c-0.183,0.681-0.377,1.154-0.583,1.419
		c-0.206,0.264-0.467,0.461-0.784,0.588c-0.317,0.127-0.988,0.201-2.014,0.222c-1.026,0.021-2.264,0.031-3.714,0.031
		c-1.143,0-2.433-0.01-3.87-0.031c-1.437-0.021-2.266-0.051-2.489-0.093c-0.223-0.041-0.437-0.146-0.642-0.314
		c-0.206-0.169-0.362-0.378-0.47-0.629c-0.108-0.251-0.161-0.538-0.161-0.862v-10.561h6.593l3.078-3.043h-6.527
		c-1.463,1.575-3.096,2.853-4.899,3.837l-0.655-0.887c2.783-1.561,4.928-3.523,6.437-5.889l1.087,0.423
		c-0.3,0.475-0.637,0.938-1.01,1.393h7.192v0.949c-0.803,0.88-1.867,1.953-3.194,3.218h5.458v6.013H134.82v4.528
		c0,0.145,0.075,0.311,0.225,0.5c0.15,0.189,0.416,0.305,0.798,0.346c0.382,0.041,2.063,0.062,5.042,0.062
		c3.188,0,4.974-0.033,5.36-0.098c0.385-0.065,0.676-0.222,0.872-0.469c0.196-0.247,0.35-0.675,0.461-1.284
		c0.11-0.608,0.179-1.294,0.206-2.057L148.792,306.487z M139.954,303.383v-3.826h-5.134v3.826H139.954z M146.235,303.383v-3.826
		h-5.174v3.826H146.235z"/>
	<path d="M167.693,296.246h-14.345v7.9c0,2.531-0.427,4.858-1.283,6.983l-0.822-0.671c0.77-2.379,1.156-5.019,1.156-7.921v-9.375
		h15.295V296.246z M166.664,295.359v-1.31h-13.316v1.31H166.664z M167.927,304.074c0,1.114-0.039,2.298-0.117,3.553
		c-0.079,1.255-0.134,2.035-0.166,2.341c-0.034,0.306-0.164,0.562-0.393,0.769c-0.229,0.206-0.509,0.309-0.842,0.309h-1.146
		l-0.343-0.949h1.431c0.117,0,0.209-0.074,0.275-0.221c0.065-0.148,0.132-0.75,0.201-1.805c0.069-1.056,0.109-2.106,0.122-3.151
		h-5.977v0.866h4.056v2.434h-1.431c0.347,0.461,0.703,1.059,1.068,1.795l-0.724,0.464c-0.065-0.144-0.18-0.371-0.343-0.68
		c-2.952,0.398-5.869,0.701-8.75,0.908l-0.304-0.795c1.123-0.055,2.936-0.216,5.438-0.484v-1.207h-4.048v-2.372
		c-0.738,0.44-1.387,0.767-1.949,0.98l-0.44-0.784c1.737-0.743,3.102-1.729,4.095-2.96h-2.587v-2.661h12.738v2.661h-8.965
		c-0.242,0.379-0.497,0.709-0.764,0.99H167.927z M159.727,299.329c-1.313,0.254-2.986,0.505-5.016,0.753l-0.265-0.795
		c1.64-0.206,3.332-0.46,5.076-0.763L159.727,299.329z M159.667,297.339l-0.225,0.845c-1.627-0.323-3.25-0.526-4.87-0.608
		l0.275-0.866C155.97,296.758,157.578,296.968,159.667,297.339z M158.924,302.3v-1.093h-2.99v1.093H158.924z M159.982,305.786
		v-0.866h-2.901c-0.509,0.461-0.839,0.749-0.989,0.866H159.982z M159.982,307.477v-0.949h-3.087v0.949H159.982z M162.853,302.3
		v-1.093h-3.067v1.093H162.853z M161.814,299.793h-0.96v-2.898h0.96V299.793z M164.117,307.477v-0.949h-3.146v0.949H164.117z
		 M163.312,308.22h-2.341v1.052l2.126-0.248l-0.304-0.484L163.312,308.22z M168.33,297.617c-1.718,0.282-3.437,0.464-5.154,0.547
		l-0.323-0.825c1.737-0.062,3.451-0.244,5.143-0.547L168.33,297.617z M168.594,299.371l-0.244,0.804
		c-1.764-0.392-3.534-0.66-5.31-0.804l0.137-0.825C165.331,298.738,167.138,299.013,168.594,299.371z M166.869,302.3v-1.093h-3.106
		v1.093H166.869z"/>
	<path d="M180.373,294.863h-4.096v0.918h3.41v4.538h-3.41v0.928h3.39v0.928h-3.39v1.145h-0.98v-1.145h-4.459v-0.928h4.459v-0.928
		h-3.488v-4.538h3.488v-0.918h-4.213v-0.887h4.213v-1.33h0.98v1.33h4.096V294.863z M175.297,297.617v-0.928h-2.548v0.928H175.297z
		 M175.297,299.432v-0.969h-2.548v0.969H175.297z M185.977,311.128h-1.029v-0.969H174.17v0.969h-1.039v-7.096h12.846V311.128z
		 M184.948,306.57v-1.517H174.17v1.517H184.948z M184.948,309.148v-1.568H174.17v1.568H184.948z M178.765,297.617v-0.928h-2.489
		v0.928H178.765z M178.765,299.432v-0.969h-2.489v0.969H178.765z M188.299,298.205h-1.881v5.137h-1.01v-5.137h-3.086
		c-0.223,2.186-0.676,3.906-1.362,5.157l-0.891-0.598c0.953-1.692,1.375-4.562,1.264-8.612c1.978-0.296,3.955-0.805,5.928-1.527
		l0.538,0.939c-1.881,0.674-3.693,1.159-5.437,1.454c0.012,0.605,0.006,1.33-0.021,2.176h5.957V298.205z"/>
	<path d="M196.13,310.097h-1.049v-1.671h-2.792v2.135h-1.039v-16.626h4.88V310.097z M195.082,300.588v-5.549h-2.792v5.549H195.082z
		 M195.082,307.333v-5.683h-2.792v5.683H195.082z M207.643,296.049h-4.674v3.063h4.135v1.062h-9.397v-1.062h4.213v-3.063h-4.909
		v-1.114h4.909v-2.31h1.049v2.31h4.674V296.049z M208.104,303.847h-2.224v5.466c0,0.708-0.184,1.177-0.549,1.408
		c-0.366,0.23-1.075,0.346-2.126,0.346c-0.314,0-0.699-0.007-1.156-0.021l-0.422-1.134c0.647,0.048,1.215,0.073,1.705,0.073
		c0.66,0,1.078-0.053,1.254-0.16c0.177-0.106,0.265-0.29,0.265-0.551v-5.425h-7.839v-1.083h7.839v-1.96h1.029v1.96h2.224V303.847z
		 M202.068,308.117l-0.901,0.567c-0.706-1.141-1.572-2.217-2.598-3.228l0.883-0.64C200.308,305.676,201.179,306.776,202.068,308.117
		z"/>
	<path d="M212.559,297.339c-0.235,2.021-0.574,3.727-1.018,5.116l-1.029-0.299c0.463-1.512,0.793-3.166,0.989-4.961L212.559,297.339
		z M216.813,299.288l-0.657,0.815c-0.555-0.695-1.091-1.286-1.607-1.774v12.759H213.5v-18.462h1.049v4.291
		C215.34,297.624,216.093,298.415,216.813,299.288z M227.953,310.643h-11.455v-1.093h5.596v-5.518h-4.635v-1.073h4.635v-4.672
		h-2.911c-0.509,1.41-1.091,2.613-1.744,3.61l-0.862-0.567c1.346-2.414,2.214-4.865,2.606-7.354l1.039,0.237
		c-0.183,1.121-0.408,2.108-0.676,2.96h2.548v-4.476h1.107v4.476h4.409v1.114H223.2v4.672h3.949v1.073H223.2v5.518h4.753V310.643z"
		/>
	<path d="M235.746,299.824c0.562,0,1.042,0.203,1.44,0.609c0.399,0.406,0.599,0.914,0.599,1.526c0,0.612-0.184,1.117-0.549,1.517
		c-0.366,0.398-0.837,0.598-1.411,0.598c-0.522,0-0.984-0.177-1.386-0.532c-0.403-0.354-0.603-0.896-0.603-1.624
		c0-0.681,0.204-1.2,0.613-1.558C234.856,300.003,235.289,299.824,235.746,299.824z M236.962,301.969
		c0-0.364-0.117-0.658-0.353-0.882c-0.235-0.224-0.519-0.336-0.853-0.336c-0.327,0-0.599,0.122-0.818,0.366
		s-0.329,0.528-0.329,0.851c0,0.303,0.105,0.588,0.314,0.856c0.209,0.268,0.492,0.402,0.853,0.402c0.339,0,0.622-0.117,0.847-0.351
		C236.849,302.644,236.962,302.341,236.962,301.969z"/>
</g>
<polyline class="st2" points="256.78,83.759 281.98,83.759 349.447,159.413 "/>
<polyline class="st2" points="256.78,218.288 281.98,218.288 349.447,293.942 362.752,307.249 370.736,315.234 "/>
</svg>